%!PS-Adobe-3.0 EPSF-3.0
%%Creator: (MATLAB, The Mathworks, Inc. Version 9.2.0.538062 \(R2017a\). Operating System: Linux)
%%Title: /home/cassio/Dropbox/RWA/IFIP_LANC_RWAG18/figs/result2/CLARA/clara.eps
%%CreationDate: 2018-09-16T19:59:21
%%Pages: (atend)
%%BoundingBox: 0 0 1440 751
%%LanguageLevel: 3
%%EndComments
%%BeginProlog
%%BeginResource: procset (Apache XML Graphics Std ProcSet) 1.2 0
%%Version: 1.2 0
%%Copyright: (Copyright 2001-2003,2010 The Apache Software Foundation. License terms: http://www.apache.org/licenses/LICENSE-2.0)
/bd{bind def}bind def
/ld{load def}bd
/GR/grestore ld
/M/moveto ld
/LJ/setlinejoin ld
/C/curveto ld
/f/fill ld
/LW/setlinewidth ld
/GC/setgray ld
/t/show ld
/N/newpath ld
/CT/concat ld
/cp/closepath ld
/S/stroke ld
/L/lineto ld
/CC/setcmykcolor ld
/A/ashow ld
/GS/gsave ld
/RC/setrgbcolor ld
/RM/rmoveto ld
/ML/setmiterlimit ld
/re {4 2 roll M
1 index 0 rlineto
0 exch rlineto
neg 0 rlineto
cp } bd
/_ctm matrix def
/_tm matrix def
/BT { _ctm currentmatrix pop matrix _tm copy pop 0 0 moveto } bd
/ET { _ctm setmatrix } bd
/iTm { _ctm setmatrix _tm concat } bd
/Tm { _tm astore pop iTm 0 0 moveto } bd
/ux 0.0 def
/uy 0.0 def
/F {
  /Tp exch def
  /Tf exch def
  Tf findfont Tp scalefont setfont
  /cf Tf def  /cs Tp def
} bd
/ULS {currentpoint /uy exch def /ux exch def} bd
/ULE {
  /Tcx currentpoint pop def
  gsave
  newpath
  cf findfont cs scalefont dup
  /FontMatrix get 0 get /Ts exch def /FontInfo get dup
  /UnderlinePosition get Ts mul /To exch def
  /UnderlineThickness get Ts mul /Tt exch def
  ux uy To add moveto  Tcx uy To add lineto
  Tt setlinewidth stroke
  grestore
} bd
/OLE {
  /Tcx currentpoint pop def
  gsave
  newpath
  cf findfont cs scalefont dup
  /FontMatrix get 0 get /Ts exch def /FontInfo get dup
  /UnderlinePosition get Ts mul /To exch def
  /UnderlineThickness get Ts mul /Tt exch def
  ux uy To add cs add moveto Tcx uy To add cs add lineto
  Tt setlinewidth stroke
  grestore
} bd
/SOE {
  /Tcx currentpoint pop def
  gsave
  newpath
  cf findfont cs scalefont dup
  /FontMatrix get 0 get /Ts exch def /FontInfo get dup
  /UnderlinePosition get Ts mul /To exch def
  /UnderlineThickness get Ts mul /Tt exch def
  ux uy To add cs 10 mul 26 idiv add moveto Tcx uy To add cs 10 mul 26 idiv add lineto
  Tt setlinewidth stroke
  grestore
} bd
/QT {
/Y22 exch store
/X22 exch store
/Y21 exch store
/X21 exch store
currentpoint
/Y21 load 2 mul add 3 div exch
/X21 load 2 mul add 3 div exch
/X21 load 2 mul /X22 load add 3 div
/Y21 load 2 mul /Y22 load add 3 div
/X22 load /Y22 load curveto
} bd
/SSPD {
dup length /d exch dict def
{
/v exch def
/k exch def
currentpagedevice k known {
/cpdv currentpagedevice k get def
v cpdv ne {
/upd false def
/nullv v type /nulltype eq def
/nullcpdv cpdv type /nulltype eq def
nullv nullcpdv or
{
/upd true def
} {
/sametype v type cpdv type eq def
sametype {
v type /arraytype eq {
/vlen v length def
/cpdvlen cpdv length def
vlen cpdvlen eq {
0 1 vlen 1 sub {
/i exch def
/obj v i get def
/cpdobj cpdv i get def
obj cpdobj ne {
/upd true def
exit
} if
} for
} {
/upd true def
} ifelse
} {
v type /dicttype eq {
v {
/dv exch def
/dk exch def
/cpddv cpdv dk get def
dv cpddv ne {
/upd true def
exit
} if
} forall
} {
/upd true def
} ifelse
} ifelse
} if
} ifelse
upd true eq {
d k v put
} if
} if
} if
} forall
d length 0 gt {
d setpagedevice
} if
} bd
/RE { % /NewFontName [NewEncodingArray] /FontName RE -
  findfont dup length dict begin
  {
    1 index /FID ne
    {def} {pop pop} ifelse
  } forall
  /Encoding exch def
  /FontName 1 index def
  currentdict definefont pop
  end
} bind def
%%EndResource
%%BeginResource: procset (Apache XML Graphics EPS ProcSet) 1.0 0
%%Version: 1.0 0
%%Copyright: (Copyright 2002-2003 The Apache Software Foundation. License terms: http://www.apache.org/licenses/LICENSE-2.0)
/BeginEPSF { %def
/b4_Inc_state save def         % Save state for cleanup
/dict_count countdictstack def % Count objects on dict stack
/op_count count 1 sub def      % Count objects on operand stack
userdict begin                 % Push userdict on dict stack
/showpage { } def              % Redefine showpage, { } = null proc
0 setgray 0 setlinecap         % Prepare graphics state
1 setlinewidth 0 setlinejoin
10 setmiterlimit [ ] 0 setdash newpath
/languagelevel where           % If level not equal to 1 then
{pop languagelevel             % set strokeadjust and
1 ne                           % overprint to their defaults.
{false setstrokeadjust false setoverprint
} if
} if
} bd
/EndEPSF { %def
count op_count sub {pop} repeat            % Clean up stacks
countdictstack dict_count sub {end} repeat
b4_Inc_state restore
} bd
%%EndResource
%FOPBeginFontDict
%%IncludeResource: font Courier-Bold
%%IncludeResource: font Helvetica
%%IncludeResource: font Courier-BoldOblique
%%IncludeResource: font Courier-Oblique
%%IncludeResource: font Times-Roman
%%IncludeResource: font Helvetica-BoldOblique
%%IncludeResource: font Helvetica-Bold
%%IncludeResource: font Helvetica-Oblique
%%IncludeResource: font Times-BoldItalic
%%IncludeResource: font Courier
%%IncludeResource: font Times-Italic
%%IncludeResource: font Times-Bold
%%IncludeResource: font Symbol
%%IncludeResource: font ZapfDingbats
%FOPEndFontDict
%%BeginResource: encoding WinAnsiEncoding
/WinAnsiEncoding [
/.notdef /.notdef /.notdef /.notdef /.notdef
/.notdef /.notdef /.notdef /.notdef /.notdef
/.notdef /.notdef /.notdef /.notdef /.notdef
/.notdef /.notdef /.notdef /.notdef /.notdef
/.notdef /.notdef /.notdef /.notdef /.notdef
/.notdef /.notdef /.notdef /.notdef /.notdef
/.notdef /.notdef /space /exclam /quotedbl
/numbersign /dollar /percent /ampersand /quotesingle
/parenleft /parenright /asterisk /plus /comma
/hyphen /period /slash /zero /one
/two /three /four /five /six
/seven /eight /nine /colon /semicolon
/less /equal /greater /question /at
/A /B /C /D /E
/F /G /H /I /J
/K /L /M /N /O
/P /Q /R /S /T
/U /V /W /X /Y
/Z /bracketleft /backslash /bracketright /asciicircum
/underscore /quoteleft /a /b /c
/d /e /f /g /h
/i /j /k /l /m
/n /o /p /q /r
/s /t /u /v /w
/x /y /z /braceleft /bar
/braceright /asciitilde /bullet /Euro /bullet
/quotesinglbase /florin /quotedblbase /ellipsis /dagger
/daggerdbl /circumflex /perthousand /Scaron /guilsinglleft
/OE /bullet /Zcaron /bullet /bullet
/quoteleft /quoteright /quotedblleft /quotedblright /bullet
/endash /emdash /asciitilde /trademark /scaron
/guilsinglright /oe /bullet /zcaron /Ydieresis
/space /exclamdown /cent /sterling /currency
/yen /brokenbar /section /dieresis /copyright
/ordfeminine /guillemotleft /logicalnot /sfthyphen /registered
/macron /degree /plusminus /twosuperior /threesuperior
/acute /mu /paragraph /middot /cedilla
/onesuperior /ordmasculine /guillemotright /onequarter /onehalf
/threequarters /questiondown /Agrave /Aacute /Acircumflex
/Atilde /Adieresis /Aring /AE /Ccedilla
/Egrave /Eacute /Ecircumflex /Edieresis /Igrave
/Iacute /Icircumflex /Idieresis /Eth /Ntilde
/Ograve /Oacute /Ocircumflex /Otilde /Odieresis
/multiply /Oslash /Ugrave /Uacute /Ucircumflex
/Udieresis /Yacute /Thorn /germandbls /agrave
/aacute /acircumflex /atilde /adieresis /aring
/ae /ccedilla /egrave /eacute /ecircumflex
/edieresis /igrave /iacute /icircumflex /idieresis
/eth /ntilde /ograve /oacute /ocircumflex
/otilde /odieresis /divide /oslash /ugrave
/uacute /ucircumflex /udieresis /yacute /thorn
/ydieresis
] def
%%EndResource
%FOPBeginFontReencode
/Courier-Bold findfont
dup length dict begin
  {1 index /FID ne {def} {pop pop} ifelse} forall
  /Encoding WinAnsiEncoding def
  currentdict
end
/Courier-Bold exch definefont pop
/Helvetica findfont
dup length dict begin
  {1 index /FID ne {def} {pop pop} ifelse} forall
  /Encoding WinAnsiEncoding def
  currentdict
end
/Helvetica exch definefont pop
/Courier-BoldOblique findfont
dup length dict begin
  {1 index /FID ne {def} {pop pop} ifelse} forall
  /Encoding WinAnsiEncoding def
  currentdict
end
/Courier-BoldOblique exch definefont pop
/Courier-Oblique findfont
dup length dict begin
  {1 index /FID ne {def} {pop pop} ifelse} forall
  /Encoding WinAnsiEncoding def
  currentdict
end
/Courier-Oblique exch definefont pop
/Times-Roman findfont
dup length dict begin
  {1 index /FID ne {def} {pop pop} ifelse} forall
  /Encoding WinAnsiEncoding def
  currentdict
end
/Times-Roman exch definefont pop
/Helvetica-BoldOblique findfont
dup length dict begin
  {1 index /FID ne {def} {pop pop} ifelse} forall
  /Encoding WinAnsiEncoding def
  currentdict
end
/Helvetica-BoldOblique exch definefont pop
/Helvetica-Bold findfont
dup length dict begin
  {1 index /FID ne {def} {pop pop} ifelse} forall
  /Encoding WinAnsiEncoding def
  currentdict
end
/Helvetica-Bold exch definefont pop
/Helvetica-Oblique findfont
dup length dict begin
  {1 index /FID ne {def} {pop pop} ifelse} forall
  /Encoding WinAnsiEncoding def
  currentdict
end
/Helvetica-Oblique exch definefont pop
/Times-BoldItalic findfont
dup length dict begin
  {1 index /FID ne {def} {pop pop} ifelse} forall
  /Encoding WinAnsiEncoding def
  currentdict
end
/Times-BoldItalic exch definefont pop
/Courier findfont
dup length dict begin
  {1 index /FID ne {def} {pop pop} ifelse} forall
  /Encoding WinAnsiEncoding def
  currentdict
end
/Courier exch definefont pop
/Times-Italic findfont
dup length dict begin
  {1 index /FID ne {def} {pop pop} ifelse} forall
  /Encoding WinAnsiEncoding def
  currentdict
end
/Times-Italic exch definefont pop
/Times-Bold findfont
dup length dict begin
  {1 index /FID ne {def} {pop pop} ifelse} forall
  /Encoding WinAnsiEncoding def
  currentdict
end
/Times-Bold exch definefont pop
%FOPEndFontReencode
%%EndProlog
%%Page: 1 1
%%PageBoundingBox: 0 0 1440 751
%%BeginPageSetup
[1 0 0 -1 0 751] CT
%%EndPageSetup
GS
[1.05417 0 0 1.05442 0 0.25] CT
1 GC
N
0 0 1366 712 re
f
GR
GS
[1.05417 0 0 1.05442 0 0.25] CT
1 GC
N
0 0 1366 712 re
f
GR
GS
[1.05417 0 0 1.05442 0 0.25] CT
1 GC
N
178 624 M
1236 624 L
1236 53 L
178 53 L
cp
f
GR
GS
[1.05417 0 0 1.05442 0 0.25] CT
0.873 GC
1 LJ
0.474 LW
N
257.17 624 M
257.17 53 L
S
GR
GS
[1.05417 0 0 1.05442 0 0.25] CT
0.873 GC
1 LJ
0.474 LW
N
365.129 624 M
365.129 53 L
S
GR
GS
[1.05417 0 0 1.05442 0 0.25] CT
0.873 GC
1 LJ
0.474 LW
N
473.088 624 M
473.088 53 L
S
GR
GS
[1.05417 0 0 1.05442 0 0.25] CT
0.873 GC
1 LJ
0.474 LW
N
581.048 624 M
581.048 53 L
S
GR
GS
[1.05417 0 0 1.05442 0 0.25] CT
0.873 GC
1 LJ
0.474 LW
N
689.007 624 M
689.007 53 L
S
GR
GS
[1.05417 0 0 1.05442 0 0.25] CT
0.873 GC
1 LJ
0.474 LW
N
796.966 624 M
796.966 53 L
S
GR
GS
[1.05417 0 0 1.05442 0 0.25] CT
0.873 GC
1 LJ
0.474 LW
N
904.925 624 M
904.925 53 L
S
GR
GS
[1.05417 0 0 1.05442 0 0.25] CT
0.873 GC
1 LJ
0.474 LW
N
1012.884 624 M
1012.884 53 L
S
GR
GS
[1.05417 0 0 1.05442 0 0.25] CT
0.873 GC
1 LJ
0.474 LW
N
1120.844 624 M
1120.844 53 L
S
GR
GS
[1.05417 0 0 1.05442 0 0.25] CT
0.873 GC
1 LJ
0.474 LW
N
1228.803 624 M
1228.803 53 L
S
GR
GS
[1.05417 0 0 1.05442 0 0.25] CT
0.873 GC
1 LJ
0.474 LW
N
1236 610.405 M
178 610.405 L
S
GR
GS
[1.05417 0 0 1.05442 0 0.25] CT
0.873 GC
1 LJ
0.474 LW
N
1236 542.429 M
178 542.429 L
S
GR
GS
[1.05417 0 0 1.05442 0 0.25] CT
0.873 GC
1 LJ
0.474 LW
N
1236 474.452 M
178 474.452 L
S
GR
GS
[1.05417 0 0 1.05442 0 0.25] CT
0.873 GC
1 LJ
0.474 LW
N
1236 406.476 M
178 406.476 L
S
GR
GS
[1.05417 0 0 1.05442 0 0.25] CT
0.873 GC
1 LJ
0.474 LW
N
1236 338.5 M
178 338.5 L
S
GR
GS
[1.05417 0 0 1.05442 0 0.25] CT
0.873 GC
1 LJ
0.474 LW
N
1236 270.524 M
178 270.524 L
S
GR
GS
[1.05417 0 0 1.05442 0 0.25] CT
0.873 GC
1 LJ
0.474 LW
N
1236 202.548 M
178 202.548 L
S
GR
GS
[1.05417 0 0 1.05442 0 0.25] CT
0.873 GC
1 LJ
0.474 LW
N
1236 134.571 M
178 134.571 L
S
GR
GS
[1.05417 0 0 1.05442 0 0.25] CT
0.873 GC
1 LJ
0.474 LW
N
1236 66.595 M
178 66.595 L
S
GR
GS
[1.05417 0 0 1.05442 0 0.25] CT
0.149 GC
2 setlinecap
1 LJ
0.474 LW
N
178 624 M
1236 624 L
S
GR
GS
[1.05417 0 0 1.05442 0 0.25] CT
0.149 GC
2 setlinecap
1 LJ
0.474 LW
N
178 53 M
1236 53 L
S
GR
GS
[1.05417 0 0 1.05442 0 0.25] CT
0.149 GC
2 setlinecap
1 LJ
0.474 LW
N
257.17 624 M
257.17 613.42 L
S
GR
GS
[1.05417 0 0 1.05442 0 0.25] CT
0.149 GC
2 setlinecap
1 LJ
0.474 LW
N
365.129 624 M
365.129 613.42 L
S
GR
GS
[1.05417 0 0 1.05442 0 0.25] CT
0.149 GC
2 setlinecap
1 LJ
0.474 LW
N
473.088 624 M
473.088 613.42 L
S
GR
GS
[1.05417 0 0 1.05442 0 0.25] CT
0.149 GC
2 setlinecap
1 LJ
0.474 LW
N
581.048 624 M
581.048 613.42 L
S
GR
GS
[1.05417 0 0 1.05442 0 0.25] CT
0.149 GC
2 setlinecap
1 LJ
0.474 LW
N
689.007 624 M
689.007 613.42 L
S
GR
GS
[1.05417 0 0 1.05442 0 0.25] CT
0.149 GC
2 setlinecap
1 LJ
0.474 LW
N
796.966 624 M
796.966 613.42 L
S
GR
GS
[1.05417 0 0 1.05442 0 0.25] CT
0.149 GC
2 setlinecap
1 LJ
0.474 LW
N
904.925 624 M
904.925 613.42 L
S
GR
GS
[1.05417 0 0 1.05442 0 0.25] CT
0.149 GC
2 setlinecap
1 LJ
0.474 LW
N
1012.884 624 M
1012.884 613.42 L
S
GR
GS
[1.05417 0 0 1.05442 0 0.25] CT
0.149 GC
2 setlinecap
1 LJ
0.474 LW
N
1120.844 624 M
1120.844 613.42 L
S
GR
GS
[1.05417 0 0 1.05442 0 0.25] CT
0.149 GC
2 setlinecap
1 LJ
0.474 LW
N
1228.803 624 M
1228.803 613.42 L
S
GR
GS
[1.05417 0 0 1.05442 0 0.25] CT
0.149 GC
2 setlinecap
1 LJ
0.474 LW
N
257.17 53 M
257.17 63.58 L
S
GR
GS
[1.05417 0 0 1.05442 0 0.25] CT
0.149 GC
2 setlinecap
1 LJ
0.474 LW
N
365.129 53 M
365.129 63.58 L
S
GR
GS
[1.05417 0 0 1.05442 0 0.25] CT
0.149 GC
2 setlinecap
1 LJ
0.474 LW
N
473.088 53 M
473.088 63.58 L
S
GR
GS
[1.05417 0 0 1.05442 0 0.25] CT
0.149 GC
2 setlinecap
1 LJ
0.474 LW
N
581.048 53 M
581.048 63.58 L
S
GR
GS
[1.05417 0 0 1.05442 0 0.25] CT
0.149 GC
2 setlinecap
1 LJ
0.474 LW
N
689.007 53 M
689.007 63.58 L
S
GR
GS
[1.05417 0 0 1.05442 0 0.25] CT
0.149 GC
2 setlinecap
1 LJ
0.474 LW
N
796.966 53 M
796.966 63.58 L
S
GR
GS
[1.05417 0 0 1.05442 0 0.25] CT
0.149 GC
2 setlinecap
1 LJ
0.474 LW
N
904.925 53 M
904.925 63.58 L
S
GR
GS
[1.05417 0 0 1.05442 0 0.25] CT
0.149 GC
2 setlinecap
1 LJ
0.474 LW
N
1012.884 53 M
1012.884 63.58 L
S
GR
GS
[1.05417 0 0 1.05442 0 0.25] CT
0.149 GC
2 setlinecap
1 LJ
0.474 LW
N
1120.844 53 M
1120.844 63.58 L
S
GR
GS
[1.05417 0 0 1.05442 0 0.25] CT
0.149 GC
2 setlinecap
1 LJ
0.474 LW
N
1228.803 53 M
1228.803 63.58 L
S
GR
GS
[1.05417 0 0 1.05442 271.10169 667.02391] CT
0.149 GC
/Helvetica 28.458 F
GS
[1 0 0 1 0 0] CT
-9 26 moveto 
1 -1 scale
(3) t 
GR
GR
GS
[1.05417 0 0 1.05442 384.9093 667.02391] CT
0.149 GC
/Helvetica 28.458 F
GS
[1 0 0 1 0 0] CT
-9 26 moveto 
1 -1 scale
(6) t 
GR
GR
GS
[1.05417 0 0 1.05442 498.71695 667.02391] CT
0.149 GC
/Helvetica 28.458 F
GS
[1 0 0 1 0 0] CT
-9 26 moveto 
1 -1 scale
(9) t 
GR
GR
GS
[1.05417 0 0 1.05442 612.52456 667.02391] CT
0.149 GC
/Helvetica 28.458 F
GS
[1 0 0 1 0 0] CT
-18 26 moveto 
1 -1 scale
(12) t 
GR
GR
GS
[1.05417 0 0 1.05442 726.33218 667.02391] CT
0.149 GC
/Helvetica 28.458 F
GS
[1 0 0 1 0 0] CT
-18 26 moveto 
1 -1 scale
(15) t 
GR
GR
GS
[1.05417 0 0 1.05442 840.13986 667.02391] CT
0.149 GC
/Helvetica 28.458 F
GS
[1 0 0 1 0 0] CT
-18 26 moveto 
1 -1 scale
(18) t 
GR
GR
GS
[1.05417 0 0 1.05442 953.94747 667.02391] CT
0.149 GC
/Helvetica 28.458 F
GS
[1 0 0 1 0 0] CT
-18 26 moveto 
1 -1 scale
(21) t 
GR
GR
GS
[1.05417 0 0 1.05442 1067.75509 667.02391] CT
0.149 GC
/Helvetica 28.458 F
GS
[1 0 0 1 0 0] CT
-18 26 moveto 
1 -1 scale
(24) t 
GR
GR
GS
[1.05417 0 0 1.05442 1181.5627 667.02391] CT
0.149 GC
/Helvetica 28.458 F
GS
[1 0 0 1 0 0] CT
-18 26 moveto 
1 -1 scale
(27) t 
GR
GR
GS
[1.05417 0 0 1.05442 1295.37038 667.02391] CT
0.149 GC
/Helvetica 28.458 F
GS
[1 0 0 1 0 0] CT
-18 26 moveto 
1 -1 scale
(30) t 
GR
GR
GS
[1.05417 0 0 1.05442 745.30066 703.55091] CT
0.149 GC
/Helvetica 37.944 F
GS
[1 0 0 1 0 0] CT
-138 36 moveto 
1 -1 scale
(Load \(Erlangs\)) t 
GR
GR
GS
[1.05417 0 0 1.05442 0 0.25] CT
0.149 GC
2 setlinecap
1 LJ
0.474 LW
N
178 624 M
178 53 L
S
GR
GS
[1.05417 0 0 1.05442 0 0.25] CT
0.149 GC
2 setlinecap
1 LJ
0.474 LW
N
1236 624 M
1236 53 L
S
GR
GS
[1.05417 0 0 1.05442 0 0.25] CT
0.149 GC
2 setlinecap
1 LJ
0.474 LW
N
178 610.405 M
188.58 610.405 L
S
GR
GS
[1.05417 0 0 1.05442 0 0.25] CT
0.149 GC
2 setlinecap
1 LJ
0.474 LW
N
178 542.429 M
188.58 542.429 L
S
GR
GS
[1.05417 0 0 1.05442 0 0.25] CT
0.149 GC
2 setlinecap
1 LJ
0.474 LW
N
178 474.452 M
188.58 474.452 L
S
GR
GS
[1.05417 0 0 1.05442 0 0.25] CT
0.149 GC
2 setlinecap
1 LJ
0.474 LW
N
178 406.476 M
188.58 406.476 L
S
GR
GS
[1.05417 0 0 1.05442 0 0.25] CT
0.149 GC
2 setlinecap
1 LJ
0.474 LW
N
178 338.5 M
188.58 338.5 L
S
GR
GS
[1.05417 0 0 1.05442 0 0.25] CT
0.149 GC
2 setlinecap
1 LJ
0.474 LW
N
178 270.524 M
188.58 270.524 L
S
GR
GS
[1.05417 0 0 1.05442 0 0.25] CT
0.149 GC
2 setlinecap
1 LJ
0.474 LW
N
178 202.548 M
188.58 202.548 L
S
GR
GS
[1.05417 0 0 1.05442 0 0.25] CT
0.149 GC
2 setlinecap
1 LJ
0.474 LW
N
178 134.571 M
188.58 134.571 L
S
GR
GS
[1.05417 0 0 1.05442 0 0.25] CT
0.149 GC
2 setlinecap
1 LJ
0.474 LW
N
178 66.595 M
188.58 66.595 L
S
GR
GS
[1.05417 0 0 1.05442 0 0.25] CT
0.149 GC
2 setlinecap
1 LJ
0.474 LW
N
1236 610.405 M
1225.42 610.405 L
S
GR
GS
[1.05417 0 0 1.05442 0 0.25] CT
0.149 GC
2 setlinecap
1 LJ
0.474 LW
N
1236 542.429 M
1225.42 542.429 L
S
GR
GS
[1.05417 0 0 1.05442 0 0.25] CT
0.149 GC
2 setlinecap
1 LJ
0.474 LW
N
1236 474.452 M
1225.42 474.452 L
S
GR
GS
[1.05417 0 0 1.05442 0 0.25] CT
0.149 GC
2 setlinecap
1 LJ
0.474 LW
N
1236 406.476 M
1225.42 406.476 L
S
GR
GS
[1.05417 0 0 1.05442 0 0.25] CT
0.149 GC
2 setlinecap
1 LJ
0.474 LW
N
1236 338.5 M
1225.42 338.5 L
S
GR
GS
[1.05417 0 0 1.05442 0 0.25] CT
0.149 GC
2 setlinecap
1 LJ
0.474 LW
N
1236 270.524 M
1225.42 270.524 L
S
GR
GS
[1.05417 0 0 1.05442 0 0.25] CT
0.149 GC
2 setlinecap
1 LJ
0.474 LW
N
1236 202.548 M
1225.42 202.548 L
S
GR
GS
[1.05417 0 0 1.05442 0 0.25] CT
0.149 GC
2 setlinecap
1 LJ
0.474 LW
N
1236 134.571 M
1225.42 134.571 L
S
GR
GS
[1.05417 0 0 1.05442 0 0.25] CT
0.149 GC
2 setlinecap
1 LJ
0.474 LW
N
1236 66.595 M
1225.42 66.595 L
S
GR
GS
[1.05417 0 0 1.05442 178.83162 643.87555] CT
0.149 GC
/Helvetica 28.458 F
GS
[1 0 0 1 0 0] CT
-18 9.5 moveto 
1 -1 scale
(0) t 
GR
GR
GS
[1.05417 0 0 1.05442 178.83162 572.19981] CT
0.149 GC
/Helvetica 28.458 F
GS
[1 0 0 1 0 0] CT
-36 9.5 moveto 
1 -1 scale
(10) t 
GR
GR
GS
[1.05417 0 0 1.05442 178.83162 500.52406] CT
0.149 GC
/Helvetica 28.458 F
GS
[1 0 0 1 0 0] CT
-36 9.5 moveto 
1 -1 scale
(20) t 
GR
GR
GS
[1.05417 0 0 1.05442 178.83162 428.84832] CT
0.149 GC
/Helvetica 28.458 F
GS
[1 0 0 1 0 0] CT
-36 9.5 moveto 
1 -1 scale
(30) t 
GR
GR
GS
[1.05417 0 0 1.05442 178.83162 357.17258] CT
0.149 GC
/Helvetica 28.458 F
GS
[1 0 0 1 0 0] CT
-36 9.5 moveto 
1 -1 scale
(40) t 
GR
GR
GS
[1.05417 0 0 1.05442 178.83162 285.49683] CT
0.149 GC
/Helvetica 28.458 F
GS
[1 0 0 1 0 0] CT
-36 9.5 moveto 
1 -1 scale
(50) t 
GR
GR
GS
[1.05417 0 0 1.05442 178.83162 213.82111] CT
0.149 GC
/Helvetica 28.458 F
GS
[1 0 0 1 0 0] CT
-36 9.5 moveto 
1 -1 scale
(60) t 
GR
GR
GS
[1.05417 0 0 1.05442 178.83162 142.14536] CT
0.149 GC
/Helvetica 28.458 F
GS
[1 0 0 1 0 0] CT
-36 9.5 moveto 
1 -1 scale
(70) t 
GR
GR
GS
[1.05417 0 0 1.05442 178.83162 70.46963] CT
0.149 GC
/Helvetica 28.458 F
GS
[1 0 0 1 0 0] CT
-36 9.5 moveto 
1 -1 scale
(80) t 
GR
GR
GS
[0 -1.05442 1.05417 0 136.66471 357.17232] CT
0.149 GC
/Helvetica 37.944 F
GS
[1 0 0 1 0 0] CT
-227 -9 moveto 
1 -1 scale
(Blocking Probability \(%\)) t 
GR
GR
GS
[1.05417 0 0 1.05442 0 0.25] CT
[10 6] 0 setdash
2 LJ
1.897 LW
N
185.197 606.326 M
221.184 604.513 L
257.17 600.888 L
293.156 581.402 L
329.143 570.525 L
365.129 525.208 L
401.116 476.265 L
437.102 465.842 L
473.088 396.053 L
509.075 377.02 L
545.061 353.002 L
581.048 329.89 L
617.034 306.325 L
653.02 262.82 L
689.007 268.711 L
724.993 236.083 L
760.98 225.206 L
796.966 231.098 L
832.952 199.375 L
868.939 188.952 L
904.925 178.076 L
940.912 182.155 L
976.898 176.264 L
1012.884 153.605 L
1048.871 158.137 L
1084.857 135.931 L
1120.844 149.979 L
1156.83 130.946 L
1192.816 121.883 L
1228.803 118.71 L
S
GR
GS
[1.05417 0 0 1.05442 195.22993 639.57496] CT
N
0 -10.116 M
-8.76 5.058 L
8.76 5.058 L
cp
f
GR
GS
[1.05417 0 0 1.05442 195.22993 639.57496] CT
10.0 ML
1.897 LW
N
0 -10.116 M
-8.76 5.058 L
8.76 5.058 L
cp
S
GR
GS
[1.05417 0 0 1.05442 233.1658 637.66363] CT
N
/f-18803871{0 -10.116 M
-8.76 5.058 L
8.76 5.058 L
cp}def
f-18803871
f
GR
GS
[1.05417 0 0 1.05442 233.1658 637.66363] CT
10.0 ML
1.897 LW
N
0 -10.116 M
-8.76 5.058 L
8.76 5.058 L
cp
S
GR
GS
[1.05417 0 0 1.05442 271.10169 633.84095] CT
N
f-18803871
f
GR
GS
[1.05417 0 0 1.05442 271.10169 633.84095] CT
10.0 ML
1.897 LW
N
0 -10.116 M
-8.76 5.058 L
8.76 5.058 L
cp
S
GR
GS
[1.05417 0 0 1.05442 309.03756 613.2939] CT
N
f-18803871
f
GR
GS
[1.05417 0 0 1.05442 309.03756 613.2939] CT
10.0 ML
1.897 LW
N
0 -10.116 M
-8.76 5.058 L
8.76 5.058 L
cp
S
GR
GS
[1.05417 0 0 1.05442 346.97343 601.82575] CT
N
f-18803871
f
GR
GS
[1.05417 0 0 1.05442 346.97343 601.82575] CT
10.0 ML
1.897 LW
N
0 -10.116 M
-8.76 5.058 L
8.76 5.058 L
cp
S
GR
GS
[1.05417 0 0 1.05442 384.9093 554.04195] CT
N
f-18803871
f
GR
GS
[1.05417 0 0 1.05442 384.9093 554.04195] CT
10.0 ML
1.897 LW
N
0 -10.116 M
-8.76 5.058 L
8.76 5.058 L
cp
S
GR
GS
[1.05417 0 0 1.05442 422.84517 502.4354] CT
N
f-18803871
f
GR
GS
[1.05417 0 0 1.05442 422.84517 502.4354] CT
10.0 ML
1.897 LW
N
0 -10.116 M
-8.76 5.058 L
8.76 5.058 L
cp
S
GR
GS
[1.05417 0 0 1.05442 460.78108 491.44513] CT
N
f-18803871
f
GR
GS
[1.05417 0 0 1.05442 460.78108 491.44513] CT
10.0 ML
1.897 LW
N
0 -10.116 M
-8.76 5.058 L
8.76 5.058 L
cp
S
GR
GS
[1.05417 0 0 1.05442 498.71695 417.85805] CT
N
f-18803871
f
GR
GS
[1.05417 0 0 1.05442 498.71695 417.85805] CT
10.0 ML
1.897 LW
N
0 -10.116 M
-8.76 5.058 L
8.76 5.058 L
cp
S
GR
GS
[1.05417 0 0 1.05442 536.65282 397.78882] CT
N
f-18803871
f
GR
GS
[1.05417 0 0 1.05442 536.65282 397.78882] CT
10.0 ML
1.897 LW
N
0 -10.116 M
-8.76 5.058 L
8.76 5.058 L
cp
S
GR
GS
[1.05417 0 0 1.05442 574.58869 372.4634] CT
N
f-18803871
f
GR
GS
[1.05417 0 0 1.05442 574.58869 372.4634] CT
10.0 ML
1.897 LW
N
0 -10.116 M
-8.76 5.058 L
8.76 5.058 L
cp
S
GR
GS
[1.05417 0 0 1.05442 612.52456 348.09365] CT
N
f-18803871
f
GR
GS
[1.05417 0 0 1.05442 612.52456 348.09365] CT
10.0 ML
1.897 LW
N
0 -10.116 M
-8.76 5.058 L
8.76 5.058 L
cp
S
GR
GS
[1.05417 0 0 1.05442 650.46044 323.24607] CT
N
f-18803871
f
GR
GS
[1.05417 0 0 1.05442 650.46044 323.24607] CT
10.0 ML
1.897 LW
N
0 -10.116 M
-8.76 5.058 L
8.76 5.058 L
cp
S
GR
GS
[1.05417 0 0 1.05442 688.39631 277.37357] CT
N
f-18803871
f
GR
GS
[1.05417 0 0 1.05442 688.39631 277.37357] CT
10.0 ML
1.897 LW
N
0 -10.116 M
-8.76 5.058 L
8.76 5.058 L
cp
S
GR
GS
[1.05417 0 0 1.05442 726.33218 283.5855] CT
N
f-18803871
f
GR
GS
[1.05417 0 0 1.05442 726.33218 283.5855] CT
10.0 ML
1.897 LW
N
0 -10.116 M
-8.76 5.058 L
8.76 5.058 L
cp
S
GR
GS
[1.05417 0 0 1.05442 764.26811 249.18114] CT
N
f-18803871
f
GR
GS
[1.05417 0 0 1.05442 764.26811 249.18114] CT
10.0 ML
1.897 LW
N
0 -10.116 M
-8.76 5.058 L
8.76 5.058 L
cp
S
GR
GS
[1.05417 0 0 1.05442 802.20399 237.71301] CT
N
f-18803871
f
GR
GS
[1.05417 0 0 1.05442 802.20399 237.71301] CT
10.0 ML
1.897 LW
N
0 -10.116 M
-8.76 5.058 L
8.76 5.058 L
cp
S
GR
GS
[1.05417 0 0 1.05442 840.13986 243.92492] CT
N
f-18803871
f
GR
GS
[1.05417 0 0 1.05442 840.13986 243.92492] CT
10.0 ML
1.897 LW
N
0 -10.116 M
-8.76 5.058 L
8.76 5.058 L
cp
S
GR
GS
[1.05417 0 0 1.05442 878.07573 210.47623] CT
N
f-18803871
f
GR
GS
[1.05417 0 0 1.05442 878.07573 210.47623] CT
10.0 ML
1.897 LW
N
0 -10.116 M
-8.76 5.058 L
8.76 5.058 L
cp
S
GR
GS
[1.05417 0 0 1.05442 916.0116 199.48595] CT
N
f-18803871
f
GR
GS
[1.05417 0 0 1.05442 916.0116 199.48595] CT
10.0 ML
1.897 LW
N
0 -10.116 M
-8.76 5.058 L
8.76 5.058 L
cp
S
GR
GS
[1.05417 0 0 1.05442 953.94747 188.01785] CT
N
f-18803871
f
GR
GS
[1.05417 0 0 1.05442 953.94747 188.01785] CT
10.0 ML
1.897 LW
N
0 -10.116 M
-8.76 5.058 L
8.76 5.058 L
cp
S
GR
GS
[1.05417 0 0 1.05442 991.88334 192.31837] CT
N
f-18803871
f
GR
GS
[1.05417 0 0 1.05442 991.88334 192.31837] CT
10.0 ML
1.897 LW
N
0 -10.116 M
-8.76 5.058 L
8.76 5.058 L
cp
S
GR
GS
[1.05417 0 0 1.05442 1029.81921 186.1065] CT
N
f-18803871
f
GR
GS
[1.05417 0 0 1.05442 1029.81921 186.1065] CT
10.0 ML
1.897 LW
N
0 -10.116 M
-8.76 5.058 L
8.76 5.058 L
cp
S
GR
GS
[1.05417 0 0 1.05442 1067.75509 162.21459] CT
N
f-18803871
f
GR
GS
[1.05417 0 0 1.05442 1067.75509 162.21459] CT
10.0 ML
1.897 LW
N
0 -10.116 M
-8.76 5.058 L
8.76 5.058 L
cp
S
GR
GS
[1.05417 0 0 1.05442 1105.69096 166.99295] CT
N
f-18803871
f
GR
GS
[1.05417 0 0 1.05442 1105.69096 166.99295] CT
10.0 ML
1.897 LW
N
0 -10.116 M
-8.76 5.058 L
8.76 5.058 L
cp
S
GR
GS
[1.05417 0 0 1.05442 1143.62689 143.57887] CT
N
f-18803871
f
GR
GS
[1.05417 0 0 1.05442 1143.62689 143.57887] CT
10.0 ML
1.897 LW
N
0 -10.116 M
-8.76 5.058 L
8.76 5.058 L
cp
S
GR
GS
[1.05417 0 0 1.05442 1181.5627 158.39189] CT
N
f-18803871
f
GR
GS
[1.05417 0 0 1.05442 1181.5627 158.39189] CT
10.0 ML
1.897 LW
N
0 -10.116 M
-8.76 5.058 L
8.76 5.058 L
cp
S
GR
GS
[1.05417 0 0 1.05442 1219.49864 138.32266] CT
N
f-18803871
f
GR
GS
[1.05417 0 0 1.05442 1219.49864 138.32266] CT
10.0 ML
1.897 LW
N
0 -10.116 M
-8.76 5.058 L
8.76 5.058 L
cp
S
GR
GS
[1.05417 0 0 1.05442 1257.43444 128.76588] CT
N
f-18803871
f
GR
GS
[1.05417 0 0 1.05442 1257.43444 128.76588] CT
10.0 ML
1.897 LW
N
0 -10.116 M
-8.76 5.058 L
8.76 5.058 L
cp
S
GR
GS
[1.05417 0 0 1.05442 1295.37038 125.421] CT
N
f-18803871
f
GR
GS
[1.05417 0 0 1.05442 1295.37038 125.421] CT
10.0 ML
1.897 LW
N
0 -10.116 M
-8.76 5.058 L
8.76 5.058 L
cp
S
GR
GS
[1.05417 0 0 1.05442 0 0.25] CT
1 0 1 RC
[10 6] 0 setdash
2 LJ
1.897 LW
N
185.197 604.967 M
221.184 602.701 L
257.17 594.09 L
293.156 576.417 L
329.143 563.275 L
365.129 517.051 L
401.116 469.921 L
437.102 458.591 L
473.088 386.536 L
509.075 369.316 L
545.061 336.234 L
581.048 318.107 L
617.034 294.995 L
653.02 251.037 L
689.007 252.397 L
724.993 227.019 L
760.98 215.69 L
796.966 220.675 L
832.952 196.656 L
868.939 183.514 L
904.925 159.496 L
940.912 176.717 L
976.898 159.949 L
1012.884 138.197 L
1048.871 143.182 L
1084.857 120.07 L
1120.844 133.665 L
1156.83 120.976 L
1192.816 111.913 L
1228.803 103.756 L
S
GR
GS
[1.05417 0 0 1.05442 195.22993 638.14148] CT
1 0 1 RC
10.0 ML
1.897 LW
N
-5.751 -3.32 M
-1.917 -3.32 L
0 -6.64 L
1.917 -3.32 L
5.751 -3.32 L
3.32 0 L
5.751 3.32 L
1.917 3.32 L
0 6.64 L
-1.917 3.32 L
-5.751 3.32 L
-3.32 0 L
cp
S
GR
GS
[1.05417 0 0 1.05442 233.1658 635.75229] CT
1 0 1 RC
10.0 ML
1.897 LW
N
-5.751 -3.32 M
-1.917 -3.32 L
0 -6.64 L
1.917 -3.32 L
5.751 -3.32 L
3.32 0 L
5.751 3.32 L
1.917 3.32 L
0 6.64 L
-1.917 3.32 L
-5.751 3.32 L
-3.32 0 L
cp
S
GR
GS
[1.05417 0 0 1.05442 271.10169 626.67333] CT
1 0 1 RC
10.0 ML
1.897 LW
N
-5.751 -3.32 M
-1.917 -3.32 L
0 -6.64 L
1.917 -3.32 L
5.751 -3.32 L
3.32 0 L
5.751 3.32 L
1.917 3.32 L
0 6.64 L
-1.917 3.32 L
-5.751 3.32 L
-3.32 0 L
cp
S
GR
GS
[1.05417 0 0 1.05442 309.03756 608.03768] CT
1 0 1 RC
10.0 ML
1.897 LW
N
-5.751 -3.32 M
-1.917 -3.32 L
0 -6.64 L
1.917 -3.32 L
5.751 -3.32 L
3.32 0 L
5.751 3.32 L
1.917 3.32 L
0 6.64 L
-1.917 3.32 L
-5.751 3.32 L
-3.32 0 L
cp
S
GR
GS
[1.05417 0 0 1.05442 346.97343 594.18034] CT
1 0 1 RC
10.0 ML
1.897 LW
N
-5.751 -3.32 M
-1.917 -3.32 L
0 -6.64 L
1.917 -3.32 L
5.751 -3.32 L
3.32 0 L
5.751 3.32 L
1.917 3.32 L
0 6.64 L
-1.917 3.32 L
-5.751 3.32 L
-3.32 0 L
cp
S
GR
GS
[1.05417 0 0 1.05442 384.9093 545.44083] CT
1 0 1 RC
10.0 ML
1.897 LW
N
-5.751 -3.32 M
-1.917 -3.32 L
0 -6.64 L
1.917 -3.32 L
5.751 -3.32 L
3.32 0 L
5.751 3.32 L
1.917 3.32 L
0 6.64 L
-1.917 3.32 L
-5.751 3.32 L
-3.32 0 L
cp
S
GR
GS
[1.05417 0 0 1.05442 422.84517 495.74569] CT
1 0 1 RC
10.0 ML
1.897 LW
N
-5.751 -3.32 M
-1.917 -3.32 L
0 -6.64 L
1.917 -3.32 L
5.751 -3.32 L
3.32 0 L
5.751 3.32 L
1.917 3.32 L
0 6.64 L
-1.917 3.32 L
-5.751 3.32 L
-3.32 0 L
cp
S
GR
GS
[1.05417 0 0 1.05442 460.78108 483.79972] CT
1 0 1 RC
10.0 ML
1.897 LW
N
-5.751 -3.32 M
-1.917 -3.32 L
0 -6.64 L
1.917 -3.32 L
5.751 -3.32 L
3.32 0 L
5.751 3.32 L
1.917 3.32 L
0 6.64 L
-1.917 3.32 L
-5.751 3.32 L
-3.32 0 L
cp
S
GR
GS
[1.05417 0 0 1.05442 498.71695 407.82342] CT
1 0 1 RC
10.0 ML
1.897 LW
N
-5.751 -3.32 M
-1.917 -3.32 L
0 -6.64 L
1.917 -3.32 L
5.751 -3.32 L
3.32 0 L
5.751 3.32 L
1.917 3.32 L
0 6.64 L
-1.917 3.32 L
-5.751 3.32 L
-3.32 0 L
cp
S
GR
GS
[1.05417 0 0 1.05442 536.65282 389.66556] CT
1 0 1 RC
10.0 ML
1.897 LW
N
-5.751 -3.32 M
-1.917 -3.32 L
0 -6.64 L
1.917 -3.32 L
5.751 -3.32 L
3.32 0 L
5.751 3.32 L
1.917 3.32 L
0 6.64 L
-1.917 3.32 L
-5.751 3.32 L
-3.32 0 L
cp
S
GR
GS
[1.05417 0 0 1.05442 574.58869 354.78339] CT
1 0 1 RC
10.0 ML
1.897 LW
N
-5.751 -3.32 M
-1.917 -3.32 L
0 -6.64 L
1.917 -3.32 L
5.751 -3.32 L
3.32 0 L
5.751 3.32 L
1.917 3.32 L
0 6.64 L
-1.917 3.32 L
-5.751 3.32 L
-3.32 0 L
cp
S
GR
GS
[1.05417 0 0 1.05442 612.52456 335.66986] CT
1 0 1 RC
10.0 ML
1.897 LW
N
-5.751 -3.32 M
-1.917 -3.32 L
0 -6.64 L
1.917 -3.32 L
5.751 -3.32 L
3.32 0 L
5.751 3.32 L
1.917 3.32 L
0 6.64 L
-1.917 3.32 L
-5.751 3.32 L
-3.32 0 L
cp
S
GR
GS
[1.05417 0 0 1.05442 650.46044 311.30011] CT
1 0 1 RC
10.0 ML
1.897 LW
N
-5.751 -3.32 M
-1.917 -3.32 L
0 -6.64 L
1.917 -3.32 L
5.751 -3.32 L
3.32 0 L
5.751 3.32 L
1.917 3.32 L
0 6.64 L
-1.917 3.32 L
-5.751 3.32 L
-3.32 0 L
cp
S
GR
GS
[1.05417 0 0 1.05442 688.39631 264.9498] CT
1 0 1 RC
10.0 ML
1.897 LW
N
-5.751 -3.32 M
-1.917 -3.32 L
0 -6.64 L
1.917 -3.32 L
5.751 -3.32 L
3.32 0 L
5.751 3.32 L
1.917 3.32 L
0 6.64 L
-1.917 3.32 L
-5.751 3.32 L
-3.32 0 L
cp
S
GR
GS
[1.05417 0 0 1.05442 726.33218 266.3833] CT
1 0 1 RC
10.0 ML
1.897 LW
N
-5.751 -3.32 M
-1.917 -3.32 L
0 -6.64 L
1.917 -3.32 L
5.751 -3.32 L
3.32 0 L
5.751 3.32 L
1.917 3.32 L
0 6.64 L
-1.917 3.32 L
-5.751 3.32 L
-3.32 0 L
cp
S
GR
GS
[1.05417 0 0 1.05442 764.26811 239.62436] CT
1 0 1 RC
10.0 ML
1.897 LW
N
-5.751 -3.32 M
-1.917 -3.32 L
0 -6.64 L
1.917 -3.32 L
5.751 -3.32 L
3.32 0 L
5.751 3.32 L
1.917 3.32 L
0 6.64 L
-1.917 3.32 L
-5.751 3.32 L
-3.32 0 L
cp
S
GR
GS
[1.05417 0 0 1.05442 802.20399 227.67841] CT
1 0 1 RC
10.0 ML
1.897 LW
N
-5.751 -3.32 M
-1.917 -3.32 L
0 -6.64 L
1.917 -3.32 L
5.751 -3.32 L
3.32 0 L
5.751 3.32 L
1.917 3.32 L
0 6.64 L
-1.917 3.32 L
-5.751 3.32 L
-3.32 0 L
cp
S
GR
GS
[1.05417 0 0 1.05442 840.13986 232.93464] CT
1 0 1 RC
10.0 ML
1.897 LW
N
-5.751 -3.32 M
-1.917 -3.32 L
0 -6.64 L
1.917 -3.32 L
5.751 -3.32 L
3.32 0 L
5.751 3.32 L
1.917 3.32 L
0 6.64 L
-1.917 3.32 L
-5.751 3.32 L
-3.32 0 L
cp
S
GR
GS
[1.05417 0 0 1.05442 878.07573 207.60921] CT
1 0 1 RC
10.0 ML
1.897 LW
N
-5.751 -3.32 M
-1.917 -3.32 L
0 -6.64 L
1.917 -3.32 L
5.751 -3.32 L
3.32 0 L
5.751 3.32 L
1.917 3.32 L
0 6.64 L
-1.917 3.32 L
-5.751 3.32 L
-3.32 0 L
cp
S
GR
GS
[1.05417 0 0 1.05442 916.0116 193.75191] CT
1 0 1 RC
10.0 ML
1.897 LW
N
-5.751 -3.32 M
-1.917 -3.32 L
0 -6.64 L
1.917 -3.32 L
5.751 -3.32 L
3.32 0 L
5.751 3.32 L
1.917 3.32 L
0 6.64 L
-1.917 3.32 L
-5.751 3.32 L
-3.32 0 L
cp
S
GR
GS
[1.05417 0 0 1.05442 953.94747 168.42645] CT
1 0 1 RC
10.0 ML
1.897 LW
N
-5.751 -3.32 M
-1.917 -3.32 L
0 -6.64 L
1.917 -3.32 L
5.751 -3.32 L
3.32 0 L
5.751 3.32 L
1.917 3.32 L
0 6.64 L
-1.917 3.32 L
-5.751 3.32 L
-3.32 0 L
cp
S
GR
GS
[1.05417 0 0 1.05442 991.88334 186.58433] CT
1 0 1 RC
10.0 ML
1.897 LW
N
-5.751 -3.32 M
-1.917 -3.32 L
0 -6.64 L
1.917 -3.32 L
5.751 -3.32 L
3.32 0 L
5.751 3.32 L
1.917 3.32 L
0 6.64 L
-1.917 3.32 L
-5.751 3.32 L
-3.32 0 L
cp
S
GR
GS
[1.05417 0 0 1.05442 1029.81921 168.90429] CT
1 0 1 RC
10.0 ML
1.897 LW
N
-5.751 -3.32 M
-1.917 -3.32 L
0 -6.64 L
1.917 -3.32 L
5.751 -3.32 L
3.32 0 L
5.751 3.32 L
1.917 3.32 L
0 6.64 L
-1.917 3.32 L
-5.751 3.32 L
-3.32 0 L
cp
S
GR
GS
[1.05417 0 0 1.05442 1067.75509 145.96807] CT
1 0 1 RC
10.0 ML
1.897 LW
N
-5.751 -3.32 M
-1.917 -3.32 L
0 -6.64 L
1.917 -3.32 L
5.751 -3.32 L
3.32 0 L
5.751 3.32 L
1.917 3.32 L
0 6.64 L
-1.917 3.32 L
-5.751 3.32 L
-3.32 0 L
cp
S
GR
GS
[1.05417 0 0 1.05442 1105.69096 151.22431] CT
1 0 1 RC
10.0 ML
1.897 LW
N
-5.751 -3.32 M
-1.917 -3.32 L
0 -6.64 L
1.917 -3.32 L
5.751 -3.32 L
3.32 0 L
5.751 3.32 L
1.917 3.32 L
0 6.64 L
-1.917 3.32 L
-5.751 3.32 L
-3.32 0 L
cp
S
GR
GS
[1.05417 0 0 1.05442 1143.62689 126.85456] CT
1 0 1 RC
10.0 ML
1.897 LW
N
-5.751 -3.32 M
-1.917 -3.32 L
0 -6.64 L
1.917 -3.32 L
5.751 -3.32 L
3.32 0 L
5.751 3.32 L
1.917 3.32 L
0 6.64 L
-1.917 3.32 L
-5.751 3.32 L
-3.32 0 L
cp
S
GR
GS
[1.05417 0 0 1.05442 1181.5627 141.18971] CT
1 0 1 RC
10.0 ML
1.897 LW
N
-5.751 -3.32 M
-1.917 -3.32 L
0 -6.64 L
1.917 -3.32 L
5.751 -3.32 L
3.32 0 L
5.751 3.32 L
1.917 3.32 L
0 6.64 L
-1.917 3.32 L
-5.751 3.32 L
-3.32 0 L
cp
S
GR
GS
[1.05417 0 0 1.05442 1219.49864 127.81022] CT
1 0 1 RC
10.0 ML
1.897 LW
N
-5.751 -3.32 M
-1.917 -3.32 L
0 -6.64 L
1.917 -3.32 L
5.751 -3.32 L
3.32 0 L
5.751 3.32 L
1.917 3.32 L
0 6.64 L
-1.917 3.32 L
-5.751 3.32 L
-3.32 0 L
cp
S
GR
GS
[1.05417 0 0 1.05442 1257.43444 118.25343] CT
1 0 1 RC
10.0 ML
1.897 LW
N
-5.751 -3.32 M
-1.917 -3.32 L
0 -6.64 L
1.917 -3.32 L
5.751 -3.32 L
3.32 0 L
5.751 3.32 L
1.917 3.32 L
0 6.64 L
-1.917 3.32 L
-5.751 3.32 L
-3.32 0 L
cp
S
GR
GS
[1.05417 0 0 1.05442 1295.37038 109.65237] CT
1 0 1 RC
10.0 ML
1.897 LW
N
-5.751 -3.32 M
-1.917 -3.32 L
0 -6.64 L
1.917 -3.32 L
5.751 -3.32 L
3.32 0 L
5.751 3.32 L
1.917 3.32 L
0 6.64 L
-1.917 3.32 L
-5.751 3.32 L
-3.32 0 L
cp
S
GR
GS
[1.05417 0 0 1.05442 0 0.25] CT
0 0.4 0.988 RC
[10 6] 0 setdash
2 LJ
1.897 LW
N
185.197 609.952 M
221.184 610.405 L
257.17 609.952 L
293.156 610.405 L
329.143 609.952 L
365.129 610.405 L
401.116 607.686 L
437.102 609.498 L
473.088 605.42 L
509.075 586.387 L
545.061 579.589 L
581.048 586.387 L
617.034 564.181 L
653.02 534.271 L
689.007 526.567 L
724.993 499.83 L
760.98 501.643 L
796.966 489.407 L
832.952 443.183 L
868.939 442.277 L
904.925 411.008 L
940.912 424.15 L
976.898 409.648 L
1012.884 375.66 L
1048.871 369.769 L
1084.857 362.971 L
1120.844 357.533 L
1156.83 338.5 L
1192.816 325.811 L
1228.803 314.482 L
S
GR
GS
[1.05417 0 0 1.05442 195.22993 643.3977] CT
0 0.4 0.988 RC
10.0 ML
1.897 LW
N
6.14 -0.5 M
6.14 -4.167 3.167 -7.14 -0.5 -7.14 C
-4.167 -7.14 -7.14 -4.167 -7.14 -0.5 C
-7.14 3.167 -4.167 6.14 -0.5 6.14 C
3.167 6.14 6.14 3.167 6.14 -0.5 C
S
GR
GS
[1.05417 0 0 1.05442 233.1658 643.87555] CT
0 0.4 0.988 RC
10.0 ML
1.897 LW
N
6.14 -0.5 M
6.14 -4.167 3.167 -7.14 -0.5 -7.14 C
-4.167 -7.14 -7.14 -4.167 -7.14 -0.5 C
-7.14 3.167 -4.167 6.14 -0.5 6.14 C
3.167 6.14 6.14 3.167 6.14 -0.5 C
S
GR
GS
[1.05417 0 0 1.05442 271.10169 643.3977] CT
0 0.4 0.988 RC
10.0 ML
1.897 LW
N
6.14 -0.5 M
6.14 -4.167 3.167 -7.14 -0.5 -7.14 C
-4.167 -7.14 -7.14 -4.167 -7.14 -0.5 C
-7.14 3.167 -4.167 6.14 -0.5 6.14 C
3.167 6.14 6.14 3.167 6.14 -0.5 C
S
GR
GS
[1.05417 0 0 1.05442 309.03756 643.87555] CT
0 0.4 0.988 RC
10.0 ML
1.897 LW
N
6.14 -0.5 M
6.14 -4.167 3.167 -7.14 -0.5 -7.14 C
-4.167 -7.14 -7.14 -4.167 -7.14 -0.5 C
-7.14 3.167 -4.167 6.14 -0.5 6.14 C
3.167 6.14 6.14 3.167 6.14 -0.5 C
S
GR
GS
[1.05417 0 0 1.05442 346.97343 643.3977] CT
0 0.4 0.988 RC
10.0 ML
1.897 LW
N
6.14 -0.5 M
6.14 -4.167 3.167 -7.14 -0.5 -7.14 C
-4.167 -7.14 -7.14 -4.167 -7.14 -0.5 C
-7.14 3.167 -4.167 6.14 -0.5 6.14 C
3.167 6.14 6.14 3.167 6.14 -0.5 C
S
GR
GS
[1.05417 0 0 1.05442 384.9093 643.87555] CT
0 0.4 0.988 RC
10.0 ML
1.897 LW
N
6.14 -0.5 M
6.14 -4.167 3.167 -7.14 -0.5 -7.14 C
-4.167 -7.14 -7.14 -4.167 -7.14 -0.5 C
-7.14 3.167 -4.167 6.14 -0.5 6.14 C
3.167 6.14 6.14 3.167 6.14 -0.5 C
S
GR
GS
[1.05417 0 0 1.05442 422.84517 641.00851] CT
0 0.4 0.988 RC
10.0 ML
1.897 LW
N
6.14 -0.5 M
6.14 -4.167 3.167 -7.14 -0.5 -7.14 C
-4.167 -7.14 -7.14 -4.167 -7.14 -0.5 C
-7.14 3.167 -4.167 6.14 -0.5 6.14 C
3.167 6.14 6.14 3.167 6.14 -0.5 C
S
GR
GS
[1.05417 0 0 1.05442 460.78108 642.91985] CT
0 0.4 0.988 RC
10.0 ML
1.897 LW
N
6.14 -0.5 M
6.14 -4.167 3.167 -7.14 -0.5 -7.14 C
-4.167 -7.14 -7.14 -4.167 -7.14 -0.5 C
-7.14 3.167 -4.167 6.14 -0.5 6.14 C
3.167 6.14 6.14 3.167 6.14 -0.5 C
S
GR
GS
[1.05417 0 0 1.05442 498.71695 638.61933] CT
0 0.4 0.988 RC
10.0 ML
1.897 LW
N
6.14 -0.5 M
6.14 -4.167 3.167 -7.14 -0.5 -7.14 C
-4.167 -7.14 -7.14 -4.167 -7.14 -0.5 C
-7.14 3.167 -4.167 6.14 -0.5 6.14 C
3.167 6.14 6.14 3.167 6.14 -0.5 C
S
GR
GS
[1.05417 0 0 1.05442 536.65282 618.55013] CT
0 0.4 0.988 RC
10.0 ML
1.897 LW
N
6.14 -0.5 M
6.14 -4.167 3.167 -7.14 -0.5 -7.14 C
-4.167 -7.14 -7.14 -4.167 -7.14 -0.5 C
-7.14 3.167 -4.167 6.14 -0.5 6.14 C
3.167 6.14 6.14 3.167 6.14 -0.5 C
S
GR
GS
[1.05417 0 0 1.05442 574.58869 611.3825] CT
0 0.4 0.988 RC
10.0 ML
1.897 LW
N
6.14 -0.5 M
6.14 -4.167 3.167 -7.14 -0.5 -7.14 C
-4.167 -7.14 -7.14 -4.167 -7.14 -0.5 C
-7.14 3.167 -4.167 6.14 -0.5 6.14 C
3.167 6.14 6.14 3.167 6.14 -0.5 C
S
GR
GS
[1.05417 0 0 1.05442 612.52456 618.55013] CT
0 0.4 0.988 RC
10.0 ML
1.897 LW
N
6.14 -0.5 M
6.14 -4.167 3.167 -7.14 -0.5 -7.14 C
-4.167 -7.14 -7.14 -4.167 -7.14 -0.5 C
-7.14 3.167 -4.167 6.14 -0.5 6.14 C
3.167 6.14 6.14 3.167 6.14 -0.5 C
S
GR
GS
[1.05417 0 0 1.05442 650.46044 595.13604] CT
0 0.4 0.988 RC
10.0 ML
1.897 LW
N
6.14 -0.5 M
6.14 -4.167 3.167 -7.14 -0.5 -7.14 C
-4.167 -7.14 -7.14 -4.167 -7.14 -0.5 C
-7.14 3.167 -4.167 6.14 -0.5 6.14 C
3.167 6.14 6.14 3.167 6.14 -0.5 C
S
GR
GS
[1.05417 0 0 1.05442 688.39631 563.5987] CT
0 0.4 0.988 RC
10.0 ML
1.897 LW
N
6.14 -0.5 M
6.14 -4.167 3.167 -7.14 -0.5 -7.14 C
-4.167 -7.14 -7.14 -4.167 -7.14 -0.5 C
-7.14 3.167 -4.167 6.14 -0.5 6.14 C
3.167 6.14 6.14 3.167 6.14 -0.5 C
S
GR
GS
[1.05417 0 0 1.05442 726.33218 555.47543] CT
0 0.4 0.988 RC
10.0 ML
1.897 LW
N
6.14 -0.5 M
6.14 -4.167 3.167 -7.14 -0.5 -7.14 C
-4.167 -7.14 -7.14 -4.167 -7.14 -0.5 C
-7.14 3.167 -4.167 6.14 -0.5 6.14 C
3.167 6.14 6.14 3.167 6.14 -0.5 C
S
GR
GS
[1.05417 0 0 1.05442 764.26811 527.28301] CT
0 0.4 0.988 RC
10.0 ML
1.897 LW
N
6.14 -0.5 M
6.14 -4.167 3.167 -7.14 -0.5 -7.14 C
-4.167 -7.14 -7.14 -4.167 -7.14 -0.5 C
-7.14 3.167 -4.167 6.14 -0.5 6.14 C
3.167 6.14 6.14 3.167 6.14 -0.5 C
S
GR
GS
[1.05417 0 0 1.05442 802.20399 529.19434] CT
0 0.4 0.988 RC
10.0 ML
1.897 LW
N
6.14 -0.5 M
6.14 -4.167 3.167 -7.14 -0.5 -7.14 C
-4.167 -7.14 -7.14 -4.167 -7.14 -0.5 C
-7.14 3.167 -4.167 6.14 -0.5 6.14 C
3.167 6.14 6.14 3.167 6.14 -0.5 C
S
GR
GS
[1.05417 0 0 1.05442 840.13986 516.29271] CT
0 0.4 0.988 RC
10.0 ML
1.897 LW
N
6.14 -0.5 M
6.14 -4.167 3.167 -7.14 -0.5 -7.14 C
-4.167 -7.14 -7.14 -4.167 -7.14 -0.5 C
-7.14 3.167 -4.167 6.14 -0.5 6.14 C
3.167 6.14 6.14 3.167 6.14 -0.5 C
S
GR
GS
[1.05417 0 0 1.05442 878.07573 467.5532] CT
0 0.4 0.988 RC
10.0 ML
1.897 LW
N
6.14 -0.5 M
6.14 -4.167 3.167 -7.14 -0.5 -7.14 C
-4.167 -7.14 -7.14 -4.167 -7.14 -0.5 C
-7.14 3.167 -4.167 6.14 -0.5 6.14 C
3.167 6.14 6.14 3.167 6.14 -0.5 C
S
GR
GS
[1.05417 0 0 1.05442 916.0116 466.59753] CT
0 0.4 0.988 RC
10.0 ML
1.897 LW
N
6.14 -0.5 M
6.14 -4.167 3.167 -7.14 -0.5 -7.14 C
-4.167 -7.14 -7.14 -4.167 -7.14 -0.5 C
-7.14 3.167 -4.167 6.14 -0.5 6.14 C
3.167 6.14 6.14 3.167 6.14 -0.5 C
S
GR
GS
[1.05417 0 0 1.05442 953.94747 433.6267] CT
0 0.4 0.988 RC
10.0 ML
1.897 LW
N
6.14 -0.5 M
6.14 -4.167 3.167 -7.14 -0.5 -7.14 C
-4.167 -7.14 -7.14 -4.167 -7.14 -0.5 C
-7.14 3.167 -4.167 6.14 -0.5 6.14 C
3.167 6.14 6.14 3.167 6.14 -0.5 C
S
GR
GS
[1.05417 0 0 1.05442 991.88334 447.484] CT
0 0.4 0.988 RC
10.0 ML
1.897 LW
N
6.14 -0.5 M
6.14 -4.167 3.167 -7.14 -0.5 -7.14 C
-4.167 -7.14 -7.14 -4.167 -7.14 -0.5 C
-7.14 3.167 -4.167 6.14 -0.5 6.14 C
3.167 6.14 6.14 3.167 6.14 -0.5 C
S
GR
GS
[1.05417 0 0 1.05442 1029.81921 432.19318] CT
0 0.4 0.988 RC
10.0 ML
1.897 LW
N
6.14 -0.5 M
6.14 -4.167 3.167 -7.14 -0.5 -7.14 C
-4.167 -7.14 -7.14 -4.167 -7.14 -0.5 C
-7.14 3.167 -4.167 6.14 -0.5 6.14 C
3.167 6.14 6.14 3.167 6.14 -0.5 C
S
GR
GS
[1.05417 0 0 1.05442 1067.75509 396.3553] CT
0 0.4 0.988 RC
10.0 ML
1.897 LW
N
6.14 -0.5 M
6.14 -4.167 3.167 -7.14 -0.5 -7.14 C
-4.167 -7.14 -7.14 -4.167 -7.14 -0.5 C
-7.14 3.167 -4.167 6.14 -0.5 6.14 C
3.167 6.14 6.14 3.167 6.14 -0.5 C
S
GR
GS
[1.05417 0 0 1.05442 1105.69096 390.14341] CT
0 0.4 0.988 RC
10.0 ML
1.897 LW
N
6.14 -0.5 M
6.14 -4.167 3.167 -7.14 -0.5 -7.14 C
-4.167 -7.14 -7.14 -4.167 -7.14 -0.5 C
-7.14 3.167 -4.167 6.14 -0.5 6.14 C
3.167 6.14 6.14 3.167 6.14 -0.5 C
S
GR
GS
[1.05417 0 0 1.05442 1143.62689 382.97582] CT
0 0.4 0.988 RC
10.0 ML
1.897 LW
N
6.14 -0.5 M
6.14 -4.167 3.167 -7.14 -0.5 -7.14 C
-4.167 -7.14 -7.14 -4.167 -7.14 -0.5 C
-7.14 3.167 -4.167 6.14 -0.5 6.14 C
3.167 6.14 6.14 3.167 6.14 -0.5 C
S
GR
GS
[1.05417 0 0 1.05442 1181.5627 377.24178] CT
0 0.4 0.988 RC
10.0 ML
1.897 LW
N
6.14 -0.5 M
6.14 -4.167 3.167 -7.14 -0.5 -7.14 C
-4.167 -7.14 -7.14 -4.167 -7.14 -0.5 C
-7.14 3.167 -4.167 6.14 -0.5 6.14 C
3.167 6.14 6.14 3.167 6.14 -0.5 C
S
GR
GS
[1.05417 0 0 1.05442 1219.49864 357.17258] CT
0 0.4 0.988 RC
10.0 ML
1.897 LW
N
6.14 -0.5 M
6.14 -4.167 3.167 -7.14 -0.5 -7.14 C
-4.167 -7.14 -7.14 -4.167 -7.14 -0.5 C
-7.14 3.167 -4.167 6.14 -0.5 6.14 C
3.167 6.14 6.14 3.167 6.14 -0.5 C
S
GR
GS
[1.05417 0 0 1.05442 1257.43444 343.79312] CT
0 0.4 0.988 RC
10.0 ML
1.897 LW
N
6.14 -0.5 M
6.14 -4.167 3.167 -7.14 -0.5 -7.14 C
-4.167 -7.14 -7.14 -4.167 -7.14 -0.5 C
-7.14 3.167 -4.167 6.14 -0.5 6.14 C
3.167 6.14 6.14 3.167 6.14 -0.5 C
S
GR
GS
[1.05417 0 0 1.05442 1295.37038 331.84715] CT
0 0.4 0.988 RC
10.0 ML
1.897 LW
N
6.14 -0.5 M
6.14 -4.167 3.167 -7.14 -0.5 -7.14 C
-4.167 -7.14 -7.14 -4.167 -7.14 -0.5 C
-7.14 3.167 -4.167 6.14 -0.5 6.14 C
3.167 6.14 6.14 3.167 6.14 -0.5 C
S
GR
GS
[1.05417 0 0 1.05442 0 0.25] CT
0 0.502 0 RC
[10 6] 0 setdash
2 LJ
1.897 LW
N
185.197 607.233 M
221.184 606.326 L
257.17 605.873 L
293.156 604.06 L
329.143 601.794 L
365.129 596.81 L
401.116 594.997 L
437.102 601.794 L
473.088 594.544 L
509.075 572.338 L
545.061 561.462 L
581.048 565.994 L
617.034 545.601 L
653.02 519.77 L
689.007 508.894 L
724.993 488.048 L
760.98 475.812 L
796.966 471.733 L
832.952 422.79 L
868.939 410.102 L
904.925 385.177 L
940.912 398.772 L
976.898 378.379 L
1012.884 346.657 L
1048.871 340.766 L
1084.857 332.156 L
1120.844 330.796 L
1156.83 306.778 L
1192.816 296.808 L
1228.803 283.213 L
S
GR
GS
[1.05417 0 0 1.05442 195.22993 640.53066] CT
1 GC
N
/f-719462112{-5 -5 M
-5 5 L
5 5 L
5 -5 L
cp}def
f-719462112
f
GR
GS
[1.05417 0 0 1.05442 195.22993 640.53066] CT
0 0.502 0 RC
10.0 ML
1.897 LW
N
-5 -5 M
-5 5 L
5 5 L
5 -5 L
cp
S
GR
GS
[1.05417 0 0 1.05442 233.1658 639.57496] CT
1 GC
N
f-719462112
f
GR
GS
[1.05417 0 0 1.05442 233.1658 639.57496] CT
0 0.502 0 RC
10.0 ML
1.897 LW
N
-5 -5 M
-5 5 L
5 5 L
5 -5 L
cp
S
GR
GS
[1.05417 0 0 1.05442 271.10169 639.09711] CT
1 GC
N
f-719462112
f
GR
GS
[1.05417 0 0 1.05442 271.10169 639.09711] CT
0 0.502 0 RC
10.0 ML
1.897 LW
N
-5 -5 M
-5 5 L
5 5 L
5 -5 L
cp
S
GR
GS
[1.05417 0 0 1.05442 309.03756 637.18578] CT
1 GC
N
f-719462112
f
GR
GS
[1.05417 0 0 1.05442 309.03756 637.18578] CT
0 0.502 0 RC
10.0 ML
1.897 LW
N
-5 -5 M
-5 5 L
5 5 L
5 -5 L
cp
S
GR
GS
[1.05417 0 0 1.05442 346.97343 634.79659] CT
1 GC
N
f-719462112
f
GR
GS
[1.05417 0 0 1.05442 346.97343 634.79659] CT
0 0.502 0 RC
10.0 ML
1.897 LW
N
-5 -5 M
-5 5 L
5 5 L
5 -5 L
cp
S
GR
GS
[1.05417 0 0 1.05442 384.9093 629.54036] CT
1 GC
N
f-719462112
f
GR
GS
[1.05417 0 0 1.05442 384.9093 629.54036] CT
0 0.502 0 RC
10.0 ML
1.897 LW
N
-5 -5 M
-5 5 L
5 5 L
5 -5 L
cp
S
GR
GS
[1.05417 0 0 1.05442 422.84517 627.62903] CT
1 GC
N
f-719462112
f
GR
GS
[1.05417 0 0 1.05442 422.84517 627.62903] CT
0 0.502 0 RC
10.0 ML
1.897 LW
N
-5 -5 M
-5 5 L
5 5 L
5 -5 L
cp
S
GR
GS
[1.05417 0 0 1.05442 460.78108 634.79659] CT
1 GC
N
f-719462112
f
GR
GS
[1.05417 0 0 1.05442 460.78108 634.79659] CT
0 0.502 0 RC
10.0 ML
1.897 LW
N
-5 -5 M
-5 5 L
5 5 L
5 -5 L
cp
S
GR
GS
[1.05417 0 0 1.05442 498.71695 627.15118] CT
1 GC
N
f-719462112
f
GR
GS
[1.05417 0 0 1.05442 498.71695 627.15118] CT
0 0.502 0 RC
10.0 ML
1.897 LW
N
-5 -5 M
-5 5 L
5 5 L
5 -5 L
cp
S
GR
GS
[1.05417 0 0 1.05442 536.65282 603.73709] CT
1 GC
N
f-719462112
f
GR
GS
[1.05417 0 0 1.05442 536.65282 603.73709] CT
0 0.502 0 RC
10.0 ML
1.897 LW
N
-5 -5 M
-5 5 L
5 5 L
5 -5 L
cp
S
GR
GS
[1.05417 0 0 1.05442 574.58869 592.26901] CT
1 GC
N
f-719462112
f
GR
GS
[1.05417 0 0 1.05442 574.58869 592.26901] CT
0 0.502 0 RC
10.0 ML
1.897 LW
N
-5 -5 M
-5 5 L
5 5 L
5 -5 L
cp
S
GR
GS
[1.05417 0 0 1.05442 612.52456 597.04738] CT
1 GC
N
f-719462112
f
GR
GS
[1.05417 0 0 1.05442 612.52456 597.04738] CT
0 0.502 0 RC
10.0 ML
1.897 LW
N
-5 -5 M
-5 5 L
5 5 L
5 -5 L
cp
S
GR
GS
[1.05417 0 0 1.05442 650.46044 575.54463] CT
1 GC
N
f-719462112
f
GR
GS
[1.05417 0 0 1.05442 650.46044 575.54463] CT
0 0.502 0 RC
10.0 ML
1.897 LW
N
-5 -5 M
-5 5 L
5 5 L
5 -5 L
cp
S
GR
GS
[1.05417 0 0 1.05442 688.39631 548.30787] CT
1 GC
N
f-719462112
f
GR
GS
[1.05417 0 0 1.05442 688.39631 548.30787] CT
0 0.502 0 RC
10.0 ML
1.897 LW
N
-5 -5 M
-5 5 L
5 5 L
5 -5 L
cp
S
GR
GS
[1.05417 0 0 1.05442 726.33218 536.83975] CT
1 GC
N
f-719462112
f
GR
GS
[1.05417 0 0 1.05442 726.33218 536.83975] CT
0 0.502 0 RC
10.0 ML
1.897 LW
N
-5 -5 M
-5 5 L
5 5 L
5 -5 L
cp
S
GR
GS
[1.05417 0 0 1.05442 764.26811 514.85919] CT
1 GC
N
f-719462112
f
GR
GS
[1.05417 0 0 1.05442 764.26811 514.85919] CT
0 0.502 0 RC
10.0 ML
1.897 LW
N
-5 -5 M
-5 5 L
5 5 L
5 -5 L
cp
S
GR
GS
[1.05417 0 0 1.05442 802.20399 501.95758] CT
1 GC
N
f-719462112
f
GR
GS
[1.05417 0 0 1.05442 802.20399 501.95758] CT
0 0.502 0 RC
10.0 ML
1.897 LW
N
-5 -5 M
-5 5 L
5 5 L
5 -5 L
cp
S
GR
GS
[1.05417 0 0 1.05442 840.13986 497.65703] CT
1 GC
N
f-719462112
f
GR
GS
[1.05417 0 0 1.05442 840.13986 497.65703] CT
0 0.502 0 RC
10.0 ML
1.897 LW
N
-5 -5 M
-5 5 L
5 5 L
5 -5 L
cp
S
GR
GS
[1.05417 0 0 1.05442 878.07573 446.05048] CT
1 GC
N
f-719462112
f
GR
GS
[1.05417 0 0 1.05442 878.07573 446.05048] CT
0 0.502 0 RC
10.0 ML
1.897 LW
N
-5 -5 M
-5 5 L
5 5 L
5 -5 L
cp
S
GR
GS
[1.05417 0 0 1.05442 916.0116 432.67103] CT
1 GC
N
f-719462112
f
GR
GS
[1.05417 0 0 1.05442 916.0116 432.67103] CT
0 0.502 0 RC
10.0 ML
1.897 LW
N
-5 -5 M
-5 5 L
5 5 L
5 -5 L
cp
S
GR
GS
[1.05417 0 0 1.05442 953.94747 406.3899] CT
1 GC
N
f-719462112
f
GR
GS
[1.05417 0 0 1.05442 953.94747 406.3899] CT
0 0.502 0 RC
10.0 ML
1.897 LW
N
-5 -5 M
-5 5 L
5 5 L
5 -5 L
cp
S
GR
GS
[1.05417 0 0 1.05442 991.88334 420.72506] CT
1 GC
N
f-719462112
f
GR
GS
[1.05417 0 0 1.05442 991.88334 420.72506] CT
0 0.502 0 RC
10.0 ML
1.897 LW
N
-5 -5 M
-5 5 L
5 5 L
5 -5 L
cp
S
GR
GS
[1.05417 0 0 1.05442 1029.81921 399.22234] CT
1 GC
N
f-719462112
f
GR
GS
[1.05417 0 0 1.05442 1029.81921 399.22234] CT
0 0.502 0 RC
10.0 ML
1.897 LW
N
-5 -5 M
-5 5 L
5 5 L
5 -5 L
cp
S
GR
GS
[1.05417 0 0 1.05442 1067.75509 365.77366] CT
1 GC
N
f-719462112
f
GR
GS
[1.05417 0 0 1.05442 1067.75509 365.77366] CT
0 0.502 0 RC
10.0 ML
1.897 LW
N
-5 -5 M
-5 5 L
5 5 L
5 -5 L
cp
S
GR
GS
[1.05417 0 0 1.05442 1105.69096 359.56176] CT
1 GC
N
f-719462112
f
GR
GS
[1.05417 0 0 1.05442 1105.69096 359.56176] CT
0 0.502 0 RC
10.0 ML
1.897 LW
N
-5 -5 M
-5 5 L
5 5 L
5 -5 L
cp
S
GR
GS
[1.05417 0 0 1.05442 1143.62689 350.48283] CT
1 GC
N
f-719462112
f
GR
GS
[1.05417 0 0 1.05442 1143.62689 350.48283] CT
0 0.502 0 RC
10.0 ML
1.897 LW
N
-5 -5 M
-5 5 L
5 5 L
5 -5 L
cp
S
GR
GS
[1.05417 0 0 1.05442 1181.5627 349.04932] CT
1 GC
N
f-719462112
f
GR
GS
[1.05417 0 0 1.05442 1181.5627 349.04932] CT
0 0.502 0 RC
10.0 ML
1.897 LW
N
-5 -5 M
-5 5 L
5 5 L
5 -5 L
cp
S
GR
GS
[1.05417 0 0 1.05442 1219.49864 323.72389] CT
1 GC
N
f-719462112
f
GR
GS
[1.05417 0 0 1.05442 1219.49864 323.72389] CT
0 0.502 0 RC
10.0 ML
1.897 LW
N
-5 -5 M
-5 5 L
5 5 L
5 -5 L
cp
S
GR
GS
[1.05417 0 0 1.05442 1257.43444 313.21144] CT
1 GC
N
f-719462112
f
GR
GS
[1.05417 0 0 1.05442 1257.43444 313.21144] CT
0 0.502 0 RC
10.0 ML
1.897 LW
N
-5 -5 M
-5 5 L
5 5 L
5 -5 L
cp
S
GR
GS
[1.05417 0 0 1.05442 1295.37038 298.87629] CT
1 GC
N
f-719462112
f
GR
GS
[1.05417 0 0 1.05442 1295.37038 298.87629] CT
0 0.502 0 RC
10.0 ML
1.897 LW
N
-5 -5 M
-5 5 L
5 5 L
5 -5 L
cp
S
GR
GS
[1.05417 0 0 1.05442 0 0.25] CT
1 0 0 RC
[10 6] 0 setdash
2 LJ
0.949 LW
N
185.197 609.498 M
221.184 609.498 L
257.17 609.498 L
293.156 608.139 L
329.143 608.592 L
365.129 605.873 L
401.116 603.607 L
437.102 606.779 L
473.088 602.701 L
509.075 581.402 L
545.061 572.791 L
581.048 578.229 L
617.034 558.743 L
653.02 528.833 L
689.007 521.129 L
724.993 493.939 L
760.98 494.392 L
796.966 484.422 L
832.952 434.573 L
868.939 423.697 L
904.925 400.585 L
940.912 411.008 L
976.898 388.349 L
1012.884 363.878 L
1048.871 357.533 L
1084.857 348.923 L
1120.844 344.391 L
1156.83 317.201 L
1192.816 312.216 L
1228.803 303.152 L
S
GR
GS
[1.05417 0 0 1.05442 195.22993 642.91985] CT
1 0 0 RC
N
/f68728590{0 -7 M
0 7 L
-7 0 M
7 0 L
-4.695 -4.695 M
4.695 4.695 L
-4.695 4.695 M
4.695 -4.695 L}def
f68728590
f
GR
GS
[1.05417 0 0 1.05442 195.22993 642.91985] CT
1 0 0 RC
10.0 ML
N
0 -7 M
0 7 L
-7 0 M
7 0 L
-4.695 -4.695 M
4.695 4.695 L
-4.695 4.695 M
4.695 -4.695 L
S
GR
GS
[1.05417 0 0 1.05442 233.1658 642.91985] CT
1 0 0 RC
N
f68728590
f
GR
GS
[1.05417 0 0 1.05442 233.1658 642.91985] CT
1 0 0 RC
10.0 ML
N
0 -7 M
0 7 L
-7 0 M
7 0 L
-4.695 -4.695 M
4.695 4.695 L
-4.695 4.695 M
4.695 -4.695 L
S
GR
GS
[1.05417 0 0 1.05442 271.10169 642.91985] CT
1 0 0 RC
N
f68728590
f
GR
GS
[1.05417 0 0 1.05442 271.10169 642.91985] CT
1 0 0 RC
10.0 ML
N
0 -7 M
0 7 L
-7 0 M
7 0 L
-4.695 -4.695 M
4.695 4.695 L
-4.695 4.695 M
4.695 -4.695 L
S
GR
GS
[1.05417 0 0 1.05442 309.03756 641.48636] CT
1 0 0 RC
N
f68728590
f
GR
GS
[1.05417 0 0 1.05442 309.03756 641.48636] CT
1 0 0 RC
10.0 ML
N
0 -7 M
0 7 L
-7 0 M
7 0 L
-4.695 -4.695 M
4.695 4.695 L
-4.695 4.695 M
4.695 -4.695 L
S
GR
GS
[1.05417 0 0 1.05442 346.97343 641.96415] CT
1 0 0 RC
N
f68728590
f
GR
GS
[1.05417 0 0 1.05442 346.97343 641.96415] CT
1 0 0 RC
10.0 ML
N
0 -7 M
0 7 L
-7 0 M
7 0 L
-4.695 -4.695 M
4.695 4.695 L
-4.695 4.695 M
4.695 -4.695 L
S
GR
GS
[1.05417 0 0 1.05442 384.9093 639.09711] CT
1 0 0 RC
N
f68728590
f
GR
GS
[1.05417 0 0 1.05442 384.9093 639.09711] CT
1 0 0 RC
10.0 ML
N
0 -7 M
0 7 L
-7 0 M
7 0 L
-4.695 -4.695 M
4.695 4.695 L
-4.695 4.695 M
4.695 -4.695 L
S
GR
GS
[1.05417 0 0 1.05442 422.84517 636.70793] CT
1 0 0 RC
N
f68728590
f
GR
GS
[1.05417 0 0 1.05442 422.84517 636.70793] CT
1 0 0 RC
10.0 ML
N
0 -7 M
0 7 L
-7 0 M
7 0 L
-4.695 -4.695 M
4.695 4.695 L
-4.695 4.695 M
4.695 -4.695 L
S
GR
GS
[1.05417 0 0 1.05442 460.78108 640.05281] CT
1 0 0 RC
N
f68728590
f
GR
GS
[1.05417 0 0 1.05442 460.78108 640.05281] CT
1 0 0 RC
10.0 ML
N
0 -7 M
0 7 L
-7 0 M
7 0 L
-4.695 -4.695 M
4.695 4.695 L
-4.695 4.695 M
4.695 -4.695 L
S
GR
GS
[1.05417 0 0 1.05442 498.71695 635.75229] CT
1 0 0 RC
N
f68728590
f
GR
GS
[1.05417 0 0 1.05442 498.71695 635.75229] CT
1 0 0 RC
10.0 ML
N
0 -7 M
0 7 L
-7 0 M
7 0 L
-4.695 -4.695 M
4.695 4.695 L
-4.695 4.695 M
4.695 -4.695 L
S
GR
GS
[1.05417 0 0 1.05442 536.65282 613.2939] CT
1 0 0 RC
N
f68728590
f
GR
GS
[1.05417 0 0 1.05442 536.65282 613.2939] CT
1 0 0 RC
10.0 ML
N
0 -7 M
0 7 L
-7 0 M
7 0 L
-4.695 -4.695 M
4.695 4.695 L
-4.695 4.695 M
4.695 -4.695 L
S
GR
GS
[1.05417 0 0 1.05442 574.58869 604.21494] CT
1 0 0 RC
N
f68728590
f
GR
GS
[1.05417 0 0 1.05442 574.58869 604.21494] CT
1 0 0 RC
10.0 ML
N
0 -7 M
0 7 L
-7 0 M
7 0 L
-4.695 -4.695 M
4.695 4.695 L
-4.695 4.695 M
4.695 -4.695 L
S
GR
GS
[1.05417 0 0 1.05442 612.52456 609.94902] CT
1 0 0 RC
N
f68728590
f
GR
GS
[1.05417 0 0 1.05442 612.52456 609.94902] CT
1 0 0 RC
10.0 ML
N
0 -7 M
0 7 L
-7 0 M
7 0 L
-4.695 -4.695 M
4.695 4.695 L
-4.695 4.695 M
4.695 -4.695 L
S
GR
GS
[1.05417 0 0 1.05442 650.46044 589.40197] CT
1 0 0 RC
N
f68728590
f
GR
GS
[1.05417 0 0 1.05442 650.46044 589.40197] CT
1 0 0 RC
10.0 ML
N
0 -7 M
0 7 L
-7 0 M
7 0 L
-4.695 -4.695 M
4.695 4.695 L
-4.695 4.695 M
4.695 -4.695 L
S
GR
GS
[1.05417 0 0 1.05442 688.39631 557.86462] CT
1 0 0 RC
N
f68728590
f
GR
GS
[1.05417 0 0 1.05442 688.39631 557.86462] CT
1 0 0 RC
10.0 ML
N
0 -7 M
0 7 L
-7 0 M
7 0 L
-4.695 -4.695 M
4.695 4.695 L
-4.695 4.695 M
4.695 -4.695 L
S
GR
GS
[1.05417 0 0 1.05442 726.33218 549.74142] CT
1 0 0 RC
N
f68728590
f
GR
GS
[1.05417 0 0 1.05442 726.33218 549.74142] CT
1 0 0 RC
10.0 ML
N
0 -7 M
0 7 L
-7 0 M
7 0 L
-4.695 -4.695 M
4.695 4.695 L
-4.695 4.695 M
4.695 -4.695 L
S
GR
GS
[1.05417 0 0 1.05442 764.26811 521.07111] CT
1 0 0 RC
N
f68728590
f
GR
GS
[1.05417 0 0 1.05442 764.26811 521.07111] CT
1 0 0 RC
10.0 ML
N
0 -7 M
0 7 L
-7 0 M
7 0 L
-4.695 -4.695 M
4.695 4.695 L
-4.695 4.695 M
4.695 -4.695 L
S
GR
GS
[1.05417 0 0 1.05442 802.20399 521.54893] CT
1 0 0 RC
N
f68728590
f
GR
GS
[1.05417 0 0 1.05442 802.20399 521.54893] CT
1 0 0 RC
10.0 ML
N
0 -7 M
0 7 L
-7 0 M
7 0 L
-4.695 -4.695 M
4.695 4.695 L
-4.695 4.695 M
4.695 -4.695 L
S
GR
GS
[1.05417 0 0 1.05442 840.13986 511.03648] CT
1 0 0 RC
N
f68728590
f
GR
GS
[1.05417 0 0 1.05442 840.13986 511.03648] CT
1 0 0 RC
10.0 ML
N
0 -7 M
0 7 L
-7 0 M
7 0 L
-4.695 -4.695 M
4.695 4.695 L
-4.695 4.695 M
4.695 -4.695 L
S
GR
GS
[1.05417 0 0 1.05442 878.07573 458.4743] CT
1 0 0 RC
N
f68728590
f
GR
GS
[1.05417 0 0 1.05442 878.07573 458.4743] CT
1 0 0 RC
10.0 ML
N
0 -7 M
0 7 L
-7 0 M
7 0 L
-4.695 -4.695 M
4.695 4.695 L
-4.695 4.695 M
4.695 -4.695 L
S
GR
GS
[1.05417 0 0 1.05442 916.0116 447.00615] CT
1 0 0 RC
N
f68728590
f
GR
GS
[1.05417 0 0 1.05442 916.0116 447.00615] CT
1 0 0 RC
10.0 ML
N
0 -7 M
0 7 L
-7 0 M
7 0 L
-4.695 -4.695 M
4.695 4.695 L
-4.695 4.695 M
4.695 -4.695 L
S
GR
GS
[1.05417 0 0 1.05442 953.94747 422.63643] CT
1 0 0 RC
N
f68728590
f
GR
GS
[1.05417 0 0 1.05442 953.94747 422.63643] CT
1 0 0 RC
10.0 ML
N
0 -7 M
0 7 L
-7 0 M
7 0 L
-4.695 -4.695 M
4.695 4.695 L
-4.695 4.695 M
4.695 -4.695 L
S
GR
GS
[1.05417 0 0 1.05442 991.88334 433.6267] CT
1 0 0 RC
N
f68728590
f
GR
GS
[1.05417 0 0 1.05442 991.88334 433.6267] CT
1 0 0 RC
10.0 ML
N
0 -7 M
0 7 L
-7 0 M
7 0 L
-4.695 -4.695 M
4.695 4.695 L
-4.695 4.695 M
4.695 -4.695 L
S
GR
GS
[1.05417 0 0 1.05442 1029.81921 409.73479] CT
1 0 0 RC
N
f68728590
f
GR
GS
[1.05417 0 0 1.05442 1029.81921 409.73479] CT
1 0 0 RC
10.0 ML
N
0 -7 M
0 7 L
-7 0 M
7 0 L
-4.695 -4.695 M
4.695 4.695 L
-4.695 4.695 M
4.695 -4.695 L
S
GR
GS
[1.05417 0 0 1.05442 1067.75509 383.93152] CT
1 0 0 RC
N
f68728590
f
GR
GS
[1.05417 0 0 1.05442 1067.75509 383.93152] CT
1 0 0 RC
10.0 ML
N
0 -7 M
0 7 L
-7 0 M
7 0 L
-4.695 -4.695 M
4.695 4.695 L
-4.695 4.695 M
4.695 -4.695 L
S
GR
GS
[1.05417 0 0 1.05442 1105.69096 377.24178] CT
1 0 0 RC
N
f68728590
f
GR
GS
[1.05417 0 0 1.05442 1105.69096 377.24178] CT
1 0 0 RC
10.0 ML
N
0 -7 M
0 7 L
-7 0 M
7 0 L
-4.695 -4.695 M
4.695 4.695 L
-4.695 4.695 M
4.695 -4.695 L
S
GR
GS
[1.05417 0 0 1.05442 1143.62689 368.16284] CT
1 0 0 RC
N
f68728590
f
GR
GS
[1.05417 0 0 1.05442 1143.62689 368.16284] CT
1 0 0 RC
10.0 ML
N
0 -7 M
0 7 L
-7 0 M
7 0 L
-4.695 -4.695 M
4.695 4.695 L
-4.695 4.695 M
4.695 -4.695 L
S
GR
GS
[1.05417 0 0 1.05442 1181.5627 363.38447] CT
1 0 0 RC
N
f68728590
f
GR
GS
[1.05417 0 0 1.05442 1181.5627 363.38447] CT
1 0 0 RC
10.0 ML
N
0 -7 M
0 7 L
-7 0 M
7 0 L
-4.695 -4.695 M
4.695 4.695 L
-4.695 4.695 M
4.695 -4.695 L
S
GR
GS
[1.05417 0 0 1.05442 1219.49864 334.71416] CT
1 0 0 RC
N
f68728590
f
GR
GS
[1.05417 0 0 1.05442 1219.49864 334.71416] CT
1 0 0 RC
10.0 ML
N
0 -7 M
0 7 L
-7 0 M
7 0 L
-4.695 -4.695 M
4.695 4.695 L
-4.695 4.695 M
4.695 -4.695 L
S
GR
GS
[1.05417 0 0 1.05442 1257.43444 329.45797] CT
1 0 0 RC
N
f68728590
f
GR
GS
[1.05417 0 0 1.05442 1257.43444 329.45797] CT
1 0 0 RC
10.0 ML
N
0 -7 M
0 7 L
-7 0 M
7 0 L
-4.695 -4.695 M
4.695 4.695 L
-4.695 4.695 M
4.695 -4.695 L
S
GR
GS
[1.05417 0 0 1.05442 1295.37038 319.90119] CT
1 0 0 RC
N
f68728590
f
GR
GS
[1.05417 0 0 1.05442 1295.37038 319.90119] CT
1 0 0 RC
10.0 ML
N
0 -7 M
0 7 L
-7 0 M
7 0 L
-4.695 -4.695 M
4.695 4.695 L
-4.695 4.695 M
4.695 -4.695 L
S
GR
GS
[1.05417 0 0 1.05442 250.89312 90.93048] CT
/Helvetica 30.356 F
GS
[1 0 0 1 0 0] CT
0 10 moveto 
1 -1 scale
( Dijkstra + Graph Coloring) t 
GR
GR
GS
[1.05417 0 0 1.05442 0 0.25] CT
1 0 1 RC
[10 6] 0 setdash
2 LJ
1.897 LW
N
195 86 M
235 86 L
S
GR
GS
[1.05417 0 0 1.05442 226.64714 90.93048] CT
1 0 1 RC
10.0 ML
1.897 LW
N
-5.751 -3.32 M
-1.917 -3.32 L
0 -6.64 L
1.917 -3.32 L
5.751 -3.32 L
3.32 0 L
5.751 3.32 L
1.917 3.32 L
0 6.64 L
-1.917 3.32 L
-5.751 3.32 L
-3.32 0 L
cp
S
GR
GS
[1.05417 0 0 1.05442 250.89312 129.41696] CT
/Helvetica 30.356 F
GS
[1 0 0 1 0 0] CT
0 10 moveto 
1 -1 scale
( Dijkstra + First-Fit) t 
GR
GR
GS
[1.05417 0 0 1.05442 0 0.25] CT
[10 6] 0 setdash
2 LJ
1.897 LW
N
195 122.5 M
235 122.5 L
S
GR
GS
[1.05417 0 0 1.05442 226.64714 129.41696] CT
N
f-18803871
f
GR
GS
[1.05417 0 0 1.05442 226.64714 129.41696] CT
10.0 ML
1.897 LW
N
0 -10.116 M
-8.76 5.058 L
8.76 5.058 L
cp
S
GR
GS
[1.05417 0 0 1.05442 250.89312 167.90344] CT
/Helvetica 30.356 F
GS
[1 0 0 1 0 0] CT
0 10 moveto 
1 -1 scale
( Yen + Graph Coloring) t 
GR
GR
GS
[1.05417 0 0 1.05442 0 0.25] CT
0 0.502 0 RC
[10 6] 0 setdash
2 LJ
1.897 LW
N
195 159 M
235 159 L
S
GR
GS
[1.05417 0 0 1.05442 226.64714 167.90344] CT
1 GC
N
f-719462112
f
GR
GS
[1.05417 0 0 1.05442 226.64714 167.90344] CT
0 0.502 0 RC
10.0 ML
1.897 LW
N
-5 -5 M
-5 5 L
5 5 L
5 -5 L
cp
S
GR
GS
[1.05417 0 0 1.05442 250.89312 206.38992] CT
/Helvetica 30.356 F
GS
[1 0 0 1 0 0] CT
0 10 moveto 
1 -1 scale
( Yen + First-Fit) t 
GR
GR
GS
[1.05417 0 0 1.05442 0 0.25] CT
1 0 0 RC
[10 6] 0 setdash
2 LJ
0.949 LW
N
195 195.5 M
235 195.5 L
S
GR
GS
[1.05417 0 0 1.05442 226.64714 206.38992] CT
1 0 0 RC
N
f68728590
f
GR
GS
[1.05417 0 0 1.05442 226.64714 206.38992] CT
1 0 0 RC
10.0 ML
N
0 -7 M
0 7 L
-7 0 M
7 0 L
-4.695 -4.695 M
4.695 4.695 L
-4.695 4.695 M
4.695 -4.695 L
S
GR
GS
[1.05417 0 0 1.05442 250.89312 244.8764] CT
/Helvetica 30.356 F
GS
[1 0 0 1 0 0] CT
0 10 moveto 
1 -1 scale
( Genetic Algorithm) t 
GR
GR
GS
[1.05417 0 0 1.05442 0 0.25] CT
0 0.4 0.988 RC
[10 6] 0 setdash
2 LJ
1.897 LW
N
195 232 M
235 232 L
S
GR
GS
[1.05417 0 0 1.05442 226.64714 244.8764] CT
0 0.4 0.988 RC
10.0 ML
1.897 LW
N
6.14 -0.5 M
6.14 -4.167 3.167 -7.14 -0.5 -7.14 C
-4.167 -7.14 -7.14 -4.167 -7.14 -0.5 C
-7.14 3.167 -4.167 6.14 -0.5 6.14 C
3.167 6.14 6.14 3.167 6.14 -0.5 C
S
GR
%%Trailer
%%Pages: 1
%%EOF
