%!PS-Adobe-3.0 EPSF-3.0
%%Creator: (MATLAB, The Mathworks, Inc. Version 9.2.0.538062 \(R2017a\). Operating System: Linux)
%%Title: /home/cassio/Dropbox/RWA/IFIP_LANC_RWAG18/figs/result2/JANET/janet.eps
%%CreationDate: 2018-09-16T19:59:37
%%Pages: (atend)
%%BoundingBox: 0 0 1440 751
%%LanguageLevel: 3
%%EndComments
%%BeginProlog
%%BeginResource: procset (Apache XML Graphics Std ProcSet) 1.2 0
%%Version: 1.2 0
%%Copyright: (Copyright 2001-2003,2010 The Apache Software Foundation. License terms: http://www.apache.org/licenses/LICENSE-2.0)
/bd{bind def}bind def
/ld{load def}bd
/GR/grestore ld
/M/moveto ld
/LJ/setlinejoin ld
/C/curveto ld
/f/fill ld
/LW/setlinewidth ld
/GC/setgray ld
/t/show ld
/N/newpath ld
/CT/concat ld
/cp/closepath ld
/S/stroke ld
/L/lineto ld
/CC/setcmykcolor ld
/A/ashow ld
/GS/gsave ld
/RC/setrgbcolor ld
/RM/rmoveto ld
/ML/setmiterlimit ld
/re {4 2 roll M
1 index 0 rlineto
0 exch rlineto
neg 0 rlineto
cp } bd
/_ctm matrix def
/_tm matrix def
/BT { _ctm currentmatrix pop matrix _tm copy pop 0 0 moveto } bd
/ET { _ctm setmatrix } bd
/iTm { _ctm setmatrix _tm concat } bd
/Tm { _tm astore pop iTm 0 0 moveto } bd
/ux 0.0 def
/uy 0.0 def
/F {
  /Tp exch def
  /Tf exch def
  Tf findfont Tp scalefont setfont
  /cf Tf def  /cs Tp def
} bd
/ULS {currentpoint /uy exch def /ux exch def} bd
/ULE {
  /Tcx currentpoint pop def
  gsave
  newpath
  cf findfont cs scalefont dup
  /FontMatrix get 0 get /Ts exch def /FontInfo get dup
  /UnderlinePosition get Ts mul /To exch def
  /UnderlineThickness get Ts mul /Tt exch def
  ux uy To add moveto  Tcx uy To add lineto
  Tt setlinewidth stroke
  grestore
} bd
/OLE {
  /Tcx currentpoint pop def
  gsave
  newpath
  cf findfont cs scalefont dup
  /FontMatrix get 0 get /Ts exch def /FontInfo get dup
  /UnderlinePosition get Ts mul /To exch def
  /UnderlineThickness get Ts mul /Tt exch def
  ux uy To add cs add moveto Tcx uy To add cs add lineto
  Tt setlinewidth stroke
  grestore
} bd
/SOE {
  /Tcx currentpoint pop def
  gsave
  newpath
  cf findfont cs scalefont dup
  /FontMatrix get 0 get /Ts exch def /FontInfo get dup
  /UnderlinePosition get Ts mul /To exch def
  /UnderlineThickness get Ts mul /Tt exch def
  ux uy To add cs 10 mul 26 idiv add moveto Tcx uy To add cs 10 mul 26 idiv add lineto
  Tt setlinewidth stroke
  grestore
} bd
/QT {
/Y22 exch store
/X22 exch store
/Y21 exch store
/X21 exch store
currentpoint
/Y21 load 2 mul add 3 div exch
/X21 load 2 mul add 3 div exch
/X21 load 2 mul /X22 load add 3 div
/Y21 load 2 mul /Y22 load add 3 div
/X22 load /Y22 load curveto
} bd
/SSPD {
dup length /d exch dict def
{
/v exch def
/k exch def
currentpagedevice k known {
/cpdv currentpagedevice k get def
v cpdv ne {
/upd false def
/nullv v type /nulltype eq def
/nullcpdv cpdv type /nulltype eq def
nullv nullcpdv or
{
/upd true def
} {
/sametype v type cpdv type eq def
sametype {
v type /arraytype eq {
/vlen v length def
/cpdvlen cpdv length def
vlen cpdvlen eq {
0 1 vlen 1 sub {
/i exch def
/obj v i get def
/cpdobj cpdv i get def
obj cpdobj ne {
/upd true def
exit
} if
} for
} {
/upd true def
} ifelse
} {
v type /dicttype eq {
v {
/dv exch def
/dk exch def
/cpddv cpdv dk get def
dv cpddv ne {
/upd true def
exit
} if
} forall
} {
/upd true def
} ifelse
} ifelse
} if
} ifelse
upd true eq {
d k v put
} if
} if
} if
} forall
d length 0 gt {
d setpagedevice
} if
} bd
/RE { % /NewFontName [NewEncodingArray] /FontName RE -
  findfont dup length dict begin
  {
    1 index /FID ne
    {def} {pop pop} ifelse
  } forall
  /Encoding exch def
  /FontName 1 index def
  currentdict definefont pop
  end
} bind def
%%EndResource
%%BeginResource: procset (Apache XML Graphics EPS ProcSet) 1.0 0
%%Version: 1.0 0
%%Copyright: (Copyright 2002-2003 The Apache Software Foundation. License terms: http://www.apache.org/licenses/LICENSE-2.0)
/BeginEPSF { %def
/b4_Inc_state save def         % Save state for cleanup
/dict_count countdictstack def % Count objects on dict stack
/op_count count 1 sub def      % Count objects on operand stack
userdict begin                 % Push userdict on dict stack
/showpage { } def              % Redefine showpage, { } = null proc
0 setgray 0 setlinecap         % Prepare graphics state
1 setlinewidth 0 setlinejoin
10 setmiterlimit [ ] 0 setdash newpath
/languagelevel where           % If level not equal to 1 then
{pop languagelevel             % set strokeadjust and
1 ne                           % overprint to their defaults.
{false setstrokeadjust false setoverprint
} if
} if
} bd
/EndEPSF { %def
count op_count sub {pop} repeat            % Clean up stacks
countdictstack dict_count sub {end} repeat
b4_Inc_state restore
} bd
%%EndResource
%FOPBeginFontDict
%%IncludeResource: font Courier-Bold
%%IncludeResource: font Helvetica
%%IncludeResource: font Courier-BoldOblique
%%IncludeResource: font Courier-Oblique
%%IncludeResource: font Times-Roman
%%IncludeResource: font Helvetica-BoldOblique
%%IncludeResource: font Helvetica-Bold
%%IncludeResource: font Helvetica-Oblique
%%IncludeResource: font Times-BoldItalic
%%IncludeResource: font Courier
%%IncludeResource: font Times-Italic
%%IncludeResource: font Times-Bold
%%IncludeResource: font Symbol
%%IncludeResource: font ZapfDingbats
%FOPEndFontDict
%%BeginResource: encoding WinAnsiEncoding
/WinAnsiEncoding [
/.notdef /.notdef /.notdef /.notdef /.notdef
/.notdef /.notdef /.notdef /.notdef /.notdef
/.notdef /.notdef /.notdef /.notdef /.notdef
/.notdef /.notdef /.notdef /.notdef /.notdef
/.notdef /.notdef /.notdef /.notdef /.notdef
/.notdef /.notdef /.notdef /.notdef /.notdef
/.notdef /.notdef /space /exclam /quotedbl
/numbersign /dollar /percent /ampersand /quotesingle
/parenleft /parenright /asterisk /plus /comma
/hyphen /period /slash /zero /one
/two /three /four /five /six
/seven /eight /nine /colon /semicolon
/less /equal /greater /question /at
/A /B /C /D /E
/F /G /H /I /J
/K /L /M /N /O
/P /Q /R /S /T
/U /V /W /X /Y
/Z /bracketleft /backslash /bracketright /asciicircum
/underscore /quoteleft /a /b /c
/d /e /f /g /h
/i /j /k /l /m
/n /o /p /q /r
/s /t /u /v /w
/x /y /z /braceleft /bar
/braceright /asciitilde /bullet /Euro /bullet
/quotesinglbase /florin /quotedblbase /ellipsis /dagger
/daggerdbl /circumflex /perthousand /Scaron /guilsinglleft
/OE /bullet /Zcaron /bullet /bullet
/quoteleft /quoteright /quotedblleft /quotedblright /bullet
/endash /emdash /asciitilde /trademark /scaron
/guilsinglright /oe /bullet /zcaron /Ydieresis
/space /exclamdown /cent /sterling /currency
/yen /brokenbar /section /dieresis /copyright
/ordfeminine /guillemotleft /logicalnot /sfthyphen /registered
/macron /degree /plusminus /twosuperior /threesuperior
/acute /mu /paragraph /middot /cedilla
/onesuperior /ordmasculine /guillemotright /onequarter /onehalf
/threequarters /questiondown /Agrave /Aacute /Acircumflex
/Atilde /Adieresis /Aring /AE /Ccedilla
/Egrave /Eacute /Ecircumflex /Edieresis /Igrave
/Iacute /Icircumflex /Idieresis /Eth /Ntilde
/Ograve /Oacute /Ocircumflex /Otilde /Odieresis
/multiply /Oslash /Ugrave /Uacute /Ucircumflex
/Udieresis /Yacute /Thorn /germandbls /agrave
/aacute /acircumflex /atilde /adieresis /aring
/ae /ccedilla /egrave /eacute /ecircumflex
/edieresis /igrave /iacute /icircumflex /idieresis
/eth /ntilde /ograve /oacute /ocircumflex
/otilde /odieresis /divide /oslash /ugrave
/uacute /ucircumflex /udieresis /yacute /thorn
/ydieresis
] def
%%EndResource
%FOPBeginFontReencode
/Courier-Bold findfont
dup length dict begin
  {1 index /FID ne {def} {pop pop} ifelse} forall
  /Encoding WinAnsiEncoding def
  currentdict
end
/Courier-Bold exch definefont pop
/Helvetica findfont
dup length dict begin
  {1 index /FID ne {def} {pop pop} ifelse} forall
  /Encoding WinAnsiEncoding def
  currentdict
end
/Helvetica exch definefont pop
/Courier-BoldOblique findfont
dup length dict begin
  {1 index /FID ne {def} {pop pop} ifelse} forall
  /Encoding WinAnsiEncoding def
  currentdict
end
/Courier-BoldOblique exch definefont pop
/Courier-Oblique findfont
dup length dict begin
  {1 index /FID ne {def} {pop pop} ifelse} forall
  /Encoding WinAnsiEncoding def
  currentdict
end
/Courier-Oblique exch definefont pop
/Times-Roman findfont
dup length dict begin
  {1 index /FID ne {def} {pop pop} ifelse} forall
  /Encoding WinAnsiEncoding def
  currentdict
end
/Times-Roman exch definefont pop
/Helvetica-BoldOblique findfont
dup length dict begin
  {1 index /FID ne {def} {pop pop} ifelse} forall
  /Encoding WinAnsiEncoding def
  currentdict
end
/Helvetica-BoldOblique exch definefont pop
/Helvetica-Bold findfont
dup length dict begin
  {1 index /FID ne {def} {pop pop} ifelse} forall
  /Encoding WinAnsiEncoding def
  currentdict
end
/Helvetica-Bold exch definefont pop
/Helvetica-Oblique findfont
dup length dict begin
  {1 index /FID ne {def} {pop pop} ifelse} forall
  /Encoding WinAnsiEncoding def
  currentdict
end
/Helvetica-Oblique exch definefont pop
/Times-BoldItalic findfont
dup length dict begin
  {1 index /FID ne {def} {pop pop} ifelse} forall
  /Encoding WinAnsiEncoding def
  currentdict
end
/Times-BoldItalic exch definefont pop
/Courier findfont
dup length dict begin
  {1 index /FID ne {def} {pop pop} ifelse} forall
  /Encoding WinAnsiEncoding def
  currentdict
end
/Courier exch definefont pop
/Times-Italic findfont
dup length dict begin
  {1 index /FID ne {def} {pop pop} ifelse} forall
  /Encoding WinAnsiEncoding def
  currentdict
end
/Times-Italic exch definefont pop
/Times-Bold findfont
dup length dict begin
  {1 index /FID ne {def} {pop pop} ifelse} forall
  /Encoding WinAnsiEncoding def
  currentdict
end
/Times-Bold exch definefont pop
%FOPEndFontReencode
%%EndProlog
%%Page: 1 1
%%PageBoundingBox: 0 0 1440 751
%%BeginPageSetup
[1 0 0 -1 0 751] CT
%%EndPageSetup
GS
[1.05417 0 0 1.05442 0 0.25] CT
1 GC
N
0 0 1366 712 re
f
GR
GS
[1.05417 0 0 1.05442 0 0.25] CT
1 GC
N
0 0 1366 712 re
f
GR
GS
[1.05417 0 0 1.05442 0 0.25] CT
1 GC
N
178 624 M
1236 624 L
1236 53 L
178 53 L
cp
f
GR
GS
[1.05417 0 0 1.05442 0 0.25] CT
0.873 GC
1 LJ
0.474 LW
N
257.17 624 M
257.17 53 L
S
GR
GS
[1.05417 0 0 1.05442 0 0.25] CT
0.873 GC
1 LJ
0.474 LW
N
365.129 624 M
365.129 53 L
S
GR
GS
[1.05417 0 0 1.05442 0 0.25] CT
0.873 GC
1 LJ
0.474 LW
N
473.088 624 M
473.088 53 L
S
GR
GS
[1.05417 0 0 1.05442 0 0.25] CT
0.873 GC
1 LJ
0.474 LW
N
581.048 624 M
581.048 53 L
S
GR
GS
[1.05417 0 0 1.05442 0 0.25] CT
0.873 GC
1 LJ
0.474 LW
N
689.007 624 M
689.007 53 L
S
GR
GS
[1.05417 0 0 1.05442 0 0.25] CT
0.873 GC
1 LJ
0.474 LW
N
796.966 624 M
796.966 53 L
S
GR
GS
[1.05417 0 0 1.05442 0 0.25] CT
0.873 GC
1 LJ
0.474 LW
N
904.925 624 M
904.925 53 L
S
GR
GS
[1.05417 0 0 1.05442 0 0.25] CT
0.873 GC
1 LJ
0.474 LW
N
1012.884 624 M
1012.884 53 L
S
GR
GS
[1.05417 0 0 1.05442 0 0.25] CT
0.873 GC
1 LJ
0.474 LW
N
1120.844 624 M
1120.844 53 L
S
GR
GS
[1.05417 0 0 1.05442 0 0.25] CT
0.873 GC
1 LJ
0.474 LW
N
1228.803 624 M
1228.803 53 L
S
GR
GS
[1.05417 0 0 1.05442 0 0.25] CT
0.873 GC
1 LJ
0.474 LW
N
1236 610.405 M
178 610.405 L
S
GR
GS
[1.05417 0 0 1.05442 0 0.25] CT
0.873 GC
1 LJ
0.474 LW
N
1236 542.429 M
178 542.429 L
S
GR
GS
[1.05417 0 0 1.05442 0 0.25] CT
0.873 GC
1 LJ
0.474 LW
N
1236 474.452 M
178 474.452 L
S
GR
GS
[1.05417 0 0 1.05442 0 0.25] CT
0.873 GC
1 LJ
0.474 LW
N
1236 406.476 M
178 406.476 L
S
GR
GS
[1.05417 0 0 1.05442 0 0.25] CT
0.873 GC
1 LJ
0.474 LW
N
1236 338.5 M
178 338.5 L
S
GR
GS
[1.05417 0 0 1.05442 0 0.25] CT
0.873 GC
1 LJ
0.474 LW
N
1236 270.524 M
178 270.524 L
S
GR
GS
[1.05417 0 0 1.05442 0 0.25] CT
0.873 GC
1 LJ
0.474 LW
N
1236 202.548 M
178 202.548 L
S
GR
GS
[1.05417 0 0 1.05442 0 0.25] CT
0.873 GC
1 LJ
0.474 LW
N
1236 134.571 M
178 134.571 L
S
GR
GS
[1.05417 0 0 1.05442 0 0.25] CT
0.873 GC
1 LJ
0.474 LW
N
1236 66.595 M
178 66.595 L
S
GR
GS
[1.05417 0 0 1.05442 0 0.25] CT
0.149 GC
2 setlinecap
1 LJ
0.474 LW
N
178 624 M
1236 624 L
S
GR
GS
[1.05417 0 0 1.05442 0 0.25] CT
0.149 GC
2 setlinecap
1 LJ
0.474 LW
N
178 53 M
1236 53 L
S
GR
GS
[1.05417 0 0 1.05442 0 0.25] CT
0.149 GC
2 setlinecap
1 LJ
0.474 LW
N
257.17 624 M
257.17 613.42 L
S
GR
GS
[1.05417 0 0 1.05442 0 0.25] CT
0.149 GC
2 setlinecap
1 LJ
0.474 LW
N
365.129 624 M
365.129 613.42 L
S
GR
GS
[1.05417 0 0 1.05442 0 0.25] CT
0.149 GC
2 setlinecap
1 LJ
0.474 LW
N
473.088 624 M
473.088 613.42 L
S
GR
GS
[1.05417 0 0 1.05442 0 0.25] CT
0.149 GC
2 setlinecap
1 LJ
0.474 LW
N
581.048 624 M
581.048 613.42 L
S
GR
GS
[1.05417 0 0 1.05442 0 0.25] CT
0.149 GC
2 setlinecap
1 LJ
0.474 LW
N
689.007 624 M
689.007 613.42 L
S
GR
GS
[1.05417 0 0 1.05442 0 0.25] CT
0.149 GC
2 setlinecap
1 LJ
0.474 LW
N
796.966 624 M
796.966 613.42 L
S
GR
GS
[1.05417 0 0 1.05442 0 0.25] CT
0.149 GC
2 setlinecap
1 LJ
0.474 LW
N
904.925 624 M
904.925 613.42 L
S
GR
GS
[1.05417 0 0 1.05442 0 0.25] CT
0.149 GC
2 setlinecap
1 LJ
0.474 LW
N
1012.884 624 M
1012.884 613.42 L
S
GR
GS
[1.05417 0 0 1.05442 0 0.25] CT
0.149 GC
2 setlinecap
1 LJ
0.474 LW
N
1120.844 624 M
1120.844 613.42 L
S
GR
GS
[1.05417 0 0 1.05442 0 0.25] CT
0.149 GC
2 setlinecap
1 LJ
0.474 LW
N
1228.803 624 M
1228.803 613.42 L
S
GR
GS
[1.05417 0 0 1.05442 0 0.25] CT
0.149 GC
2 setlinecap
1 LJ
0.474 LW
N
257.17 53 M
257.17 63.58 L
S
GR
GS
[1.05417 0 0 1.05442 0 0.25] CT
0.149 GC
2 setlinecap
1 LJ
0.474 LW
N
365.129 53 M
365.129 63.58 L
S
GR
GS
[1.05417 0 0 1.05442 0 0.25] CT
0.149 GC
2 setlinecap
1 LJ
0.474 LW
N
473.088 53 M
473.088 63.58 L
S
GR
GS
[1.05417 0 0 1.05442 0 0.25] CT
0.149 GC
2 setlinecap
1 LJ
0.474 LW
N
581.048 53 M
581.048 63.58 L
S
GR
GS
[1.05417 0 0 1.05442 0 0.25] CT
0.149 GC
2 setlinecap
1 LJ
0.474 LW
N
689.007 53 M
689.007 63.58 L
S
GR
GS
[1.05417 0 0 1.05442 0 0.25] CT
0.149 GC
2 setlinecap
1 LJ
0.474 LW
N
796.966 53 M
796.966 63.58 L
S
GR
GS
[1.05417 0 0 1.05442 0 0.25] CT
0.149 GC
2 setlinecap
1 LJ
0.474 LW
N
904.925 53 M
904.925 63.58 L
S
GR
GS
[1.05417 0 0 1.05442 0 0.25] CT
0.149 GC
2 setlinecap
1 LJ
0.474 LW
N
1012.884 53 M
1012.884 63.58 L
S
GR
GS
[1.05417 0 0 1.05442 0 0.25] CT
0.149 GC
2 setlinecap
1 LJ
0.474 LW
N
1120.844 53 M
1120.844 63.58 L
S
GR
GS
[1.05417 0 0 1.05442 0 0.25] CT
0.149 GC
2 setlinecap
1 LJ
0.474 LW
N
1228.803 53 M
1228.803 63.58 L
S
GR
GS
[1.05417 0 0 1.05442 271.10169 667.02391] CT
0.149 GC
/Helvetica 28.458 F
GS
[1 0 0 1 0 0] CT
-9 26 moveto 
1 -1 scale
(3) t 
GR
GR
GS
[1.05417 0 0 1.05442 384.9093 667.02391] CT
0.149 GC
/Helvetica 28.458 F
GS
[1 0 0 1 0 0] CT
-9 26 moveto 
1 -1 scale
(6) t 
GR
GR
GS
[1.05417 0 0 1.05442 498.71695 667.02391] CT
0.149 GC
/Helvetica 28.458 F
GS
[1 0 0 1 0 0] CT
-9 26 moveto 
1 -1 scale
(9) t 
GR
GR
GS
[1.05417 0 0 1.05442 612.52456 667.02391] CT
0.149 GC
/Helvetica 28.458 F
GS
[1 0 0 1 0 0] CT
-18 26 moveto 
1 -1 scale
(12) t 
GR
GR
GS
[1.05417 0 0 1.05442 726.33218 667.02391] CT
0.149 GC
/Helvetica 28.458 F
GS
[1 0 0 1 0 0] CT
-18 26 moveto 
1 -1 scale
(15) t 
GR
GR
GS
[1.05417 0 0 1.05442 840.13986 667.02391] CT
0.149 GC
/Helvetica 28.458 F
GS
[1 0 0 1 0 0] CT
-18 26 moveto 
1 -1 scale
(18) t 
GR
GR
GS
[1.05417 0 0 1.05442 953.94747 667.02391] CT
0.149 GC
/Helvetica 28.458 F
GS
[1 0 0 1 0 0] CT
-18 26 moveto 
1 -1 scale
(21) t 
GR
GR
GS
[1.05417 0 0 1.05442 1067.75509 667.02391] CT
0.149 GC
/Helvetica 28.458 F
GS
[1 0 0 1 0 0] CT
-18 26 moveto 
1 -1 scale
(24) t 
GR
GR
GS
[1.05417 0 0 1.05442 1181.5627 667.02391] CT
0.149 GC
/Helvetica 28.458 F
GS
[1 0 0 1 0 0] CT
-18 26 moveto 
1 -1 scale
(27) t 
GR
GR
GS
[1.05417 0 0 1.05442 1295.37038 667.02391] CT
0.149 GC
/Helvetica 28.458 F
GS
[1 0 0 1 0 0] CT
-18 26 moveto 
1 -1 scale
(30) t 
GR
GR
GS
[1.05417 0 0 1.05442 745.30066 703.55091] CT
0.149 GC
/Helvetica 37.944 F
GS
[1 0 0 1 0 0] CT
-138 36 moveto 
1 -1 scale
(Load \(Erlangs\)) t 
GR
GR
GS
[1.05417 0 0 1.05442 0 0.25] CT
0.149 GC
2 setlinecap
1 LJ
0.474 LW
N
178 624 M
178 53 L
S
GR
GS
[1.05417 0 0 1.05442 0 0.25] CT
0.149 GC
2 setlinecap
1 LJ
0.474 LW
N
1236 624 M
1236 53 L
S
GR
GS
[1.05417 0 0 1.05442 0 0.25] CT
0.149 GC
2 setlinecap
1 LJ
0.474 LW
N
178 610.405 M
188.58 610.405 L
S
GR
GS
[1.05417 0 0 1.05442 0 0.25] CT
0.149 GC
2 setlinecap
1 LJ
0.474 LW
N
178 542.429 M
188.58 542.429 L
S
GR
GS
[1.05417 0 0 1.05442 0 0.25] CT
0.149 GC
2 setlinecap
1 LJ
0.474 LW
N
178 474.452 M
188.58 474.452 L
S
GR
GS
[1.05417 0 0 1.05442 0 0.25] CT
0.149 GC
2 setlinecap
1 LJ
0.474 LW
N
178 406.476 M
188.58 406.476 L
S
GR
GS
[1.05417 0 0 1.05442 0 0.25] CT
0.149 GC
2 setlinecap
1 LJ
0.474 LW
N
178 338.5 M
188.58 338.5 L
S
GR
GS
[1.05417 0 0 1.05442 0 0.25] CT
0.149 GC
2 setlinecap
1 LJ
0.474 LW
N
178 270.524 M
188.58 270.524 L
S
GR
GS
[1.05417 0 0 1.05442 0 0.25] CT
0.149 GC
2 setlinecap
1 LJ
0.474 LW
N
178 202.548 M
188.58 202.548 L
S
GR
GS
[1.05417 0 0 1.05442 0 0.25] CT
0.149 GC
2 setlinecap
1 LJ
0.474 LW
N
178 134.571 M
188.58 134.571 L
S
GR
GS
[1.05417 0 0 1.05442 0 0.25] CT
0.149 GC
2 setlinecap
1 LJ
0.474 LW
N
178 66.595 M
188.58 66.595 L
S
GR
GS
[1.05417 0 0 1.05442 0 0.25] CT
0.149 GC
2 setlinecap
1 LJ
0.474 LW
N
1236 610.405 M
1225.42 610.405 L
S
GR
GS
[1.05417 0 0 1.05442 0 0.25] CT
0.149 GC
2 setlinecap
1 LJ
0.474 LW
N
1236 542.429 M
1225.42 542.429 L
S
GR
GS
[1.05417 0 0 1.05442 0 0.25] CT
0.149 GC
2 setlinecap
1 LJ
0.474 LW
N
1236 474.452 M
1225.42 474.452 L
S
GR
GS
[1.05417 0 0 1.05442 0 0.25] CT
0.149 GC
2 setlinecap
1 LJ
0.474 LW
N
1236 406.476 M
1225.42 406.476 L
S
GR
GS
[1.05417 0 0 1.05442 0 0.25] CT
0.149 GC
2 setlinecap
1 LJ
0.474 LW
N
1236 338.5 M
1225.42 338.5 L
S
GR
GS
[1.05417 0 0 1.05442 0 0.25] CT
0.149 GC
2 setlinecap
1 LJ
0.474 LW
N
1236 270.524 M
1225.42 270.524 L
S
GR
GS
[1.05417 0 0 1.05442 0 0.25] CT
0.149 GC
2 setlinecap
1 LJ
0.474 LW
N
1236 202.548 M
1225.42 202.548 L
S
GR
GS
[1.05417 0 0 1.05442 0 0.25] CT
0.149 GC
2 setlinecap
1 LJ
0.474 LW
N
1236 134.571 M
1225.42 134.571 L
S
GR
GS
[1.05417 0 0 1.05442 0 0.25] CT
0.149 GC
2 setlinecap
1 LJ
0.474 LW
N
1236 66.595 M
1225.42 66.595 L
S
GR
GS
[1.05417 0 0 1.05442 178.83162 643.87555] CT
0.149 GC
/Helvetica 28.458 F
GS
[1 0 0 1 0 0] CT
-18 9.5 moveto 
1 -1 scale
(0) t 
GR
GR
GS
[1.05417 0 0 1.05442 178.83162 572.19981] CT
0.149 GC
/Helvetica 28.458 F
GS
[1 0 0 1 0 0] CT
-36 9.5 moveto 
1 -1 scale
(10) t 
GR
GR
GS
[1.05417 0 0 1.05442 178.83162 500.52406] CT
0.149 GC
/Helvetica 28.458 F
GS
[1 0 0 1 0 0] CT
-36 9.5 moveto 
1 -1 scale
(20) t 
GR
GR
GS
[1.05417 0 0 1.05442 178.83162 428.84832] CT
0.149 GC
/Helvetica 28.458 F
GS
[1 0 0 1 0 0] CT
-36 9.5 moveto 
1 -1 scale
(30) t 
GR
GR
GS
[1.05417 0 0 1.05442 178.83162 357.17258] CT
0.149 GC
/Helvetica 28.458 F
GS
[1 0 0 1 0 0] CT
-36 9.5 moveto 
1 -1 scale
(40) t 
GR
GR
GS
[1.05417 0 0 1.05442 178.83162 285.49683] CT
0.149 GC
/Helvetica 28.458 F
GS
[1 0 0 1 0 0] CT
-36 9.5 moveto 
1 -1 scale
(50) t 
GR
GR
GS
[1.05417 0 0 1.05442 178.83162 213.82111] CT
0.149 GC
/Helvetica 28.458 F
GS
[1 0 0 1 0 0] CT
-36 9.5 moveto 
1 -1 scale
(60) t 
GR
GR
GS
[1.05417 0 0 1.05442 178.83162 142.14536] CT
0.149 GC
/Helvetica 28.458 F
GS
[1 0 0 1 0 0] CT
-36 9.5 moveto 
1 -1 scale
(70) t 
GR
GR
GS
[1.05417 0 0 1.05442 178.83162 70.46963] CT
0.149 GC
/Helvetica 28.458 F
GS
[1 0 0 1 0 0] CT
-36 9.5 moveto 
1 -1 scale
(80) t 
GR
GR
GS
[0 -1.05442 1.05417 0 136.66471 357.17232] CT
0.149 GC
/Helvetica 37.944 F
GS
[1 0 0 1 0 0] CT
-227 -9 moveto 
1 -1 scale
(Blocking Probability \(%\)) t 
GR
GR
GS
[1.05417 0 0 1.05442 0 0.25] CT
[10 6] 0 setdash
2 LJ
1.897 LW
N
185.197 596.81 M
221.184 595.11 L
257.17 583.214 L
293.156 561.122 L
329.143 527.134 L
365.129 527.134 L
401.116 457.458 L
437.102 448.961 L
473.088 387.783 L
509.075 375.887 L
545.061 377.586 L
581.048 335.101 L
617.034 307.911 L
653.02 280.72 L
689.007 282.42 L
724.993 275.622 L
760.98 260.327 L
796.966 253.53 L
832.952 209.345 L
868.939 204.247 L
904.925 217.842 L
940.912 190.652 L
976.898 165.161 L
1012.884 171.958 L
1048.871 171.958 L
1084.857 144.768 L
1120.844 154.964 L
1156.83 160.063 L
1192.816 154.964 L
1228.803 141.369 L
S
GR
GS
[1.05417 0 0 1.05442 195.22993 629.54036] CT
N
0 -10.116 M
-8.76 5.058 L
8.76 5.058 L
cp
f
GR
GS
[1.05417 0 0 1.05442 195.22993 629.54036] CT
10.0 ML
1.897 LW
N
0 -10.116 M
-8.76 5.058 L
8.76 5.058 L
cp
S
GR
GS
[1.05417 0 0 1.05442 233.1658 627.74847] CT
N
/f-18803871{0 -10.116 M
-8.76 5.058 L
8.76 5.058 L
cp}def
f-18803871
f
GR
GS
[1.05417 0 0 1.05442 233.1658 627.74847] CT
10.0 ML
1.897 LW
N
0 -10.116 M
-8.76 5.058 L
8.76 5.058 L
cp
S
GR
GS
[1.05417 0 0 1.05442 271.10169 615.20524] CT
N
f-18803871
f
GR
GS
[1.05417 0 0 1.05442 271.10169 615.20524] CT
10.0 ML
1.897 LW
N
0 -10.116 M
-8.76 5.058 L
8.76 5.058 L
cp
S
GR
GS
[1.05417 0 0 1.05442 309.03756 591.9106] CT
N
f-18803871
f
GR
GS
[1.05417 0 0 1.05442 309.03756 591.9106] CT
10.0 ML
1.897 LW
N
0 -10.116 M
-8.76 5.058 L
8.76 5.058 L
cp
S
GR
GS
[1.05417 0 0 1.05442 346.97343 556.07273] CT
N
f-18803871
f
GR
GS
[1.05417 0 0 1.05442 346.97343 556.07273] CT
10.0 ML
1.897 LW
N
0 -10.116 M
-8.76 5.058 L
8.76 5.058 L
cp
S
GR
GS
[1.05417 0 0 1.05442 384.9093 556.07273] CT
N
f-18803871
f
GR
GS
[1.05417 0 0 1.05442 384.9093 556.07273] CT
10.0 ML
1.897 LW
N
0 -10.116 M
-8.76 5.058 L
8.76 5.058 L
cp
S
GR
GS
[1.05417 0 0 1.05442 422.84517 482.60513] CT
N
f-18803871
f
GR
GS
[1.05417 0 0 1.05442 422.84517 482.60513] CT
10.0 ML
1.897 LW
N
0 -10.116 M
-8.76 5.058 L
8.76 5.058 L
cp
S
GR
GS
[1.05417 0 0 1.05442 460.78108 473.64564] CT
N
f-18803871
f
GR
GS
[1.05417 0 0 1.05442 460.78108 473.64564] CT
10.0 ML
1.897 LW
N
0 -10.116 M
-8.76 5.058 L
8.76 5.058 L
cp
S
GR
GS
[1.05417 0 0 1.05442 498.71695 409.13749] CT
N
f-18803871
f
GR
GS
[1.05417 0 0 1.05442 498.71695 409.13749] CT
10.0 ML
1.897 LW
N
0 -10.116 M
-8.76 5.058 L
8.76 5.058 L
cp
S
GR
GS
[1.05417 0 0 1.05442 536.65282 396.59423] CT
N
f-18803871
f
GR
GS
[1.05417 0 0 1.05442 536.65282 396.59423] CT
10.0 ML
1.897 LW
N
0 -10.116 M
-8.76 5.058 L
8.76 5.058 L
cp
S
GR
GS
[1.05417 0 0 1.05442 574.58869 398.38612] CT
N
f-18803871
f
GR
GS
[1.05417 0 0 1.05442 574.58869 398.38612] CT
10.0 ML
1.897 LW
N
0 -10.116 M
-8.76 5.058 L
8.76 5.058 L
cp
S
GR
GS
[1.05417 0 0 1.05442 612.52456 353.5888] CT
N
f-18803871
f
GR
GS
[1.05417 0 0 1.05442 612.52456 353.5888] CT
10.0 ML
1.897 LW
N
0 -10.116 M
-8.76 5.058 L
8.76 5.058 L
cp
S
GR
GS
[1.05417 0 0 1.05442 650.46044 324.91849] CT
N
f-18803871
f
GR
GS
[1.05417 0 0 1.05442 650.46044 324.91849] CT
10.0 ML
1.897 LW
N
0 -10.116 M
-8.76 5.058 L
8.76 5.058 L
cp
S
GR
GS
[1.05417 0 0 1.05442 688.39631 296.24821] CT
N
f-18803871
f
GR
GS
[1.05417 0 0 1.05442 688.39631 296.24821] CT
10.0 ML
1.897 LW
N
0 -10.116 M
-8.76 5.058 L
8.76 5.058 L
cp
S
GR
GS
[1.05417 0 0 1.05442 726.33218 298.0401] CT
N
f-18803871
f
GR
GS
[1.05417 0 0 1.05442 726.33218 298.0401] CT
10.0 ML
1.897 LW
N
0 -10.116 M
-8.76 5.058 L
8.76 5.058 L
cp
S
GR
GS
[1.05417 0 0 1.05442 764.26811 290.8725] CT
N
f-18803871
f
GR
GS
[1.05417 0 0 1.05442 764.26811 290.8725] CT
10.0 ML
1.897 LW
N
0 -10.116 M
-8.76 5.058 L
8.76 5.058 L
cp
S
GR
GS
[1.05417 0 0 1.05442 802.20399 274.74549] CT
N
f-18803871
f
GR
GS
[1.05417 0 0 1.05442 802.20399 274.74549] CT
10.0 ML
1.897 LW
N
0 -10.116 M
-8.76 5.058 L
8.76 5.058 L
cp
S
GR
GS
[1.05417 0 0 1.05442 840.13986 267.5779] CT
N
f-18803871
f
GR
GS
[1.05417 0 0 1.05442 840.13986 267.5779] CT
10.0 ML
1.897 LW
N
0 -10.116 M
-8.76 5.058 L
8.76 5.058 L
cp
S
GR
GS
[1.05417 0 0 1.05442 878.07573 220.98868] CT
N
f-18803871
f
GR
GS
[1.05417 0 0 1.05442 878.07573 220.98868] CT
10.0 ML
1.897 LW
N
0 -10.116 M
-8.76 5.058 L
8.76 5.058 L
cp
S
GR
GS
[1.05417 0 0 1.05442 916.0116 215.613] CT
N
f-18803871
f
GR
GS
[1.05417 0 0 1.05442 916.0116 215.613] CT
10.0 ML
1.897 LW
N
0 -10.116 M
-8.76 5.058 L
8.76 5.058 L
cp
S
GR
GS
[1.05417 0 0 1.05442 953.94747 229.94814] CT
N
f-18803871
f
GR
GS
[1.05417 0 0 1.05442 953.94747 229.94814] CT
10.0 ML
1.897 LW
N
0 -10.116 M
-8.76 5.058 L
8.76 5.058 L
cp
S
GR
GS
[1.05417 0 0 1.05442 991.88334 201.27784] CT
N
f-18803871
f
GR
GS
[1.05417 0 0 1.05442 991.88334 201.27784] CT
10.0 ML
1.897 LW
N
0 -10.116 M
-8.76 5.058 L
8.76 5.058 L
cp
S
GR
GS
[1.05417 0 0 1.05442 1029.81921 174.39945] CT
N
f-18803871
f
GR
GS
[1.05417 0 0 1.05442 1029.81921 174.39945] CT
10.0 ML
1.897 LW
N
0 -10.116 M
-8.76 5.058 L
8.76 5.058 L
cp
S
GR
GS
[1.05417 0 0 1.05442 1067.75509 181.56702] CT
N
f-18803871
f
GR
GS
[1.05417 0 0 1.05442 1067.75509 181.56702] CT
10.0 ML
1.897 LW
N
0 -10.116 M
-8.76 5.058 L
8.76 5.058 L
cp
S
GR
GS
[1.05417 0 0 1.05442 1105.69096 181.56702] CT
N
f-18803871
f
GR
GS
[1.05417 0 0 1.05442 1105.69096 181.56702] CT
10.0 ML
1.897 LW
N
0 -10.116 M
-8.76 5.058 L
8.76 5.058 L
cp
S
GR
GS
[1.05417 0 0 1.05442 1143.62689 152.89672] CT
N
f-18803871
f
GR
GS
[1.05417 0 0 1.05442 1143.62689 152.89672] CT
10.0 ML
1.897 LW
N
0 -10.116 M
-8.76 5.058 L
8.76 5.058 L
cp
S
GR
GS
[1.05417 0 0 1.05442 1181.5627 163.64808] CT
N
f-18803871
f
GR
GS
[1.05417 0 0 1.05442 1181.5627 163.64808] CT
10.0 ML
1.897 LW
N
0 -10.116 M
-8.76 5.058 L
8.76 5.058 L
cp
S
GR
GS
[1.05417 0 0 1.05442 1219.49864 169.02377] CT
N
f-18803871
f
GR
GS
[1.05417 0 0 1.05442 1219.49864 169.02377] CT
10.0 ML
1.897 LW
N
0 -10.116 M
-8.76 5.058 L
8.76 5.058 L
cp
S
GR
GS
[1.05417 0 0 1.05442 1257.43444 163.64808] CT
N
f-18803871
f
GR
GS
[1.05417 0 0 1.05442 1257.43444 163.64808] CT
10.0 ML
1.897 LW
N
0 -10.116 M
-8.76 5.058 L
8.76 5.058 L
cp
S
GR
GS
[1.05417 0 0 1.05442 1295.37038 149.31294] CT
N
f-18803871
f
GR
GS
[1.05417 0 0 1.05442 1295.37038 149.31294] CT
10.0 ML
1.897 LW
N
0 -10.116 M
-8.76 5.058 L
8.76 5.058 L
cp
S
GR
GS
[1.05417 0 0 1.05442 0 0.25] CT
1 0 1 RC
[10 6] 0 setdash
2 LJ
1.897 LW
N
185.197 591.711 M
221.184 586.613 L
257.17 578.116 L
293.156 550.926 L
329.143 520.336 L
365.129 513.539 L
401.116 448.961 L
437.102 438.765 L
473.088 375.887 L
509.075 360.592 L
545.061 369.089 L
581.048 313.009 L
617.034 302.813 L
653.02 275.622 L
689.007 268.824 L
724.993 263.726 L
760.98 241.634 L
796.966 238.235 L
832.952 197.449 L
868.939 197.449 L
904.925 194.051 L
940.912 173.658 L
976.898 156.664 L
1012.884 149.866 L
1048.871 156.664 L
1084.857 134.571 L
1120.844 146.467 L
1156.83 158.363 L
1192.816 146.467 L
1228.803 132.872 L
S
GR
GS
[1.05417 0 0 1.05442 195.22993 624.16469] CT
1 0 1 RC
10.0 ML
1.897 LW
N
-5.751 -3.32 M
-1.917 -3.32 L
0 -6.64 L
1.917 -3.32 L
5.751 -3.32 L
3.32 0 L
5.751 3.32 L
1.917 3.32 L
0 6.64 L
-1.917 3.32 L
-5.751 3.32 L
-3.32 0 L
cp
S
GR
GS
[1.05417 0 0 1.05442 233.1658 618.78902] CT
1 0 1 RC
10.0 ML
1.897 LW
N
-5.751 -3.32 M
-1.917 -3.32 L
0 -6.64 L
1.917 -3.32 L
5.751 -3.32 L
3.32 0 L
5.751 3.32 L
1.917 3.32 L
0 6.64 L
-1.917 3.32 L
-5.751 3.32 L
-3.32 0 L
cp
S
GR
GS
[1.05417 0 0 1.05442 271.10169 609.82957] CT
1 0 1 RC
10.0 ML
1.897 LW
N
-5.751 -3.32 M
-1.917 -3.32 L
0 -6.64 L
1.917 -3.32 L
5.751 -3.32 L
3.32 0 L
5.751 3.32 L
1.917 3.32 L
0 6.64 L
-1.917 3.32 L
-5.751 3.32 L
-3.32 0 L
cp
S
GR
GS
[1.05417 0 0 1.05442 309.03756 581.15926] CT
1 0 1 RC
10.0 ML
1.897 LW
N
-5.751 -3.32 M
-1.917 -3.32 L
0 -6.64 L
1.917 -3.32 L
5.751 -3.32 L
3.32 0 L
5.751 3.32 L
1.917 3.32 L
0 6.64 L
-1.917 3.32 L
-5.751 3.32 L
-3.32 0 L
cp
S
GR
GS
[1.05417 0 0 1.05442 346.97343 548.90517] CT
1 0 1 RC
10.0 ML
1.897 LW
N
-5.751 -3.32 M
-1.917 -3.32 L
0 -6.64 L
1.917 -3.32 L
5.751 -3.32 L
3.32 0 L
5.751 3.32 L
1.917 3.32 L
0 6.64 L
-1.917 3.32 L
-5.751 3.32 L
-3.32 0 L
cp
S
GR
GS
[1.05417 0 0 1.05442 384.9093 541.73761] CT
1 0 1 RC
10.0 ML
1.897 LW
N
-5.751 -3.32 M
-1.917 -3.32 L
0 -6.64 L
1.917 -3.32 L
5.751 -3.32 L
3.32 0 L
5.751 3.32 L
1.917 3.32 L
0 6.64 L
-1.917 3.32 L
-5.751 3.32 L
-3.32 0 L
cp
S
GR
GS
[1.05417 0 0 1.05442 422.84517 473.64564] CT
1 0 1 RC
10.0 ML
1.897 LW
N
-5.751 -3.32 M
-1.917 -3.32 L
0 -6.64 L
1.917 -3.32 L
5.751 -3.32 L
3.32 0 L
5.751 3.32 L
1.917 3.32 L
0 6.64 L
-1.917 3.32 L
-5.751 3.32 L
-3.32 0 L
cp
S
GR
GS
[1.05417 0 0 1.05442 460.78108 462.8943] CT
1 0 1 RC
10.0 ML
1.897 LW
N
-5.751 -3.32 M
-1.917 -3.32 L
0 -6.64 L
1.917 -3.32 L
5.751 -3.32 L
3.32 0 L
5.751 3.32 L
1.917 3.32 L
0 6.64 L
-1.917 3.32 L
-5.751 3.32 L
-3.32 0 L
cp
S
GR
GS
[1.05417 0 0 1.05442 498.71695 396.59423] CT
1 0 1 RC
10.0 ML
1.897 LW
N
-5.751 -3.32 M
-1.917 -3.32 L
0 -6.64 L
1.917 -3.32 L
5.751 -3.32 L
3.32 0 L
5.751 3.32 L
1.917 3.32 L
0 6.64 L
-1.917 3.32 L
-5.751 3.32 L
-3.32 0 L
cp
S
GR
GS
[1.05417 0 0 1.05442 536.65282 380.46718] CT
1 0 1 RC
10.0 ML
1.897 LW
N
-5.751 -3.32 M
-1.917 -3.32 L
0 -6.64 L
1.917 -3.32 L
5.751 -3.32 L
3.32 0 L
5.751 3.32 L
1.917 3.32 L
0 6.64 L
-1.917 3.32 L
-5.751 3.32 L
-3.32 0 L
cp
S
GR
GS
[1.05417 0 0 1.05442 574.58869 389.42667] CT
1 0 1 RC
10.0 ML
1.897 LW
N
-5.751 -3.32 M
-1.917 -3.32 L
0 -6.64 L
1.917 -3.32 L
5.751 -3.32 L
3.32 0 L
5.751 3.32 L
1.917 3.32 L
0 6.64 L
-1.917 3.32 L
-5.751 3.32 L
-3.32 0 L
cp
S
GR
GS
[1.05417 0 0 1.05442 612.52456 330.29419] CT
1 0 1 RC
10.0 ML
1.897 LW
N
-5.751 -3.32 M
-1.917 -3.32 L
0 -6.64 L
1.917 -3.32 L
5.751 -3.32 L
3.32 0 L
5.751 3.32 L
1.917 3.32 L
0 6.64 L
-1.917 3.32 L
-5.751 3.32 L
-3.32 0 L
cp
S
GR
GS
[1.05417 0 0 1.05442 650.46044 319.54282] CT
1 0 1 RC
10.0 ML
1.897 LW
N
-5.751 -3.32 M
-1.917 -3.32 L
0 -6.64 L
1.917 -3.32 L
5.751 -3.32 L
3.32 0 L
5.751 3.32 L
1.917 3.32 L
0 6.64 L
-1.917 3.32 L
-5.751 3.32 L
-3.32 0 L
cp
S
GR
GS
[1.05417 0 0 1.05442 688.39631 290.8725] CT
1 0 1 RC
10.0 ML
1.897 LW
N
-5.751 -3.32 M
-1.917 -3.32 L
0 -6.64 L
1.917 -3.32 L
5.751 -3.32 L
3.32 0 L
5.751 3.32 L
1.917 3.32 L
0 6.64 L
-1.917 3.32 L
-5.751 3.32 L
-3.32 0 L
cp
S
GR
GS
[1.05417 0 0 1.05442 726.33218 283.70494] CT
1 0 1 RC
10.0 ML
1.897 LW
N
-5.751 -3.32 M
-1.917 -3.32 L
0 -6.64 L
1.917 -3.32 L
5.751 -3.32 L
3.32 0 L
5.751 3.32 L
1.917 3.32 L
0 6.64 L
-1.917 3.32 L
-5.751 3.32 L
-3.32 0 L
cp
S
GR
GS
[1.05417 0 0 1.05442 764.26811 278.32927] CT
1 0 1 RC
10.0 ML
1.897 LW
N
-5.751 -3.32 M
-1.917 -3.32 L
0 -6.64 L
1.917 -3.32 L
5.751 -3.32 L
3.32 0 L
5.751 3.32 L
1.917 3.32 L
0 6.64 L
-1.917 3.32 L
-5.751 3.32 L
-3.32 0 L
cp
S
GR
GS
[1.05417 0 0 1.05442 802.20399 255.03465] CT
1 0 1 RC
10.0 ML
1.897 LW
N
-5.751 -3.32 M
-1.917 -3.32 L
0 -6.64 L
1.917 -3.32 L
5.751 -3.32 L
3.32 0 L
5.751 3.32 L
1.917 3.32 L
0 6.64 L
-1.917 3.32 L
-5.751 3.32 L
-3.32 0 L
cp
S
GR
GS
[1.05417 0 0 1.05442 840.13986 251.45087] CT
1 0 1 RC
10.0 ML
1.897 LW
N
-5.751 -3.32 M
-1.917 -3.32 L
0 -6.64 L
1.917 -3.32 L
5.751 -3.32 L
3.32 0 L
5.751 3.32 L
1.917 3.32 L
0 6.64 L
-1.917 3.32 L
-5.751 3.32 L
-3.32 0 L
cp
S
GR
GS
[1.05417 0 0 1.05442 878.07573 208.44542] CT
1 0 1 RC
10.0 ML
1.897 LW
N
-5.751 -3.32 M
-1.917 -3.32 L
0 -6.64 L
1.917 -3.32 L
5.751 -3.32 L
3.32 0 L
5.751 3.32 L
1.917 3.32 L
0 6.64 L
-1.917 3.32 L
-5.751 3.32 L
-3.32 0 L
cp
S
GR
GS
[1.05417 0 0 1.05442 916.0116 208.44542] CT
1 0 1 RC
10.0 ML
1.897 LW
N
-5.751 -3.32 M
-1.917 -3.32 L
0 -6.64 L
1.917 -3.32 L
5.751 -3.32 L
3.32 0 L
5.751 3.32 L
1.917 3.32 L
0 6.64 L
-1.917 3.32 L
-5.751 3.32 L
-3.32 0 L
cp
S
GR
GS
[1.05417 0 0 1.05442 953.94747 204.86164] CT
1 0 1 RC
10.0 ML
1.897 LW
N
-5.751 -3.32 M
-1.917 -3.32 L
0 -6.64 L
1.917 -3.32 L
5.751 -3.32 L
3.32 0 L
5.751 3.32 L
1.917 3.32 L
0 6.64 L
-1.917 3.32 L
-5.751 3.32 L
-3.32 0 L
cp
S
GR
GS
[1.05417 0 0 1.05442 991.88334 183.35892] CT
1 0 1 RC
10.0 ML
1.897 LW
N
-5.751 -3.32 M
-1.917 -3.32 L
0 -6.64 L
1.917 -3.32 L
5.751 -3.32 L
3.32 0 L
5.751 3.32 L
1.917 3.32 L
0 6.64 L
-1.917 3.32 L
-5.751 3.32 L
-3.32 0 L
cp
S
GR
GS
[1.05417 0 0 1.05442 1029.81921 165.43999] CT
1 0 1 RC
10.0 ML
1.897 LW
N
-5.751 -3.32 M
-1.917 -3.32 L
0 -6.64 L
1.917 -3.32 L
5.751 -3.32 L
3.32 0 L
5.751 3.32 L
1.917 3.32 L
0 6.64 L
-1.917 3.32 L
-5.751 3.32 L
-3.32 0 L
cp
S
GR
GS
[1.05417 0 0 1.05442 1067.75509 158.27241] CT
1 0 1 RC
10.0 ML
1.897 LW
N
-5.751 -3.32 M
-1.917 -3.32 L
0 -6.64 L
1.917 -3.32 L
5.751 -3.32 L
3.32 0 L
5.751 3.32 L
1.917 3.32 L
0 6.64 L
-1.917 3.32 L
-5.751 3.32 L
-3.32 0 L
cp
S
GR
GS
[1.05417 0 0 1.05442 1105.69096 165.43999] CT
1 0 1 RC
10.0 ML
1.897 LW
N
-5.751 -3.32 M
-1.917 -3.32 L
0 -6.64 L
1.917 -3.32 L
5.751 -3.32 L
3.32 0 L
5.751 3.32 L
1.917 3.32 L
0 6.64 L
-1.917 3.32 L
-5.751 3.32 L
-3.32 0 L
cp
S
GR
GS
[1.05417 0 0 1.05442 1143.62689 142.14536] CT
1 0 1 RC
10.0 ML
1.897 LW
N
-5.751 -3.32 M
-1.917 -3.32 L
0 -6.64 L
1.917 -3.32 L
5.751 -3.32 L
3.32 0 L
5.751 3.32 L
1.917 3.32 L
0 6.64 L
-1.917 3.32 L
-5.751 3.32 L
-3.32 0 L
cp
S
GR
GS
[1.05417 0 0 1.05442 1181.5627 154.68861] CT
1 0 1 RC
10.0 ML
1.897 LW
N
-5.751 -3.32 M
-1.917 -3.32 L
0 -6.64 L
1.917 -3.32 L
5.751 -3.32 L
3.32 0 L
5.751 3.32 L
1.917 3.32 L
0 6.64 L
-1.917 3.32 L
-5.751 3.32 L
-3.32 0 L
cp
S
GR
GS
[1.05417 0 0 1.05442 1219.49864 167.23188] CT
1 0 1 RC
10.0 ML
1.897 LW
N
-5.751 -3.32 M
-1.917 -3.32 L
0 -6.64 L
1.917 -3.32 L
5.751 -3.32 L
3.32 0 L
5.751 3.32 L
1.917 3.32 L
0 6.64 L
-1.917 3.32 L
-5.751 3.32 L
-3.32 0 L
cp
S
GR
GS
[1.05417 0 0 1.05442 1257.43444 154.68861] CT
1 0 1 RC
10.0 ML
1.897 LW
N
-5.751 -3.32 M
-1.917 -3.32 L
0 -6.64 L
1.917 -3.32 L
5.751 -3.32 L
3.32 0 L
5.751 3.32 L
1.917 3.32 L
0 6.64 L
-1.917 3.32 L
-5.751 3.32 L
-3.32 0 L
cp
S
GR
GS
[1.05417 0 0 1.05442 1295.37038 140.35347] CT
1 0 1 RC
10.0 ML
1.897 LW
N
-5.751 -3.32 M
-1.917 -3.32 L
0 -6.64 L
1.917 -3.32 L
5.751 -3.32 L
3.32 0 L
5.751 3.32 L
1.917 3.32 L
0 6.64 L
-1.917 3.32 L
-5.751 3.32 L
-3.32 0 L
cp
S
GR
GS
[1.05417 0 0 1.05442 0 0.25] CT
0 0.4 0.988 RC
[10 6] 0 setdash
2 LJ
1.897 LW
N
185.197 608.705 M
221.184 610.405 L
257.17 610.405 L
293.156 608.705 L
329.143 608.705 L
365.129 608.705 L
401.116 586.613 L
437.102 583.214 L
473.088 566.22 L
509.075 574.717 L
545.061 576.417 L
581.048 516.938 L
617.034 533.932 L
653.02 506.741 L
689.007 505.042 L
724.993 510.14 L
760.98 486.348 L
796.966 455.759 L
832.952 423.47 L
868.939 443.863 L
904.925 411.574 L
940.912 414.973 L
976.898 362.292 L
1012.884 387.783 L
1048.871 379.286 L
1084.857 353.795 L
1120.844 365.69 L
1156.83 363.991 L
1192.816 340.199 L
1228.803 323.205 L
S
GR
GS
[1.05417 0 0 1.05442 195.22993 642.08366] CT
0 0.4 0.988 RC
10.0 ML
1.897 LW
N
6.14 -0.5 M
6.14 -4.167 3.167 -7.14 -0.5 -7.14 C
-4.167 -7.14 -7.14 -4.167 -7.14 -0.5 C
-7.14 3.167 -4.167 6.14 -0.5 6.14 C
3.167 6.14 6.14 3.167 6.14 -0.5 C
S
GR
GS
[1.05417 0 0 1.05442 233.1658 643.87555] CT
0 0.4 0.988 RC
10.0 ML
1.897 LW
N
6.14 -0.5 M
6.14 -4.167 3.167 -7.14 -0.5 -7.14 C
-4.167 -7.14 -7.14 -4.167 -7.14 -0.5 C
-7.14 3.167 -4.167 6.14 -0.5 6.14 C
3.167 6.14 6.14 3.167 6.14 -0.5 C
S
GR
GS
[1.05417 0 0 1.05442 271.10169 643.87555] CT
0 0.4 0.988 RC
10.0 ML
1.897 LW
N
6.14 -0.5 M
6.14 -4.167 3.167 -7.14 -0.5 -7.14 C
-4.167 -7.14 -7.14 -4.167 -7.14 -0.5 C
-7.14 3.167 -4.167 6.14 -0.5 6.14 C
3.167 6.14 6.14 3.167 6.14 -0.5 C
S
GR
GS
[1.05417 0 0 1.05442 309.03756 642.08366] CT
0 0.4 0.988 RC
10.0 ML
1.897 LW
N
6.14 -0.5 M
6.14 -4.167 3.167 -7.14 -0.5 -7.14 C
-4.167 -7.14 -7.14 -4.167 -7.14 -0.5 C
-7.14 3.167 -4.167 6.14 -0.5 6.14 C
3.167 6.14 6.14 3.167 6.14 -0.5 C
S
GR
GS
[1.05417 0 0 1.05442 346.97343 642.08366] CT
0 0.4 0.988 RC
10.0 ML
1.897 LW
N
6.14 -0.5 M
6.14 -4.167 3.167 -7.14 -0.5 -7.14 C
-4.167 -7.14 -7.14 -4.167 -7.14 -0.5 C
-7.14 3.167 -4.167 6.14 -0.5 6.14 C
3.167 6.14 6.14 3.167 6.14 -0.5 C
S
GR
GS
[1.05417 0 0 1.05442 384.9093 642.08366] CT
0 0.4 0.988 RC
10.0 ML
1.897 LW
N
6.14 -0.5 M
6.14 -4.167 3.167 -7.14 -0.5 -7.14 C
-4.167 -7.14 -7.14 -4.167 -7.14 -0.5 C
-7.14 3.167 -4.167 6.14 -0.5 6.14 C
3.167 6.14 6.14 3.167 6.14 -0.5 C
S
GR
GS
[1.05417 0 0 1.05442 422.84517 618.78902] CT
0 0.4 0.988 RC
10.0 ML
1.897 LW
N
6.14 -0.5 M
6.14 -4.167 3.167 -7.14 -0.5 -7.14 C
-4.167 -7.14 -7.14 -4.167 -7.14 -0.5 C
-7.14 3.167 -4.167 6.14 -0.5 6.14 C
3.167 6.14 6.14 3.167 6.14 -0.5 C
S
GR
GS
[1.05417 0 0 1.05442 460.78108 615.20524] CT
0 0.4 0.988 RC
10.0 ML
1.897 LW
N
6.14 -0.5 M
6.14 -4.167 3.167 -7.14 -0.5 -7.14 C
-4.167 -7.14 -7.14 -4.167 -7.14 -0.5 C
-7.14 3.167 -4.167 6.14 -0.5 6.14 C
3.167 6.14 6.14 3.167 6.14 -0.5 C
S
GR
GS
[1.05417 0 0 1.05442 498.71695 597.28627] CT
0 0.4 0.988 RC
10.0 ML
1.897 LW
N
6.14 -0.5 M
6.14 -4.167 3.167 -7.14 -0.5 -7.14 C
-4.167 -7.14 -7.14 -4.167 -7.14 -0.5 C
-7.14 3.167 -4.167 6.14 -0.5 6.14 C
3.167 6.14 6.14 3.167 6.14 -0.5 C
S
GR
GS
[1.05417 0 0 1.05442 536.65282 606.24579] CT
0 0.4 0.988 RC
10.0 ML
1.897 LW
N
6.14 -0.5 M
6.14 -4.167 3.167 -7.14 -0.5 -7.14 C
-4.167 -7.14 -7.14 -4.167 -7.14 -0.5 C
-7.14 3.167 -4.167 6.14 -0.5 6.14 C
3.167 6.14 6.14 3.167 6.14 -0.5 C
S
GR
GS
[1.05417 0 0 1.05442 574.58869 608.03768] CT
0 0.4 0.988 RC
10.0 ML
1.897 LW
N
6.14 -0.5 M
6.14 -4.167 3.167 -7.14 -0.5 -7.14 C
-4.167 -7.14 -7.14 -4.167 -7.14 -0.5 C
-7.14 3.167 -4.167 6.14 -0.5 6.14 C
3.167 6.14 6.14 3.167 6.14 -0.5 C
S
GR
GS
[1.05417 0 0 1.05442 612.52456 545.32139] CT
0 0.4 0.988 RC
10.0 ML
1.897 LW
N
6.14 -0.5 M
6.14 -4.167 3.167 -7.14 -0.5 -7.14 C
-4.167 -7.14 -7.14 -4.167 -7.14 -0.5 C
-7.14 3.167 -4.167 6.14 -0.5 6.14 C
3.167 6.14 6.14 3.167 6.14 -0.5 C
S
GR
GS
[1.05417 0 0 1.05442 650.46044 563.24029] CT
0 0.4 0.988 RC
10.0 ML
1.897 LW
N
6.14 -0.5 M
6.14 -4.167 3.167 -7.14 -0.5 -7.14 C
-4.167 -7.14 -7.14 -4.167 -7.14 -0.5 C
-7.14 3.167 -4.167 6.14 -0.5 6.14 C
3.167 6.14 6.14 3.167 6.14 -0.5 C
S
GR
GS
[1.05417 0 0 1.05442 688.39631 534.57001] CT
0 0.4 0.988 RC
10.0 ML
1.897 LW
N
6.14 -0.5 M
6.14 -4.167 3.167 -7.14 -0.5 -7.14 C
-4.167 -7.14 -7.14 -4.167 -7.14 -0.5 C
-7.14 3.167 -4.167 6.14 -0.5 6.14 C
3.167 6.14 6.14 3.167 6.14 -0.5 C
S
GR
GS
[1.05417 0 0 1.05442 726.33218 532.77812] CT
0 0.4 0.988 RC
10.0 ML
1.897 LW
N
6.14 -0.5 M
6.14 -4.167 3.167 -7.14 -0.5 -7.14 C
-4.167 -7.14 -7.14 -4.167 -7.14 -0.5 C
-7.14 3.167 -4.167 6.14 -0.5 6.14 C
3.167 6.14 6.14 3.167 6.14 -0.5 C
S
GR
GS
[1.05417 0 0 1.05442 764.26811 538.15383] CT
0 0.4 0.988 RC
10.0 ML
1.897 LW
N
6.14 -0.5 M
6.14 -4.167 3.167 -7.14 -0.5 -7.14 C
-4.167 -7.14 -7.14 -4.167 -7.14 -0.5 C
-7.14 3.167 -4.167 6.14 -0.5 6.14 C
3.167 6.14 6.14 3.167 6.14 -0.5 C
S
GR
GS
[1.05417 0 0 1.05442 802.20399 513.0673] CT
0 0.4 0.988 RC
10.0 ML
1.897 LW
N
6.14 -0.5 M
6.14 -4.167 3.167 -7.14 -0.5 -7.14 C
-4.167 -7.14 -7.14 -4.167 -7.14 -0.5 C
-7.14 3.167 -4.167 6.14 -0.5 6.14 C
3.167 6.14 6.14 3.167 6.14 -0.5 C
S
GR
GS
[1.05417 0 0 1.05442 840.13986 480.81324] CT
0 0.4 0.988 RC
10.0 ML
1.897 LW
N
6.14 -0.5 M
6.14 -4.167 3.167 -7.14 -0.5 -7.14 C
-4.167 -7.14 -7.14 -4.167 -7.14 -0.5 C
-7.14 3.167 -4.167 6.14 -0.5 6.14 C
3.167 6.14 6.14 3.167 6.14 -0.5 C
S
GR
GS
[1.05417 0 0 1.05442 878.07573 446.76726] CT
0 0.4 0.988 RC
10.0 ML
1.897 LW
N
6.14 -0.5 M
6.14 -4.167 3.167 -7.14 -0.5 -7.14 C
-4.167 -7.14 -7.14 -4.167 -7.14 -0.5 C
-7.14 3.167 -4.167 6.14 -0.5 6.14 C
3.167 6.14 6.14 3.167 6.14 -0.5 C
S
GR
GS
[1.05417 0 0 1.05442 916.0116 468.26997] CT
0 0.4 0.988 RC
10.0 ML
1.897 LW
N
6.14 -0.5 M
6.14 -4.167 3.167 -7.14 -0.5 -7.14 C
-4.167 -7.14 -7.14 -4.167 -7.14 -0.5 C
-7.14 3.167 -4.167 6.14 -0.5 6.14 C
3.167 6.14 6.14 3.167 6.14 -0.5 C
S
GR
GS
[1.05417 0 0 1.05442 953.94747 434.22399] CT
0 0.4 0.988 RC
10.0 ML
1.897 LW
N
6.14 -0.5 M
6.14 -4.167 3.167 -7.14 -0.5 -7.14 C
-4.167 -7.14 -7.14 -4.167 -7.14 -0.5 C
-7.14 3.167 -4.167 6.14 -0.5 6.14 C
3.167 6.14 6.14 3.167 6.14 -0.5 C
S
GR
GS
[1.05417 0 0 1.05442 991.88334 437.80777] CT
0 0.4 0.988 RC
10.0 ML
1.897 LW
N
6.14 -0.5 M
6.14 -4.167 3.167 -7.14 -0.5 -7.14 C
-4.167 -7.14 -7.14 -4.167 -7.14 -0.5 C
-7.14 3.167 -4.167 6.14 -0.5 6.14 C
3.167 6.14 6.14 3.167 6.14 -0.5 C
S
GR
GS
[1.05417 0 0 1.05442 1029.81921 382.25907] CT
0 0.4 0.988 RC
10.0 ML
1.897 LW
N
6.14 -0.5 M
6.14 -4.167 3.167 -7.14 -0.5 -7.14 C
-4.167 -7.14 -7.14 -4.167 -7.14 -0.5 C
-7.14 3.167 -4.167 6.14 -0.5 6.14 C
3.167 6.14 6.14 3.167 6.14 -0.5 C
S
GR
GS
[1.05417 0 0 1.05442 1067.75509 409.13749] CT
0 0.4 0.988 RC
10.0 ML
1.897 LW
N
6.14 -0.5 M
6.14 -4.167 3.167 -7.14 -0.5 -7.14 C
-4.167 -7.14 -7.14 -4.167 -7.14 -0.5 C
-7.14 3.167 -4.167 6.14 -0.5 6.14 C
3.167 6.14 6.14 3.167 6.14 -0.5 C
S
GR
GS
[1.05417 0 0 1.05442 1105.69096 400.17801] CT
0 0.4 0.988 RC
10.0 ML
1.897 LW
N
6.14 -0.5 M
6.14 -4.167 3.167 -7.14 -0.5 -7.14 C
-4.167 -7.14 -7.14 -4.167 -7.14 -0.5 C
-7.14 3.167 -4.167 6.14 -0.5 6.14 C
3.167 6.14 6.14 3.167 6.14 -0.5 C
S
GR
GS
[1.05417 0 0 1.05442 1143.62689 373.29962] CT
0 0.4 0.988 RC
10.0 ML
1.897 LW
N
6.14 -0.5 M
6.14 -4.167 3.167 -7.14 -0.5 -7.14 C
-4.167 -7.14 -7.14 -4.167 -7.14 -0.5 C
-7.14 3.167 -4.167 6.14 -0.5 6.14 C
3.167 6.14 6.14 3.167 6.14 -0.5 C
S
GR
GS
[1.05417 0 0 1.05442 1181.5627 385.84289] CT
0 0.4 0.988 RC
10.0 ML
1.897 LW
N
6.14 -0.5 M
6.14 -4.167 3.167 -7.14 -0.5 -7.14 C
-4.167 -7.14 -7.14 -4.167 -7.14 -0.5 C
-7.14 3.167 -4.167 6.14 -0.5 6.14 C
3.167 6.14 6.14 3.167 6.14 -0.5 C
S
GR
GS
[1.05417 0 0 1.05442 1219.49864 384.05096] CT
0 0.4 0.988 RC
10.0 ML
1.897 LW
N
6.14 -0.5 M
6.14 -4.167 3.167 -7.14 -0.5 -7.14 C
-4.167 -7.14 -7.14 -4.167 -7.14 -0.5 C
-7.14 3.167 -4.167 6.14 -0.5 6.14 C
3.167 6.14 6.14 3.167 6.14 -0.5 C
S
GR
GS
[1.05417 0 0 1.05442 1257.43444 358.96447] CT
0 0.4 0.988 RC
10.0 ML
1.897 LW
N
6.14 -0.5 M
6.14 -4.167 3.167 -7.14 -0.5 -7.14 C
-4.167 -7.14 -7.14 -4.167 -7.14 -0.5 C
-7.14 3.167 -4.167 6.14 -0.5 6.14 C
3.167 6.14 6.14 3.167 6.14 -0.5 C
S
GR
GS
[1.05417 0 0 1.05442 1295.37038 341.04553] CT
0 0.4 0.988 RC
10.0 ML
1.897 LW
N
6.14 -0.5 M
6.14 -4.167 3.167 -7.14 -0.5 -7.14 C
-4.167 -7.14 -7.14 -4.167 -7.14 -0.5 C
-7.14 3.167 -4.167 6.14 -0.5 6.14 C
3.167 6.14 6.14 3.167 6.14 -0.5 C
S
GR
GS
[1.05417 0 0 1.05442 0 0.25] CT
0 0.502 0 RC
[10 6] 0 setdash
2 LJ
1.897 LW
N
185.197 594.77 M
221.184 591.711 L
257.17 579.815 L
293.156 559.423 L
329.143 523.735 L
365.129 522.036 L
401.116 454.06 L
437.102 447.262 L
473.088 387.783 L
509.075 367.39 L
545.061 379.286 L
581.048 324.905 L
617.034 313.009 L
653.02 277.321 L
689.007 279.021 L
724.993 267.125 L
760.98 256.929 L
796.966 246.732 L
832.952 200.848 L
868.939 204.247 L
904.925 209.345 L
940.912 187.253 L
976.898 149.866 L
1012.884 158.363 L
1048.871 168.56 L
1084.857 141.369 L
1120.844 151.565 L
1156.83 154.964 L
1192.816 149.866 L
1228.803 139.67 L
S
GR
GS
[1.05417 0 0 1.05442 195.22993 627.39013] CT
1 GC
N
/f-719462112{-5 -5 M
-5 5 L
5 5 L
5 -5 L
cp}def
f-719462112
f
GR
GS
[1.05417 0 0 1.05442 195.22993 627.39013] CT
0 0.502 0 RC
10.0 ML
1.897 LW
N
-5 -5 M
-5 5 L
5 5 L
5 -5 L
cp
S
GR
GS
[1.05417 0 0 1.05442 233.1658 624.16469] CT
1 GC
N
f-719462112
f
GR
GS
[1.05417 0 0 1.05442 233.1658 624.16469] CT
0 0.502 0 RC
10.0 ML
1.897 LW
N
-5 -5 M
-5 5 L
5 5 L
5 -5 L
cp
S
GR
GS
[1.05417 0 0 1.05442 271.10169 611.62146] CT
1 GC
N
f-719462112
f
GR
GS
[1.05417 0 0 1.05442 271.10169 611.62146] CT
0 0.502 0 RC
10.0 ML
1.897 LW
N
-5 -5 M
-5 5 L
5 5 L
5 -5 L
cp
S
GR
GS
[1.05417 0 0 1.05442 309.03756 590.11871] CT
1 GC
N
f-719462112
f
GR
GS
[1.05417 0 0 1.05442 309.03756 590.11871] CT
0 0.502 0 RC
10.0 ML
1.897 LW
N
-5 -5 M
-5 5 L
5 5 L
5 -5 L
cp
S
GR
GS
[1.05417 0 0 1.05442 346.97343 552.48895] CT
1 GC
N
f-719462112
f
GR
GS
[1.05417 0 0 1.05442 346.97343 552.48895] CT
0 0.502 0 RC
10.0 ML
1.897 LW
N
-5 -5 M
-5 5 L
5 5 L
5 -5 L
cp
S
GR
GS
[1.05417 0 0 1.05442 384.9093 550.69706] CT
1 GC
N
f-719462112
f
GR
GS
[1.05417 0 0 1.05442 384.9093 550.69706] CT
0 0.502 0 RC
10.0 ML
1.897 LW
N
-5 -5 M
-5 5 L
5 5 L
5 -5 L
cp
S
GR
GS
[1.05417 0 0 1.05442 422.84517 479.02132] CT
1 GC
N
f-719462112
f
GR
GS
[1.05417 0 0 1.05442 422.84517 479.02132] CT
0 0.502 0 RC
10.0 ML
1.897 LW
N
-5 -5 M
-5 5 L
5 5 L
5 -5 L
cp
S
GR
GS
[1.05417 0 0 1.05442 460.78108 471.85375] CT
1 GC
N
f-719462112
f
GR
GS
[1.05417 0 0 1.05442 460.78108 471.85375] CT
0 0.502 0 RC
10.0 ML
1.897 LW
N
-5 -5 M
-5 5 L
5 5 L
5 -5 L
cp
S
GR
GS
[1.05417 0 0 1.05442 498.71695 409.13749] CT
1 GC
N
f-719462112
f
GR
GS
[1.05417 0 0 1.05442 498.71695 409.13749] CT
0 0.502 0 RC
10.0 ML
1.897 LW
N
-5 -5 M
-5 5 L
5 5 L
5 -5 L
cp
S
GR
GS
[1.05417 0 0 1.05442 536.65282 387.63478] CT
1 GC
N
f-719462112
f
GR
GS
[1.05417 0 0 1.05442 536.65282 387.63478] CT
0 0.502 0 RC
10.0 ML
1.897 LW
N
-5 -5 M
-5 5 L
5 5 L
5 -5 L
cp
S
GR
GS
[1.05417 0 0 1.05442 574.58869 400.17801] CT
1 GC
N
f-719462112
f
GR
GS
[1.05417 0 0 1.05442 574.58869 400.17801] CT
0 0.502 0 RC
10.0 ML
1.897 LW
N
-5 -5 M
-5 5 L
5 5 L
5 -5 L
cp
S
GR
GS
[1.05417 0 0 1.05442 612.52456 342.83742] CT
1 GC
N
f-719462112
f
GR
GS
[1.05417 0 0 1.05442 612.52456 342.83742] CT
0 0.502 0 RC
10.0 ML
1.897 LW
N
-5 -5 M
-5 5 L
5 5 L
5 -5 L
cp
S
GR
GS
[1.05417 0 0 1.05442 650.46044 330.29419] CT
1 GC
N
f-719462112
f
GR
GS
[1.05417 0 0 1.05442 650.46044 330.29419] CT
0 0.502 0 RC
10.0 ML
1.897 LW
N
-5 -5 M
-5 5 L
5 5 L
5 -5 L
cp
S
GR
GS
[1.05417 0 0 1.05442 688.39631 292.66443] CT
1 GC
N
f-719462112
f
GR
GS
[1.05417 0 0 1.05442 688.39631 292.66443] CT
0 0.502 0 RC
10.0 ML
1.897 LW
N
-5 -5 M
-5 5 L
5 5 L
5 -5 L
cp
S
GR
GS
[1.05417 0 0 1.05442 726.33218 294.45632] CT
1 GC
N
f-719462112
f
GR
GS
[1.05417 0 0 1.05442 726.33218 294.45632] CT
0 0.502 0 RC
10.0 ML
1.897 LW
N
-5 -5 M
-5 5 L
5 5 L
5 -5 L
cp
S
GR
GS
[1.05417 0 0 1.05442 764.26811 281.91305] CT
1 GC
N
f-719462112
f
GR
GS
[1.05417 0 0 1.05442 764.26811 281.91305] CT
0 0.502 0 RC
10.0 ML
1.897 LW
N
-5 -5 M
-5 5 L
5 5 L
5 -5 L
cp
S
GR
GS
[1.05417 0 0 1.05442 802.20399 271.16168] CT
1 GC
N
f-719462112
f
GR
GS
[1.05417 0 0 1.05442 802.20399 271.16168] CT
0 0.502 0 RC
10.0 ML
1.897 LW
N
-5 -5 M
-5 5 L
5 5 L
5 -5 L
cp
S
GR
GS
[1.05417 0 0 1.05442 840.13986 260.41034] CT
1 GC
N
f-719462112
f
GR
GS
[1.05417 0 0 1.05442 840.13986 260.41034] CT
0 0.502 0 RC
10.0 ML
1.897 LW
N
-5 -5 M
-5 5 L
5 5 L
5 -5 L
cp
S
GR
GS
[1.05417 0 0 1.05442 878.07573 212.02922] CT
1 GC
N
f-719462112
f
GR
GS
[1.05417 0 0 1.05442 878.07573 212.02922] CT
0 0.502 0 RC
10.0 ML
1.897 LW
N
-5 -5 M
-5 5 L
5 5 L
5 -5 L
cp
S
GR
GS
[1.05417 0 0 1.05442 916.0116 215.613] CT
1 GC
N
f-719462112
f
GR
GS
[1.05417 0 0 1.05442 916.0116 215.613] CT
0 0.502 0 RC
10.0 ML
1.897 LW
N
-5 -5 M
-5 5 L
5 5 L
5 -5 L
cp
S
GR
GS
[1.05417 0 0 1.05442 953.94747 220.98868] CT
1 GC
N
f-719462112
f
GR
GS
[1.05417 0 0 1.05442 953.94747 220.98868] CT
0 0.502 0 RC
10.0 ML
1.897 LW
N
-5 -5 M
-5 5 L
5 5 L
5 -5 L
cp
S
GR
GS
[1.05417 0 0 1.05442 991.88334 197.69406] CT
1 GC
N
f-719462112
f
GR
GS
[1.05417 0 0 1.05442 991.88334 197.69406] CT
0 0.502 0 RC
10.0 ML
1.897 LW
N
-5 -5 M
-5 5 L
5 5 L
5 -5 L
cp
S
GR
GS
[1.05417 0 0 1.05442 1029.81921 158.27241] CT
1 GC
N
f-719462112
f
GR
GS
[1.05417 0 0 1.05442 1029.81921 158.27241] CT
0 0.502 0 RC
10.0 ML
1.897 LW
N
-5 -5 M
-5 5 L
5 5 L
5 -5 L
cp
S
GR
GS
[1.05417 0 0 1.05442 1067.75509 167.23188] CT
1 GC
N
f-719462112
f
GR
GS
[1.05417 0 0 1.05442 1067.75509 167.23188] CT
0 0.502 0 RC
10.0 ML
1.897 LW
N
-5 -5 M
-5 5 L
5 5 L
5 -5 L
cp
S
GR
GS
[1.05417 0 0 1.05442 1105.69096 177.98323] CT
1 GC
N
f-719462112
f
GR
GS
[1.05417 0 0 1.05442 1105.69096 177.98323] CT
0 0.502 0 RC
10.0 ML
1.897 LW
N
-5 -5 M
-5 5 L
5 5 L
5 -5 L
cp
S
GR
GS
[1.05417 0 0 1.05442 1143.62689 149.31294] CT
1 GC
N
f-719462112
f
GR
GS
[1.05417 0 0 1.05442 1143.62689 149.31294] CT
0 0.502 0 RC
10.0 ML
1.897 LW
N
-5 -5 M
-5 5 L
5 5 L
5 -5 L
cp
S
GR
GS
[1.05417 0 0 1.05442 1181.5627 160.0643] CT
1 GC
N
f-719462112
f
GR
GS
[1.05417 0 0 1.05442 1181.5627 160.0643] CT
0 0.502 0 RC
10.0 ML
1.897 LW
N
-5 -5 M
-5 5 L
5 5 L
5 -5 L
cp
S
GR
GS
[1.05417 0 0 1.05442 1219.49864 163.64808] CT
1 GC
N
f-719462112
f
GR
GS
[1.05417 0 0 1.05442 1219.49864 163.64808] CT
0 0.502 0 RC
10.0 ML
1.897 LW
N
-5 -5 M
-5 5 L
5 5 L
5 -5 L
cp
S
GR
GS
[1.05417 0 0 1.05442 1257.43444 158.27241] CT
1 GC
N
f-719462112
f
GR
GS
[1.05417 0 0 1.05442 1257.43444 158.27241] CT
0 0.502 0 RC
10.0 ML
1.897 LW
N
-5 -5 M
-5 5 L
5 5 L
5 -5 L
cp
S
GR
GS
[1.05417 0 0 1.05442 1295.37038 147.52105] CT
1 GC
N
f-719462112
f
GR
GS
[1.05417 0 0 1.05442 1295.37038 147.52105] CT
0 0.502 0 RC
10.0 ML
1.897 LW
N
-5 -5 M
-5 5 L
5 5 L
5 -5 L
cp
S
GR
GS
[1.05417 0 0 1.05442 0 0.25] CT
1 0 0 RC
[10 6] 0 setdash
2 LJ
0.949 LW
N
185.197 598.509 M
221.184 596.81 L
257.17 584.914 L
293.156 562.821 L
329.143 528.833 L
365.129 528.833 L
401.116 459.158 L
437.102 450.661 L
473.088 389.482 L
509.075 377.586 L
545.061 379.286 L
581.048 330.003 L
617.034 309.61 L
653.02 280.72 L
689.007 284.119 L
724.993 277.321 L
760.98 262.027 L
796.966 245.033 L
832.952 211.045 L
868.939 205.946 L
904.925 219.542 L
940.912 192.351 L
976.898 166.86 L
1012.884 173.658 L
1048.871 173.658 L
1084.857 146.467 L
1120.844 156.664 L
1156.83 153.265 L
1192.816 156.664 L
1228.803 143.068 L
S
GR
GS
[1.05417 0 0 1.05442 195.22993 631.33225] CT
1 0 0 RC
N
/f68728590{0 -7 M
0 7 L
-7 0 M
7 0 L
-4.695 -4.695 M
4.695 4.695 L
-4.695 4.695 M
4.695 -4.695 L}def
f68728590
f
GR
GS
[1.05417 0 0 1.05442 195.22993 631.33225] CT
1 0 0 RC
10.0 ML
N
0 -7 M
0 7 L
-7 0 M
7 0 L
-4.695 -4.695 M
4.695 4.695 L
-4.695 4.695 M
4.695 -4.695 L
S
GR
GS
[1.05417 0 0 1.05442 233.1658 629.54036] CT
1 0 0 RC
N
f68728590
f
GR
GS
[1.05417 0 0 1.05442 233.1658 629.54036] CT
1 0 0 RC
10.0 ML
N
0 -7 M
0 7 L
-7 0 M
7 0 L
-4.695 -4.695 M
4.695 4.695 L
-4.695 4.695 M
4.695 -4.695 L
S
GR
GS
[1.05417 0 0 1.05442 271.10169 616.99713] CT
1 0 0 RC
N
f68728590
f
GR
GS
[1.05417 0 0 1.05442 271.10169 616.99713] CT
1 0 0 RC
10.0 ML
N
0 -7 M
0 7 L
-7 0 M
7 0 L
-4.695 -4.695 M
4.695 4.695 L
-4.695 4.695 M
4.695 -4.695 L
S
GR
GS
[1.05417 0 0 1.05442 309.03756 593.70249] CT
1 0 0 RC
N
f68728590
f
GR
GS
[1.05417 0 0 1.05442 309.03756 593.70249] CT
1 0 0 RC
10.0 ML
N
0 -7 M
0 7 L
-7 0 M
7 0 L
-4.695 -4.695 M
4.695 4.695 L
-4.695 4.695 M
4.695 -4.695 L
S
GR
GS
[1.05417 0 0 1.05442 346.97343 557.86462] CT
1 0 0 RC
N
f68728590
f
GR
GS
[1.05417 0 0 1.05442 346.97343 557.86462] CT
1 0 0 RC
10.0 ML
N
0 -7 M
0 7 L
-7 0 M
7 0 L
-4.695 -4.695 M
4.695 4.695 L
-4.695 4.695 M
4.695 -4.695 L
S
GR
GS
[1.05417 0 0 1.05442 384.9093 557.86462] CT
1 0 0 RC
N
f68728590
f
GR
GS
[1.05417 0 0 1.05442 384.9093 557.86462] CT
1 0 0 RC
10.0 ML
N
0 -7 M
0 7 L
-7 0 M
7 0 L
-4.695 -4.695 M
4.695 4.695 L
-4.695 4.695 M
4.695 -4.695 L
S
GR
GS
[1.05417 0 0 1.05442 422.84517 484.39702] CT
1 0 0 RC
N
f68728590
f
GR
GS
[1.05417 0 0 1.05442 422.84517 484.39702] CT
1 0 0 RC
10.0 ML
N
0 -7 M
0 7 L
-7 0 M
7 0 L
-4.695 -4.695 M
4.695 4.695 L
-4.695 4.695 M
4.695 -4.695 L
S
GR
GS
[1.05417 0 0 1.05442 460.78108 475.43753] CT
1 0 0 RC
N
f68728590
f
GR
GS
[1.05417 0 0 1.05442 460.78108 475.43753] CT
1 0 0 RC
10.0 ML
N
0 -7 M
0 7 L
-7 0 M
7 0 L
-4.695 -4.695 M
4.695 4.695 L
-4.695 4.695 M
4.695 -4.695 L
S
GR
GS
[1.05417 0 0 1.05442 498.71695 410.92938] CT
1 0 0 RC
N
f68728590
f
GR
GS
[1.05417 0 0 1.05442 498.71695 410.92938] CT
1 0 0 RC
10.0 ML
N
0 -7 M
0 7 L
-7 0 M
7 0 L
-4.695 -4.695 M
4.695 4.695 L
-4.695 4.695 M
4.695 -4.695 L
S
GR
GS
[1.05417 0 0 1.05442 536.65282 398.38612] CT
1 0 0 RC
N
f68728590
f
GR
GS
[1.05417 0 0 1.05442 536.65282 398.38612] CT
1 0 0 RC
10.0 ML
N
0 -7 M
0 7 L
-7 0 M
7 0 L
-4.695 -4.695 M
4.695 4.695 L
-4.695 4.695 M
4.695 -4.695 L
S
GR
GS
[1.05417 0 0 1.05442 574.58869 400.17801] CT
1 0 0 RC
N
f68728590
f
GR
GS
[1.05417 0 0 1.05442 574.58869 400.17801] CT
1 0 0 RC
10.0 ML
N
0 -7 M
0 7 L
-7 0 M
7 0 L
-4.695 -4.695 M
4.695 4.695 L
-4.695 4.695 M
4.695 -4.695 L
S
GR
GS
[1.05417 0 0 1.05442 612.52456 348.21313] CT
1 0 0 RC
N
f68728590
f
GR
GS
[1.05417 0 0 1.05442 612.52456 348.21313] CT
1 0 0 RC
10.0 ML
N
0 -7 M
0 7 L
-7 0 M
7 0 L
-4.695 -4.695 M
4.695 4.695 L
-4.695 4.695 M
4.695 -4.695 L
S
GR
GS
[1.05417 0 0 1.05442 650.46044 326.71038] CT
1 0 0 RC
N
f68728590
f
GR
GS
[1.05417 0 0 1.05442 650.46044 326.71038] CT
1 0 0 RC
10.0 ML
N
0 -7 M
0 7 L
-7 0 M
7 0 L
-4.695 -4.695 M
4.695 4.695 L
-4.695 4.695 M
4.695 -4.695 L
S
GR
GS
[1.05417 0 0 1.05442 688.39631 296.24821] CT
1 0 0 RC
N
f68728590
f
GR
GS
[1.05417 0 0 1.05442 688.39631 296.24821] CT
1 0 0 RC
10.0 ML
N
0 -7 M
0 7 L
-7 0 M
7 0 L
-4.695 -4.695 M
4.695 4.695 L
-4.695 4.695 M
4.695 -4.695 L
S
GR
GS
[1.05417 0 0 1.05442 726.33218 299.83199] CT
1 0 0 RC
N
f68728590
f
GR
GS
[1.05417 0 0 1.05442 726.33218 299.83199] CT
1 0 0 RC
10.0 ML
N
0 -7 M
0 7 L
-7 0 M
7 0 L
-4.695 -4.695 M
4.695 4.695 L
-4.695 4.695 M
4.695 -4.695 L
S
GR
GS
[1.05417 0 0 1.05442 764.26811 292.66443] CT
1 0 0 RC
N
f68728590
f
GR
GS
[1.05417 0 0 1.05442 764.26811 292.66443] CT
1 0 0 RC
10.0 ML
N
0 -7 M
0 7 L
-7 0 M
7 0 L
-4.695 -4.695 M
4.695 4.695 L
-4.695 4.695 M
4.695 -4.695 L
S
GR
GS
[1.05417 0 0 1.05442 802.20399 276.53738] CT
1 0 0 RC
N
f68728590
f
GR
GS
[1.05417 0 0 1.05442 802.20399 276.53738] CT
1 0 0 RC
10.0 ML
N
0 -7 M
0 7 L
-7 0 M
7 0 L
-4.695 -4.695 M
4.695 4.695 L
-4.695 4.695 M
4.695 -4.695 L
S
GR
GS
[1.05417 0 0 1.05442 840.13986 258.61845] CT
1 0 0 RC
N
f68728590
f
GR
GS
[1.05417 0 0 1.05442 840.13986 258.61845] CT
1 0 0 RC
10.0 ML
N
0 -7 M
0 7 L
-7 0 M
7 0 L
-4.695 -4.695 M
4.695 4.695 L
-4.695 4.695 M
4.695 -4.695 L
S
GR
GS
[1.05417 0 0 1.05442 878.07573 222.78057] CT
1 0 0 RC
N
f68728590
f
GR
GS
[1.05417 0 0 1.05442 878.07573 222.78057] CT
1 0 0 RC
10.0 ML
N
0 -7 M
0 7 L
-7 0 M
7 0 L
-4.695 -4.695 M
4.695 4.695 L
-4.695 4.695 M
4.695 -4.695 L
S
GR
GS
[1.05417 0 0 1.05442 916.0116 217.40489] CT
1 0 0 RC
N
f68728590
f
GR
GS
[1.05417 0 0 1.05442 916.0116 217.40489] CT
1 0 0 RC
10.0 ML
N
0 -7 M
0 7 L
-7 0 M
7 0 L
-4.695 -4.695 M
4.695 4.695 L
-4.695 4.695 M
4.695 -4.695 L
S
GR
GS
[1.05417 0 0 1.05442 953.94747 231.74004] CT
1 0 0 RC
N
f68728590
f
GR
GS
[1.05417 0 0 1.05442 953.94747 231.74004] CT
1 0 0 RC
10.0 ML
N
0 -7 M
0 7 L
-7 0 M
7 0 L
-4.695 -4.695 M
4.695 4.695 L
-4.695 4.695 M
4.695 -4.695 L
S
GR
GS
[1.05417 0 0 1.05442 991.88334 203.06975] CT
1 0 0 RC
N
f68728590
f
GR
GS
[1.05417 0 0 1.05442 991.88334 203.06975] CT
1 0 0 RC
10.0 ML
N
0 -7 M
0 7 L
-7 0 M
7 0 L
-4.695 -4.695 M
4.695 4.695 L
-4.695 4.695 M
4.695 -4.695 L
S
GR
GS
[1.05417 0 0 1.05442 1029.81921 176.19134] CT
1 0 0 RC
N
f68728590
f
GR
GS
[1.05417 0 0 1.05442 1029.81921 176.19134] CT
1 0 0 RC
10.0 ML
N
0 -7 M
0 7 L
-7 0 M
7 0 L
-4.695 -4.695 M
4.695 4.695 L
-4.695 4.695 M
4.695 -4.695 L
S
GR
GS
[1.05417 0 0 1.05442 1067.75509 183.35892] CT
1 0 0 RC
N
f68728590
f
GR
GS
[1.05417 0 0 1.05442 1067.75509 183.35892] CT
1 0 0 RC
10.0 ML
N
0 -7 M
0 7 L
-7 0 M
7 0 L
-4.695 -4.695 M
4.695 4.695 L
-4.695 4.695 M
4.695 -4.695 L
S
GR
GS
[1.05417 0 0 1.05442 1105.69096 183.35892] CT
1 0 0 RC
N
f68728590
f
GR
GS
[1.05417 0 0 1.05442 1105.69096 183.35892] CT
1 0 0 RC
10.0 ML
N
0 -7 M
0 7 L
-7 0 M
7 0 L
-4.695 -4.695 M
4.695 4.695 L
-4.695 4.695 M
4.695 -4.695 L
S
GR
GS
[1.05417 0 0 1.05442 1143.62689 154.68861] CT
1 0 0 RC
N
f68728590
f
GR
GS
[1.05417 0 0 1.05442 1143.62689 154.68861] CT
1 0 0 RC
10.0 ML
N
0 -7 M
0 7 L
-7 0 M
7 0 L
-4.695 -4.695 M
4.695 4.695 L
-4.695 4.695 M
4.695 -4.695 L
S
GR
GS
[1.05417 0 0 1.05442 1181.5627 165.43999] CT
1 0 0 RC
N
f68728590
f
GR
GS
[1.05417 0 0 1.05442 1181.5627 165.43999] CT
1 0 0 RC
10.0 ML
N
0 -7 M
0 7 L
-7 0 M
7 0 L
-4.695 -4.695 M
4.695 4.695 L
-4.695 4.695 M
4.695 -4.695 L
S
GR
GS
[1.05417 0 0 1.05442 1219.49864 161.85619] CT
1 0 0 RC
N
f68728590
f
GR
GS
[1.05417 0 0 1.05442 1219.49864 161.85619] CT
1 0 0 RC
10.0 ML
N
0 -7 M
0 7 L
-7 0 M
7 0 L
-4.695 -4.695 M
4.695 4.695 L
-4.695 4.695 M
4.695 -4.695 L
S
GR
GS
[1.05417 0 0 1.05442 1257.43444 165.43999] CT
1 0 0 RC
N
f68728590
f
GR
GS
[1.05417 0 0 1.05442 1257.43444 165.43999] CT
1 0 0 RC
10.0 ML
N
0 -7 M
0 7 L
-7 0 M
7 0 L
-4.695 -4.695 M
4.695 4.695 L
-4.695 4.695 M
4.695 -4.695 L
S
GR
GS
[1.05417 0 0 1.05442 1295.37038 151.10483] CT
1 0 0 RC
N
f68728590
f
GR
GS
[1.05417 0 0 1.05442 1295.37038 151.10483] CT
1 0 0 RC
10.0 ML
N
0 -7 M
0 7 L
-7 0 M
7 0 L
-4.695 -4.695 M
4.695 4.695 L
-4.695 4.695 M
4.695 -4.695 L
S
GR
GS
[1.05417 0 0 1.05442 250.89312 90.93048] CT
/Helvetica 30.356 F
GS
[1 0 0 1 0 0] CT
0 10 moveto 
1 -1 scale
( Dijkstra + Graph Coloring) t 
GR
GR
GS
[1.05417 0 0 1.05442 0 0.25] CT
1 0 1 RC
[10 6] 0 setdash
2 LJ
1.897 LW
N
195 86 M
235 86 L
S
GR
GS
[1.05417 0 0 1.05442 226.64714 90.93048] CT
1 0 1 RC
10.0 ML
1.897 LW
N
-5.751 -3.32 M
-1.917 -3.32 L
0 -6.64 L
1.917 -3.32 L
5.751 -3.32 L
3.32 0 L
5.751 3.32 L
1.917 3.32 L
0 6.64 L
-1.917 3.32 L
-5.751 3.32 L
-3.32 0 L
cp
S
GR
GS
[1.05417 0 0 1.05442 250.89312 129.41696] CT
/Helvetica 30.356 F
GS
[1 0 0 1 0 0] CT
0 10 moveto 
1 -1 scale
( Dijkstra + First-Fit) t 
GR
GR
GS
[1.05417 0 0 1.05442 0 0.25] CT
[10 6] 0 setdash
2 LJ
1.897 LW
N
195 122.5 M
235 122.5 L
S
GR
GS
[1.05417 0 0 1.05442 226.64714 129.41696] CT
N
f-18803871
f
GR
GS
[1.05417 0 0 1.05442 226.64714 129.41696] CT
10.0 ML
1.897 LW
N
0 -10.116 M
-8.76 5.058 L
8.76 5.058 L
cp
S
GR
GS
[1.05417 0 0 1.05442 250.89312 167.90344] CT
/Helvetica 30.356 F
GS
[1 0 0 1 0 0] CT
0 10 moveto 
1 -1 scale
( Yen + Graph Coloring) t 
GR
GR
GS
[1.05417 0 0 1.05442 0 0.25] CT
0 0.502 0 RC
[10 6] 0 setdash
2 LJ
1.897 LW
N
195 159 M
235 159 L
S
GR
GS
[1.05417 0 0 1.05442 226.64714 167.90344] CT
1 GC
N
f-719462112
f
GR
GS
[1.05417 0 0 1.05442 226.64714 167.90344] CT
0 0.502 0 RC
10.0 ML
1.897 LW
N
-5 -5 M
-5 5 L
5 5 L
5 -5 L
cp
S
GR
GS
[1.05417 0 0 1.05442 250.89312 206.38992] CT
/Helvetica 30.356 F
GS
[1 0 0 1 0 0] CT
0 10 moveto 
1 -1 scale
( Yen + First-Fit) t 
GR
GR
GS
[1.05417 0 0 1.05442 0 0.25] CT
1 0 0 RC
[10 6] 0 setdash
2 LJ
0.949 LW
N
195 195.5 M
235 195.5 L
S
GR
GS
[1.05417 0 0 1.05442 226.64714 206.38992] CT
1 0 0 RC
N
f68728590
f
GR
GS
[1.05417 0 0 1.05442 226.64714 206.38992] CT
1 0 0 RC
10.0 ML
N
0 -7 M
0 7 L
-7 0 M
7 0 L
-4.695 -4.695 M
4.695 4.695 L
-4.695 4.695 M
4.695 -4.695 L
S
GR
GS
[1.05417 0 0 1.05442 250.89312 244.8764] CT
/Helvetica 30.356 F
GS
[1 0 0 1 0 0] CT
0 10 moveto 
1 -1 scale
( Genetic Algorithm) t 
GR
GR
GS
[1.05417 0 0 1.05442 0 0.25] CT
0 0.4 0.988 RC
[10 6] 0 setdash
2 LJ
1.897 LW
N
195 232 M
235 232 L
S
GR
GS
[1.05417 0 0 1.05442 226.64714 244.8764] CT
0 0.4 0.988 RC
10.0 ML
1.897 LW
N
6.14 -0.5 M
6.14 -4.167 3.167 -7.14 -0.5 -7.14 C
-4.167 -7.14 -7.14 -4.167 -7.14 -0.5 C
-7.14 3.167 -4.167 6.14 -0.5 6.14 C
3.167 6.14 6.14 3.167 6.14 -0.5 C
S
GR
%%Trailer
%%Pages: 1
%%EOF
