%!PS-Adobe-3.0 EPSF-3.0
%%Creator: (MATLAB, The Mathworks, Inc. Version 9.2.0.538062 \(R2017a\). Operating System: Linux)
%%Title: /home/cassio/Dropbox/RWA/IFIP_LANC_RWAG18/figs/result2/RNP/rnp.eps
%%CreationDate: 2018-09-16T19:59:53
%%Pages: (atend)
%%BoundingBox: 0 0 1440 751
%%LanguageLevel: 3
%%EndComments
%%BeginProlog
%%BeginResource: procset (Apache XML Graphics Std ProcSet) 1.2 0
%%Version: 1.2 0
%%Copyright: (Copyright 2001-2003,2010 The Apache Software Foundation. License terms: http://www.apache.org/licenses/LICENSE-2.0)
/bd{bind def}bind def
/ld{load def}bd
/GR/grestore ld
/M/moveto ld
/LJ/setlinejoin ld
/C/curveto ld
/f/fill ld
/LW/setlinewidth ld
/GC/setgray ld
/t/show ld
/N/newpath ld
/CT/concat ld
/cp/closepath ld
/S/stroke ld
/L/lineto ld
/CC/setcmykcolor ld
/A/ashow ld
/GS/gsave ld
/RC/setrgbcolor ld
/RM/rmoveto ld
/ML/setmiterlimit ld
/re {4 2 roll M
1 index 0 rlineto
0 exch rlineto
neg 0 rlineto
cp } bd
/_ctm matrix def
/_tm matrix def
/BT { _ctm currentmatrix pop matrix _tm copy pop 0 0 moveto } bd
/ET { _ctm setmatrix } bd
/iTm { _ctm setmatrix _tm concat } bd
/Tm { _tm astore pop iTm 0 0 moveto } bd
/ux 0.0 def
/uy 0.0 def
/F {
  /Tp exch def
  /Tf exch def
  Tf findfont Tp scalefont setfont
  /cf Tf def  /cs Tp def
} bd
/ULS {currentpoint /uy exch def /ux exch def} bd
/ULE {
  /Tcx currentpoint pop def
  gsave
  newpath
  cf findfont cs scalefont dup
  /FontMatrix get 0 get /Ts exch def /FontInfo get dup
  /UnderlinePosition get Ts mul /To exch def
  /UnderlineThickness get Ts mul /Tt exch def
  ux uy To add moveto  Tcx uy To add lineto
  Tt setlinewidth stroke
  grestore
} bd
/OLE {
  /Tcx currentpoint pop def
  gsave
  newpath
  cf findfont cs scalefont dup
  /FontMatrix get 0 get /Ts exch def /FontInfo get dup
  /UnderlinePosition get Ts mul /To exch def
  /UnderlineThickness get Ts mul /Tt exch def
  ux uy To add cs add moveto Tcx uy To add cs add lineto
  Tt setlinewidth stroke
  grestore
} bd
/SOE {
  /Tcx currentpoint pop def
  gsave
  newpath
  cf findfont cs scalefont dup
  /FontMatrix get 0 get /Ts exch def /FontInfo get dup
  /UnderlinePosition get Ts mul /To exch def
  /UnderlineThickness get Ts mul /Tt exch def
  ux uy To add cs 10 mul 26 idiv add moveto Tcx uy To add cs 10 mul 26 idiv add lineto
  Tt setlinewidth stroke
  grestore
} bd
/QT {
/Y22 exch store
/X22 exch store
/Y21 exch store
/X21 exch store
currentpoint
/Y21 load 2 mul add 3 div exch
/X21 load 2 mul add 3 div exch
/X21 load 2 mul /X22 load add 3 div
/Y21 load 2 mul /Y22 load add 3 div
/X22 load /Y22 load curveto
} bd
/SSPD {
dup length /d exch dict def
{
/v exch def
/k exch def
currentpagedevice k known {
/cpdv currentpagedevice k get def
v cpdv ne {
/upd false def
/nullv v type /nulltype eq def
/nullcpdv cpdv type /nulltype eq def
nullv nullcpdv or
{
/upd true def
} {
/sametype v type cpdv type eq def
sametype {
v type /arraytype eq {
/vlen v length def
/cpdvlen cpdv length def
vlen cpdvlen eq {
0 1 vlen 1 sub {
/i exch def
/obj v i get def
/cpdobj cpdv i get def
obj cpdobj ne {
/upd true def
exit
} if
} for
} {
/upd true def
} ifelse
} {
v type /dicttype eq {
v {
/dv exch def
/dk exch def
/cpddv cpdv dk get def
dv cpddv ne {
/upd true def
exit
} if
} forall
} {
/upd true def
} ifelse
} ifelse
} if
} ifelse
upd true eq {
d k v put
} if
} if
} if
} forall
d length 0 gt {
d setpagedevice
} if
} bd
/RE { % /NewFontName [NewEncodingArray] /FontName RE -
  findfont dup length dict begin
  {
    1 index /FID ne
    {def} {pop pop} ifelse
  } forall
  /Encoding exch def
  /FontName 1 index def
  currentdict definefont pop
  end
} bind def
%%EndResource
%%BeginResource: procset (Apache XML Graphics EPS ProcSet) 1.0 0
%%Version: 1.0 0
%%Copyright: (Copyright 2002-2003 The Apache Software Foundation. License terms: http://www.apache.org/licenses/LICENSE-2.0)
/BeginEPSF { %def
/b4_Inc_state save def         % Save state for cleanup
/dict_count countdictstack def % Count objects on dict stack
/op_count count 1 sub def      % Count objects on operand stack
userdict begin                 % Push userdict on dict stack
/showpage { } def              % Redefine showpage, { } = null proc
0 setgray 0 setlinecap         % Prepare graphics state
1 setlinewidth 0 setlinejoin
10 setmiterlimit [ ] 0 setdash newpath
/languagelevel where           % If level not equal to 1 then
{pop languagelevel             % set strokeadjust and
1 ne                           % overprint to their defaults.
{false setstrokeadjust false setoverprint
} if
} if
} bd
/EndEPSF { %def
count op_count sub {pop} repeat            % Clean up stacks
countdictstack dict_count sub {end} repeat
b4_Inc_state restore
} bd
%%EndResource
%FOPBeginFontDict
%%IncludeResource: font Courier-Bold
%%IncludeResource: font Helvetica
%%IncludeResource: font Courier-BoldOblique
%%IncludeResource: font Courier-Oblique
%%IncludeResource: font Times-Roman
%%IncludeResource: font Helvetica-BoldOblique
%%IncludeResource: font Helvetica-Bold
%%IncludeResource: font Helvetica-Oblique
%%IncludeResource: font Times-BoldItalic
%%IncludeResource: font Courier
%%IncludeResource: font Times-Italic
%%IncludeResource: font Times-Bold
%%IncludeResource: font Symbol
%%IncludeResource: font ZapfDingbats
%FOPEndFontDict
%%BeginResource: encoding WinAnsiEncoding
/WinAnsiEncoding [
/.notdef /.notdef /.notdef /.notdef /.notdef
/.notdef /.notdef /.notdef /.notdef /.notdef
/.notdef /.notdef /.notdef /.notdef /.notdef
/.notdef /.notdef /.notdef /.notdef /.notdef
/.notdef /.notdef /.notdef /.notdef /.notdef
/.notdef /.notdef /.notdef /.notdef /.notdef
/.notdef /.notdef /space /exclam /quotedbl
/numbersign /dollar /percent /ampersand /quotesingle
/parenleft /parenright /asterisk /plus /comma
/hyphen /period /slash /zero /one
/two /three /four /five /six
/seven /eight /nine /colon /semicolon
/less /equal /greater /question /at
/A /B /C /D /E
/F /G /H /I /J
/K /L /M /N /O
/P /Q /R /S /T
/U /V /W /X /Y
/Z /bracketleft /backslash /bracketright /asciicircum
/underscore /quoteleft /a /b /c
/d /e /f /g /h
/i /j /k /l /m
/n /o /p /q /r
/s /t /u /v /w
/x /y /z /braceleft /bar
/braceright /asciitilde /bullet /Euro /bullet
/quotesinglbase /florin /quotedblbase /ellipsis /dagger
/daggerdbl /circumflex /perthousand /Scaron /guilsinglleft
/OE /bullet /Zcaron /bullet /bullet
/quoteleft /quoteright /quotedblleft /quotedblright /bullet
/endash /emdash /asciitilde /trademark /scaron
/guilsinglright /oe /bullet /zcaron /Ydieresis
/space /exclamdown /cent /sterling /currency
/yen /brokenbar /section /dieresis /copyright
/ordfeminine /guillemotleft /logicalnot /sfthyphen /registered
/macron /degree /plusminus /twosuperior /threesuperior
/acute /mu /paragraph /middot /cedilla
/onesuperior /ordmasculine /guillemotright /onequarter /onehalf
/threequarters /questiondown /Agrave /Aacute /Acircumflex
/Atilde /Adieresis /Aring /AE /Ccedilla
/Egrave /Eacute /Ecircumflex /Edieresis /Igrave
/Iacute /Icircumflex /Idieresis /Eth /Ntilde
/Ograve /Oacute /Ocircumflex /Otilde /Odieresis
/multiply /Oslash /Ugrave /Uacute /Ucircumflex
/Udieresis /Yacute /Thorn /germandbls /agrave
/aacute /acircumflex /atilde /adieresis /aring
/ae /ccedilla /egrave /eacute /ecircumflex
/edieresis /igrave /iacute /icircumflex /idieresis
/eth /ntilde /ograve /oacute /ocircumflex
/otilde /odieresis /divide /oslash /ugrave
/uacute /ucircumflex /udieresis /yacute /thorn
/ydieresis
] def
%%EndResource
%FOPBeginFontReencode
/Courier-Bold findfont
dup length dict begin
  {1 index /FID ne {def} {pop pop} ifelse} forall
  /Encoding WinAnsiEncoding def
  currentdict
end
/Courier-Bold exch definefont pop
/Helvetica findfont
dup length dict begin
  {1 index /FID ne {def} {pop pop} ifelse} forall
  /Encoding WinAnsiEncoding def
  currentdict
end
/Helvetica exch definefont pop
/Courier-BoldOblique findfont
dup length dict begin
  {1 index /FID ne {def} {pop pop} ifelse} forall
  /Encoding WinAnsiEncoding def
  currentdict
end
/Courier-BoldOblique exch definefont pop
/Courier-Oblique findfont
dup length dict begin
  {1 index /FID ne {def} {pop pop} ifelse} forall
  /Encoding WinAnsiEncoding def
  currentdict
end
/Courier-Oblique exch definefont pop
/Times-Roman findfont
dup length dict begin
  {1 index /FID ne {def} {pop pop} ifelse} forall
  /Encoding WinAnsiEncoding def
  currentdict
end
/Times-Roman exch definefont pop
/Helvetica-BoldOblique findfont
dup length dict begin
  {1 index /FID ne {def} {pop pop} ifelse} forall
  /Encoding WinAnsiEncoding def
  currentdict
end
/Helvetica-BoldOblique exch definefont pop
/Helvetica-Bold findfont
dup length dict begin
  {1 index /FID ne {def} {pop pop} ifelse} forall
  /Encoding WinAnsiEncoding def
  currentdict
end
/Helvetica-Bold exch definefont pop
/Helvetica-Oblique findfont
dup length dict begin
  {1 index /FID ne {def} {pop pop} ifelse} forall
  /Encoding WinAnsiEncoding def
  currentdict
end
/Helvetica-Oblique exch definefont pop
/Times-BoldItalic findfont
dup length dict begin
  {1 index /FID ne {def} {pop pop} ifelse} forall
  /Encoding WinAnsiEncoding def
  currentdict
end
/Times-BoldItalic exch definefont pop
/Courier findfont
dup length dict begin
  {1 index /FID ne {def} {pop pop} ifelse} forall
  /Encoding WinAnsiEncoding def
  currentdict
end
/Courier exch definefont pop
/Times-Italic findfont
dup length dict begin
  {1 index /FID ne {def} {pop pop} ifelse} forall
  /Encoding WinAnsiEncoding def
  currentdict
end
/Times-Italic exch definefont pop
/Times-Bold findfont
dup length dict begin
  {1 index /FID ne {def} {pop pop} ifelse} forall
  /Encoding WinAnsiEncoding def
  currentdict
end
/Times-Bold exch definefont pop
%FOPEndFontReencode
%%EndProlog
%%Page: 1 1
%%PageBoundingBox: 0 0 1440 751
%%BeginPageSetup
[1 0 0 -1 0 751] CT
%%EndPageSetup
GS
[1.05417 0 0 1.05442 0 0.25] CT
1 GC
N
0 0 1366 712 re
f
GR
GS
[1.05417 0 0 1.05442 0 0.25] CT
1 GC
N
0 0 1366 712 re
f
GR
GS
[1.05417 0 0 1.05442 0 0.25] CT
1 GC
N
178 624 M
1236 624 L
1236 53 L
178 53 L
cp
f
GR
GS
[1.05417 0 0 1.05442 0 0.25] CT
0.873 GC
1 LJ
0.474 LW
N
257.17 624 M
257.17 53 L
S
GR
GS
[1.05417 0 0 1.05442 0 0.25] CT
0.873 GC
1 LJ
0.474 LW
N
365.129 624 M
365.129 53 L
S
GR
GS
[1.05417 0 0 1.05442 0 0.25] CT
0.873 GC
1 LJ
0.474 LW
N
473.088 624 M
473.088 53 L
S
GR
GS
[1.05417 0 0 1.05442 0 0.25] CT
0.873 GC
1 LJ
0.474 LW
N
581.048 624 M
581.048 53 L
S
GR
GS
[1.05417 0 0 1.05442 0 0.25] CT
0.873 GC
1 LJ
0.474 LW
N
689.007 624 M
689.007 53 L
S
GR
GS
[1.05417 0 0 1.05442 0 0.25] CT
0.873 GC
1 LJ
0.474 LW
N
796.966 624 M
796.966 53 L
S
GR
GS
[1.05417 0 0 1.05442 0 0.25] CT
0.873 GC
1 LJ
0.474 LW
N
904.925 624 M
904.925 53 L
S
GR
GS
[1.05417 0 0 1.05442 0 0.25] CT
0.873 GC
1 LJ
0.474 LW
N
1012.884 624 M
1012.884 53 L
S
GR
GS
[1.05417 0 0 1.05442 0 0.25] CT
0.873 GC
1 LJ
0.474 LW
N
1120.844 624 M
1120.844 53 L
S
GR
GS
[1.05417 0 0 1.05442 0 0.25] CT
0.873 GC
1 LJ
0.474 LW
N
1228.803 624 M
1228.803 53 L
S
GR
GS
[1.05417 0 0 1.05442 0 0.25] CT
0.873 GC
1 LJ
0.474 LW
N
1236 610.405 M
178 610.405 L
S
GR
GS
[1.05417 0 0 1.05442 0 0.25] CT
0.873 GC
1 LJ
0.474 LW
N
1236 542.429 M
178 542.429 L
S
GR
GS
[1.05417 0 0 1.05442 0 0.25] CT
0.873 GC
1 LJ
0.474 LW
N
1236 474.452 M
178 474.452 L
S
GR
GS
[1.05417 0 0 1.05442 0 0.25] CT
0.873 GC
1 LJ
0.474 LW
N
1236 406.476 M
178 406.476 L
S
GR
GS
[1.05417 0 0 1.05442 0 0.25] CT
0.873 GC
1 LJ
0.474 LW
N
1236 338.5 M
178 338.5 L
S
GR
GS
[1.05417 0 0 1.05442 0 0.25] CT
0.873 GC
1 LJ
0.474 LW
N
1236 270.524 M
178 270.524 L
S
GR
GS
[1.05417 0 0 1.05442 0 0.25] CT
0.873 GC
1 LJ
0.474 LW
N
1236 202.548 M
178 202.548 L
S
GR
GS
[1.05417 0 0 1.05442 0 0.25] CT
0.873 GC
1 LJ
0.474 LW
N
1236 134.571 M
178 134.571 L
S
GR
GS
[1.05417 0 0 1.05442 0 0.25] CT
0.873 GC
1 LJ
0.474 LW
N
1236 66.595 M
178 66.595 L
S
GR
GS
[1.05417 0 0 1.05442 0 0.25] CT
0.149 GC
2 setlinecap
1 LJ
0.474 LW
N
178 624 M
1236 624 L
S
GR
GS
[1.05417 0 0 1.05442 0 0.25] CT
0.149 GC
2 setlinecap
1 LJ
0.474 LW
N
178 53 M
1236 53 L
S
GR
GS
[1.05417 0 0 1.05442 0 0.25] CT
0.149 GC
2 setlinecap
1 LJ
0.474 LW
N
257.17 624 M
257.17 613.42 L
S
GR
GS
[1.05417 0 0 1.05442 0 0.25] CT
0.149 GC
2 setlinecap
1 LJ
0.474 LW
N
365.129 624 M
365.129 613.42 L
S
GR
GS
[1.05417 0 0 1.05442 0 0.25] CT
0.149 GC
2 setlinecap
1 LJ
0.474 LW
N
473.088 624 M
473.088 613.42 L
S
GR
GS
[1.05417 0 0 1.05442 0 0.25] CT
0.149 GC
2 setlinecap
1 LJ
0.474 LW
N
581.048 624 M
581.048 613.42 L
S
GR
GS
[1.05417 0 0 1.05442 0 0.25] CT
0.149 GC
2 setlinecap
1 LJ
0.474 LW
N
689.007 624 M
689.007 613.42 L
S
GR
GS
[1.05417 0 0 1.05442 0 0.25] CT
0.149 GC
2 setlinecap
1 LJ
0.474 LW
N
796.966 624 M
796.966 613.42 L
S
GR
GS
[1.05417 0 0 1.05442 0 0.25] CT
0.149 GC
2 setlinecap
1 LJ
0.474 LW
N
904.925 624 M
904.925 613.42 L
S
GR
GS
[1.05417 0 0 1.05442 0 0.25] CT
0.149 GC
2 setlinecap
1 LJ
0.474 LW
N
1012.884 624 M
1012.884 613.42 L
S
GR
GS
[1.05417 0 0 1.05442 0 0.25] CT
0.149 GC
2 setlinecap
1 LJ
0.474 LW
N
1120.844 624 M
1120.844 613.42 L
S
GR
GS
[1.05417 0 0 1.05442 0 0.25] CT
0.149 GC
2 setlinecap
1 LJ
0.474 LW
N
1228.803 624 M
1228.803 613.42 L
S
GR
GS
[1.05417 0 0 1.05442 0 0.25] CT
0.149 GC
2 setlinecap
1 LJ
0.474 LW
N
257.17 53 M
257.17 63.58 L
S
GR
GS
[1.05417 0 0 1.05442 0 0.25] CT
0.149 GC
2 setlinecap
1 LJ
0.474 LW
N
365.129 53 M
365.129 63.58 L
S
GR
GS
[1.05417 0 0 1.05442 0 0.25] CT
0.149 GC
2 setlinecap
1 LJ
0.474 LW
N
473.088 53 M
473.088 63.58 L
S
GR
GS
[1.05417 0 0 1.05442 0 0.25] CT
0.149 GC
2 setlinecap
1 LJ
0.474 LW
N
581.048 53 M
581.048 63.58 L
S
GR
GS
[1.05417 0 0 1.05442 0 0.25] CT
0.149 GC
2 setlinecap
1 LJ
0.474 LW
N
689.007 53 M
689.007 63.58 L
S
GR
GS
[1.05417 0 0 1.05442 0 0.25] CT
0.149 GC
2 setlinecap
1 LJ
0.474 LW
N
796.966 53 M
796.966 63.58 L
S
GR
GS
[1.05417 0 0 1.05442 0 0.25] CT
0.149 GC
2 setlinecap
1 LJ
0.474 LW
N
904.925 53 M
904.925 63.58 L
S
GR
GS
[1.05417 0 0 1.05442 0 0.25] CT
0.149 GC
2 setlinecap
1 LJ
0.474 LW
N
1012.884 53 M
1012.884 63.58 L
S
GR
GS
[1.05417 0 0 1.05442 0 0.25] CT
0.149 GC
2 setlinecap
1 LJ
0.474 LW
N
1120.844 53 M
1120.844 63.58 L
S
GR
GS
[1.05417 0 0 1.05442 0 0.25] CT
0.149 GC
2 setlinecap
1 LJ
0.474 LW
N
1228.803 53 M
1228.803 63.58 L
S
GR
GS
[1.05417 0 0 1.05442 271.10169 667.02391] CT
0.149 GC
/Helvetica 28.458 F
GS
[1 0 0 1 0 0] CT
-9 26 moveto 
1 -1 scale
(3) t 
GR
GR
GS
[1.05417 0 0 1.05442 384.9093 667.02391] CT
0.149 GC
/Helvetica 28.458 F
GS
[1 0 0 1 0 0] CT
-9 26 moveto 
1 -1 scale
(6) t 
GR
GR
GS
[1.05417 0 0 1.05442 498.71695 667.02391] CT
0.149 GC
/Helvetica 28.458 F
GS
[1 0 0 1 0 0] CT
-9 26 moveto 
1 -1 scale
(9) t 
GR
GR
GS
[1.05417 0 0 1.05442 612.52456 667.02391] CT
0.149 GC
/Helvetica 28.458 F
GS
[1 0 0 1 0 0] CT
-18 26 moveto 
1 -1 scale
(12) t 
GR
GR
GS
[1.05417 0 0 1.05442 726.33218 667.02391] CT
0.149 GC
/Helvetica 28.458 F
GS
[1 0 0 1 0 0] CT
-18 26 moveto 
1 -1 scale
(15) t 
GR
GR
GS
[1.05417 0 0 1.05442 840.13986 667.02391] CT
0.149 GC
/Helvetica 28.458 F
GS
[1 0 0 1 0 0] CT
-18 26 moveto 
1 -1 scale
(18) t 
GR
GR
GS
[1.05417 0 0 1.05442 953.94747 667.02391] CT
0.149 GC
/Helvetica 28.458 F
GS
[1 0 0 1 0 0] CT
-18 26 moveto 
1 -1 scale
(21) t 
GR
GR
GS
[1.05417 0 0 1.05442 1067.75509 667.02391] CT
0.149 GC
/Helvetica 28.458 F
GS
[1 0 0 1 0 0] CT
-18 26 moveto 
1 -1 scale
(24) t 
GR
GR
GS
[1.05417 0 0 1.05442 1181.5627 667.02391] CT
0.149 GC
/Helvetica 28.458 F
GS
[1 0 0 1 0 0] CT
-18 26 moveto 
1 -1 scale
(27) t 
GR
GR
GS
[1.05417 0 0 1.05442 1295.37038 667.02391] CT
0.149 GC
/Helvetica 28.458 F
GS
[1 0 0 1 0 0] CT
-18 26 moveto 
1 -1 scale
(30) t 
GR
GR
GS
[1.05417 0 0 1.05442 745.30066 703.55091] CT
0.149 GC
/Helvetica 37.944 F
GS
[1 0 0 1 0 0] CT
-138 36 moveto 
1 -1 scale
(Load \(Erlangs\)) t 
GR
GR
GS
[1.05417 0 0 1.05442 0 0.25] CT
0.149 GC
2 setlinecap
1 LJ
0.474 LW
N
178 624 M
178 53 L
S
GR
GS
[1.05417 0 0 1.05442 0 0.25] CT
0.149 GC
2 setlinecap
1 LJ
0.474 LW
N
1236 624 M
1236 53 L
S
GR
GS
[1.05417 0 0 1.05442 0 0.25] CT
0.149 GC
2 setlinecap
1 LJ
0.474 LW
N
178 610.405 M
188.58 610.405 L
S
GR
GS
[1.05417 0 0 1.05442 0 0.25] CT
0.149 GC
2 setlinecap
1 LJ
0.474 LW
N
178 542.429 M
188.58 542.429 L
S
GR
GS
[1.05417 0 0 1.05442 0 0.25] CT
0.149 GC
2 setlinecap
1 LJ
0.474 LW
N
178 474.452 M
188.58 474.452 L
S
GR
GS
[1.05417 0 0 1.05442 0 0.25] CT
0.149 GC
2 setlinecap
1 LJ
0.474 LW
N
178 406.476 M
188.58 406.476 L
S
GR
GS
[1.05417 0 0 1.05442 0 0.25] CT
0.149 GC
2 setlinecap
1 LJ
0.474 LW
N
178 338.5 M
188.58 338.5 L
S
GR
GS
[1.05417 0 0 1.05442 0 0.25] CT
0.149 GC
2 setlinecap
1 LJ
0.474 LW
N
178 270.524 M
188.58 270.524 L
S
GR
GS
[1.05417 0 0 1.05442 0 0.25] CT
0.149 GC
2 setlinecap
1 LJ
0.474 LW
N
178 202.548 M
188.58 202.548 L
S
GR
GS
[1.05417 0 0 1.05442 0 0.25] CT
0.149 GC
2 setlinecap
1 LJ
0.474 LW
N
178 134.571 M
188.58 134.571 L
S
GR
GS
[1.05417 0 0 1.05442 0 0.25] CT
0.149 GC
2 setlinecap
1 LJ
0.474 LW
N
178 66.595 M
188.58 66.595 L
S
GR
GS
[1.05417 0 0 1.05442 0 0.25] CT
0.149 GC
2 setlinecap
1 LJ
0.474 LW
N
1236 610.405 M
1225.42 610.405 L
S
GR
GS
[1.05417 0 0 1.05442 0 0.25] CT
0.149 GC
2 setlinecap
1 LJ
0.474 LW
N
1236 542.429 M
1225.42 542.429 L
S
GR
GS
[1.05417 0 0 1.05442 0 0.25] CT
0.149 GC
2 setlinecap
1 LJ
0.474 LW
N
1236 474.452 M
1225.42 474.452 L
S
GR
GS
[1.05417 0 0 1.05442 0 0.25] CT
0.149 GC
2 setlinecap
1 LJ
0.474 LW
N
1236 406.476 M
1225.42 406.476 L
S
GR
GS
[1.05417 0 0 1.05442 0 0.25] CT
0.149 GC
2 setlinecap
1 LJ
0.474 LW
N
1236 338.5 M
1225.42 338.5 L
S
GR
GS
[1.05417 0 0 1.05442 0 0.25] CT
0.149 GC
2 setlinecap
1 LJ
0.474 LW
N
1236 270.524 M
1225.42 270.524 L
S
GR
GS
[1.05417 0 0 1.05442 0 0.25] CT
0.149 GC
2 setlinecap
1 LJ
0.474 LW
N
1236 202.548 M
1225.42 202.548 L
S
GR
GS
[1.05417 0 0 1.05442 0 0.25] CT
0.149 GC
2 setlinecap
1 LJ
0.474 LW
N
1236 134.571 M
1225.42 134.571 L
S
GR
GS
[1.05417 0 0 1.05442 0 0.25] CT
0.149 GC
2 setlinecap
1 LJ
0.474 LW
N
1236 66.595 M
1225.42 66.595 L
S
GR
GS
[1.05417 0 0 1.05442 178.83162 643.87555] CT
0.149 GC
/Helvetica 28.458 F
GS
[1 0 0 1 0 0] CT
-18 9.5 moveto 
1 -1 scale
(0) t 
GR
GR
GS
[1.05417 0 0 1.05442 178.83162 572.19981] CT
0.149 GC
/Helvetica 28.458 F
GS
[1 0 0 1 0 0] CT
-36 9.5 moveto 
1 -1 scale
(10) t 
GR
GR
GS
[1.05417 0 0 1.05442 178.83162 500.52406] CT
0.149 GC
/Helvetica 28.458 F
GS
[1 0 0 1 0 0] CT
-36 9.5 moveto 
1 -1 scale
(20) t 
GR
GR
GS
[1.05417 0 0 1.05442 178.83162 428.84832] CT
0.149 GC
/Helvetica 28.458 F
GS
[1 0 0 1 0 0] CT
-36 9.5 moveto 
1 -1 scale
(30) t 
GR
GR
GS
[1.05417 0 0 1.05442 178.83162 357.17258] CT
0.149 GC
/Helvetica 28.458 F
GS
[1 0 0 1 0 0] CT
-36 9.5 moveto 
1 -1 scale
(40) t 
GR
GR
GS
[1.05417 0 0 1.05442 178.83162 285.49683] CT
0.149 GC
/Helvetica 28.458 F
GS
[1 0 0 1 0 0] CT
-36 9.5 moveto 
1 -1 scale
(50) t 
GR
GR
GS
[1.05417 0 0 1.05442 178.83162 213.82111] CT
0.149 GC
/Helvetica 28.458 F
GS
[1 0 0 1 0 0] CT
-36 9.5 moveto 
1 -1 scale
(60) t 
GR
GR
GS
[1.05417 0 0 1.05442 178.83162 142.14536] CT
0.149 GC
/Helvetica 28.458 F
GS
[1 0 0 1 0 0] CT
-36 9.5 moveto 
1 -1 scale
(70) t 
GR
GR
GS
[1.05417 0 0 1.05442 178.83162 70.46963] CT
0.149 GC
/Helvetica 28.458 F
GS
[1 0 0 1 0 0] CT
-36 9.5 moveto 
1 -1 scale
(80) t 
GR
GR
GS
[0 -1.05442 1.05417 0 136.66471 357.17232] CT
0.149 GC
/Helvetica 37.944 F
GS
[1 0 0 1 0 0] CT
-227 -9 moveto 
1 -1 scale
(Blocking Probability \(%\)) t 
GR
GR
GS
[1.05417 0 0 1.05442 0 0.25] CT
[10 6] 0 setdash
2 LJ
1.897 LW
N
185.197 607.933 M
221.184 605.049 L
257.17 597.633 L
293.156 582.802 L
329.143 571.267 L
365.129 527.185 L
401.116 488.46 L
437.102 457.561 L
473.088 415.128 L
509.075 389.997 L
545.061 345.916 L
581.048 316.665 L
617.034 309.662 L
653.02 307.19 L
689.007 255.693 L
724.993 254.869 L
760.98 242.921 L
796.966 218.615 L
832.952 202.96 L
868.939 217.379 L
904.925 179.477 L
940.912 174.533 L
976.898 174.121 L
1012.884 170.413 L
1048.871 145.695 L
1084.857 143.635 L
1120.844 141.987 L
1156.83 136.631 L
1192.816 138.691 L
1228.803 103.673 L
S
GR
GS
[1.05417 0 0 1.05442 195.22993 641.26916] CT
N
0 -10.116 M
-8.76 5.058 L
8.76 5.058 L
cp
f
GR
GS
[1.05417 0 0 1.05442 195.22993 641.26916] CT
10.0 ML
1.897 LW
N
0 -10.116 M
-8.76 5.058 L
8.76 5.058 L
cp
S
GR
GS
[1.05417 0 0 1.05442 233.1658 638.22836] CT
N
/f-18803871{0 -10.116 M
-8.76 5.058 L
8.76 5.058 L
cp}def
f-18803871
f
GR
GS
[1.05417 0 0 1.05442 233.1658 638.22836] CT
10.0 ML
1.897 LW
N
0 -10.116 M
-8.76 5.058 L
8.76 5.058 L
cp
S
GR
GS
[1.05417 0 0 1.05442 271.10169 630.40918] CT
N
f-18803871
f
GR
GS
[1.05417 0 0 1.05442 271.10169 630.40918] CT
10.0 ML
1.897 LW
N
0 -10.116 M
-8.76 5.058 L
8.76 5.058 L
cp
S
GR
GS
[1.05417 0 0 1.05442 309.03756 614.77083] CT
N
f-18803871
f
GR
GS
[1.05417 0 0 1.05442 309.03756 614.77083] CT
10.0 ML
1.897 LW
N
0 -10.116 M
-8.76 5.058 L
8.76 5.058 L
cp
S
GR
GS
[1.05417 0 0 1.05442 346.97343 602.60769] CT
N
f-18803871
f
GR
GS
[1.05417 0 0 1.05442 346.97343 602.60769] CT
10.0 ML
1.897 LW
N
0 -10.116 M
-8.76 5.058 L
8.76 5.058 L
cp
S
GR
GS
[1.05417 0 0 1.05442 384.9093 556.12705] CT
N
f-18803871
f
GR
GS
[1.05417 0 0 1.05442 384.9093 556.12705] CT
10.0 ML
1.897 LW
N
0 -10.116 M
-8.76 5.058 L
8.76 5.058 L
cp
S
GR
GS
[1.05417 0 0 1.05442 422.84517 515.2936] CT
N
f-18803871
f
GR
GS
[1.05417 0 0 1.05442 422.84517 515.2936] CT
10.0 ML
1.897 LW
N
0 -10.116 M
-8.76 5.058 L
8.76 5.058 L
cp
S
GR
GS
[1.05417 0 0 1.05442 460.78108 482.71373] CT
N
f-18803871
f
GR
GS
[1.05417 0 0 1.05442 460.78108 482.71373] CT
10.0 ML
1.897 LW
N
0 -10.116 M
-8.76 5.058 L
8.76 5.058 L
cp
S
GR
GS
[1.05417 0 0 1.05442 498.71695 437.97069] CT
N
f-18803871
f
GR
GS
[1.05417 0 0 1.05442 498.71695 437.97069] CT
10.0 ML
1.897 LW
N
0 -10.116 M
-8.76 5.058 L
8.76 5.058 L
cp
S
GR
GS
[1.05417 0 0 1.05442 536.65282 411.47236] CT
N
f-18803871
f
GR
GS
[1.05417 0 0 1.05442 536.65282 411.47236] CT
10.0 ML
1.897 LW
N
0 -10.116 M
-8.76 5.058 L
8.76 5.058 L
cp
S
GR
GS
[1.05417 0 0 1.05442 574.58869 364.99175] CT
N
f-18803871
f
GR
GS
[1.05417 0 0 1.05442 574.58869 364.99175] CT
10.0 ML
1.897 LW
N
0 -10.116 M
-8.76 5.058 L
8.76 5.058 L
cp
S
GR
GS
[1.05417 0 0 1.05442 612.52456 334.14946] CT
N
f-18803871
f
GR
GS
[1.05417 0 0 1.05442 612.52456 334.14946] CT
10.0 ML
1.897 LW
N
0 -10.116 M
-8.76 5.058 L
8.76 5.058 L
cp
S
GR
GS
[1.05417 0 0 1.05442 650.46044 326.76469] CT
N
f-18803871
f
GR
GS
[1.05417 0 0 1.05442 650.46044 326.76469] CT
10.0 ML
1.897 LW
N
0 -10.116 M
-8.76 5.058 L
8.76 5.058 L
cp
S
GR
GS
[1.05417 0 0 1.05442 688.39631 324.1583] CT
N
f-18803871
f
GR
GS
[1.05417 0 0 1.05442 688.39631 324.1583] CT
10.0 ML
1.897 LW
N
0 -10.116 M
-8.76 5.058 L
8.76 5.058 L
cp
S
GR
GS
[1.05417 0 0 1.05442 726.33218 269.85848] CT
N
f-18803871
f
GR
GS
[1.05417 0 0 1.05442 726.33218 269.85848] CT
10.0 ML
1.897 LW
N
0 -10.116 M
-8.76 5.058 L
8.76 5.058 L
cp
S
GR
GS
[1.05417 0 0 1.05442 764.26811 268.9897] CT
N
f-18803871
f
GR
GS
[1.05417 0 0 1.05442 764.26811 268.9897] CT
10.0 ML
1.897 LW
N
0 -10.116 M
-8.76 5.058 L
8.76 5.058 L
cp
S
GR
GS
[1.05417 0 0 1.05442 802.20399 256.39213] CT
N
f-18803871
f
GR
GS
[1.05417 0 0 1.05442 802.20399 256.39213] CT
10.0 ML
1.897 LW
N
0 -10.116 M
-8.76 5.058 L
8.76 5.058 L
cp
S
GR
GS
[1.05417 0 0 1.05442 840.13986 230.76264] CT
N
f-18803871
f
GR
GS
[1.05417 0 0 1.05442 840.13986 230.76264] CT
10.0 ML
1.897 LW
N
0 -10.116 M
-8.76 5.058 L
8.76 5.058 L
cp
S
GR
GS
[1.05417 0 0 1.05442 878.07573 214.25552] CT
N
f-18803871
f
GR
GS
[1.05417 0 0 1.05442 878.07573 214.25552] CT
10.0 ML
1.897 LW
N
0 -10.116 M
-8.76 5.058 L
8.76 5.058 L
cp
S
GR
GS
[1.05417 0 0 1.05442 916.0116 229.45946] CT
N
f-18803871
f
GR
GS
[1.05417 0 0 1.05442 916.0116 229.45946] CT
10.0 ML
1.897 LW
N
0 -10.116 M
-8.76 5.058 L
8.76 5.058 L
cp
S
GR
GS
[1.05417 0 0 1.05442 953.94747 189.49479] CT
N
f-18803871
f
GR
GS
[1.05417 0 0 1.05442 953.94747 189.49479] CT
10.0 ML
1.897 LW
N
0 -10.116 M
-8.76 5.058 L
8.76 5.058 L
cp
S
GR
GS
[1.05417 0 0 1.05442 991.88334 184.28198] CT
N
f-18803871
f
GR
GS
[1.05417 0 0 1.05442 991.88334 184.28198] CT
10.0 ML
1.897 LW
N
0 -10.116 M
-8.76 5.058 L
8.76 5.058 L
cp
S
GR
GS
[1.05417 0 0 1.05442 1029.81921 183.84763] CT
N
f-18803871
f
GR
GS
[1.05417 0 0 1.05442 1029.81921 183.84763] CT
10.0 ML
1.897 LW
N
0 -10.116 M
-8.76 5.058 L
8.76 5.058 L
cp
S
GR
GS
[1.05417 0 0 1.05442 1067.75509 179.93803] CT
N
f-18803871
f
GR
GS
[1.05417 0 0 1.05442 1067.75509 179.93803] CT
10.0 ML
1.897 LW
N
0 -10.116 M
-8.76 5.058 L
8.76 5.058 L
cp
S
GR
GS
[1.05417 0 0 1.05442 1105.69096 153.87409] CT
N
f-18803871
f
GR
GS
[1.05417 0 0 1.05442 1105.69096 153.87409] CT
10.0 ML
1.897 LW
N
0 -10.116 M
-8.76 5.058 L
8.76 5.058 L
cp
S
GR
GS
[1.05417 0 0 1.05442 1143.62689 151.70214] CT
N
f-18803871
f
GR
GS
[1.05417 0 0 1.05442 1143.62689 151.70214] CT
10.0 ML
1.897 LW
N
0 -10.116 M
-8.76 5.058 L
8.76 5.058 L
cp
S
GR
GS
[1.05417 0 0 1.05442 1181.5627 149.96455] CT
N
f-18803871
f
GR
GS
[1.05417 0 0 1.05442 1181.5627 149.96455] CT
10.0 ML
1.897 LW
N
0 -10.116 M
-8.76 5.058 L
8.76 5.058 L
cp
S
GR
GS
[1.05417 0 0 1.05442 1219.49864 144.31736] CT
N
f-18803871
f
GR
GS
[1.05417 0 0 1.05442 1219.49864 144.31736] CT
10.0 ML
1.897 LW
N
0 -10.116 M
-8.76 5.058 L
8.76 5.058 L
cp
S
GR
GS
[1.05417 0 0 1.05442 1257.43444 146.48938] CT
N
f-18803871
f
GR
GS
[1.05417 0 0 1.05442 1257.43444 146.48938] CT
10.0 ML
1.897 LW
N
0 -10.116 M
-8.76 5.058 L
8.76 5.058 L
cp
S
GR
GS
[1.05417 0 0 1.05442 1295.37038 109.56547] CT
N
f-18803871
f
GR
GS
[1.05417 0 0 1.05442 1295.37038 109.56547] CT
10.0 ML
1.897 LW
N
0 -10.116 M
-8.76 5.058 L
8.76 5.058 L
cp
S
GR
GS
[1.05417 0 0 1.05442 0 0.25] CT
1 0 1 RC
[10 6] 0 setdash
2 LJ
1.897 LW
N
185.197 606.285 M
221.184 602.989 L
257.17 594.75 L
293.156 579.095 L
329.143 567.147 L
365.129 524.302 L
401.116 485.576 L
437.102 452.206 L
473.088 409.772 L
509.075 383.405 L
545.061 339.324 L
581.048 312.957 L
617.034 303.894 L
653.02 307.19 L
689.007 252.809 L
724.993 250.749 L
760.98 236.33 L
796.966 217.379 L
832.952 200.076 L
868.939 209.139 L
904.925 177.829 L
940.912 167.53 L
976.898 172.885 L
1012.884 165.882 L
1048.871 139.103 L
1084.857 145.283 L
1120.844 142.811 L
1156.83 132.924 L
1192.816 130.04 L
1228.803 97.082 L
S
GR
GS
[1.05417 0 0 1.05442 195.22993 639.53152] CT
1 0 1 RC
10.0 ML
1.897 LW
N
-5.751 -3.32 M
-1.917 -3.32 L
0 -6.64 L
1.917 -3.32 L
5.751 -3.32 L
3.32 0 L
5.751 3.32 L
1.917 3.32 L
0 6.64 L
-1.917 3.32 L
-5.751 3.32 L
-3.32 0 L
cp
S
GR
GS
[1.05417 0 0 1.05442 233.1658 636.05638] CT
1 0 1 RC
10.0 ML
1.897 LW
N
-5.751 -3.32 M
-1.917 -3.32 L
0 -6.64 L
1.917 -3.32 L
5.751 -3.32 L
3.32 0 L
5.751 3.32 L
1.917 3.32 L
0 6.64 L
-1.917 3.32 L
-5.751 3.32 L
-3.32 0 L
cp
S
GR
GS
[1.05417 0 0 1.05442 271.10169 627.36838] CT
1 0 1 RC
10.0 ML
1.897 LW
N
-5.751 -3.32 M
-1.917 -3.32 L
0 -6.64 L
1.917 -3.32 L
5.751 -3.32 L
3.32 0 L
5.751 3.32 L
1.917 3.32 L
0 6.64 L
-1.917 3.32 L
-5.751 3.32 L
-3.32 0 L
cp
S
GR
GS
[1.05417 0 0 1.05442 309.03756 610.86128] CT
1 0 1 RC
10.0 ML
1.897 LW
N
-5.751 -3.32 M
-1.917 -3.32 L
0 -6.64 L
1.917 -3.32 L
5.751 -3.32 L
3.32 0 L
5.751 3.32 L
1.917 3.32 L
0 6.64 L
-1.917 3.32 L
-5.751 3.32 L
-3.32 0 L
cp
S
GR
GS
[1.05417 0 0 1.05442 346.97343 598.26366] CT
1 0 1 RC
10.0 ML
1.897 LW
N
-5.751 -3.32 M
-1.917 -3.32 L
0 -6.64 L
1.917 -3.32 L
5.751 -3.32 L
3.32 0 L
5.751 3.32 L
1.917 3.32 L
0 6.64 L
-1.917 3.32 L
-5.751 3.32 L
-3.32 0 L
cp
S
GR
GS
[1.05417 0 0 1.05442 384.9093 553.08625] CT
1 0 1 RC
10.0 ML
1.897 LW
N
-5.751 -3.32 M
-1.917 -3.32 L
0 -6.64 L
1.917 -3.32 L
5.751 -3.32 L
3.32 0 L
5.751 3.32 L
1.917 3.32 L
0 6.64 L
-1.917 3.32 L
-5.751 3.32 L
-3.32 0 L
cp
S
GR
GS
[1.05417 0 0 1.05442 422.84517 512.25283] CT
1 0 1 RC
10.0 ML
1.897 LW
N
-5.751 -3.32 M
-1.917 -3.32 L
0 -6.64 L
1.917 -3.32 L
5.751 -3.32 L
3.32 0 L
5.751 3.32 L
1.917 3.32 L
0 6.64 L
-1.917 3.32 L
-5.751 3.32 L
-3.32 0 L
cp
S
GR
GS
[1.05417 0 0 1.05442 460.78108 477.06654] CT
1 0 1 RC
10.0 ML
1.897 LW
N
-5.751 -3.32 M
-1.917 -3.32 L
0 -6.64 L
1.917 -3.32 L
5.751 -3.32 L
3.32 0 L
5.751 3.32 L
1.917 3.32 L
0 6.64 L
-1.917 3.32 L
-5.751 3.32 L
-3.32 0 L
cp
S
GR
GS
[1.05417 0 0 1.05442 498.71695 432.3235] CT
1 0 1 RC
10.0 ML
1.897 LW
N
-5.751 -3.32 M
-1.917 -3.32 L
0 -6.64 L
1.917 -3.32 L
5.751 -3.32 L
3.32 0 L
5.751 3.32 L
1.917 3.32 L
0 6.64 L
-1.917 3.32 L
-5.751 3.32 L
-3.32 0 L
cp
S
GR
GS
[1.05417 0 0 1.05442 536.65282 404.52201] CT
1 0 1 RC
10.0 ML
1.897 LW
N
-5.751 -3.32 M
-1.917 -3.32 L
0 -6.64 L
1.917 -3.32 L
5.751 -3.32 L
3.32 0 L
5.751 3.32 L
1.917 3.32 L
0 6.64 L
-1.917 3.32 L
-5.751 3.32 L
-3.32 0 L
cp
S
GR
GS
[1.05417 0 0 1.05442 574.58869 358.04136] CT
1 0 1 RC
10.0 ML
1.897 LW
N
-5.751 -3.32 M
-1.917 -3.32 L
0 -6.64 L
1.917 -3.32 L
5.751 -3.32 L
3.32 0 L
5.751 3.32 L
1.917 3.32 L
0 6.64 L
-1.917 3.32 L
-5.751 3.32 L
-3.32 0 L
cp
S
GR
GS
[1.05417 0 0 1.05442 612.52456 330.23987] CT
1 0 1 RC
10.0 ML
1.897 LW
N
-5.751 -3.32 M
-1.917 -3.32 L
0 -6.64 L
1.917 -3.32 L
5.751 -3.32 L
3.32 0 L
5.751 3.32 L
1.917 3.32 L
0 6.64 L
-1.917 3.32 L
-5.751 3.32 L
-3.32 0 L
cp
S
GR
GS
[1.05417 0 0 1.05442 650.46044 320.68312] CT
1 0 1 RC
10.0 ML
1.897 LW
N
-5.751 -3.32 M
-1.917 -3.32 L
0 -6.64 L
1.917 -3.32 L
5.751 -3.32 L
3.32 0 L
5.751 3.32 L
1.917 3.32 L
0 6.64 L
-1.917 3.32 L
-5.751 3.32 L
-3.32 0 L
cp
S
GR
GS
[1.05417 0 0 1.05442 688.39631 324.1583] CT
1 0 1 RC
10.0 ML
1.897 LW
N
-5.751 -3.32 M
-1.917 -3.32 L
0 -6.64 L
1.917 -3.32 L
5.751 -3.32 L
3.32 0 L
5.751 3.32 L
1.917 3.32 L
0 6.64 L
-1.917 3.32 L
-5.751 3.32 L
-3.32 0 L
cp
S
GR
GS
[1.05417 0 0 1.05442 726.33218 266.81771] CT
1 0 1 RC
10.0 ML
1.897 LW
N
-5.751 -3.32 M
-1.917 -3.32 L
0 -6.64 L
1.917 -3.32 L
5.751 -3.32 L
3.32 0 L
5.751 3.32 L
1.917 3.32 L
0 6.64 L
-1.917 3.32 L
-5.751 3.32 L
-3.32 0 L
cp
S
GR
GS
[1.05417 0 0 1.05442 764.26811 264.64572] CT
1 0 1 RC
10.0 ML
1.897 LW
N
-5.751 -3.32 M
-1.917 -3.32 L
0 -6.64 L
1.917 -3.32 L
5.751 -3.32 L
3.32 0 L
5.751 3.32 L
1.917 3.32 L
0 6.64 L
-1.917 3.32 L
-5.751 3.32 L
-3.32 0 L
cp
S
GR
GS
[1.05417 0 0 1.05442 802.20399 249.44176] CT
1 0 1 RC
10.0 ML
1.897 LW
N
-5.751 -3.32 M
-1.917 -3.32 L
0 -6.64 L
1.917 -3.32 L
5.751 -3.32 L
3.32 0 L
5.751 3.32 L
1.917 3.32 L
0 6.64 L
-1.917 3.32 L
-5.751 3.32 L
-3.32 0 L
cp
S
GR
GS
[1.05417 0 0 1.05442 840.13986 229.45946] CT
1 0 1 RC
10.0 ML
1.897 LW
N
-5.751 -3.32 M
-1.917 -3.32 L
0 -6.64 L
1.917 -3.32 L
5.751 -3.32 L
3.32 0 L
5.751 3.32 L
1.917 3.32 L
0 6.64 L
-1.917 3.32 L
-5.751 3.32 L
-3.32 0 L
cp
S
GR
GS
[1.05417 0 0 1.05442 878.07573 211.21471] CT
1 0 1 RC
10.0 ML
1.897 LW
N
-5.751 -3.32 M
-1.917 -3.32 L
0 -6.64 L
1.917 -3.32 L
5.751 -3.32 L
3.32 0 L
5.751 3.32 L
1.917 3.32 L
0 6.64 L
-1.917 3.32 L
-5.751 3.32 L
-3.32 0 L
cp
S
GR
GS
[1.05417 0 0 1.05442 916.0116 220.77146] CT
1 0 1 RC
10.0 ML
1.897 LW
N
-5.751 -3.32 M
-1.917 -3.32 L
0 -6.64 L
1.917 -3.32 L
5.751 -3.32 L
3.32 0 L
5.751 3.32 L
1.917 3.32 L
0 6.64 L
-1.917 3.32 L
-5.751 3.32 L
-3.32 0 L
cp
S
GR
GS
[1.05417 0 0 1.05442 953.94747 187.75719] CT
1 0 1 RC
10.0 ML
1.897 LW
N
-5.751 -3.32 M
-1.917 -3.32 L
0 -6.64 L
1.917 -3.32 L
5.751 -3.32 L
3.32 0 L
5.751 3.32 L
1.917 3.32 L
0 6.64 L
-1.917 3.32 L
-5.751 3.32 L
-3.32 0 L
cp
S
GR
GS
[1.05417 0 0 1.05442 991.88334 176.89726] CT
1 0 1 RC
10.0 ML
1.897 LW
N
-5.751 -3.32 M
-1.917 -3.32 L
0 -6.64 L
1.917 -3.32 L
5.751 -3.32 L
3.32 0 L
5.751 3.32 L
1.917 3.32 L
0 6.64 L
-1.917 3.32 L
-5.751 3.32 L
-3.32 0 L
cp
S
GR
GS
[1.05417 0 0 1.05442 1029.81921 182.54439] CT
1 0 1 RC
10.0 ML
1.897 LW
N
-5.751 -3.32 M
-1.917 -3.32 L
0 -6.64 L
1.917 -3.32 L
5.751 -3.32 L
3.32 0 L
5.751 3.32 L
1.917 3.32 L
0 6.64 L
-1.917 3.32 L
-5.751 3.32 L
-3.32 0 L
cp
S
GR
GS
[1.05417 0 0 1.05442 1067.75509 175.15967] CT
1 0 1 RC
10.0 ML
1.897 LW
N
-5.751 -3.32 M
-1.917 -3.32 L
0 -6.64 L
1.917 -3.32 L
5.751 -3.32 L
3.32 0 L
5.751 3.32 L
1.917 3.32 L
0 6.64 L
-1.917 3.32 L
-5.751 3.32 L
-3.32 0 L
cp
S
GR
GS
[1.05417 0 0 1.05442 1105.69096 146.92374] CT
1 0 1 RC
10.0 ML
1.897 LW
N
-5.751 -3.32 M
-1.917 -3.32 L
0 -6.64 L
1.917 -3.32 L
5.751 -3.32 L
3.32 0 L
5.751 3.32 L
1.917 3.32 L
0 6.64 L
-1.917 3.32 L
-5.751 3.32 L
-3.32 0 L
cp
S
GR
GS
[1.05417 0 0 1.05442 1143.62689 153.43973] CT
1 0 1 RC
10.0 ML
1.897 LW
N
-5.751 -3.32 M
-1.917 -3.32 L
0 -6.64 L
1.917 -3.32 L
5.751 -3.32 L
3.32 0 L
5.751 3.32 L
1.917 3.32 L
0 6.64 L
-1.917 3.32 L
-5.751 3.32 L
-3.32 0 L
cp
S
GR
GS
[1.05417 0 0 1.05442 1181.5627 150.83332] CT
1 0 1 RC
10.0 ML
1.897 LW
N
-5.751 -3.32 M
-1.917 -3.32 L
0 -6.64 L
1.917 -3.32 L
5.751 -3.32 L
3.32 0 L
5.751 3.32 L
1.917 3.32 L
0 6.64 L
-1.917 3.32 L
-5.751 3.32 L
-3.32 0 L
cp
S
GR
GS
[1.05417 0 0 1.05442 1219.49864 140.40777] CT
1 0 1 RC
10.0 ML
1.897 LW
N
-5.751 -3.32 M
-1.917 -3.32 L
0 -6.64 L
1.917 -3.32 L
5.751 -3.32 L
3.32 0 L
5.751 3.32 L
1.917 3.32 L
0 6.64 L
-1.917 3.32 L
-5.751 3.32 L
-3.32 0 L
cp
S
GR
GS
[1.05417 0 0 1.05442 1257.43444 137.367] CT
1 0 1 RC
10.0 ML
1.897 LW
N
-5.751 -3.32 M
-1.917 -3.32 L
0 -6.64 L
1.917 -3.32 L
5.751 -3.32 L
3.32 0 L
5.751 3.32 L
1.917 3.32 L
0 6.64 L
-1.917 3.32 L
-5.751 3.32 L
-3.32 0 L
cp
S
GR
GS
[1.05417 0 0 1.05442 1295.37038 102.61511] CT
1 0 1 RC
10.0 ML
1.897 LW
N
-5.751 -3.32 M
-1.917 -3.32 L
0 -6.64 L
1.917 -3.32 L
5.751 -3.32 L
3.32 0 L
5.751 3.32 L
1.917 3.32 L
0 6.64 L
-1.917 3.32 L
-5.751 3.32 L
-3.32 0 L
cp
S
GR
GS
[1.05417 0 0 1.05442 0 0.25] CT
0 0.4 0.988 RC
[10 6] 0 setdash
2 LJ
1.897 LW
N
185.197 610.405 M
221.184 610.405 L
257.17 610.405 L
293.156 610.405 L
329.143 610.405 L
365.129 610.405 L
401.116 610.405 L
437.102 610.405 L
473.088 609.169 L
509.075 610.405 L
545.061 605.873 L
581.048 608.757 L
617.034 609.581 L
653.02 601.341 L
689.007 602.989 L
724.993 594.338 L
760.98 599.693 L
796.966 594.338 L
832.952 595.162 L
868.939 594.338 L
904.925 594.338 L
940.912 590.63 L
976.898 598.457 L
1012.884 597.633 L
1048.871 586.51 L
1084.857 578.683 L
1120.844 587.746 L
1156.83 583.214 L
1192.816 577.035 L
1228.803 574.151 L
S
GR
GS
[1.05417 0 0 1.05442 195.22993 643.87555] CT
0 0.4 0.988 RC
10.0 ML
1.897 LW
N
6.14 -0.5 M
6.14 -4.167 3.167 -7.14 -0.5 -7.14 C
-4.167 -7.14 -7.14 -4.167 -7.14 -0.5 C
-7.14 3.167 -4.167 6.14 -0.5 6.14 C
3.167 6.14 6.14 3.167 6.14 -0.5 C
S
GR
GS
[1.05417 0 0 1.05442 233.1658 643.87555] CT
0 0.4 0.988 RC
10.0 ML
1.897 LW
N
6.14 -0.5 M
6.14 -4.167 3.167 -7.14 -0.5 -7.14 C
-4.167 -7.14 -7.14 -4.167 -7.14 -0.5 C
-7.14 3.167 -4.167 6.14 -0.5 6.14 C
3.167 6.14 6.14 3.167 6.14 -0.5 C
S
GR
GS
[1.05417 0 0 1.05442 271.10169 643.87555] CT
0 0.4 0.988 RC
10.0 ML
1.897 LW
N
6.14 -0.5 M
6.14 -4.167 3.167 -7.14 -0.5 -7.14 C
-4.167 -7.14 -7.14 -4.167 -7.14 -0.5 C
-7.14 3.167 -4.167 6.14 -0.5 6.14 C
3.167 6.14 6.14 3.167 6.14 -0.5 C
S
GR
GS
[1.05417 0 0 1.05442 309.03756 643.87555] CT
0 0.4 0.988 RC
10.0 ML
1.897 LW
N
6.14 -0.5 M
6.14 -4.167 3.167 -7.14 -0.5 -7.14 C
-4.167 -7.14 -7.14 -4.167 -7.14 -0.5 C
-7.14 3.167 -4.167 6.14 -0.5 6.14 C
3.167 6.14 6.14 3.167 6.14 -0.5 C
S
GR
GS
[1.05417 0 0 1.05442 346.97343 643.87555] CT
0 0.4 0.988 RC
10.0 ML
1.897 LW
N
6.14 -0.5 M
6.14 -4.167 3.167 -7.14 -0.5 -7.14 C
-4.167 -7.14 -7.14 -4.167 -7.14 -0.5 C
-7.14 3.167 -4.167 6.14 -0.5 6.14 C
3.167 6.14 6.14 3.167 6.14 -0.5 C
S
GR
GS
[1.05417 0 0 1.05442 384.9093 643.87555] CT
0 0.4 0.988 RC
10.0 ML
1.897 LW
N
6.14 -0.5 M
6.14 -4.167 3.167 -7.14 -0.5 -7.14 C
-4.167 -7.14 -7.14 -4.167 -7.14 -0.5 C
-7.14 3.167 -4.167 6.14 -0.5 6.14 C
3.167 6.14 6.14 3.167 6.14 -0.5 C
S
GR
GS
[1.05417 0 0 1.05442 422.84517 643.87555] CT
0 0.4 0.988 RC
10.0 ML
1.897 LW
N
6.14 -0.5 M
6.14 -4.167 3.167 -7.14 -0.5 -7.14 C
-4.167 -7.14 -7.14 -4.167 -7.14 -0.5 C
-7.14 3.167 -4.167 6.14 -0.5 6.14 C
3.167 6.14 6.14 3.167 6.14 -0.5 C
S
GR
GS
[1.05417 0 0 1.05442 460.78108 643.87555] CT
0 0.4 0.988 RC
10.0 ML
1.897 LW
N
6.14 -0.5 M
6.14 -4.167 3.167 -7.14 -0.5 -7.14 C
-4.167 -7.14 -7.14 -4.167 -7.14 -0.5 C
-7.14 3.167 -4.167 6.14 -0.5 6.14 C
3.167 6.14 6.14 3.167 6.14 -0.5 C
S
GR
GS
[1.05417 0 0 1.05442 498.71695 642.57232] CT
0 0.4 0.988 RC
10.0 ML
1.897 LW
N
6.14 -0.5 M
6.14 -4.167 3.167 -7.14 -0.5 -7.14 C
-4.167 -7.14 -7.14 -4.167 -7.14 -0.5 C
-7.14 3.167 -4.167 6.14 -0.5 6.14 C
3.167 6.14 6.14 3.167 6.14 -0.5 C
S
GR
GS
[1.05417 0 0 1.05442 536.65282 643.87555] CT
0 0.4 0.988 RC
10.0 ML
1.897 LW
N
6.14 -0.5 M
6.14 -4.167 3.167 -7.14 -0.5 -7.14 C
-4.167 -7.14 -7.14 -4.167 -7.14 -0.5 C
-7.14 3.167 -4.167 6.14 -0.5 6.14 C
3.167 6.14 6.14 3.167 6.14 -0.5 C
S
GR
GS
[1.05417 0 0 1.05442 574.58869 639.09711] CT
0 0.4 0.988 RC
10.0 ML
1.897 LW
N
6.14 -0.5 M
6.14 -4.167 3.167 -7.14 -0.5 -7.14 C
-4.167 -7.14 -7.14 -4.167 -7.14 -0.5 C
-7.14 3.167 -4.167 6.14 -0.5 6.14 C
3.167 6.14 6.14 3.167 6.14 -0.5 C
S
GR
GS
[1.05417 0 0 1.05442 612.52456 642.13791] CT
0 0.4 0.988 RC
10.0 ML
1.897 LW
N
6.14 -0.5 M
6.14 -4.167 3.167 -7.14 -0.5 -7.14 C
-4.167 -7.14 -7.14 -4.167 -7.14 -0.5 C
-7.14 3.167 -4.167 6.14 -0.5 6.14 C
3.167 6.14 6.14 3.167 6.14 -0.5 C
S
GR
GS
[1.05417 0 0 1.05442 650.46044 643.00673] CT
0 0.4 0.988 RC
10.0 ML
1.897 LW
N
6.14 -0.5 M
6.14 -4.167 3.167 -7.14 -0.5 -7.14 C
-4.167 -7.14 -7.14 -4.167 -7.14 -0.5 C
-7.14 3.167 -4.167 6.14 -0.5 6.14 C
3.167 6.14 6.14 3.167 6.14 -0.5 C
S
GR
GS
[1.05417 0 0 1.05442 688.39631 634.31874] CT
0 0.4 0.988 RC
10.0 ML
1.897 LW
N
6.14 -0.5 M
6.14 -4.167 3.167 -7.14 -0.5 -7.14 C
-4.167 -7.14 -7.14 -4.167 -7.14 -0.5 C
-7.14 3.167 -4.167 6.14 -0.5 6.14 C
3.167 6.14 6.14 3.167 6.14 -0.5 C
S
GR
GS
[1.05417 0 0 1.05442 726.33218 636.05638] CT
0 0.4 0.988 RC
10.0 ML
1.897 LW
N
6.14 -0.5 M
6.14 -4.167 3.167 -7.14 -0.5 -7.14 C
-4.167 -7.14 -7.14 -4.167 -7.14 -0.5 C
-7.14 3.167 -4.167 6.14 -0.5 6.14 C
3.167 6.14 6.14 3.167 6.14 -0.5 C
S
GR
GS
[1.05417 0 0 1.05442 764.26811 626.93397] CT
0 0.4 0.988 RC
10.0 ML
1.897 LW
N
6.14 -0.5 M
6.14 -4.167 3.167 -7.14 -0.5 -7.14 C
-4.167 -7.14 -7.14 -4.167 -7.14 -0.5 C
-7.14 3.167 -4.167 6.14 -0.5 6.14 C
3.167 6.14 6.14 3.167 6.14 -0.5 C
S
GR
GS
[1.05417 0 0 1.05442 802.20399 632.58117] CT
0 0.4 0.988 RC
10.0 ML
1.897 LW
N
6.14 -0.5 M
6.14 -4.167 3.167 -7.14 -0.5 -7.14 C
-4.167 -7.14 -7.14 -4.167 -7.14 -0.5 C
-7.14 3.167 -4.167 6.14 -0.5 6.14 C
3.167 6.14 6.14 3.167 6.14 -0.5 C
S
GR
GS
[1.05417 0 0 1.05442 840.13986 626.93397] CT
0 0.4 0.988 RC
10.0 ML
1.897 LW
N
6.14 -0.5 M
6.14 -4.167 3.167 -7.14 -0.5 -7.14 C
-4.167 -7.14 -7.14 -4.167 -7.14 -0.5 C
-7.14 3.167 -4.167 6.14 -0.5 6.14 C
3.167 6.14 6.14 3.167 6.14 -0.5 C
S
GR
GS
[1.05417 0 0 1.05442 878.07573 627.80279] CT
0 0.4 0.988 RC
10.0 ML
1.897 LW
N
6.14 -0.5 M
6.14 -4.167 3.167 -7.14 -0.5 -7.14 C
-4.167 -7.14 -7.14 -4.167 -7.14 -0.5 C
-7.14 3.167 -4.167 6.14 -0.5 6.14 C
3.167 6.14 6.14 3.167 6.14 -0.5 C
S
GR
GS
[1.05417 0 0 1.05442 916.0116 626.93397] CT
0 0.4 0.988 RC
10.0 ML
1.897 LW
N
6.14 -0.5 M
6.14 -4.167 3.167 -7.14 -0.5 -7.14 C
-4.167 -7.14 -7.14 -4.167 -7.14 -0.5 C
-7.14 3.167 -4.167 6.14 -0.5 6.14 C
3.167 6.14 6.14 3.167 6.14 -0.5 C
S
GR
GS
[1.05417 0 0 1.05442 953.94747 626.93397] CT
0 0.4 0.988 RC
10.0 ML
1.897 LW
N
6.14 -0.5 M
6.14 -4.167 3.167 -7.14 -0.5 -7.14 C
-4.167 -7.14 -7.14 -4.167 -7.14 -0.5 C
-7.14 3.167 -4.167 6.14 -0.5 6.14 C
3.167 6.14 6.14 3.167 6.14 -0.5 C
S
GR
GS
[1.05417 0 0 1.05442 991.88334 623.02442] CT
0 0.4 0.988 RC
10.0 ML
1.897 LW
N
6.14 -0.5 M
6.14 -4.167 3.167 -7.14 -0.5 -7.14 C
-4.167 -7.14 -7.14 -4.167 -7.14 -0.5 C
-7.14 3.167 -4.167 6.14 -0.5 6.14 C
3.167 6.14 6.14 3.167 6.14 -0.5 C
S
GR
GS
[1.05417 0 0 1.05442 1029.81921 631.278] CT
0 0.4 0.988 RC
10.0 ML
1.897 LW
N
6.14 -0.5 M
6.14 -4.167 3.167 -7.14 -0.5 -7.14 C
-4.167 -7.14 -7.14 -4.167 -7.14 -0.5 C
-7.14 3.167 -4.167 6.14 -0.5 6.14 C
3.167 6.14 6.14 3.167 6.14 -0.5 C
S
GR
GS
[1.05417 0 0 1.05442 1067.75509 630.40918] CT
0 0.4 0.988 RC
10.0 ML
1.897 LW
N
6.14 -0.5 M
6.14 -4.167 3.167 -7.14 -0.5 -7.14 C
-4.167 -7.14 -7.14 -4.167 -7.14 -0.5 C
-7.14 3.167 -4.167 6.14 -0.5 6.14 C
3.167 6.14 6.14 3.167 6.14 -0.5 C
S
GR
GS
[1.05417 0 0 1.05442 1105.69096 618.68039] CT
0 0.4 0.988 RC
10.0 ML
1.897 LW
N
6.14 -0.5 M
6.14 -4.167 3.167 -7.14 -0.5 -7.14 C
-4.167 -7.14 -7.14 -4.167 -7.14 -0.5 C
-7.14 3.167 -4.167 6.14 -0.5 6.14 C
3.167 6.14 6.14 3.167 6.14 -0.5 C
S
GR
GS
[1.05417 0 0 1.05442 1143.62689 610.42687] CT
0 0.4 0.988 RC
10.0 ML
1.897 LW
N
6.14 -0.5 M
6.14 -4.167 3.167 -7.14 -0.5 -7.14 C
-4.167 -7.14 -7.14 -4.167 -7.14 -0.5 C
-7.14 3.167 -4.167 6.14 -0.5 6.14 C
3.167 6.14 6.14 3.167 6.14 -0.5 C
S
GR
GS
[1.05417 0 0 1.05442 1181.5627 619.98362] CT
0 0.4 0.988 RC
10.0 ML
1.897 LW
N
6.14 -0.5 M
6.14 -4.167 3.167 -7.14 -0.5 -7.14 C
-4.167 -7.14 -7.14 -4.167 -7.14 -0.5 C
-7.14 3.167 -4.167 6.14 -0.5 6.14 C
3.167 6.14 6.14 3.167 6.14 -0.5 C
S
GR
GS
[1.05417 0 0 1.05442 1219.49864 615.20524] CT
0 0.4 0.988 RC
10.0 ML
1.897 LW
N
6.14 -0.5 M
6.14 -4.167 3.167 -7.14 -0.5 -7.14 C
-4.167 -7.14 -7.14 -4.167 -7.14 -0.5 C
-7.14 3.167 -4.167 6.14 -0.5 6.14 C
3.167 6.14 6.14 3.167 6.14 -0.5 C
S
GR
GS
[1.05417 0 0 1.05442 1257.43444 608.68923] CT
0 0.4 0.988 RC
10.0 ML
1.897 LW
N
6.14 -0.5 M
6.14 -4.167 3.167 -7.14 -0.5 -7.14 C
-4.167 -7.14 -7.14 -4.167 -7.14 -0.5 C
-7.14 3.167 -4.167 6.14 -0.5 6.14 C
3.167 6.14 6.14 3.167 6.14 -0.5 C
S
GR
GS
[1.05417 0 0 1.05442 1295.37038 605.64849] CT
0 0.4 0.988 RC
10.0 ML
1.897 LW
N
6.14 -0.5 M
6.14 -4.167 3.167 -7.14 -0.5 -7.14 C
-4.167 -7.14 -7.14 -4.167 -7.14 -0.5 C
-7.14 3.167 -4.167 6.14 -0.5 6.14 C
3.167 6.14 6.14 3.167 6.14 -0.5 C
S
GR
GS
[1.05417 0 0 1.05442 0 0.25] CT
0 0.502 0 RC
[10 6] 0 setdash
2 LJ
1.897 LW
N
185.197 606.697 M
221.184 605.461 L
257.17 604.225 L
293.156 598.869 L
329.143 599.693 L
365.129 600.105 L
401.116 598.869 L
437.102 592.69 L
473.088 584.038 L
509.075 576.211 L
545.061 555.2 L
581.048 552.728 L
617.034 527.597 L
653.02 532.129 L
689.007 494.639 L
724.993 483.928 L
760.98 460.445 L
796.966 446.85 L
832.952 415.54 L
868.939 432.431 L
904.925 385.877 L
940.912 382.17 L
976.898 368.986 L
1012.884 374.754 L
1048.871 324.081 L
1084.857 323.669 L
1120.844 325.729 L
1156.83 317.077 L
1192.816 311.722 L
1228.803 270.936 L
S
GR
GS
[1.05417 0 0 1.05442 195.22993 639.96593] CT
1 GC
N
/f-719462112{-5 -5 M
-5 5 L
5 5 L
5 -5 L
cp}def
f-719462112
f
GR
GS
[1.05417 0 0 1.05442 195.22993 639.96593] CT
0 0.502 0 RC
10.0 ML
1.897 LW
N
-5 -5 M
-5 5 L
5 5 L
5 -5 L
cp
S
GR
GS
[1.05417 0 0 1.05442 233.1658 638.66277] CT
1 GC
N
f-719462112
f
GR
GS
[1.05417 0 0 1.05442 233.1658 638.66277] CT
0 0.502 0 RC
10.0 ML
1.897 LW
N
-5 -5 M
-5 5 L
5 5 L
5 -5 L
cp
S
GR
GS
[1.05417 0 0 1.05442 271.10169 637.35954] CT
1 GC
N
f-719462112
f
GR
GS
[1.05417 0 0 1.05442 271.10169 637.35954] CT
0 0.502 0 RC
10.0 ML
1.897 LW
N
-5 -5 M
-5 5 L
5 5 L
5 -5 L
cp
S
GR
GS
[1.05417 0 0 1.05442 309.03756 631.71235] CT
1 GC
N
f-719462112
f
GR
GS
[1.05417 0 0 1.05442 309.03756 631.71235] CT
0 0.502 0 RC
10.0 ML
1.897 LW
N
-5 -5 M
-5 5 L
5 5 L
5 -5 L
cp
S
GR
GS
[1.05417 0 0 1.05442 346.97343 632.58117] CT
1 GC
N
f-719462112
f
GR
GS
[1.05417 0 0 1.05442 346.97343 632.58117] CT
0 0.502 0 RC
10.0 ML
1.897 LW
N
-5 -5 M
-5 5 L
5 5 L
5 -5 L
cp
S
GR
GS
[1.05417 0 0 1.05442 384.9093 633.01557] CT
1 GC
N
f-719462112
f
GR
GS
[1.05417 0 0 1.05442 384.9093 633.01557] CT
0 0.502 0 RC
10.0 ML
1.897 LW
N
-5 -5 M
-5 5 L
5 5 L
5 -5 L
cp
S
GR
GS
[1.05417 0 0 1.05442 422.84517 631.71235] CT
1 GC
N
f-719462112
f
GR
GS
[1.05417 0 0 1.05442 422.84517 631.71235] CT
0 0.502 0 RC
10.0 ML
1.897 LW
N
-5 -5 M
-5 5 L
5 5 L
5 -5 L
cp
S
GR
GS
[1.05417 0 0 1.05442 460.78108 625.1964] CT
1 GC
N
f-719462112
f
GR
GS
[1.05417 0 0 1.05442 460.78108 625.1964] CT
0 0.502 0 RC
10.0 ML
1.897 LW
N
-5 -5 M
-5 5 L
5 5 L
5 -5 L
cp
S
GR
GS
[1.05417 0 0 1.05442 498.71695 616.07406] CT
1 GC
N
f-719462112
f
GR
GS
[1.05417 0 0 1.05442 498.71695 616.07406] CT
0 0.502 0 RC
10.0 ML
1.897 LW
N
-5 -5 M
-5 5 L
5 5 L
5 -5 L
cp
S
GR
GS
[1.05417 0 0 1.05442 536.65282 607.82047] CT
1 GC
N
f-719462112
f
GR
GS
[1.05417 0 0 1.05442 536.65282 607.82047] CT
0 0.502 0 RC
10.0 ML
1.897 LW
N
-5 -5 M
-5 5 L
5 5 L
5 -5 L
cp
S
GR
GS
[1.05417 0 0 1.05442 574.58869 585.66611] CT
1 GC
N
f-719462112
f
GR
GS
[1.05417 0 0 1.05442 574.58869 585.66611] CT
0 0.502 0 RC
10.0 ML
1.897 LW
N
-5 -5 M
-5 5 L
5 5 L
5 -5 L
cp
S
GR
GS
[1.05417 0 0 1.05442 612.52456 583.05978] CT
1 GC
N
f-719462112
f
GR
GS
[1.05417 0 0 1.05442 612.52456 583.05978] CT
0 0.502 0 RC
10.0 ML
1.897 LW
N
-5 -5 M
-5 5 L
5 5 L
5 -5 L
cp
S
GR
GS
[1.05417 0 0 1.05442 650.46044 556.56146] CT
1 GC
N
f-719462112
f
GR
GS
[1.05417 0 0 1.05442 650.46044 556.56146] CT
0 0.502 0 RC
10.0 ML
1.897 LW
N
-5 -5 M
-5 5 L
5 5 L
5 -5 L
cp
S
GR
GS
[1.05417 0 0 1.05442 688.39631 561.33983] CT
1 GC
N
f-719462112
f
GR
GS
[1.05417 0 0 1.05442 688.39631 561.33983] CT
0 0.502 0 RC
10.0 ML
1.897 LW
N
-5 -5 M
-5 5 L
5 5 L
5 -5 L
cp
S
GR
GS
[1.05417 0 0 1.05442 726.33218 521.80958] CT
1 GC
N
f-719462112
f
GR
GS
[1.05417 0 0 1.05442 726.33218 521.80958] CT
0 0.502 0 RC
10.0 ML
1.897 LW
N
-5 -5 M
-5 5 L
5 5 L
5 -5 L
cp
S
GR
GS
[1.05417 0 0 1.05442 764.26811 510.51522] CT
1 GC
N
f-719462112
f
GR
GS
[1.05417 0 0 1.05442 764.26811 510.51522] CT
0 0.502 0 RC
10.0 ML
1.897 LW
N
-5 -5 M
-5 5 L
5 5 L
5 -5 L
cp
S
GR
GS
[1.05417 0 0 1.05442 802.20399 485.7545] CT
1 GC
N
f-719462112
f
GR
GS
[1.05417 0 0 1.05442 802.20399 485.7545] CT
0 0.502 0 RC
10.0 ML
1.897 LW
N
-5 -5 M
-5 5 L
5 5 L
5 -5 L
cp
S
GR
GS
[1.05417 0 0 1.05442 840.13986 471.41934] CT
1 GC
N
f-719462112
f
GR
GS
[1.05417 0 0 1.05442 840.13986 471.41934] CT
0 0.502 0 RC
10.0 ML
1.897 LW
N
-5 -5 M
-5 5 L
5 5 L
5 -5 L
cp
S
GR
GS
[1.05417 0 0 1.05442 878.07573 438.40507] CT
1 GC
N
f-719462112
f
GR
GS
[1.05417 0 0 1.05442 878.07573 438.40507] CT
0 0.502 0 RC
10.0 ML
1.897 LW
N
-5 -5 M
-5 5 L
5 5 L
5 -5 L
cp
S
GR
GS
[1.05417 0 0 1.05442 916.0116 456.2154] CT
1 GC
N
f-719462112
f
GR
GS
[1.05417 0 0 1.05442 916.0116 456.2154] CT
0 0.502 0 RC
10.0 ML
1.897 LW
N
-5 -5 M
-5 5 L
5 5 L
5 -5 L
cp
S
GR
GS
[1.05417 0 0 1.05442 953.94747 407.1284] CT
1 GC
N
f-719462112
f
GR
GS
[1.05417 0 0 1.05442 953.94747 407.1284] CT
0 0.502 0 RC
10.0 ML
1.897 LW
N
-5 -5 M
-5 5 L
5 5 L
5 -5 L
cp
S
GR
GS
[1.05417 0 0 1.05442 991.88334 403.21881] CT
1 GC
N
f-719462112
f
GR
GS
[1.05417 0 0 1.05442 991.88334 403.21881] CT
0 0.502 0 RC
10.0 ML
1.897 LW
N
-5 -5 M
-5 5 L
5 5 L
5 -5 L
cp
S
GR
GS
[1.05417 0 0 1.05442 1029.81921 389.31807] CT
1 GC
N
f-719462112
f
GR
GS
[1.05417 0 0 1.05442 1029.81921 389.31807] CT
0 0.502 0 RC
10.0 ML
1.897 LW
N
-5 -5 M
-5 5 L
5 5 L
5 -5 L
cp
S
GR
GS
[1.05417 0 0 1.05442 1067.75509 395.39964] CT
1 GC
N
f-719462112
f
GR
GS
[1.05417 0 0 1.05442 1067.75509 395.39964] CT
0 0.502 0 RC
10.0 ML
1.897 LW
N
-5 -5 M
-5 5 L
5 5 L
5 -5 L
cp
S
GR
GS
[1.05417 0 0 1.05442 1105.69096 341.96864] CT
1 GC
N
f-719462112
f
GR
GS
[1.05417 0 0 1.05442 1105.69096 341.96864] CT
0 0.502 0 RC
10.0 ML
1.897 LW
N
-5 -5 M
-5 5 L
5 5 L
5 -5 L
cp
S
GR
GS
[1.05417 0 0 1.05442 1143.62689 341.53423] CT
1 GC
N
f-719462112
f
GR
GS
[1.05417 0 0 1.05442 1143.62689 341.53423] CT
0 0.502 0 RC
10.0 ML
1.897 LW
N
-5 -5 M
-5 5 L
5 5 L
5 -5 L
cp
S
GR
GS
[1.05417 0 0 1.05442 1181.5627 343.70624] CT
1 GC
N
f-719462112
f
GR
GS
[1.05417 0 0 1.05442 1181.5627 343.70624] CT
0 0.502 0 RC
10.0 ML
1.897 LW
N
-5 -5 M
-5 5 L
5 5 L
5 -5 L
cp
S
GR
GS
[1.05417 0 0 1.05442 1219.49864 334.58387] CT
1 GC
N
f-719462112
f
GR
GS
[1.05417 0 0 1.05442 1219.49864 334.58387] CT
0 0.502 0 RC
10.0 ML
1.897 LW
N
-5 -5 M
-5 5 L
5 5 L
5 -5 L
cp
S
GR
GS
[1.05417 0 0 1.05442 1257.43444 328.93671] CT
1 GC
N
f-719462112
f
GR
GS
[1.05417 0 0 1.05442 1257.43444 328.93671] CT
0 0.502 0 RC
10.0 ML
1.897 LW
N
-5 -5 M
-5 5 L
5 5 L
5 -5 L
cp
S
GR
GS
[1.05417 0 0 1.05442 1295.37038 285.93124] CT
1 GC
N
f-719462112
f
GR
GS
[1.05417 0 0 1.05442 1295.37038 285.93124] CT
0 0.502 0 RC
10.0 ML
1.897 LW
N
-5 -5 M
-5 5 L
5 5 L
5 -5 L
cp
S
GR
GS
[1.05417 0 0 1.05442 0 0.25] CT
1 0 0 RC
[10 6] 0 setdash
2 LJ
0.949 LW
N
185.197 608.345 M
221.184 607.109 L
257.17 605.873 L
293.156 603.813 L
329.143 605.049 L
365.129 603.401 L
401.116 601.753 L
437.102 598.045 L
473.088 589.394 L
509.075 584.038 L
545.061 562.615 L
581.048 558.496 L
617.034 535.837 L
653.02 536.661 L
689.007 502.879 L
724.993 490.108 L
760.98 471.569 L
796.966 450.97 L
832.952 425.839 L
868.939 443.142 L
904.925 395.353 L
940.912 393.293 L
976.898 380.522 L
1012.884 385.053 L
1048.871 334.38 L
1084.857 336.44 L
1120.844 333.556 L
1156.83 329.437 L
1192.816 326.141 L
1228.803 284.531 L
S
GR
GS
[1.05417 0 0 1.05442 195.22993 641.7035] CT
1 0 0 RC
N
/f68728590{0 -7 M
0 7 L
-7 0 M
7 0 L
-4.695 -4.695 M
4.695 4.695 L
-4.695 4.695 M
4.695 -4.695 L}def
f68728590
f
GR
GS
[1.05417 0 0 1.05442 195.22993 641.7035] CT
1 0 0 RC
10.0 ML
N
0 -7 M
0 7 L
-7 0 M
7 0 L
-4.695 -4.695 M
4.695 4.695 L
-4.695 4.695 M
4.695 -4.695 L
S
GR
GS
[1.05417 0 0 1.05442 233.1658 640.40034] CT
1 0 0 RC
N
f68728590
f
GR
GS
[1.05417 0 0 1.05442 233.1658 640.40034] CT
1 0 0 RC
10.0 ML
N
0 -7 M
0 7 L
-7 0 M
7 0 L
-4.695 -4.695 M
4.695 4.695 L
-4.695 4.695 M
4.695 -4.695 L
S
GR
GS
[1.05417 0 0 1.05442 271.10169 639.09711] CT
1 0 0 RC
N
f68728590
f
GR
GS
[1.05417 0 0 1.05442 271.10169 639.09711] CT
1 0 0 RC
10.0 ML
N
0 -7 M
0 7 L
-7 0 M
7 0 L
-4.695 -4.695 M
4.695 4.695 L
-4.695 4.695 M
4.695 -4.695 L
S
GR
GS
[1.05417 0 0 1.05442 309.03756 636.92513] CT
1 0 0 RC
N
f68728590
f
GR
GS
[1.05417 0 0 1.05442 309.03756 636.92513] CT
1 0 0 RC
10.0 ML
N
0 -7 M
0 7 L
-7 0 M
7 0 L
-4.695 -4.695 M
4.695 4.695 L
-4.695 4.695 M
4.695 -4.695 L
S
GR
GS
[1.05417 0 0 1.05442 346.97343 638.22836] CT
1 0 0 RC
N
f68728590
f
GR
GS
[1.05417 0 0 1.05442 346.97343 638.22836] CT
1 0 0 RC
10.0 ML
N
0 -7 M
0 7 L
-7 0 M
7 0 L
-4.695 -4.695 M
4.695 4.695 L
-4.695 4.695 M
4.695 -4.695 L
S
GR
GS
[1.05417 0 0 1.05442 384.9093 636.49079] CT
1 0 0 RC
N
f68728590
f
GR
GS
[1.05417 0 0 1.05442 384.9093 636.49079] CT
1 0 0 RC
10.0 ML
N
0 -7 M
0 7 L
-7 0 M
7 0 L
-4.695 -4.695 M
4.695 4.695 L
-4.695 4.695 M
4.695 -4.695 L
S
GR
GS
[1.05417 0 0 1.05442 422.84517 634.75315] CT
1 0 0 RC
N
f68728590
f
GR
GS
[1.05417 0 0 1.05442 422.84517 634.75315] CT
1 0 0 RC
10.0 ML
N
0 -7 M
0 7 L
-7 0 M
7 0 L
-4.695 -4.695 M
4.695 4.695 L
-4.695 4.695 M
4.695 -4.695 L
S
GR
GS
[1.05417 0 0 1.05442 460.78108 630.84359] CT
1 0 0 RC
N
f68728590
f
GR
GS
[1.05417 0 0 1.05442 460.78108 630.84359] CT
1 0 0 RC
10.0 ML
N
0 -7 M
0 7 L
-7 0 M
7 0 L
-4.695 -4.695 M
4.695 4.695 L
-4.695 4.695 M
4.695 -4.695 L
S
GR
GS
[1.05417 0 0 1.05442 498.71695 621.72119] CT
1 0 0 RC
N
f68728590
f
GR
GS
[1.05417 0 0 1.05442 498.71695 621.72119] CT
1 0 0 RC
10.0 ML
N
0 -7 M
0 7 L
-7 0 M
7 0 L
-4.695 -4.695 M
4.695 4.695 L
-4.695 4.695 M
4.695 -4.695 L
S
GR
GS
[1.05417 0 0 1.05442 536.65282 616.07406] CT
1 0 0 RC
N
f68728590
f
GR
GS
[1.05417 0 0 1.05442 536.65282 616.07406] CT
1 0 0 RC
10.0 ML
N
0 -7 M
0 7 L
-7 0 M
7 0 L
-4.695 -4.695 M
4.695 4.695 L
-4.695 4.695 M
4.695 -4.695 L
S
GR
GS
[1.05417 0 0 1.05442 574.58869 593.48529] CT
1 0 0 RC
N
f68728590
f
GR
GS
[1.05417 0 0 1.05442 574.58869 593.48529] CT
1 0 0 RC
10.0 ML
N
0 -7 M
0 7 L
-7 0 M
7 0 L
-4.695 -4.695 M
4.695 4.695 L
-4.695 4.695 M
4.695 -4.695 L
S
GR
GS
[1.05417 0 0 1.05442 612.52456 589.14132] CT
1 0 0 RC
N
f68728590
f
GR
GS
[1.05417 0 0 1.05442 612.52456 589.14132] CT
1 0 0 RC
10.0 ML
N
0 -7 M
0 7 L
-7 0 M
7 0 L
-4.695 -4.695 M
4.695 4.695 L
-4.695 4.695 M
4.695 -4.695 L
S
GR
GS
[1.05417 0 0 1.05442 650.46044 565.24939] CT
1 0 0 RC
N
f68728590
f
GR
GS
[1.05417 0 0 1.05442 650.46044 565.24939] CT
1 0 0 RC
10.0 ML
N
0 -7 M
0 7 L
-7 0 M
7 0 L
-4.695 -4.695 M
4.695 4.695 L
-4.695 4.695 M
4.695 -4.695 L
S
GR
GS
[1.05417 0 0 1.05442 688.39631 566.11821] CT
1 0 0 RC
N
f68728590
f
GR
GS
[1.05417 0 0 1.05442 688.39631 566.11821] CT
1 0 0 RC
10.0 ML
N
0 -7 M
0 7 L
-7 0 M
7 0 L
-4.695 -4.695 M
4.695 4.695 L
-4.695 4.695 M
4.695 -4.695 L
S
GR
GS
[1.05417 0 0 1.05442 726.33218 530.49754] CT
1 0 0 RC
N
f68728590
f
GR
GS
[1.05417 0 0 1.05442 726.33218 530.49754] CT
1 0 0 RC
10.0 ML
N
0 -7 M
0 7 L
-7 0 M
7 0 L
-4.695 -4.695 M
4.695 4.695 L
-4.695 4.695 M
4.695 -4.695 L
S
GR
GS
[1.05417 0 0 1.05442 764.26811 517.0312] CT
1 0 0 RC
N
f68728590
f
GR
GS
[1.05417 0 0 1.05442 764.26811 517.0312] CT
1 0 0 RC
10.0 ML
N
0 -7 M
0 7 L
-7 0 M
7 0 L
-4.695 -4.695 M
4.695 4.695 L
-4.695 4.695 M
4.695 -4.695 L
S
GR
GS
[1.05417 0 0 1.05442 802.20399 497.48326] CT
1 0 0 RC
N
f68728590
f
GR
GS
[1.05417 0 0 1.05442 802.20399 497.48326] CT
1 0 0 RC
10.0 ML
N
0 -7 M
0 7 L
-7 0 M
7 0 L
-4.695 -4.695 M
4.695 4.695 L
-4.695 4.695 M
4.695 -4.695 L
S
GR
GS
[1.05417 0 0 1.05442 840.13986 475.76334] CT
1 0 0 RC
N
f68728590
f
GR
GS
[1.05417 0 0 1.05442 840.13986 475.76334] CT
1 0 0 RC
10.0 ML
N
0 -7 M
0 7 L
-7 0 M
7 0 L
-4.695 -4.695 M
4.695 4.695 L
-4.695 4.695 M
4.695 -4.695 L
S
GR
GS
[1.05417 0 0 1.05442 878.07573 449.26505] CT
1 0 0 RC
N
f68728590
f
GR
GS
[1.05417 0 0 1.05442 878.07573 449.26505] CT
1 0 0 RC
10.0 ML
N
0 -7 M
0 7 L
-7 0 M
7 0 L
-4.695 -4.695 M
4.695 4.695 L
-4.695 4.695 M
4.695 -4.695 L
S
GR
GS
[1.05417 0 0 1.05442 916.0116 467.50979] CT
1 0 0 RC
N
f68728590
f
GR
GS
[1.05417 0 0 1.05442 916.0116 467.50979] CT
1 0 0 RC
10.0 ML
N
0 -7 M
0 7 L
-7 0 M
7 0 L
-4.695 -4.695 M
4.695 4.695 L
-4.695 4.695 M
4.695 -4.695 L
S
GR
GS
[1.05417 0 0 1.05442 953.94747 417.11956] CT
1 0 0 RC
N
f68728590
f
GR
GS
[1.05417 0 0 1.05442 953.94747 417.11956] CT
1 0 0 RC
10.0 ML
N
0 -7 M
0 7 L
-7 0 M
7 0 L
-4.695 -4.695 M
4.695 4.695 L
-4.695 4.695 M
4.695 -4.695 L
S
GR
GS
[1.05417 0 0 1.05442 991.88334 414.94757] CT
1 0 0 RC
N
f68728590
f
GR
GS
[1.05417 0 0 1.05442 991.88334 414.94757] CT
1 0 0 RC
10.0 ML
N
0 -7 M
0 7 L
-7 0 M
7 0 L
-4.695 -4.695 M
4.695 4.695 L
-4.695 4.695 M
4.695 -4.695 L
S
GR
GS
[1.05417 0 0 1.05442 1029.81921 401.48124] CT
1 0 0 RC
N
f68728590
f
GR
GS
[1.05417 0 0 1.05442 1029.81921 401.48124] CT
1 0 0 RC
10.0 ML
N
0 -7 M
0 7 L
-7 0 M
7 0 L
-4.695 -4.695 M
4.695 4.695 L
-4.695 4.695 M
4.695 -4.695 L
S
GR
GS
[1.05417 0 0 1.05442 1067.75509 406.25958] CT
1 0 0 RC
N
f68728590
f
GR
GS
[1.05417 0 0 1.05442 1067.75509 406.25958] CT
1 0 0 RC
10.0 ML
N
0 -7 M
0 7 L
-7 0 M
7 0 L
-4.695 -4.695 M
4.695 4.695 L
-4.695 4.695 M
4.695 -4.695 L
S
GR
GS
[1.05417 0 0 1.05442 1105.69096 352.82861] CT
1 0 0 RC
N
f68728590
f
GR
GS
[1.05417 0 0 1.05442 1105.69096 352.82861] CT
1 0 0 RC
10.0 ML
N
0 -7 M
0 7 L
-7 0 M
7 0 L
-4.695 -4.695 M
4.695 4.695 L
-4.695 4.695 M
4.695 -4.695 L
S
GR
GS
[1.05417 0 0 1.05442 1143.62689 355.00056] CT
1 0 0 RC
N
f68728590
f
GR
GS
[1.05417 0 0 1.05442 1143.62689 355.00056] CT
1 0 0 RC
10.0 ML
N
0 -7 M
0 7 L
-7 0 M
7 0 L
-4.695 -4.695 M
4.695 4.695 L
-4.695 4.695 M
4.695 -4.695 L
S
GR
GS
[1.05417 0 0 1.05442 1181.5627 351.95979] CT
1 0 0 RC
N
f68728590
f
GR
GS
[1.05417 0 0 1.05442 1181.5627 351.95979] CT
1 0 0 RC
10.0 ML
N
0 -7 M
0 7 L
-7 0 M
7 0 L
-4.695 -4.695 M
4.695 4.695 L
-4.695 4.695 M
4.695 -4.695 L
S
GR
GS
[1.05417 0 0 1.05442 1219.49864 347.61583] CT
1 0 0 RC
N
f68728590
f
GR
GS
[1.05417 0 0 1.05442 1219.49864 347.61583] CT
1 0 0 RC
10.0 ML
N
0 -7 M
0 7 L
-7 0 M
7 0 L
-4.695 -4.695 M
4.695 4.695 L
-4.695 4.695 M
4.695 -4.695 L
S
GR
GS
[1.05417 0 0 1.05442 1257.43444 344.14065] CT
1 0 0 RC
N
f68728590
f
GR
GS
[1.05417 0 0 1.05442 1257.43444 344.14065] CT
1 0 0 RC
10.0 ML
N
0 -7 M
0 7 L
-7 0 M
7 0 L
-4.695 -4.695 M
4.695 4.695 L
-4.695 4.695 M
4.695 -4.695 L
S
GR
GS
[1.05417 0 0 1.05442 1295.37038 300.2664] CT
1 0 0 RC
N
f68728590
f
GR
GS
[1.05417 0 0 1.05442 1295.37038 300.2664] CT
1 0 0 RC
10.0 ML
N
0 -7 M
0 7 L
-7 0 M
7 0 L
-4.695 -4.695 M
4.695 4.695 L
-4.695 4.695 M
4.695 -4.695 L
S
GR
GS
[1.05417 0 0 1.05442 250.89312 90.93048] CT
/Helvetica 30.356 F
GS
[1 0 0 1 0 0] CT
0 10 moveto 
1 -1 scale
( Dijkstra + Graph Coloring) t 
GR
GR
GS
[1.05417 0 0 1.05442 0 0.25] CT
1 0 1 RC
[10 6] 0 setdash
2 LJ
1.897 LW
N
195 86 M
235 86 L
S
GR
GS
[1.05417 0 0 1.05442 226.64714 90.93048] CT
1 0 1 RC
10.0 ML
1.897 LW
N
-5.751 -3.32 M
-1.917 -3.32 L
0 -6.64 L
1.917 -3.32 L
5.751 -3.32 L
3.32 0 L
5.751 3.32 L
1.917 3.32 L
0 6.64 L
-1.917 3.32 L
-5.751 3.32 L
-3.32 0 L
cp
S
GR
GS
[1.05417 0 0 1.05442 250.89312 129.41696] CT
/Helvetica 30.356 F
GS
[1 0 0 1 0 0] CT
0 10 moveto 
1 -1 scale
( Dijkstra + First-Fit) t 
GR
GR
GS
[1.05417 0 0 1.05442 0 0.25] CT
[10 6] 0 setdash
2 LJ
1.897 LW
N
195 122.5 M
235 122.5 L
S
GR
GS
[1.05417 0 0 1.05442 226.64714 129.41696] CT
N
f-18803871
f
GR
GS
[1.05417 0 0 1.05442 226.64714 129.41696] CT
10.0 ML
1.897 LW
N
0 -10.116 M
-8.76 5.058 L
8.76 5.058 L
cp
S
GR
GS
[1.05417 0 0 1.05442 250.89312 167.90344] CT
/Helvetica 30.356 F
GS
[1 0 0 1 0 0] CT
0 10 moveto 
1 -1 scale
( Yen + Graph Coloring) t 
GR
GR
GS
[1.05417 0 0 1.05442 0 0.25] CT
0 0.502 0 RC
[10 6] 0 setdash
2 LJ
1.897 LW
N
195 159 M
235 159 L
S
GR
GS
[1.05417 0 0 1.05442 226.64714 167.90344] CT
1 GC
N
f-719462112
f
GR
GS
[1.05417 0 0 1.05442 226.64714 167.90344] CT
0 0.502 0 RC
10.0 ML
1.897 LW
N
-5 -5 M
-5 5 L
5 5 L
5 -5 L
cp
S
GR
GS
[1.05417 0 0 1.05442 250.89312 206.38992] CT
/Helvetica 30.356 F
GS
[1 0 0 1 0 0] CT
0 10 moveto 
1 -1 scale
( Yen + First-Fit) t 
GR
GR
GS
[1.05417 0 0 1.05442 0 0.25] CT
1 0 0 RC
[10 6] 0 setdash
2 LJ
0.949 LW
N
195 195.5 M
235 195.5 L
S
GR
GS
[1.05417 0 0 1.05442 226.64714 206.38992] CT
1 0 0 RC
N
f68728590
f
GR
GS
[1.05417 0 0 1.05442 226.64714 206.38992] CT
1 0 0 RC
10.0 ML
N
0 -7 M
0 7 L
-7 0 M
7 0 L
-4.695 -4.695 M
4.695 4.695 L
-4.695 4.695 M
4.695 -4.695 L
S
GR
GS
[1.05417 0 0 1.05442 250.89312 244.8764] CT
/Helvetica 30.356 F
GS
[1 0 0 1 0 0] CT
0 10 moveto 
1 -1 scale
( Genetic Algorithm) t 
GR
GR
GS
[1.05417 0 0 1.05442 0 0.25] CT
0 0.4 0.988 RC
[10 6] 0 setdash
2 LJ
1.897 LW
N
195 232 M
235 232 L
S
GR
GS
[1.05417 0 0 1.05442 226.64714 244.8764] CT
0 0.4 0.988 RC
10.0 ML
1.897 LW
N
6.14 -0.5 M
6.14 -4.167 3.167 -7.14 -0.5 -7.14 C
-4.167 -7.14 -7.14 -4.167 -7.14 -0.5 C
-7.14 3.167 -4.167 6.14 -0.5 6.14 C
3.167 6.14 6.14 3.167 6.14 -0.5 C
S
GR
%%Trailer
%%Pages: 1
%%EOF
