%!PS-Adobe-3.0 EPSF-3.0
%%Creator: (MATLAB, The Mathworks, Inc. Version 8.5.0.197613 \(R2015a\). Operating System: Linux)
%%Title: /home/cassio/Dropbox/RWA/ga_lim\343o/sim18x150_8ch/untitled.eps
%%CreationDate: 2017-04-27T19:03:56
%%Pages: (atend)
%%BoundingBox: 0 0 1440 719
%%LanguageLevel: 2
%%EndComments
%%BeginProlog
%%BeginResource: procset (Apache XML Graphics Std ProcSet) 1.2 0
%%Version: 1.2 0
%%Copyright: (Copyright 2001-2003,2010 The Apache Software Foundation. License terms: http://www.apache.org/licenses/LICENSE-2.0)
/bd{bind def}bind def
/ld{load def}bd
/GR/grestore ld
/M/moveto ld
/LJ/setlinejoin ld
/C/curveto ld
/f/fill ld
/LW/setlinewidth ld
/GC/setgray ld
/t/show ld
/N/newpath ld
/CT/concat ld
/cp/closepath ld
/S/stroke ld
/L/lineto ld
/CC/setcmykcolor ld
/A/ashow ld
/GS/gsave ld
/RC/setrgbcolor ld
/RM/rmoveto ld
/ML/setmiterlimit ld
/re {4 2 roll M
1 index 0 rlineto
0 exch rlineto
neg 0 rlineto
cp } bd
/_ctm matrix def
/_tm matrix def
/BT { _ctm currentmatrix pop matrix _tm copy pop 0 0 moveto } bd
/ET { _ctm setmatrix } bd
/iTm { _ctm setmatrix _tm concat } bd
/Tm { _tm astore pop iTm 0 0 moveto } bd
/ux 0.0 def
/uy 0.0 def
/F {
  /Tp exch def
  /Tf exch def
  Tf findfont Tp scalefont setfont
  /cf Tf def  /cs Tp def
} bd
/ULS {currentpoint /uy exch def /ux exch def} bd
/ULE {
  /Tcx currentpoint pop def
  gsave
  newpath
  cf findfont cs scalefont dup
  /FontMatrix get 0 get /Ts exch def /FontInfo get dup
  /UnderlinePosition get Ts mul /To exch def
  /UnderlineThickness get Ts mul /Tt exch def
  ux uy To add moveto  Tcx uy To add lineto
  Tt setlinewidth stroke
  grestore
} bd
/OLE {
  /Tcx currentpoint pop def
  gsave
  newpath
  cf findfont cs scalefont dup
  /FontMatrix get 0 get /Ts exch def /FontInfo get dup
  /UnderlinePosition get Ts mul /To exch def
  /UnderlineThickness get Ts mul /Tt exch def
  ux uy To add cs add moveto Tcx uy To add cs add lineto
  Tt setlinewidth stroke
  grestore
} bd
/SOE {
  /Tcx currentpoint pop def
  gsave
  newpath
  cf findfont cs scalefont dup
  /FontMatrix get 0 get /Ts exch def /FontInfo get dup
  /UnderlinePosition get Ts mul /To exch def
  /UnderlineThickness get Ts mul /Tt exch def
  ux uy To add cs 10 mul 26 idiv add moveto Tcx uy To add cs 10 mul 26 idiv add lineto
  Tt setlinewidth stroke
  grestore
} bd
/QT {
/Y22 exch store
/X22 exch store
/Y21 exch store
/X21 exch store
currentpoint
/Y21 load 2 mul add 3 div exch
/X21 load 2 mul add 3 div exch
/X21 load 2 mul /X22 load add 3 div
/Y21 load 2 mul /Y22 load add 3 div
/X22 load /Y22 load curveto
} bd
/SSPD {
dup length /d exch dict def
{
/v exch def
/k exch def
currentpagedevice k known {
/cpdv currentpagedevice k get def
v cpdv ne {
/upd false def
/nullv v type /nulltype eq def
/nullcpdv cpdv type /nulltype eq def
nullv nullcpdv or
{
/upd true def
} {
/sametype v type cpdv type eq def
sametype {
v type /arraytype eq {
/vlen v length def
/cpdvlen cpdv length def
vlen cpdvlen eq {
0 1 vlen 1 sub {
/i exch def
/obj v i get def
/cpdobj cpdv i get def
obj cpdobj ne {
/upd true def
exit
} if
} for
} {
/upd true def
} ifelse
} {
v type /dicttype eq {
v {
/dv exch def
/dk exch def
/cpddv cpdv dk get def
dv cpddv ne {
/upd true def
exit
} if
} forall
} {
/upd true def
} ifelse
} ifelse
} if
} ifelse
upd true eq {
d k v put
} if
} if
} if
} forall
d length 0 gt {
d setpagedevice
} if
} bd
%%EndResource
%%BeginResource: procset (Apache XML Graphics EPS ProcSet) 1.0 0
%%Version: 1.0 0
%%Copyright: (Copyright 2002-2003 The Apache Software Foundation. License terms: http://www.apache.org/licenses/LICENSE-2.0)
/BeginEPSF { %def
/b4_Inc_state save def         % Save state for cleanup
/dict_count countdictstack def % Count objects on dict stack
/op_count count 1 sub def      % Count objects on operand stack
userdict begin                 % Push userdict on dict stack
/showpage { } def              % Redefine showpage, { } = null proc
0 setgray 0 setlinecap         % Prepare graphics state
1 setlinewidth 0 setlinejoin
10 setmiterlimit [ ] 0 setdash newpath
/languagelevel where           % If level not equal to 1 then
{pop languagelevel             % set strokeadjust and
1 ne                           % overprint to their defaults.
{false setstrokeadjust false setoverprint
} if
} if
} bd
/EndEPSF { %def
count op_count sub {pop} repeat            % Clean up stacks
countdictstack dict_count sub {end} repeat
b4_Inc_state restore
} bd
%%EndResource
%FOPBeginFontDict
%%IncludeResource: font Courier-Bold
%%IncludeResource: font Helvetica
%%IncludeResource: font Courier-BoldOblique
%%IncludeResource: font Courier-Oblique
%%IncludeResource: font Times-Roman
%%IncludeResource: font Helvetica-BoldOblique
%%IncludeResource: font Helvetica-Bold
%%IncludeResource: font Helvetica-Oblique
%%IncludeResource: font Times-BoldItalic
%%IncludeResource: font Courier
%%IncludeResource: font Times-Italic
%%IncludeResource: font Times-Bold
%%IncludeResource: font Symbol
%%IncludeResource: font ZapfDingbats
%FOPEndFontDict
%%BeginResource: encoding WinAnsiEncoding
/WinAnsiEncoding [
/.notdef /.notdef /.notdef /.notdef /.notdef
/.notdef /.notdef /.notdef /.notdef /.notdef
/.notdef /.notdef /.notdef /.notdef /.notdef
/.notdef /.notdef /.notdef /.notdef /.notdef
/.notdef /.notdef /.notdef /.notdef /.notdef
/.notdef /.notdef /.notdef /.notdef /.notdef
/.notdef /.notdef /space /exclam /quotedbl
/numbersign /dollar /percent /ampersand /quotesingle
/parenleft /parenright /asterisk /plus /comma
/hyphen /period /slash /zero /one
/two /three /four /five /six
/seven /eight /nine /colon /semicolon
/less /equal /greater /question /at
/A /B /C /D /E
/F /G /H /I /J
/K /L /M /N /O
/P /Q /R /S /T
/U /V /W /X /Y
/Z /bracketleft /backslash /bracketright /asciicircum
/underscore /quoteleft /a /b /c
/d /e /f /g /h
/i /j /k /l /m
/n /o /p /q /r
/s /t /u /v /w
/x /y /z /braceleft /bar
/braceright /asciitilde /bullet /Euro /bullet
/quotesinglbase /florin /quotedblbase /ellipsis /dagger
/daggerdbl /circumflex /perthousand /Scaron /guilsinglleft
/OE /bullet /Zcaron /bullet /bullet
/quoteleft /quoteright /quotedblleft /quotedblright /bullet
/endash /emdash /asciitilde /trademark /scaron
/guilsinglright /oe /bullet /zcaron /Ydieresis
/space /exclamdown /cent /sterling /currency
/yen /brokenbar /section /dieresis /copyright
/ordfeminine /guillemotleft /logicalnot /sfthyphen /registered
/macron /degree /plusminus /twosuperior /threesuperior
/acute /mu /paragraph /middot /cedilla
/onesuperior /ordmasculine /guillemotright /onequarter /onehalf
/threequarters /questiondown /Agrave /Aacute /Acircumflex
/Atilde /Adieresis /Aring /AE /Ccedilla
/Egrave /Eacute /Ecircumflex /Edieresis /Igrave
/Iacute /Icircumflex /Idieresis /Eth /Ntilde
/Ograve /Oacute /Ocircumflex /Otilde /Odieresis
/multiply /Oslash /Ugrave /Uacute /Ucircumflex
/Udieresis /Yacute /Thorn /germandbls /agrave
/aacute /acircumflex /atilde /adieresis /aring
/ae /ccedilla /egrave /eacute /ecircumflex
/edieresis /igrave /iacute /icircumflex /idieresis
/eth /ntilde /ograve /oacute /ocircumflex
/otilde /odieresis /divide /oslash /ugrave
/uacute /ucircumflex /udieresis /yacute /thorn
/ydieresis
] def
%%EndResource
%FOPBeginFontReencode
/Courier-Bold findfont
dup length dict begin
  {1 index /FID ne {def} {pop pop} ifelse} forall
  /Encoding WinAnsiEncoding def
  currentdict
end
/Courier-Bold exch definefont pop
/Helvetica findfont
dup length dict begin
  {1 index /FID ne {def} {pop pop} ifelse} forall
  /Encoding WinAnsiEncoding def
  currentdict
end
/Helvetica exch definefont pop
/Courier-BoldOblique findfont
dup length dict begin
  {1 index /FID ne {def} {pop pop} ifelse} forall
  /Encoding WinAnsiEncoding def
  currentdict
end
/Courier-BoldOblique exch definefont pop
/Courier-Oblique findfont
dup length dict begin
  {1 index /FID ne {def} {pop pop} ifelse} forall
  /Encoding WinAnsiEncoding def
  currentdict
end
/Courier-Oblique exch definefont pop
/Times-Roman findfont
dup length dict begin
  {1 index /FID ne {def} {pop pop} ifelse} forall
  /Encoding WinAnsiEncoding def
  currentdict
end
/Times-Roman exch definefont pop
/Helvetica-BoldOblique findfont
dup length dict begin
  {1 index /FID ne {def} {pop pop} ifelse} forall
  /Encoding WinAnsiEncoding def
  currentdict
end
/Helvetica-BoldOblique exch definefont pop
/Helvetica-Bold findfont
dup length dict begin
  {1 index /FID ne {def} {pop pop} ifelse} forall
  /Encoding WinAnsiEncoding def
  currentdict
end
/Helvetica-Bold exch definefont pop
/Helvetica-Oblique findfont
dup length dict begin
  {1 index /FID ne {def} {pop pop} ifelse} forall
  /Encoding WinAnsiEncoding def
  currentdict
end
/Helvetica-Oblique exch definefont pop
/Times-BoldItalic findfont
dup length dict begin
  {1 index /FID ne {def} {pop pop} ifelse} forall
  /Encoding WinAnsiEncoding def
  currentdict
end
/Times-BoldItalic exch definefont pop
/Courier findfont
dup length dict begin
  {1 index /FID ne {def} {pop pop} ifelse} forall
  /Encoding WinAnsiEncoding def
  currentdict
end
/Courier exch definefont pop
/Times-Italic findfont
dup length dict begin
  {1 index /FID ne {def} {pop pop} ifelse} forall
  /Encoding WinAnsiEncoding def
  currentdict
end
/Times-Italic exch definefont pop
/Times-Bold findfont
dup length dict begin
  {1 index /FID ne {def} {pop pop} ifelse} forall
  /Encoding WinAnsiEncoding def
  currentdict
end
/Times-Bold exch definefont pop
%FOPEndFontReencode
%%EndProlog
%%Page: 1 1
%%PageBoundingBox: 0 0 1440 719
%%BeginPageSetup
[1 0 0 -1 0 719] CT
%%EndPageSetup
GS
[0.75 0 0 0.75 0 0.5] CT
1 GC
N
0 0 1920 958 re
f
GR
GS
[0.75 0 0 0.75 0 0.5] CT
1 GC
N
0 0 1920 958 re
f
GR
GS
[0.75 0 0 0.75 0 0.5] CT
1 GC
N
250 853 M
1738 853 L
1738 72 L
250 72 L
cp
f
GR
GS
[0.75 0 0 0.75 0 0.5] CT
0.873 GC
2 setlinecap
10.0 ML
N
361.347 853 M
361.347 72 L
S
GR
GS
[0.75 0 0 0.75 0 0.5] CT
0.873 GC
2 setlinecap
10.0 ML
N
513.184 853 M
513.184 72 L
S
GR
GS
[0.75 0 0 0.75 0 0.5] CT
0.873 GC
2 setlinecap
10.0 ML
N
665.02 853 M
665.02 72 L
S
GR
GS
[0.75 0 0 0.75 0 0.5] CT
0.873 GC
2 setlinecap
10.0 ML
N
816.857 853 M
816.857 72 L
S
GR
GS
[0.75 0 0 0.75 0 0.5] CT
0.873 GC
2 setlinecap
10.0 ML
N
968.694 853 M
968.694 72 L
S
GR
GS
[0.75 0 0 0.75 0 0.5] CT
0.873 GC
2 setlinecap
10.0 ML
N
1120.531 853 M
1120.531 72 L
S
GR
GS
[0.75 0 0 0.75 0 0.5] CT
0.873 GC
2 setlinecap
10.0 ML
N
1272.367 853 M
1272.367 72 L
S
GR
GS
[0.75 0 0 0.75 0 0.5] CT
0.873 GC
2 setlinecap
10.0 ML
N
1424.204 853 M
1424.204 72 L
S
GR
GS
[0.75 0 0 0.75 0 0.5] CT
0.873 GC
2 setlinecap
10.0 ML
N
1576.041 853 M
1576.041 72 L
S
GR
GS
[0.75 0 0 0.75 0 0.5] CT
0.873 GC
2 setlinecap
10.0 ML
N
1727.878 853 M
1727.878 72 L
S
GR
GS
[0.75 0 0 0.75 0 0.5] CT
0.873 GC
2 setlinecap
10.0 ML
N
1738 836.022 M
250 836.022 L
S
GR
GS
[0.75 0 0 0.75 0 0.5] CT
0.873 GC
2 setlinecap
10.0 ML
N
1738 751.13 M
250 751.13 L
S
GR
GS
[0.75 0 0 0.75 0 0.5] CT
0.873 GC
2 setlinecap
10.0 ML
N
1738 666.239 M
250 666.239 L
S
GR
GS
[0.75 0 0 0.75 0 0.5] CT
0.873 GC
2 setlinecap
10.0 ML
N
1738 581.348 M
250 581.348 L
S
GR
GS
[0.75 0 0 0.75 0 0.5] CT
0.873 GC
2 setlinecap
10.0 ML
N
1738 496.457 M
250 496.457 L
S
GR
GS
[0.75 0 0 0.75 0 0.5] CT
0.873 GC
2 setlinecap
10.0 ML
N
1738 411.565 M
250 411.565 L
S
GR
GS
[0.75 0 0 0.75 0 0.5] CT
0.873 GC
2 setlinecap
10.0 ML
N
1738 326.674 M
250 326.674 L
S
GR
GS
[0.75 0 0 0.75 0 0.5] CT
0.873 GC
2 setlinecap
10.0 ML
N
1738 241.783 M
250 241.783 L
S
GR
GS
[0.75 0 0 0.75 0 0.5] CT
0.873 GC
2 setlinecap
10.0 ML
N
1738 156.891 M
250 156.891 L
S
GR
GS
[0.75 0 0 0.75 0 0.5] CT
0.873 GC
2 setlinecap
10.0 ML
N
1738 72 M
250 72 L
S
GR
GS
[0.75 0 0 0.75 745.50055 676.55002] CT
0.149 GC
/Helvetica 40 F
GS
[1 0 0 1 0 0] CT
-145 38 moveto 
1 -1 scale
(Load \(Erlangs\)) t 
GR
GR
GS
[0.75 0 0 0.75 0 0.5] CT
0.149 GC
2 setlinecap
10.0 ML
N
250 853 M
1738 853 L
S
GR
GS
[0.75 0 0 0.75 0 0.5] CT
0.149 GC
2 setlinecap
10.0 ML
N
250 72 M
1738 72 L
S
GR
GS
[0.75 0 0 0.75 0 0.5] CT
0.149 GC
2 setlinecap
10.0 ML
N
361.347 853 M
361.347 838.12 L
S
GR
GS
[0.75 0 0 0.75 0 0.5] CT
0.149 GC
2 setlinecap
10.0 ML
N
513.184 853 M
513.184 838.12 L
S
GR
GS
[0.75 0 0 0.75 0 0.5] CT
0.149 GC
2 setlinecap
10.0 ML
N
665.02 853 M
665.02 838.12 L
S
GR
GS
[0.75 0 0 0.75 0 0.5] CT
0.149 GC
2 setlinecap
10.0 ML
N
816.857 853 M
816.857 838.12 L
S
GR
GS
[0.75 0 0 0.75 0 0.5] CT
0.149 GC
2 setlinecap
10.0 ML
N
968.694 853 M
968.694 838.12 L
S
GR
GS
[0.75 0 0 0.75 0 0.5] CT
0.149 GC
2 setlinecap
10.0 ML
N
1120.531 853 M
1120.531 838.12 L
S
GR
GS
[0.75 0 0 0.75 0 0.5] CT
0.149 GC
2 setlinecap
10.0 ML
N
1272.367 853 M
1272.367 838.12 L
S
GR
GS
[0.75 0 0 0.75 0 0.5] CT
0.149 GC
2 setlinecap
10.0 ML
N
1424.204 853 M
1424.204 838.12 L
S
GR
GS
[0.75 0 0 0.75 0 0.5] CT
0.149 GC
2 setlinecap
10.0 ML
N
1576.041 853 M
1576.041 838.12 L
S
GR
GS
[0.75 0 0 0.75 0 0.5] CT
0.149 GC
2 setlinecap
10.0 ML
N
1727.878 853 M
1727.878 838.12 L
S
GR
GS
[0.75 0 0 0.75 0 0.5] CT
0.149 GC
2 setlinecap
10.0 ML
N
361.347 72 M
361.347 86.88 L
S
GR
GS
[0.75 0 0 0.75 0 0.5] CT
0.149 GC
2 setlinecap
10.0 ML
N
513.184 72 M
513.184 86.88 L
S
GR
GS
[0.75 0 0 0.75 0 0.5] CT
0.149 GC
2 setlinecap
10.0 ML
N
665.02 72 M
665.02 86.88 L
S
GR
GS
[0.75 0 0 0.75 0 0.5] CT
0.149 GC
2 setlinecap
10.0 ML
N
816.857 72 M
816.857 86.88 L
S
GR
GS
[0.75 0 0 0.75 0 0.5] CT
0.149 GC
2 setlinecap
10.0 ML
N
968.694 72 M
968.694 86.88 L
S
GR
GS
[0.75 0 0 0.75 0 0.5] CT
0.149 GC
2 setlinecap
10.0 ML
N
1120.531 72 M
1120.531 86.88 L
S
GR
GS
[0.75 0 0 0.75 0 0.5] CT
0.149 GC
2 setlinecap
10.0 ML
N
1272.367 72 M
1272.367 86.88 L
S
GR
GS
[0.75 0 0 0.75 0 0.5] CT
0.149 GC
2 setlinecap
10.0 ML
N
1424.204 72 M
1424.204 86.88 L
S
GR
GS
[0.75 0 0 0.75 0 0.5] CT
0.149 GC
2 setlinecap
10.0 ML
N
1576.041 72 M
1576.041 86.88 L
S
GR
GS
[0.75 0 0 0.75 0 0.5] CT
0.149 GC
2 setlinecap
10.0 ML
N
1727.878 72 M
1727.878 86.88 L
S
GR
GS
[0.75 0 0 0.75 271.01019 647.04999] CT
0.149 GC
/Helvetica 32 F
GS
[1 0 0 1 0 0] CT
-10.5 30 moveto 
1 -1 scale
(3) t 
GR
GR
GS
[0.75 0 0 0.75 384.88774 647.04999] CT
0.149 GC
/Helvetica 32 F
GS
[1 0 0 1 0 0] CT
-10.5 30 moveto 
1 -1 scale
(6) t 
GR
GR
GS
[0.75 0 0 0.75 498.76529 647.04999] CT
0.149 GC
/Helvetica 32 F
GS
[1 0 0 1 0 0] CT
-10.5 30 moveto 
1 -1 scale
(9) t 
GR
GR
GS
[0.75 0 0 0.75 612.64284 647.04999] CT
0.149 GC
/Helvetica 32 F
GS
[1 0 0 1 0 0] CT
-20.5 30 moveto 
1 -1 scale
(12) t 
GR
GR
GS
[0.75 0 0 0.75 726.52039 647.04999] CT
0.149 GC
/Helvetica 32 F
GS
[1 0 0 1 0 0] CT
-20.5 30 moveto 
1 -1 scale
(15) t 
GR
GR
GS
[0.75 0 0 0.75 840.39798 647.04999] CT
0.149 GC
/Helvetica 32 F
GS
[1 0 0 1 0 0] CT
-20.5 30 moveto 
1 -1 scale
(18) t 
GR
GR
GS
[0.75 0 0 0.75 954.27548 647.04999] CT
0.149 GC
/Helvetica 32 F
GS
[1 0 0 1 0 0] CT
-20.5 30 moveto 
1 -1 scale
(21) t 
GR
GR
GS
[0.75 0 0 0.75 1068.15308 647.04999] CT
0.149 GC
/Helvetica 32 F
GS
[1 0 0 1 0 0] CT
-20.5 30 moveto 
1 -1 scale
(24) t 
GR
GR
GS
[0.75 0 0 0.75 1182.03058 647.04999] CT
0.149 GC
/Helvetica 32 F
GS
[1 0 0 1 0 0] CT
-20.5 30 moveto 
1 -1 scale
(27) t 
GR
GR
GS
[0.75 0 0 0.75 1295.90817 647.04999] CT
0.149 GC
/Helvetica 32 F
GS
[1 0 0 1 0 0] CT
-20.5 30 moveto 
1 -1 scale
(30) t 
GR
GR
GS
[0 -0.75 0.75 0 131.95 347.3747] CT
0.149 GC
/Helvetica 43 F
GS
[1 0 0 1 0 0] CT
-257 -11 moveto 
1 -1 scale
(Blocking Probability \(%\)) t 
GR
GR
GS
[0.75 0 0 0.75 0 0.5] CT
0.149 GC
2 setlinecap
10.0 ML
N
250 853 M
250 72 L
S
GR
GS
[0.75 0 0 0.75 0 0.5] CT
0.149 GC
2 setlinecap
10.0 ML
N
1738 853 M
1738 72 L
S
GR
GS
[0.75 0 0 0.75 0 0.5] CT
0.149 GC
2 setlinecap
10.0 ML
N
250 836.022 M
264.88 836.022 L
S
GR
GS
[0.75 0 0 0.75 0 0.5] CT
0.149 GC
2 setlinecap
10.0 ML
N
250 751.13 M
264.88 751.13 L
S
GR
GS
[0.75 0 0 0.75 0 0.5] CT
0.149 GC
2 setlinecap
10.0 ML
N
250 666.239 M
264.88 666.239 L
S
GR
GS
[0.75 0 0 0.75 0 0.5] CT
0.149 GC
2 setlinecap
10.0 ML
N
250 581.348 M
264.88 581.348 L
S
GR
GS
[0.75 0 0 0.75 0 0.5] CT
0.149 GC
2 setlinecap
10.0 ML
N
250 496.457 M
264.88 496.457 L
S
GR
GS
[0.75 0 0 0.75 0 0.5] CT
0.149 GC
2 setlinecap
10.0 ML
N
250 411.565 M
264.88 411.565 L
S
GR
GS
[0.75 0 0 0.75 0 0.5] CT
0.149 GC
2 setlinecap
10.0 ML
N
250 326.674 M
264.88 326.674 L
S
GR
GS
[0.75 0 0 0.75 0 0.5] CT
0.149 GC
2 setlinecap
10.0 ML
N
250 241.783 M
264.88 241.783 L
S
GR
GS
[0.75 0 0 0.75 0 0.5] CT
0.149 GC
2 setlinecap
10.0 ML
N
250 156.891 M
264.88 156.891 L
S
GR
GS
[0.75 0 0 0.75 0 0.5] CT
0.149 GC
2 setlinecap
10.0 ML
N
250 72 M
264.88 72 L
S
GR
GS
[0.75 0 0 0.75 0 0.5] CT
0.149 GC
2 setlinecap
10.0 ML
N
1738 836.022 M
1723.12 836.022 L
S
GR
GS
[0.75 0 0 0.75 0 0.5] CT
0.149 GC
2 setlinecap
10.0 ML
N
1738 751.13 M
1723.12 751.13 L
S
GR
GS
[0.75 0 0 0.75 0 0.5] CT
0.149 GC
2 setlinecap
10.0 ML
N
1738 666.239 M
1723.12 666.239 L
S
GR
GS
[0.75 0 0 0.75 0 0.5] CT
0.149 GC
2 setlinecap
10.0 ML
N
1738 581.348 M
1723.12 581.348 L
S
GR
GS
[0.75 0 0 0.75 0 0.5] CT
0.149 GC
2 setlinecap
10.0 ML
N
1738 496.457 M
1723.12 496.457 L
S
GR
GS
[0.75 0 0 0.75 0 0.5] CT
0.149 GC
2 setlinecap
10.0 ML
N
1738 411.565 M
1723.12 411.565 L
S
GR
GS
[0.75 0 0 0.75 0 0.5] CT
0.149 GC
2 setlinecap
10.0 ML
N
1738 326.674 M
1723.12 326.674 L
S
GR
GS
[0.75 0 0 0.75 0 0.5] CT
0.149 GC
2 setlinecap
10.0 ML
N
1738 241.783 M
1723.12 241.783 L
S
GR
GS
[0.75 0 0 0.75 0 0.5] CT
0.149 GC
2 setlinecap
10.0 ML
N
1738 156.891 M
1723.12 156.891 L
S
GR
GS
[0.75 0 0 0.75 0 0.5] CT
0.149 GC
2 setlinecap
10.0 ML
N
1738 72 M
1723.12 72 L
S
GR
GS
[0.75 0 0 0.75 180.7 627.5163] CT
0.149 GC
/Helvetica 32 F
GS
[1 0 0 1 0 0] CT
-21 11 moveto 
1 -1 scale
(0) t 
GR
GR
GS
[0.75 0 0 0.75 180.7 563.84782] CT
0.149 GC
/Helvetica 32 F
GS
[1 0 0 1 0 0] CT
-41 11 moveto 
1 -1 scale
(10) t 
GR
GR
GS
[0.75 0 0 0.75 180.7 500.17935] CT
0.149 GC
/Helvetica 32 F
GS
[1 0 0 1 0 0] CT
-41 11 moveto 
1 -1 scale
(20) t 
GR
GR
GS
[0.75 0 0 0.75 180.7 436.51088] CT
0.149 GC
/Helvetica 32 F
GS
[1 0 0 1 0 0] CT
-41 11 moveto 
1 -1 scale
(30) t 
GR
GR
GS
[0.75 0 0 0.75 180.7 372.84238] CT
0.149 GC
/Helvetica 32 F
GS
[1 0 0 1 0 0] CT
-41 11 moveto 
1 -1 scale
(40) t 
GR
GR
GS
[0.75 0 0 0.75 180.7 309.17391] CT
0.149 GC
/Helvetica 32 F
GS
[1 0 0 1 0 0] CT
-41 11 moveto 
1 -1 scale
(50) t 
GR
GR
GS
[0.75 0 0 0.75 180.7 245.50544] CT
0.149 GC
/Helvetica 32 F
GS
[1 0 0 1 0 0] CT
-41 11 moveto 
1 -1 scale
(60) t 
GR
GR
GS
[0.75 0 0 0.75 180.7 181.83696] CT
0.149 GC
/Helvetica 32 F
GS
[1 0 0 1 0 0] CT
-41 11 moveto 
1 -1 scale
(70) t 
GR
GR
GS
[0.75 0 0 0.75 180.7 118.16848] CT
0.149 GC
/Helvetica 32 F
GS
[1 0 0 1 0 0] CT
-41 11 moveto 
1 -1 scale
(80) t 
GR
GR
GS
[0.75 0 0 0.75 180.7 54.5] CT
0.149 GC
/Helvetica 32 F
GS
[1 0 0 1 0 0] CT
-41 11 moveto 
1 -1 scale
(90) t 
GR
GR
GS
[0.75 0 0 0.75 0 0.5] CT
[16 16] 0 setdash
2 LJ
4 LW
N
260.122 827.533 M
310.735 821.873 L
361.347 816.214 L
411.959 804.895 L
462.571 773.768 L
513.184 736.982 L
563.796 694.536 L
614.408 618.134 L
665.02 598.326 L
715.633 536.072 L
766.245 504.946 L
816.857 504.946 L
867.469 465.33 L
918.082 428.543 L
968.694 383.268 L
1019.306 357.801 L
1069.918 363.46 L
1120.531 321.014 L
1171.143 295.547 L
1221.755 309.696 L
1272.367 287.058 L
1322.98 292.717 L
1373.592 272.909 L
1424.204 255.931 L
1474.816 278.569 L
1525.429 275.739 L
1576.041 244.612 L
1626.653 216.315 L
1677.265 213.485 L
1727.878 230.464 L
S
GR
GS
[0.75 0 0 0.75 0 0.5] CT
N
248.956 834.165 M
272.044 834.165 L
260.5 814.17 L
cp
f
GR
GS
[0.75 0 0 0.75 0 0.5] CT
2 setlinecap
10.0 ML
4 LW
N
248.956 834.165 M
272.044 834.165 L
260.5 814.17 L
248.956 834.165 L
S
GR
GS
[0.75 0 0 0.75 0 0.5] CT
N
298.956 828.165 M
322.044 828.165 L
310.5 808.17 L
cp
f
GR
GS
[0.75 0 0 0.75 0 0.5] CT
2 setlinecap
10.0 ML
4 LW
N
298.956 828.165 M
322.044 828.165 L
310.5 808.17 L
298.956 828.165 L
S
GR
GS
[0.75 0 0 0.75 0 0.5] CT
N
349.956 823.165 M
373.044 823.165 L
361.5 803.17 L
cp
f
GR
GS
[0.75 0 0 0.75 0 0.5] CT
2 setlinecap
10.0 ML
4 LW
N
349.956 823.165 M
373.044 823.165 L
361.5 803.17 L
349.956 823.165 L
S
GR
GS
[0.75 0 0 0.75 0 0.5] CT
N
399.956 811.165 M
423.044 811.165 L
411.5 791.17 L
cp
f
GR
GS
[0.75 0 0 0.75 0 0.5] CT
2 setlinecap
10.0 ML
4 LW
N
399.956 811.165 M
423.044 811.165 L
411.5 791.17 L
399.956 811.165 L
S
GR
GS
[0.75 0 0 0.75 0 0.5] CT
N
450.956 780.165 M
474.044 780.165 L
462.5 760.17 L
cp
f
GR
GS
[0.75 0 0 0.75 0 0.5] CT
2 setlinecap
10.0 ML
4 LW
N
450.956 780.165 M
474.044 780.165 L
462.5 760.17 L
450.956 780.165 L
S
GR
GS
[0.75 0 0 0.75 0 0.5] CT
N
501.956 743.165 M
525.044 743.165 L
513.5 723.17 L
cp
f
GR
GS
[0.75 0 0 0.75 0 0.5] CT
2 setlinecap
10.0 ML
4 LW
N
501.956 743.165 M
525.044 743.165 L
513.5 723.17 L
501.956 743.165 L
S
GR
GS
[0.75 0 0 0.75 0 0.5] CT
N
551.956 701.165 M
575.044 701.165 L
563.5 681.17 L
cp
f
GR
GS
[0.75 0 0 0.75 0 0.5] CT
2 setlinecap
10.0 ML
4 LW
N
551.956 701.165 M
575.044 701.165 L
563.5 681.17 L
551.956 701.165 L
S
GR
GS
[0.75 0 0 0.75 0 0.5] CT
N
602.956 625.165 M
626.044 625.165 L
614.5 605.17 L
cp
f
GR
GS
[0.75 0 0 0.75 0 0.5] CT
2 setlinecap
10.0 ML
4 LW
N
602.956 625.165 M
626.044 625.165 L
614.5 605.17 L
602.956 625.165 L
S
GR
GS
[0.75 0 0 0.75 0 0.5] CT
N
653.956 605.165 M
677.044 605.165 L
665.5 585.17 L
cp
f
GR
GS
[0.75 0 0 0.75 0 0.5] CT
2 setlinecap
10.0 ML
4 LW
N
653.956 605.165 M
677.044 605.165 L
665.5 585.17 L
653.956 605.165 L
S
GR
GS
[0.75 0 0 0.75 0 0.5] CT
N
703.956 543.165 M
727.044 543.165 L
715.5 523.17 L
cp
f
GR
GS
[0.75 0 0 0.75 0 0.5] CT
2 setlinecap
10.0 ML
4 LW
N
703.956 543.165 M
727.044 543.165 L
715.5 523.17 L
703.956 543.165 L
S
GR
GS
[0.75 0 0 0.75 0 0.5] CT
N
754.956 511.165 M
778.044 511.165 L
766.5 491.17 L
cp
f
GR
GS
[0.75 0 0 0.75 0 0.5] CT
2 setlinecap
10.0 ML
4 LW
N
754.956 511.165 M
778.044 511.165 L
766.5 491.17 L
754.956 511.165 L
S
GR
GS
[0.75 0 0 0.75 0 0.5] CT
N
804.956 511.165 M
828.044 511.165 L
816.5 491.17 L
cp
f
GR
GS
[0.75 0 0 0.75 0 0.5] CT
2 setlinecap
10.0 ML
4 LW
N
804.956 511.165 M
828.044 511.165 L
816.5 491.17 L
804.956 511.165 L
S
GR
GS
[0.75 0 0 0.75 0 0.5] CT
N
855.956 472.165 M
879.044 472.165 L
867.5 452.17 L
cp
f
GR
GS
[0.75 0 0 0.75 0 0.5] CT
2 setlinecap
10.0 ML
4 LW
N
855.956 472.165 M
879.044 472.165 L
867.5 452.17 L
855.956 472.165 L
S
GR
GS
[0.75 0 0 0.75 0 0.5] CT
N
906.956 435.165 M
930.044 435.165 L
918.5 415.17 L
cp
f
GR
GS
[0.75 0 0 0.75 0 0.5] CT
2 setlinecap
10.0 ML
4 LW
N
906.956 435.165 M
930.044 435.165 L
918.5 415.17 L
906.956 435.165 L
S
GR
GS
[0.75 0 0 0.75 0 0.5] CT
N
956.956 390.165 M
980.044 390.165 L
968.5 370.17 L
cp
f
GR
GS
[0.75 0 0 0.75 0 0.5] CT
2 setlinecap
10.0 ML
4 LW
N
956.956 390.165 M
980.044 390.165 L
968.5 370.17 L
956.956 390.165 L
S
GR
GS
[0.75 0 0 0.75 0 0.5] CT
N
1007.956 364.165 M
1031.044 364.165 L
1019.5 344.17 L
cp
f
GR
GS
[0.75 0 0 0.75 0 0.5] CT
2 setlinecap
10.0 ML
4 LW
N
1007.956 364.165 M
1031.044 364.165 L
1019.5 344.17 L
1007.956 364.165 L
S
GR
GS
[0.75 0 0 0.75 0 0.5] CT
N
1057.956 370.165 M
1081.044 370.165 L
1069.5 350.17 L
cp
f
GR
GS
[0.75 0 0 0.75 0 0.5] CT
2 setlinecap
10.0 ML
4 LW
N
1057.956 370.165 M
1081.044 370.165 L
1069.5 350.17 L
1057.956 370.165 L
S
GR
GS
[0.75 0 0 0.75 0 0.5] CT
N
1108.956 328.165 M
1132.044 328.165 L
1120.5 308.17 L
cp
f
GR
GS
[0.75 0 0 0.75 0 0.5] CT
2 setlinecap
10.0 ML
4 LW
N
1108.956 328.165 M
1132.044 328.165 L
1120.5 308.17 L
1108.956 328.165 L
S
GR
GS
[0.75 0 0 0.75 0 0.5] CT
N
1159.956 302.165 M
1183.044 302.165 L
1171.5 282.17 L
cp
f
GR
GS
[0.75 0 0 0.75 0 0.5] CT
2 setlinecap
10.0 ML
4 LW
N
1159.956 302.165 M
1183.044 302.165 L
1171.5 282.17 L
1159.956 302.165 L
S
GR
GS
[0.75 0 0 0.75 0 0.5] CT
N
1209.956 316.165 M
1233.044 316.165 L
1221.5 296.17 L
cp
f
GR
GS
[0.75 0 0 0.75 0 0.5] CT
2 setlinecap
10.0 ML
4 LW
N
1209.956 316.165 M
1233.044 316.165 L
1221.5 296.17 L
1209.956 316.165 L
S
GR
GS
[0.75 0 0 0.75 0 0.5] CT
N
1260.956 294.165 M
1284.044 294.165 L
1272.5 274.17 L
cp
f
GR
GS
[0.75 0 0 0.75 0 0.5] CT
2 setlinecap
10.0 ML
4 LW
N
1260.956 294.165 M
1284.044 294.165 L
1272.5 274.17 L
1260.956 294.165 L
S
GR
GS
[0.75 0 0 0.75 0 0.5] CT
N
1310.956 299.165 M
1334.044 299.165 L
1322.5 279.17 L
cp
f
GR
GS
[0.75 0 0 0.75 0 0.5] CT
2 setlinecap
10.0 ML
4 LW
N
1310.956 299.165 M
1334.044 299.165 L
1322.5 279.17 L
1310.956 299.165 L
S
GR
GS
[0.75 0 0 0.75 0 0.5] CT
N
1361.956 279.165 M
1385.044 279.165 L
1373.5 259.17 L
cp
f
GR
GS
[0.75 0 0 0.75 0 0.5] CT
2 setlinecap
10.0 ML
4 LW
N
1361.956 279.165 M
1385.044 279.165 L
1373.5 259.17 L
1361.956 279.165 L
S
GR
GS
[0.75 0 0 0.75 0 0.5] CT
N
1412.956 262.165 M
1436.044 262.165 L
1424.5 242.17 L
cp
f
GR
GS
[0.75 0 0 0.75 0 0.5] CT
2 setlinecap
10.0 ML
4 LW
N
1412.956 262.165 M
1436.044 262.165 L
1424.5 242.17 L
1412.956 262.165 L
S
GR
GS
[0.75 0 0 0.75 0 0.5] CT
N
1462.956 285.165 M
1486.044 285.165 L
1474.5 265.17 L
cp
f
GR
GS
[0.75 0 0 0.75 0 0.5] CT
2 setlinecap
10.0 ML
4 LW
N
1462.956 285.165 M
1486.044 285.165 L
1474.5 265.17 L
1462.956 285.165 L
S
GR
GS
[0.75 0 0 0.75 0 0.5] CT
N
1513.956 282.165 M
1537.044 282.165 L
1525.5 262.17 L
cp
f
GR
GS
[0.75 0 0 0.75 0 0.5] CT
2 setlinecap
10.0 ML
4 LW
N
1513.956 282.165 M
1537.044 282.165 L
1525.5 262.17 L
1513.956 282.165 L
S
GR
GS
[0.75 0 0 0.75 0 0.5] CT
N
1564.956 251.165 M
1588.044 251.165 L
1576.5 231.17 L
cp
f
GR
GS
[0.75 0 0 0.75 0 0.5] CT
2 setlinecap
10.0 ML
4 LW
N
1564.956 251.165 M
1588.044 251.165 L
1576.5 231.17 L
1564.956 251.165 L
S
GR
GS
[0.75 0 0 0.75 0 0.5] CT
N
1614.956 223.165 M
1638.044 223.165 L
1626.5 203.17 L
cp
f
GR
GS
[0.75 0 0 0.75 0 0.5] CT
2 setlinecap
10.0 ML
4 LW
N
1614.956 223.165 M
1638.044 223.165 L
1626.5 203.17 L
1614.956 223.165 L
S
GR
GS
[0.75 0 0 0.75 0 0.5] CT
N
1665.956 220.165 M
1689.044 220.165 L
1677.5 200.17 L
cp
f
GR
GS
[0.75 0 0 0.75 0 0.5] CT
2 setlinecap
10.0 ML
4 LW
N
1665.956 220.165 M
1689.044 220.165 L
1677.5 200.17 L
1665.956 220.165 L
S
GR
GS
[0.75 0 0 0.75 0 0.5] CT
N
1715.956 237.165 M
1739.044 237.165 L
1727.5 217.17 L
cp
f
GR
GS
[0.75 0 0 0.75 0 0.5] CT
2 setlinecap
10.0 ML
4 LW
N
1715.956 237.165 M
1739.044 237.165 L
1727.5 217.17 L
1715.956 237.165 L
S
GR
GS
[0.75 0 0 0.75 0 0.5] CT
1 0 1 RC
[8 8] 0 setdash
2 LJ
2.667 LW
N
260.122 830.362 M
310.735 827.533 L
361.347 821.873 L
411.959 807.725 L
462.571 782.257 L
513.184 736.982 L
563.796 694.536 L
614.408 626.623 L
665.02 601.156 L
715.633 550.221 L
766.245 504.946 L
816.857 510.605 L
867.469 465.33 L
918.082 431.373 L
968.694 405.906 L
1019.306 380.438 L
1069.918 366.29 L
1120.531 335.163 L
1171.143 295.547 L
1221.755 321.014 L
1272.367 295.547 L
1322.98 292.717 L
1373.592 281.399 L
1424.204 261.591 L
1474.816 278.569 L
1525.429 275.739 L
1576.041 250.272 L
1626.653 210.656 L
1677.265 213.485 L
1727.878 224.804 L
S
GR
GS
[0.75 0 0 0.75 0 0.5] CT
1 0 1 RC
2 setlinecap
10.0 ML
2.667 LW
N
253.572 826.5 M
258.191 826.5 L
260.5 822.5 L
262.809 826.5 L
267.428 826.5 L
264.5 830.5 L
267.428 834.5 L
262.809 834.5 L
260.5 838.5 L
258.191 834.5 L
253.572 834.5 L
256.5 830.5 L
253.572 826.5 L
S
GR
GS
[0.75 0 0 0.75 0 0.5] CT
1 0 1 RC
2 setlinecap
10.0 ML
2.667 LW
N
303.572 823.5 M
308.191 823.5 L
310.5 819.5 L
312.809 823.5 L
317.428 823.5 L
314.5 827.5 L
317.428 831.5 L
312.809 831.5 L
310.5 835.5 L
308.191 831.5 L
303.572 831.5 L
306.5 827.5 L
303.572 823.5 L
S
GR
GS
[0.75 0 0 0.75 0 0.5] CT
1 0 1 RC
2 setlinecap
10.0 ML
2.667 LW
N
354.572 817.5 M
359.191 817.5 L
361.5 813.5 L
363.809 817.5 L
368.428 817.5 L
365.5 821.5 L
368.428 825.5 L
363.809 825.5 L
361.5 829.5 L
359.191 825.5 L
354.572 825.5 L
357.5 821.5 L
354.572 817.5 L
S
GR
GS
[0.75 0 0 0.75 0 0.5] CT
1 0 1 RC
2 setlinecap
10.0 ML
2.667 LW
N
404.572 803.5 M
409.191 803.5 L
411.5 799.5 L
413.809 803.5 L
418.428 803.5 L
415.5 807.5 L
418.428 811.5 L
413.809 811.5 L
411.5 815.5 L
409.191 811.5 L
404.572 811.5 L
407.5 807.5 L
404.572 803.5 L
S
GR
GS
[0.75 0 0 0.75 0 0.5] CT
1 0 1 RC
2 setlinecap
10.0 ML
2.667 LW
N
455.572 778.5 M
460.191 778.5 L
462.5 774.5 L
464.809 778.5 L
469.428 778.5 L
466.5 782.5 L
469.428 786.5 L
464.809 786.5 L
462.5 790.5 L
460.191 786.5 L
455.572 786.5 L
458.5 782.5 L
455.572 778.5 L
S
GR
GS
[0.75 0 0 0.75 0 0.5] CT
1 0 1 RC
2 setlinecap
10.0 ML
2.667 LW
N
506.572 732.5 M
511.191 732.5 L
513.5 728.5 L
515.809 732.5 L
520.428 732.5 L
517.5 736.5 L
520.428 740.5 L
515.809 740.5 L
513.5 744.5 L
511.191 740.5 L
506.572 740.5 L
509.5 736.5 L
506.572 732.5 L
S
GR
GS
[0.75 0 0 0.75 0 0.5] CT
1 0 1 RC
2 setlinecap
10.0 ML
2.667 LW
N
556.572 690.5 M
561.191 690.5 L
563.5 686.5 L
565.809 690.5 L
570.428 690.5 L
567.5 694.5 L
570.428 698.5 L
565.809 698.5 L
563.5 702.5 L
561.191 698.5 L
556.572 698.5 L
559.5 694.5 L
556.572 690.5 L
S
GR
GS
[0.75 0 0 0.75 0 0.5] CT
1 0 1 RC
2 setlinecap
10.0 ML
2.667 LW
N
607.572 622.5 M
612.191 622.5 L
614.5 618.5 L
616.809 622.5 L
621.428 622.5 L
618.5 626.5 L
621.428 630.5 L
616.809 630.5 L
614.5 634.5 L
612.191 630.5 L
607.572 630.5 L
610.5 626.5 L
607.572 622.5 L
S
GR
GS
[0.75 0 0 0.75 0 0.5] CT
1 0 1 RC
2 setlinecap
10.0 ML
2.667 LW
N
658.572 597.5 M
663.191 597.5 L
665.5 593.5 L
667.809 597.5 L
672.428 597.5 L
669.5 601.5 L
672.428 605.5 L
667.809 605.5 L
665.5 609.5 L
663.191 605.5 L
658.572 605.5 L
661.5 601.5 L
658.572 597.5 L
S
GR
GS
[0.75 0 0 0.75 0 0.5] CT
1 0 1 RC
2 setlinecap
10.0 ML
2.667 LW
N
708.572 546.5 M
713.191 546.5 L
715.5 542.5 L
717.809 546.5 L
722.428 546.5 L
719.5 550.5 L
722.428 554.5 L
717.809 554.5 L
715.5 558.5 L
713.191 554.5 L
708.572 554.5 L
711.5 550.5 L
708.572 546.5 L
S
GR
GS
[0.75 0 0 0.75 0 0.5] CT
1 0 1 RC
2 setlinecap
10.0 ML
2.667 LW
N
759.572 500.5 M
764.191 500.5 L
766.5 496.5 L
768.809 500.5 L
773.428 500.5 L
770.5 504.5 L
773.428 508.5 L
768.809 508.5 L
766.5 512.5 L
764.191 508.5 L
759.572 508.5 L
762.5 504.5 L
759.572 500.5 L
S
GR
GS
[0.75 0 0 0.75 0 0.5] CT
1 0 1 RC
2 setlinecap
10.0 ML
2.667 LW
N
809.572 506.5 M
814.191 506.5 L
816.5 502.5 L
818.809 506.5 L
823.428 506.5 L
820.5 510.5 L
823.428 514.5 L
818.809 514.5 L
816.5 518.5 L
814.191 514.5 L
809.572 514.5 L
812.5 510.5 L
809.572 506.5 L
S
GR
GS
[0.75 0 0 0.75 0 0.5] CT
1 0 1 RC
2 setlinecap
10.0 ML
2.667 LW
N
860.572 461.5 M
865.191 461.5 L
867.5 457.5 L
869.809 461.5 L
874.428 461.5 L
871.5 465.5 L
874.428 469.5 L
869.809 469.5 L
867.5 473.5 L
865.191 469.5 L
860.572 469.5 L
863.5 465.5 L
860.572 461.5 L
S
GR
GS
[0.75 0 0 0.75 0 0.5] CT
1 0 1 RC
2 setlinecap
10.0 ML
2.667 LW
N
911.572 427.5 M
916.191 427.5 L
918.5 423.5 L
920.809 427.5 L
925.428 427.5 L
922.5 431.5 L
925.428 435.5 L
920.809 435.5 L
918.5 439.5 L
916.191 435.5 L
911.572 435.5 L
914.5 431.5 L
911.572 427.5 L
S
GR
GS
[0.75 0 0 0.75 0 0.5] CT
1 0 1 RC
2 setlinecap
10.0 ML
2.667 LW
N
961.572 401.5 M
966.191 401.5 L
968.5 397.5 L
970.809 401.5 L
975.428 401.5 L
972.5 405.5 L
975.428 409.5 L
970.809 409.5 L
968.5 413.5 L
966.191 409.5 L
961.572 409.5 L
964.5 405.5 L
961.572 401.5 L
S
GR
GS
[0.75 0 0 0.75 0 0.5] CT
1 0 1 RC
2 setlinecap
10.0 ML
2.667 LW
N
1012.572 376.5 M
1017.191 376.5 L
1019.5 372.5 L
1021.809 376.5 L
1026.428 376.5 L
1023.5 380.5 L
1026.428 384.5 L
1021.809 384.5 L
1019.5 388.5 L
1017.191 384.5 L
1012.572 384.5 L
1015.5 380.5 L
1012.572 376.5 L
S
GR
GS
[0.75 0 0 0.75 0 0.5] CT
1 0 1 RC
2 setlinecap
10.0 ML
2.667 LW
N
1062.572 362.5 M
1067.191 362.5 L
1069.5 358.5 L
1071.809 362.5 L
1076.428 362.5 L
1073.5 366.5 L
1076.428 370.5 L
1071.809 370.5 L
1069.5 374.5 L
1067.191 370.5 L
1062.572 370.5 L
1065.5 366.5 L
1062.572 362.5 L
S
GR
GS
[0.75 0 0 0.75 0 0.5] CT
1 0 1 RC
2 setlinecap
10.0 ML
2.667 LW
N
1113.572 331.5 M
1118.191 331.5 L
1120.5 327.5 L
1122.809 331.5 L
1127.428 331.5 L
1124.5 335.5 L
1127.428 339.5 L
1122.809 339.5 L
1120.5 343.5 L
1118.191 339.5 L
1113.572 339.5 L
1116.5 335.5 L
1113.572 331.5 L
S
GR
GS
[0.75 0 0 0.75 0 0.5] CT
1 0 1 RC
2 setlinecap
10.0 ML
2.667 LW
N
1164.572 291.5 M
1169.191 291.5 L
1171.5 287.5 L
1173.809 291.5 L
1178.428 291.5 L
1175.5 295.5 L
1178.428 299.5 L
1173.809 299.5 L
1171.5 303.5 L
1169.191 299.5 L
1164.572 299.5 L
1167.5 295.5 L
1164.572 291.5 L
S
GR
GS
[0.75 0 0 0.75 0 0.5] CT
1 0 1 RC
2 setlinecap
10.0 ML
2.667 LW
N
1214.572 317.5 M
1219.191 317.5 L
1221.5 313.5 L
1223.809 317.5 L
1228.428 317.5 L
1225.5 321.5 L
1228.428 325.5 L
1223.809 325.5 L
1221.5 329.5 L
1219.191 325.5 L
1214.572 325.5 L
1217.5 321.5 L
1214.572 317.5 L
S
GR
GS
[0.75 0 0 0.75 0 0.5] CT
1 0 1 RC
2 setlinecap
10.0 ML
2.667 LW
N
1265.572 291.5 M
1270.191 291.5 L
1272.5 287.5 L
1274.809 291.5 L
1279.428 291.5 L
1276.5 295.5 L
1279.428 299.5 L
1274.809 299.5 L
1272.5 303.5 L
1270.191 299.5 L
1265.572 299.5 L
1268.5 295.5 L
1265.572 291.5 L
S
GR
GS
[0.75 0 0 0.75 0 0.5] CT
1 0 1 RC
2 setlinecap
10.0 ML
2.667 LW
N
1315.572 288.5 M
1320.191 288.5 L
1322.5 284.5 L
1324.809 288.5 L
1329.428 288.5 L
1326.5 292.5 L
1329.428 296.5 L
1324.809 296.5 L
1322.5 300.5 L
1320.191 296.5 L
1315.572 296.5 L
1318.5 292.5 L
1315.572 288.5 L
S
GR
GS
[0.75 0 0 0.75 0 0.5] CT
1 0 1 RC
2 setlinecap
10.0 ML
2.667 LW
N
1366.572 277.5 M
1371.191 277.5 L
1373.5 273.5 L
1375.809 277.5 L
1380.428 277.5 L
1377.5 281.5 L
1380.428 285.5 L
1375.809 285.5 L
1373.5 289.5 L
1371.191 285.5 L
1366.572 285.5 L
1369.5 281.5 L
1366.572 277.5 L
S
GR
GS
[0.75 0 0 0.75 0 0.5] CT
1 0 1 RC
2 setlinecap
10.0 ML
2.667 LW
N
1417.572 257.5 M
1422.191 257.5 L
1424.5 253.5 L
1426.809 257.5 L
1431.428 257.5 L
1428.5 261.5 L
1431.428 265.5 L
1426.809 265.5 L
1424.5 269.5 L
1422.191 265.5 L
1417.572 265.5 L
1420.5 261.5 L
1417.572 257.5 L
S
GR
GS
[0.75 0 0 0.75 0 0.5] CT
1 0 1 RC
2 setlinecap
10.0 ML
2.667 LW
N
1467.572 274.5 M
1472.191 274.5 L
1474.5 270.5 L
1476.809 274.5 L
1481.428 274.5 L
1478.5 278.5 L
1481.428 282.5 L
1476.809 282.5 L
1474.5 286.5 L
1472.191 282.5 L
1467.572 282.5 L
1470.5 278.5 L
1467.572 274.5 L
S
GR
GS
[0.75 0 0 0.75 0 0.5] CT
1 0 1 RC
2 setlinecap
10.0 ML
2.667 LW
N
1518.572 271.5 M
1523.191 271.5 L
1525.5 267.5 L
1527.809 271.5 L
1532.428 271.5 L
1529.5 275.5 L
1532.428 279.5 L
1527.809 279.5 L
1525.5 283.5 L
1523.191 279.5 L
1518.572 279.5 L
1521.5 275.5 L
1518.572 271.5 L
S
GR
GS
[0.75 0 0 0.75 0 0.5] CT
1 0 1 RC
2 setlinecap
10.0 ML
2.667 LW
N
1569.572 246.5 M
1574.191 246.5 L
1576.5 242.5 L
1578.809 246.5 L
1583.428 246.5 L
1580.5 250.5 L
1583.428 254.5 L
1578.809 254.5 L
1576.5 258.5 L
1574.191 254.5 L
1569.572 254.5 L
1572.5 250.5 L
1569.572 246.5 L
S
GR
GS
[0.75 0 0 0.75 0 0.5] CT
1 0 1 RC
2 setlinecap
10.0 ML
2.667 LW
N
1619.572 206.5 M
1624.191 206.5 L
1626.5 202.5 L
1628.809 206.5 L
1633.428 206.5 L
1630.5 210.5 L
1633.428 214.5 L
1628.809 214.5 L
1626.5 218.5 L
1624.191 214.5 L
1619.572 214.5 L
1622.5 210.5 L
1619.572 206.5 L
S
GR
GS
[0.75 0 0 0.75 0 0.5] CT
1 0 1 RC
2 setlinecap
10.0 ML
2.667 LW
N
1670.572 209.5 M
1675.191 209.5 L
1677.5 205.5 L
1679.809 209.5 L
1684.428 209.5 L
1681.5 213.5 L
1684.428 217.5 L
1679.809 217.5 L
1677.5 221.5 L
1675.191 217.5 L
1670.572 217.5 L
1673.5 213.5 L
1670.572 209.5 L
S
GR
GS
[0.75 0 0 0.75 0 0.5] CT
1 0 1 RC
2 setlinecap
10.0 ML
2.667 LW
N
1720.572 220.5 M
1725.191 220.5 L
1727.5 216.5 L
1729.809 220.5 L
1734.428 220.5 L
1731.5 224.5 L
1734.428 228.5 L
1729.809 228.5 L
1727.5 232.5 L
1725.191 228.5 L
1720.572 228.5 L
1723.5 224.5 L
1720.572 220.5 L
S
GR
GS
[0.75 0 0 0.75 0 0.5] CT
0 0.502 0 RC
[8 8] 0 setdash
2 LJ
2.667 LW
N
260.122 830.362 M
310.735 830.362 L
361.347 830.362 L
411.959 830.362 L
462.571 824.703 L
513.184 830.362 L
563.796 824.703 L
614.408 819.043 L
665.02 807.725 L
715.633 807.725 L
766.245 785.087 L
816.857 756.79 L
867.469 770.938 L
918.082 720.004 L
968.694 705.855 L
1019.306 677.558 L
1069.918 660.58 L
1120.531 592.667 L
1171.143 561.54 L
1221.755 555.88 L
1272.367 575.688 L
1322.98 564.37 L
1373.592 524.754 L
1424.204 502.116 L
1474.816 499.286 L
1525.429 510.605 L
1576.041 476.649 L
1626.653 439.862 L
1677.265 442.692 L
1727.878 448.351 L
S
GR
GS
[0.75 0 0 0.75 0 0.5] CT
0 0.502 0 RC
2 setlinecap
10.0 ML
2.667 LW
N
255.3 835.7 M
255.3 825.3 L
265.7 825.3 L
265.7 835.7 L
255.3 835.7 L
S
GR
GS
[0.75 0 0 0.75 0 0.5] CT
0 0.502 0 RC
2 setlinecap
10.0 ML
2.667 LW
N
305.3 835.7 M
305.3 825.3 L
315.7 825.3 L
315.7 835.7 L
305.3 835.7 L
S
GR
GS
[0.75 0 0 0.75 0 0.5] CT
0 0.502 0 RC
2 setlinecap
10.0 ML
2.667 LW
N
356.3 835.7 M
356.3 825.3 L
366.7 825.3 L
366.7 835.7 L
356.3 835.7 L
S
GR
GS
[0.75 0 0 0.75 0 0.5] CT
0 0.502 0 RC
2 setlinecap
10.0 ML
2.667 LW
N
406.3 835.7 M
406.3 825.3 L
416.7 825.3 L
416.7 835.7 L
406.3 835.7 L
S
GR
GS
[0.75 0 0 0.75 0 0.5] CT
0 0.502 0 RC
2 setlinecap
10.0 ML
2.667 LW
N
457.3 829.7 M
457.3 819.3 L
467.7 819.3 L
467.7 829.7 L
457.3 829.7 L
S
GR
GS
[0.75 0 0 0.75 0 0.5] CT
0 0.502 0 RC
2 setlinecap
10.0 ML
2.667 LW
N
508.3 835.7 M
508.3 825.3 L
518.7 825.3 L
518.7 835.7 L
508.3 835.7 L
S
GR
GS
[0.75 0 0 0.75 0 0.5] CT
0 0.502 0 RC
2 setlinecap
10.0 ML
2.667 LW
N
558.3 829.7 M
558.3 819.3 L
568.7 819.3 L
568.7 829.7 L
558.3 829.7 L
S
GR
GS
[0.75 0 0 0.75 0 0.5] CT
0 0.502 0 RC
2 setlinecap
10.0 ML
2.667 LW
N
609.3 824.7 M
609.3 814.3 L
619.7 814.3 L
619.7 824.7 L
609.3 824.7 L
S
GR
GS
[0.75 0 0 0.75 0 0.5] CT
0 0.502 0 RC
2 setlinecap
10.0 ML
2.667 LW
N
660.3 812.7 M
660.3 802.3 L
670.7 802.3 L
670.7 812.7 L
660.3 812.7 L
S
GR
GS
[0.75 0 0 0.75 0 0.5] CT
0 0.502 0 RC
2 setlinecap
10.0 ML
2.667 LW
N
710.3 812.7 M
710.3 802.3 L
720.7 802.3 L
720.7 812.7 L
710.3 812.7 L
S
GR
GS
[0.75 0 0 0.75 0 0.5] CT
0 0.502 0 RC
2 setlinecap
10.0 ML
2.667 LW
N
761.3 790.7 M
761.3 780.3 L
771.7 780.3 L
771.7 790.7 L
761.3 790.7 L
S
GR
GS
[0.75 0 0 0.75 0 0.5] CT
0 0.502 0 RC
2 setlinecap
10.0 ML
2.667 LW
N
811.3 761.7 M
811.3 751.3 L
821.7 751.3 L
821.7 761.7 L
811.3 761.7 L
S
GR
GS
[0.75 0 0 0.75 0 0.5] CT
0 0.502 0 RC
2 setlinecap
10.0 ML
2.667 LW
N
862.3 775.7 M
862.3 765.3 L
872.7 765.3 L
872.7 775.7 L
862.3 775.7 L
S
GR
GS
[0.75 0 0 0.75 0 0.5] CT
0 0.502 0 RC
2 setlinecap
10.0 ML
2.667 LW
N
913.3 725.7 M
913.3 715.3 L
923.7 715.3 L
923.7 725.7 L
913.3 725.7 L
S
GR
GS
[0.75 0 0 0.75 0 0.5] CT
0 0.502 0 RC
2 setlinecap
10.0 ML
2.667 LW
N
963.3 710.7 M
963.3 700.3 L
973.7 700.3 L
973.7 710.7 L
963.3 710.7 L
S
GR
GS
[0.75 0 0 0.75 0 0.5] CT
0 0.502 0 RC
2 setlinecap
10.0 ML
2.667 LW
N
1014.3 682.7 M
1014.3 672.3 L
1024.7 672.3 L
1024.7 682.7 L
1014.3 682.7 L
S
GR
GS
[0.75 0 0 0.75 0 0.5] CT
0 0.502 0 RC
2 setlinecap
10.0 ML
2.667 LW
N
1064.3 665.7 M
1064.3 655.3 L
1074.7 655.3 L
1074.7 665.7 L
1064.3 665.7 L
S
GR
GS
[0.75 0 0 0.75 0 0.5] CT
0 0.502 0 RC
2 setlinecap
10.0 ML
2.667 LW
N
1115.3 597.7 M
1115.3 587.3 L
1125.7 587.3 L
1125.7 597.7 L
1115.3 597.7 L
S
GR
GS
[0.75 0 0 0.75 0 0.5] CT
0 0.502 0 RC
2 setlinecap
10.0 ML
2.667 LW
N
1166.3 566.7 M
1166.3 556.3 L
1176.7 556.3 L
1176.7 566.7 L
1166.3 566.7 L
S
GR
GS
[0.75 0 0 0.75 0 0.5] CT
0 0.502 0 RC
2 setlinecap
10.0 ML
2.667 LW
N
1216.3 560.7 M
1216.3 550.3 L
1226.7 550.3 L
1226.7 560.7 L
1216.3 560.7 L
S
GR
GS
[0.75 0 0 0.75 0 0.5] CT
0 0.502 0 RC
2 setlinecap
10.0 ML
2.667 LW
N
1267.3 580.7 M
1267.3 570.3 L
1277.7 570.3 L
1277.7 580.7 L
1267.3 580.7 L
S
GR
GS
[0.75 0 0 0.75 0 0.5] CT
0 0.502 0 RC
2 setlinecap
10.0 ML
2.667 LW
N
1317.3 569.7 M
1317.3 559.3 L
1327.7 559.3 L
1327.7 569.7 L
1317.3 569.7 L
S
GR
GS
[0.75 0 0 0.75 0 0.5] CT
0 0.502 0 RC
2 setlinecap
10.0 ML
2.667 LW
N
1368.3 529.7 M
1368.3 519.3 L
1378.7 519.3 L
1378.7 529.7 L
1368.3 529.7 L
S
GR
GS
[0.75 0 0 0.75 0 0.5] CT
0 0.502 0 RC
2 setlinecap
10.0 ML
2.667 LW
N
1419.3 507.7 M
1419.3 497.3 L
1429.7 497.3 L
1429.7 507.7 L
1419.3 507.7 L
S
GR
GS
[0.75 0 0 0.75 0 0.5] CT
0 0.502 0 RC
2 setlinecap
10.0 ML
2.667 LW
N
1469.3 504.7 M
1469.3 494.3 L
1479.7 494.3 L
1479.7 504.7 L
1469.3 504.7 L
S
GR
GS
[0.75 0 0 0.75 0 0.5] CT
0 0.502 0 RC
2 setlinecap
10.0 ML
2.667 LW
N
1520.3 515.7 M
1520.3 505.3 L
1530.7 505.3 L
1530.7 515.7 L
1520.3 515.7 L
S
GR
GS
[0.75 0 0 0.75 0 0.5] CT
0 0.502 0 RC
2 setlinecap
10.0 ML
2.667 LW
N
1571.3 481.7 M
1571.3 471.3 L
1581.7 471.3 L
1581.7 481.7 L
1571.3 481.7 L
S
GR
GS
[0.75 0 0 0.75 0 0.5] CT
0 0.502 0 RC
2 setlinecap
10.0 ML
2.667 LW
N
1621.3 444.7 M
1621.3 434.3 L
1631.7 434.3 L
1631.7 444.7 L
1621.3 444.7 L
S
GR
GS
[0.75 0 0 0.75 0 0.5] CT
0 0.502 0 RC
2 setlinecap
10.0 ML
2.667 LW
N
1672.3 447.7 M
1672.3 437.3 L
1682.7 437.3 L
1682.7 447.7 L
1672.3 447.7 L
S
GR
GS
[0.75 0 0 0.75 0 0.5] CT
0 0.502 0 RC
2 setlinecap
10.0 ML
2.667 LW
N
1722.3 453.7 M
1722.3 443.3 L
1732.7 443.3 L
1732.7 453.7 L
1722.3 453.7 L
S
GR
GS
[0.75 0 0 0.75 0 0.5] CT
1 0 0 RC
[8 8] 0 setdash
2 LJ
2.667 LW
N
260.122 833.192 M
310.735 833.192 L
361.347 836.022 L
411.959 830.362 L
462.571 830.362 L
513.184 830.362 L
563.796 830.362 L
614.408 824.703 L
665.02 816.214 L
715.633 810.554 L
766.245 796.406 L
816.857 759.62 L
867.469 785.087 L
918.082 739.812 L
968.694 708.685 L
1019.306 674.728 L
1069.918 666.239 L
1120.531 592.667 L
1171.143 572.859 L
1221.755 572.859 L
1272.367 592.667 L
1322.98 567.199 L
1373.592 524.754 L
1424.204 519.094 L
1474.816 510.605 L
1525.429 516.264 L
1576.041 482.308 L
1626.653 439.862 L
1677.265 442.692 L
1727.878 451.181 L
S
GR
GS
[0.75 0 0 0.75 0 0.5] CT
1 0 0 RC
2 setlinecap
10.0 ML
2.667 LW
N
256 833.5 M
265 833.5 L
S
GR
GS
[0.75 0 0 0.75 0 0.5] CT
1 0 0 RC
2 setlinecap
10.0 ML
2.667 LW
N
260.5 838 M
260.5 829 L
S
GR
GS
[0.75 0 0 0.75 0 0.5] CT
1 0 0 RC
2 setlinecap
10.0 ML
2.667 LW
N
257 837 M
264 830 L
S
GR
GS
[0.75 0 0 0.75 0 0.5] CT
1 0 0 RC
2 setlinecap
10.0 ML
2.667 LW
N
257 830 M
264 837 L
S
GR
GS
[0.75 0 0 0.75 0 0.5] CT
1 0 0 RC
2 setlinecap
10.0 ML
2.667 LW
N
306 833.5 M
315 833.5 L
S
GR
GS
[0.75 0 0 0.75 0 0.5] CT
1 0 0 RC
2 setlinecap
10.0 ML
2.667 LW
N
310.5 838 M
310.5 829 L
S
GR
GS
[0.75 0 0 0.75 0 0.5] CT
1 0 0 RC
2 setlinecap
10.0 ML
2.667 LW
N
307 837 M
314 830 L
S
GR
GS
[0.75 0 0 0.75 0 0.5] CT
1 0 0 RC
2 setlinecap
10.0 ML
2.667 LW
N
307 830 M
314 837 L
S
GR
GS
[0.75 0 0 0.75 0 0.5] CT
1 0 0 RC
2 setlinecap
10.0 ML
2.667 LW
N
357 836.5 M
366 836.5 L
S
GR
GS
[0.75 0 0 0.75 0 0.5] CT
1 0 0 RC
2 setlinecap
10.0 ML
2.667 LW
N
361.5 841 M
361.5 832 L
S
GR
GS
[0.75 0 0 0.75 0 0.5] CT
1 0 0 RC
2 setlinecap
10.0 ML
2.667 LW
N
358 840 M
365 833 L
S
GR
GS
[0.75 0 0 0.75 0 0.5] CT
1 0 0 RC
2 setlinecap
10.0 ML
2.667 LW
N
358 833 M
365 840 L
S
GR
GS
[0.75 0 0 0.75 0 0.5] CT
1 0 0 RC
2 setlinecap
10.0 ML
2.667 LW
N
407 830.5 M
416 830.5 L
S
GR
GS
[0.75 0 0 0.75 0 0.5] CT
1 0 0 RC
2 setlinecap
10.0 ML
2.667 LW
N
411.5 835 M
411.5 826 L
S
GR
GS
[0.75 0 0 0.75 0 0.5] CT
1 0 0 RC
2 setlinecap
10.0 ML
2.667 LW
N
408 834 M
415 827 L
S
GR
GS
[0.75 0 0 0.75 0 0.5] CT
1 0 0 RC
2 setlinecap
10.0 ML
2.667 LW
N
408 827 M
415 834 L
S
GR
GS
[0.75 0 0 0.75 0 0.5] CT
1 0 0 RC
2 setlinecap
10.0 ML
2.667 LW
N
458 830.5 M
467 830.5 L
S
GR
GS
[0.75 0 0 0.75 0 0.5] CT
1 0 0 RC
2 setlinecap
10.0 ML
2.667 LW
N
462.5 835 M
462.5 826 L
S
GR
GS
[0.75 0 0 0.75 0 0.5] CT
1 0 0 RC
2 setlinecap
10.0 ML
2.667 LW
N
459 834 M
466 827 L
S
GR
GS
[0.75 0 0 0.75 0 0.5] CT
1 0 0 RC
2 setlinecap
10.0 ML
2.667 LW
N
459 827 M
466 834 L
S
GR
GS
[0.75 0 0 0.75 0 0.5] CT
1 0 0 RC
2 setlinecap
10.0 ML
2.667 LW
N
509 830.5 M
518 830.5 L
S
GR
GS
[0.75 0 0 0.75 0 0.5] CT
1 0 0 RC
2 setlinecap
10.0 ML
2.667 LW
N
513.5 835 M
513.5 826 L
S
GR
GS
[0.75 0 0 0.75 0 0.5] CT
1 0 0 RC
2 setlinecap
10.0 ML
2.667 LW
N
510 834 M
517 827 L
S
GR
GS
[0.75 0 0 0.75 0 0.5] CT
1 0 0 RC
2 setlinecap
10.0 ML
2.667 LW
N
510 827 M
517 834 L
S
GR
GS
[0.75 0 0 0.75 0 0.5] CT
1 0 0 RC
2 setlinecap
10.0 ML
2.667 LW
N
559 830.5 M
568 830.5 L
S
GR
GS
[0.75 0 0 0.75 0 0.5] CT
1 0 0 RC
2 setlinecap
10.0 ML
2.667 LW
N
563.5 835 M
563.5 826 L
S
GR
GS
[0.75 0 0 0.75 0 0.5] CT
1 0 0 RC
2 setlinecap
10.0 ML
2.667 LW
N
560 834 M
567 827 L
S
GR
GS
[0.75 0 0 0.75 0 0.5] CT
1 0 0 RC
2 setlinecap
10.0 ML
2.667 LW
N
560 827 M
567 834 L
S
GR
GS
[0.75 0 0 0.75 0 0.5] CT
1 0 0 RC
2 setlinecap
10.0 ML
2.667 LW
N
610 824.5 M
619 824.5 L
S
GR
GS
[0.75 0 0 0.75 0 0.5] CT
1 0 0 RC
2 setlinecap
10.0 ML
2.667 LW
N
614.5 829 M
614.5 820 L
S
GR
GS
[0.75 0 0 0.75 0 0.5] CT
1 0 0 RC
2 setlinecap
10.0 ML
2.667 LW
N
611 828 M
618 821 L
S
GR
GS
[0.75 0 0 0.75 0 0.5] CT
1 0 0 RC
2 setlinecap
10.0 ML
2.667 LW
N
611 821 M
618 828 L
S
GR
GS
[0.75 0 0 0.75 0 0.5] CT
1 0 0 RC
2 setlinecap
10.0 ML
2.667 LW
N
661 816.5 M
670 816.5 L
S
GR
GS
[0.75 0 0 0.75 0 0.5] CT
1 0 0 RC
2 setlinecap
10.0 ML
2.667 LW
N
665.5 821 M
665.5 812 L
S
GR
GS
[0.75 0 0 0.75 0 0.5] CT
1 0 0 RC
2 setlinecap
10.0 ML
2.667 LW
N
662 820 M
669 813 L
S
GR
GS
[0.75 0 0 0.75 0 0.5] CT
1 0 0 RC
2 setlinecap
10.0 ML
2.667 LW
N
662 813 M
669 820 L
S
GR
GS
[0.75 0 0 0.75 0 0.5] CT
1 0 0 RC
2 setlinecap
10.0 ML
2.667 LW
N
711 810.5 M
720 810.5 L
S
GR
GS
[0.75 0 0 0.75 0 0.5] CT
1 0 0 RC
2 setlinecap
10.0 ML
2.667 LW
N
715.5 815 M
715.5 806 L
S
GR
GS
[0.75 0 0 0.75 0 0.5] CT
1 0 0 RC
2 setlinecap
10.0 ML
2.667 LW
N
712 814 M
719 807 L
S
GR
GS
[0.75 0 0 0.75 0 0.5] CT
1 0 0 RC
2 setlinecap
10.0 ML
2.667 LW
N
712 807 M
719 814 L
S
GR
GS
[0.75 0 0 0.75 0 0.5] CT
1 0 0 RC
2 setlinecap
10.0 ML
2.667 LW
N
762 796.5 M
771 796.5 L
S
GR
GS
[0.75 0 0 0.75 0 0.5] CT
1 0 0 RC
2 setlinecap
10.0 ML
2.667 LW
N
766.5 801 M
766.5 792 L
S
GR
GS
[0.75 0 0 0.75 0 0.5] CT
1 0 0 RC
2 setlinecap
10.0 ML
2.667 LW
N
763 800 M
770 793 L
S
GR
GS
[0.75 0 0 0.75 0 0.5] CT
1 0 0 RC
2 setlinecap
10.0 ML
2.667 LW
N
763 793 M
770 800 L
S
GR
GS
[0.75 0 0 0.75 0 0.5] CT
1 0 0 RC
2 setlinecap
10.0 ML
2.667 LW
N
812 759.5 M
821 759.5 L
S
GR
GS
[0.75 0 0 0.75 0 0.5] CT
1 0 0 RC
2 setlinecap
10.0 ML
2.667 LW
N
816.5 764 M
816.5 755 L
S
GR
GS
[0.75 0 0 0.75 0 0.5] CT
1 0 0 RC
2 setlinecap
10.0 ML
2.667 LW
N
813 763 M
820 756 L
S
GR
GS
[0.75 0 0 0.75 0 0.5] CT
1 0 0 RC
2 setlinecap
10.0 ML
2.667 LW
N
813 756 M
820 763 L
S
GR
GS
[0.75 0 0 0.75 0 0.5] CT
1 0 0 RC
2 setlinecap
10.0 ML
2.667 LW
N
863 785.5 M
872 785.5 L
S
GR
GS
[0.75 0 0 0.75 0 0.5] CT
1 0 0 RC
2 setlinecap
10.0 ML
2.667 LW
N
867.5 790 M
867.5 781 L
S
GR
GS
[0.75 0 0 0.75 0 0.5] CT
1 0 0 RC
2 setlinecap
10.0 ML
2.667 LW
N
864 789 M
871 782 L
S
GR
GS
[0.75 0 0 0.75 0 0.5] CT
1 0 0 RC
2 setlinecap
10.0 ML
2.667 LW
N
864 782 M
871 789 L
S
GR
GS
[0.75 0 0 0.75 0 0.5] CT
1 0 0 RC
2 setlinecap
10.0 ML
2.667 LW
N
914 739.5 M
923 739.5 L
S
GR
GS
[0.75 0 0 0.75 0 0.5] CT
1 0 0 RC
2 setlinecap
10.0 ML
2.667 LW
N
918.5 744 M
918.5 735 L
S
GR
GS
[0.75 0 0 0.75 0 0.5] CT
1 0 0 RC
2 setlinecap
10.0 ML
2.667 LW
N
915 743 M
922 736 L
S
GR
GS
[0.75 0 0 0.75 0 0.5] CT
1 0 0 RC
2 setlinecap
10.0 ML
2.667 LW
N
915 736 M
922 743 L
S
GR
GS
[0.75 0 0 0.75 0 0.5] CT
1 0 0 RC
2 setlinecap
10.0 ML
2.667 LW
N
964 708.5 M
973 708.5 L
S
GR
GS
[0.75 0 0 0.75 0 0.5] CT
1 0 0 RC
2 setlinecap
10.0 ML
2.667 LW
N
968.5 713 M
968.5 704 L
S
GR
GS
[0.75 0 0 0.75 0 0.5] CT
1 0 0 RC
2 setlinecap
10.0 ML
2.667 LW
N
965 712 M
972 705 L
S
GR
GS
[0.75 0 0 0.75 0 0.5] CT
1 0 0 RC
2 setlinecap
10.0 ML
2.667 LW
N
965 705 M
972 712 L
S
GR
GS
[0.75 0 0 0.75 0 0.5] CT
1 0 0 RC
2 setlinecap
10.0 ML
2.667 LW
N
1015 674.5 M
1024 674.5 L
S
GR
GS
[0.75 0 0 0.75 0 0.5] CT
1 0 0 RC
2 setlinecap
10.0 ML
2.667 LW
N
1019.5 679 M
1019.5 670 L
S
GR
GS
[0.75 0 0 0.75 0 0.5] CT
1 0 0 RC
2 setlinecap
10.0 ML
2.667 LW
N
1016 678 M
1023 671 L
S
GR
GS
[0.75 0 0 0.75 0 0.5] CT
1 0 0 RC
2 setlinecap
10.0 ML
2.667 LW
N
1016 671 M
1023 678 L
S
GR
GS
[0.75 0 0 0.75 0 0.5] CT
1 0 0 RC
2 setlinecap
10.0 ML
2.667 LW
N
1065 666.5 M
1074 666.5 L
S
GR
GS
[0.75 0 0 0.75 0 0.5] CT
1 0 0 RC
2 setlinecap
10.0 ML
2.667 LW
N
1069.5 671 M
1069.5 662 L
S
GR
GS
[0.75 0 0 0.75 0 0.5] CT
1 0 0 RC
2 setlinecap
10.0 ML
2.667 LW
N
1066 670 M
1073 663 L
S
GR
GS
[0.75 0 0 0.75 0 0.5] CT
1 0 0 RC
2 setlinecap
10.0 ML
2.667 LW
N
1066 663 M
1073 670 L
S
GR
GS
[0.75 0 0 0.75 0 0.5] CT
1 0 0 RC
2 setlinecap
10.0 ML
2.667 LW
N
1116 592.5 M
1125 592.5 L
S
GR
GS
[0.75 0 0 0.75 0 0.5] CT
1 0 0 RC
2 setlinecap
10.0 ML
2.667 LW
N
1120.5 597 M
1120.5 588 L
S
GR
GS
[0.75 0 0 0.75 0 0.5] CT
1 0 0 RC
2 setlinecap
10.0 ML
2.667 LW
N
1117 596 M
1124 589 L
S
GR
GS
[0.75 0 0 0.75 0 0.5] CT
1 0 0 RC
2 setlinecap
10.0 ML
2.667 LW
N
1117 589 M
1124 596 L
S
GR
GS
[0.75 0 0 0.75 0 0.5] CT
1 0 0 RC
2 setlinecap
10.0 ML
2.667 LW
N
1167 572.5 M
1176 572.5 L
S
GR
GS
[0.75 0 0 0.75 0 0.5] CT
1 0 0 RC
2 setlinecap
10.0 ML
2.667 LW
N
1171.5 577 M
1171.5 568 L
S
GR
GS
[0.75 0 0 0.75 0 0.5] CT
1 0 0 RC
2 setlinecap
10.0 ML
2.667 LW
N
1168 576 M
1175 569 L
S
GR
GS
[0.75 0 0 0.75 0 0.5] CT
1 0 0 RC
2 setlinecap
10.0 ML
2.667 LW
N
1168 569 M
1175 576 L
S
GR
GS
[0.75 0 0 0.75 0 0.5] CT
1 0 0 RC
2 setlinecap
10.0 ML
2.667 LW
N
1217 572.5 M
1226 572.5 L
S
GR
GS
[0.75 0 0 0.75 0 0.5] CT
1 0 0 RC
2 setlinecap
10.0 ML
2.667 LW
N
1221.5 577 M
1221.5 568 L
S
GR
GS
[0.75 0 0 0.75 0 0.5] CT
1 0 0 RC
2 setlinecap
10.0 ML
2.667 LW
N
1218 576 M
1225 569 L
S
GR
GS
[0.75 0 0 0.75 0 0.5] CT
1 0 0 RC
2 setlinecap
10.0 ML
2.667 LW
N
1218 569 M
1225 576 L
S
GR
GS
[0.75 0 0 0.75 0 0.5] CT
1 0 0 RC
2 setlinecap
10.0 ML
2.667 LW
N
1268 592.5 M
1277 592.5 L
S
GR
GS
[0.75 0 0 0.75 0 0.5] CT
1 0 0 RC
2 setlinecap
10.0 ML
2.667 LW
N
1272.5 597 M
1272.5 588 L
S
GR
GS
[0.75 0 0 0.75 0 0.5] CT
1 0 0 RC
2 setlinecap
10.0 ML
2.667 LW
N
1269 596 M
1276 589 L
S
GR
GS
[0.75 0 0 0.75 0 0.5] CT
1 0 0 RC
2 setlinecap
10.0 ML
2.667 LW
N
1269 589 M
1276 596 L
S
GR
GS
[0.75 0 0 0.75 0 0.5] CT
1 0 0 RC
2 setlinecap
10.0 ML
2.667 LW
N
1318 567.5 M
1327 567.5 L
S
GR
GS
[0.75 0 0 0.75 0 0.5] CT
1 0 0 RC
2 setlinecap
10.0 ML
2.667 LW
N
1322.5 572 M
1322.5 563 L
S
GR
GS
[0.75 0 0 0.75 0 0.5] CT
1 0 0 RC
2 setlinecap
10.0 ML
2.667 LW
N
1319 571 M
1326 564 L
S
GR
GS
[0.75 0 0 0.75 0 0.5] CT
1 0 0 RC
2 setlinecap
10.0 ML
2.667 LW
N
1319 564 M
1326 571 L
S
GR
GS
[0.75 0 0 0.75 0 0.5] CT
1 0 0 RC
2 setlinecap
10.0 ML
2.667 LW
N
1369 524.5 M
1378 524.5 L
S
GR
GS
[0.75 0 0 0.75 0 0.5] CT
1 0 0 RC
2 setlinecap
10.0 ML
2.667 LW
N
1373.5 529 M
1373.5 520 L
S
GR
GS
[0.75 0 0 0.75 0 0.5] CT
1 0 0 RC
2 setlinecap
10.0 ML
2.667 LW
N
1370 528 M
1377 521 L
S
GR
GS
[0.75 0 0 0.75 0 0.5] CT
1 0 0 RC
2 setlinecap
10.0 ML
2.667 LW
N
1370 521 M
1377 528 L
S
GR
GS
[0.75 0 0 0.75 0 0.5] CT
1 0 0 RC
2 setlinecap
10.0 ML
2.667 LW
N
1420 519.5 M
1429 519.5 L
S
GR
GS
[0.75 0 0 0.75 0 0.5] CT
1 0 0 RC
2 setlinecap
10.0 ML
2.667 LW
N
1424.5 524 M
1424.5 515 L
S
GR
GS
[0.75 0 0 0.75 0 0.5] CT
1 0 0 RC
2 setlinecap
10.0 ML
2.667 LW
N
1421 523 M
1428 516 L
S
GR
GS
[0.75 0 0 0.75 0 0.5] CT
1 0 0 RC
2 setlinecap
10.0 ML
2.667 LW
N
1421 516 M
1428 523 L
S
GR
GS
[0.75 0 0 0.75 0 0.5] CT
1 0 0 RC
2 setlinecap
10.0 ML
2.667 LW
N
1470 510.5 M
1479 510.5 L
S
GR
GS
[0.75 0 0 0.75 0 0.5] CT
1 0 0 RC
2 setlinecap
10.0 ML
2.667 LW
N
1474.5 515 M
1474.5 506 L
S
GR
GS
[0.75 0 0 0.75 0 0.5] CT
1 0 0 RC
2 setlinecap
10.0 ML
2.667 LW
N
1471 514 M
1478 507 L
S
GR
GS
[0.75 0 0 0.75 0 0.5] CT
1 0 0 RC
2 setlinecap
10.0 ML
2.667 LW
N
1471 507 M
1478 514 L
S
GR
GS
[0.75 0 0 0.75 0 0.5] CT
1 0 0 RC
2 setlinecap
10.0 ML
2.667 LW
N
1521 516.5 M
1530 516.5 L
S
GR
GS
[0.75 0 0 0.75 0 0.5] CT
1 0 0 RC
2 setlinecap
10.0 ML
2.667 LW
N
1525.5 521 M
1525.5 512 L
S
GR
GS
[0.75 0 0 0.75 0 0.5] CT
1 0 0 RC
2 setlinecap
10.0 ML
2.667 LW
N
1522 520 M
1529 513 L
S
GR
GS
[0.75 0 0 0.75 0 0.5] CT
1 0 0 RC
2 setlinecap
10.0 ML
2.667 LW
N
1522 513 M
1529 520 L
S
GR
GS
[0.75 0 0 0.75 0 0.5] CT
1 0 0 RC
2 setlinecap
10.0 ML
2.667 LW
N
1572 482.5 M
1581 482.5 L
S
GR
GS
[0.75 0 0 0.75 0 0.5] CT
1 0 0 RC
2 setlinecap
10.0 ML
2.667 LW
N
1576.5 487 M
1576.5 478 L
S
GR
GS
[0.75 0 0 0.75 0 0.5] CT
1 0 0 RC
2 setlinecap
10.0 ML
2.667 LW
N
1573 486 M
1580 479 L
S
GR
GS
[0.75 0 0 0.75 0 0.5] CT
1 0 0 RC
2 setlinecap
10.0 ML
2.667 LW
N
1573 479 M
1580 486 L
S
GR
GS
[0.75 0 0 0.75 0 0.5] CT
1 0 0 RC
2 setlinecap
10.0 ML
2.667 LW
N
1622 439.5 M
1631 439.5 L
S
GR
GS
[0.75 0 0 0.75 0 0.5] CT
1 0 0 RC
2 setlinecap
10.0 ML
2.667 LW
N
1626.5 444 M
1626.5 435 L
S
GR
GS
[0.75 0 0 0.75 0 0.5] CT
1 0 0 RC
2 setlinecap
10.0 ML
2.667 LW
N
1623 443 M
1630 436 L
S
GR
GS
[0.75 0 0 0.75 0 0.5] CT
1 0 0 RC
2 setlinecap
10.0 ML
2.667 LW
N
1623 436 M
1630 443 L
S
GR
GS
[0.75 0 0 0.75 0 0.5] CT
1 0 0 RC
2 setlinecap
10.0 ML
2.667 LW
N
1673 442.5 M
1682 442.5 L
S
GR
GS
[0.75 0 0 0.75 0 0.5] CT
1 0 0 RC
2 setlinecap
10.0 ML
2.667 LW
N
1677.5 447 M
1677.5 438 L
S
GR
GS
[0.75 0 0 0.75 0 0.5] CT
1 0 0 RC
2 setlinecap
10.0 ML
2.667 LW
N
1674 446 M
1681 439 L
S
GR
GS
[0.75 0 0 0.75 0 0.5] CT
1 0 0 RC
2 setlinecap
10.0 ML
2.667 LW
N
1674 439 M
1681 446 L
S
GR
GS
[0.75 0 0 0.75 0 0.5] CT
1 0 0 RC
2 setlinecap
10.0 ML
2.667 LW
N
1723 451.5 M
1732 451.5 L
S
GR
GS
[0.75 0 0 0.75 0 0.5] CT
1 0 0 RC
2 setlinecap
10.0 ML
2.667 LW
N
1727.5 456 M
1727.5 447 L
S
GR
GS
[0.75 0 0 0.75 0 0.5] CT
1 0 0 RC
2 setlinecap
10.0 ML
2.667 LW
N
1724 455 M
1731 448 L
S
GR
GS
[0.75 0 0 0.75 0 0.5] CT
1 0 0 RC
2 setlinecap
10.0 ML
2.667 LW
N
1724 448 M
1731 455 L
S
GR
GS
[0.75 0 0 0.75 0 0.5] CT
0 0.4 0.988 RC
[8 8] 0 setdash
2 LJ
2.667 LW
N
260.122 836.022 M
310.735 836.022 L
361.347 836.022 L
411.959 836.022 L
462.571 836.022 L
513.184 836.022 L
563.796 836.022 L
614.408 833.192 L
665.02 836.022 L
715.633 824.703 L
766.245 802.065 L
816.857 802.065 L
867.469 793.576 L
918.082 745.471 L
968.694 722.833 L
1019.306 725.663 L
1069.918 697.366 L
1120.531 635.112 L
1171.143 587.007 L
1221.755 589.837 L
1272.367 618.134 L
1322.98 598.326 L
1373.592 564.37 L
1424.204 561.54 L
1474.816 555.88 L
1525.429 536.072 L
1576.041 502.116 L
1626.653 468.159 L
1677.265 468.159 L
1727.878 485.138 L
S
GR
GS
[0.75 0 0 0.75 0 0.5] CT
0 0.4 0.988 RC
2 setlinecap
10.0 ML
2.667 LW
N
267.167 836.5 M
266.273 833.167 L
263.833 830.727 L
260.5 829.833 L
257.167 830.727 L
254.727 833.167 L
253.833 836.5 L
254.727 839.833 L
257.167 842.273 L
260.5 843.167 L
263.833 842.273 L
266.273 839.833 L
267.167 836.5 L
S
GR
GS
[0.75 0 0 0.75 0 0.5] CT
0 0.4 0.988 RC
2 setlinecap
10.0 ML
2.667 LW
N
317.167 836.5 M
316.273 833.167 L
313.833 830.727 L
310.5 829.833 L
307.167 830.727 L
304.727 833.167 L
303.833 836.5 L
304.727 839.833 L
307.167 842.273 L
310.5 843.167 L
313.833 842.273 L
316.273 839.833 L
317.167 836.5 L
S
GR
GS
[0.75 0 0 0.75 0 0.5] CT
0 0.4 0.988 RC
2 setlinecap
10.0 ML
2.667 LW
N
368.167 836.5 M
367.273 833.167 L
364.833 830.727 L
361.5 829.833 L
358.167 830.727 L
355.727 833.167 L
354.833 836.5 L
355.727 839.833 L
358.167 842.273 L
361.5 843.167 L
364.833 842.273 L
367.273 839.833 L
368.167 836.5 L
S
GR
GS
[0.75 0 0 0.75 0 0.5] CT
0 0.4 0.988 RC
2 setlinecap
10.0 ML
2.667 LW
N
418.167 836.5 M
417.273 833.167 L
414.833 830.727 L
411.5 829.833 L
408.167 830.727 L
405.727 833.167 L
404.833 836.5 L
405.727 839.833 L
408.167 842.273 L
411.5 843.167 L
414.833 842.273 L
417.273 839.833 L
418.167 836.5 L
S
GR
GS
[0.75 0 0 0.75 0 0.5] CT
0 0.4 0.988 RC
2 setlinecap
10.0 ML
2.667 LW
N
469.167 836.5 M
468.273 833.167 L
465.833 830.727 L
462.5 829.833 L
459.167 830.727 L
456.727 833.167 L
455.833 836.5 L
456.727 839.833 L
459.167 842.273 L
462.5 843.167 L
465.833 842.273 L
468.273 839.833 L
469.167 836.5 L
S
GR
GS
[0.75 0 0 0.75 0 0.5] CT
0 0.4 0.988 RC
2 setlinecap
10.0 ML
2.667 LW
N
520.167 836.5 M
519.273 833.167 L
516.833 830.727 L
513.5 829.833 L
510.167 830.727 L
507.727 833.167 L
506.833 836.5 L
507.727 839.833 L
510.167 842.273 L
513.5 843.167 L
516.833 842.273 L
519.273 839.833 L
520.167 836.5 L
S
GR
GS
[0.75 0 0 0.75 0 0.5] CT
0 0.4 0.988 RC
2 setlinecap
10.0 ML
2.667 LW
N
570.167 836.5 M
569.273 833.167 L
566.833 830.727 L
563.5 829.833 L
560.167 830.727 L
557.727 833.167 L
556.833 836.5 L
557.727 839.833 L
560.167 842.273 L
563.5 843.167 L
566.833 842.273 L
569.273 839.833 L
570.167 836.5 L
S
GR
GS
[0.75 0 0 0.75 0 0.5] CT
0 0.4 0.988 RC
2 setlinecap
10.0 ML
2.667 LW
N
621.167 833.5 M
620.273 830.167 L
617.833 827.727 L
614.5 826.833 L
611.167 827.727 L
608.727 830.167 L
607.833 833.5 L
608.727 836.833 L
611.167 839.273 L
614.5 840.167 L
617.833 839.273 L
620.273 836.833 L
621.167 833.5 L
S
GR
GS
[0.75 0 0 0.75 0 0.5] CT
0 0.4 0.988 RC
2 setlinecap
10.0 ML
2.667 LW
N
672.167 836.5 M
671.273 833.167 L
668.833 830.727 L
665.5 829.833 L
662.167 830.727 L
659.727 833.167 L
658.833 836.5 L
659.727 839.833 L
662.167 842.273 L
665.5 843.167 L
668.833 842.273 L
671.273 839.833 L
672.167 836.5 L
S
GR
GS
[0.75 0 0 0.75 0 0.5] CT
0 0.4 0.988 RC
2 setlinecap
10.0 ML
2.667 LW
N
722.167 824.5 M
721.273 821.167 L
718.833 818.727 L
715.5 817.833 L
712.167 818.727 L
709.727 821.167 L
708.833 824.5 L
709.727 827.833 L
712.167 830.273 L
715.5 831.167 L
718.833 830.273 L
721.273 827.833 L
722.167 824.5 L
S
GR
GS
[0.75 0 0 0.75 0 0.5] CT
0 0.4 0.988 RC
2 setlinecap
10.0 ML
2.667 LW
N
773.167 802.5 M
772.273 799.167 L
769.833 796.727 L
766.5 795.833 L
763.167 796.727 L
760.727 799.167 L
759.833 802.5 L
760.727 805.833 L
763.167 808.273 L
766.5 809.167 L
769.833 808.273 L
772.273 805.833 L
773.167 802.5 L
S
GR
GS
[0.75 0 0 0.75 0 0.5] CT
0 0.4 0.988 RC
2 setlinecap
10.0 ML
2.667 LW
N
823.167 802.5 M
822.273 799.167 L
819.833 796.727 L
816.5 795.833 L
813.167 796.727 L
810.727 799.167 L
809.833 802.5 L
810.727 805.833 L
813.167 808.273 L
816.5 809.167 L
819.833 808.273 L
822.273 805.833 L
823.167 802.5 L
S
GR
GS
[0.75 0 0 0.75 0 0.5] CT
0 0.4 0.988 RC
2 setlinecap
10.0 ML
2.667 LW
N
874.167 793.5 M
873.273 790.167 L
870.833 787.727 L
867.5 786.833 L
864.167 787.727 L
861.727 790.167 L
860.833 793.5 L
861.727 796.833 L
864.167 799.273 L
867.5 800.167 L
870.833 799.273 L
873.273 796.833 L
874.167 793.5 L
S
GR
GS
[0.75 0 0 0.75 0 0.5] CT
0 0.4 0.988 RC
2 setlinecap
10.0 ML
2.667 LW
N
925.167 745.5 M
924.273 742.167 L
921.833 739.727 L
918.5 738.833 L
915.167 739.727 L
912.727 742.167 L
911.833 745.5 L
912.727 748.833 L
915.167 751.273 L
918.5 752.167 L
921.833 751.273 L
924.273 748.833 L
925.167 745.5 L
S
GR
GS
[0.75 0 0 0.75 0 0.5] CT
0 0.4 0.988 RC
2 setlinecap
10.0 ML
2.667 LW
N
975.167 722.5 M
974.273 719.167 L
971.833 716.727 L
968.5 715.833 L
965.167 716.727 L
962.727 719.167 L
961.833 722.5 L
962.727 725.833 L
965.167 728.273 L
968.5 729.167 L
971.833 728.273 L
974.273 725.833 L
975.167 722.5 L
S
GR
GS
[0.75 0 0 0.75 0 0.5] CT
0 0.4 0.988 RC
2 setlinecap
10.0 ML
2.667 LW
N
1026.167 725.5 M
1025.274 722.167 L
1022.833 719.727 L
1019.5 718.833 L
1016.167 719.727 L
1013.727 722.167 L
1012.833 725.5 L
1013.727 728.833 L
1016.167 731.273 L
1019.5 732.167 L
1022.833 731.273 L
1025.274 728.833 L
1026.167 725.5 L
S
GR
GS
[0.75 0 0 0.75 0 0.5] CT
0 0.4 0.988 RC
2 setlinecap
10.0 ML
2.667 LW
N
1076.167 697.5 M
1075.274 694.167 L
1072.833 691.727 L
1069.5 690.833 L
1066.167 691.727 L
1063.726 694.167 L
1062.833 697.5 L
1063.726 700.833 L
1066.167 703.273 L
1069.5 704.167 L
1072.833 703.273 L
1075.274 700.833 L
1076.167 697.5 L
S
GR
GS
[0.75 0 0 0.75 0 0.5] CT
0 0.4 0.988 RC
2 setlinecap
10.0 ML
2.667 LW
N
1127.167 635.5 M
1126.274 632.167 L
1123.833 629.727 L
1120.5 628.833 L
1117.167 629.727 L
1114.726 632.167 L
1113.833 635.5 L
1114.726 638.833 L
1117.167 641.273 L
1120.5 642.167 L
1123.833 641.273 L
1126.274 638.833 L
1127.167 635.5 L
S
GR
GS
[0.75 0 0 0.75 0 0.5] CT
0 0.4 0.988 RC
2 setlinecap
10.0 ML
2.667 LW
N
1178.167 587.5 M
1177.274 584.167 L
1174.833 581.727 L
1171.5 580.833 L
1168.167 581.727 L
1165.726 584.167 L
1164.833 587.5 L
1165.726 590.833 L
1168.167 593.273 L
1171.5 594.167 L
1174.833 593.273 L
1177.274 590.833 L
1178.167 587.5 L
S
GR
GS
[0.75 0 0 0.75 0 0.5] CT
0 0.4 0.988 RC
2 setlinecap
10.0 ML
2.667 LW
N
1228.167 589.5 M
1227.274 586.167 L
1224.833 583.727 L
1221.5 582.833 L
1218.167 583.727 L
1215.726 586.167 L
1214.833 589.5 L
1215.726 592.833 L
1218.167 595.273 L
1221.5 596.167 L
1224.833 595.273 L
1227.274 592.833 L
1228.167 589.5 L
S
GR
GS
[0.75 0 0 0.75 0 0.5] CT
0 0.4 0.988 RC
2 setlinecap
10.0 ML
2.667 LW
N
1279.167 618.5 M
1278.274 615.167 L
1275.833 612.727 L
1272.5 611.833 L
1269.167 612.727 L
1266.726 615.167 L
1265.833 618.5 L
1266.726 621.833 L
1269.167 624.273 L
1272.5 625.167 L
1275.833 624.273 L
1278.274 621.833 L
1279.167 618.5 L
S
GR
GS
[0.75 0 0 0.75 0 0.5] CT
0 0.4 0.988 RC
2 setlinecap
10.0 ML
2.667 LW
N
1329.167 598.5 M
1328.274 595.167 L
1325.833 592.727 L
1322.5 591.833 L
1319.167 592.727 L
1316.726 595.167 L
1315.833 598.5 L
1316.726 601.833 L
1319.167 604.273 L
1322.5 605.167 L
1325.833 604.273 L
1328.274 601.833 L
1329.167 598.5 L
S
GR
GS
[0.75 0 0 0.75 0 0.5] CT
0 0.4 0.988 RC
2 setlinecap
10.0 ML
2.667 LW
N
1380.167 564.5 M
1379.274 561.167 L
1376.833 558.727 L
1373.5 557.833 L
1370.167 558.727 L
1367.726 561.167 L
1366.833 564.5 L
1367.726 567.833 L
1370.167 570.273 L
1373.5 571.167 L
1376.833 570.273 L
1379.274 567.833 L
1380.167 564.5 L
S
GR
GS
[0.75 0 0 0.75 0 0.5] CT
0 0.4 0.988 RC
2 setlinecap
10.0 ML
2.667 LW
N
1431.167 561.5 M
1430.274 558.167 L
1427.833 555.727 L
1424.5 554.833 L
1421.167 555.727 L
1418.726 558.167 L
1417.833 561.5 L
1418.726 564.833 L
1421.167 567.273 L
1424.5 568.167 L
1427.833 567.273 L
1430.274 564.833 L
1431.167 561.5 L
S
GR
GS
[0.75 0 0 0.75 0 0.5] CT
0 0.4 0.988 RC
2 setlinecap
10.0 ML
2.667 LW
N
1481.167 555.5 M
1480.274 552.167 L
1477.833 549.727 L
1474.5 548.833 L
1471.167 549.727 L
1468.726 552.167 L
1467.833 555.5 L
1468.726 558.833 L
1471.167 561.273 L
1474.5 562.167 L
1477.833 561.273 L
1480.274 558.833 L
1481.167 555.5 L
S
GR
GS
[0.75 0 0 0.75 0 0.5] CT
0 0.4 0.988 RC
2 setlinecap
10.0 ML
2.667 LW
N
1532.167 536.5 M
1531.274 533.167 L
1528.833 530.727 L
1525.5 529.833 L
1522.167 530.727 L
1519.726 533.167 L
1518.833 536.5 L
1519.726 539.833 L
1522.167 542.273 L
1525.5 543.167 L
1528.833 542.273 L
1531.274 539.833 L
1532.167 536.5 L
S
GR
GS
[0.75 0 0 0.75 0 0.5] CT
0 0.4 0.988 RC
2 setlinecap
10.0 ML
2.667 LW
N
1583.167 502.5 M
1582.274 499.167 L
1579.833 496.727 L
1576.5 495.833 L
1573.167 496.727 L
1570.726 499.167 L
1569.833 502.5 L
1570.726 505.833 L
1573.167 508.273 L
1576.5 509.167 L
1579.833 508.273 L
1582.274 505.833 L
1583.167 502.5 L
S
GR
GS
[0.75 0 0 0.75 0 0.5] CT
0 0.4 0.988 RC
2 setlinecap
10.0 ML
2.667 LW
N
1633.167 468.5 M
1632.274 465.167 L
1629.833 462.727 L
1626.5 461.833 L
1623.167 462.727 L
1620.726 465.167 L
1619.833 468.5 L
1620.726 471.833 L
1623.167 474.273 L
1626.5 475.167 L
1629.833 474.273 L
1632.274 471.833 L
1633.167 468.5 L
S
GR
GS
[0.75 0 0 0.75 0 0.5] CT
0 0.4 0.988 RC
2 setlinecap
10.0 ML
2.667 LW
N
1684.167 468.5 M
1683.274 465.167 L
1680.833 462.727 L
1677.5 461.833 L
1674.167 462.727 L
1671.726 465.167 L
1670.833 468.5 L
1671.726 471.833 L
1674.167 474.273 L
1677.5 475.167 L
1680.833 474.273 L
1683.274 471.833 L
1684.167 468.5 L
S
GR
GS
[0.75 0 0 0.75 0 0.5] CT
0 0.4 0.988 RC
2 setlinecap
10.0 ML
2.667 LW
N
1734.167 485.5 M
1733.274 482.167 L
1730.833 479.727 L
1727.5 478.833 L
1724.167 479.727 L
1721.726 482.167 L
1720.833 485.5 L
1721.726 488.833 L
1724.167 491.273 L
1727.5 492.167 L
1730.833 491.273 L
1733.274 488.833 L
1734.167 485.5 L
S
GR
GS
[0.75 0 0 0.75 0 0.5] CT
1 GC
N
327 327 M
327 129 L
805 129 L
805 327 L
cp
f
GR
GS
[0.75 0 0 0.75 284.25 113.5] CT
/Helvetica 32 F
GS
[1 0 0 1 0 0] CT
0 11 moveto 
1 -1 scale
( Dijkstra + Graph Coloring) t 
GR
GR
GS
[0.75 0 0 0.75 0 0.5] CT
[16 16] 0 setdash
2 LJ
4 LW
N
335 150.667 M
375 150.667 L
S
GR
GS
[0.75 0 0 0.75 0 0.5] CT
N
343.956 157.165 M
367.044 157.165 L
355.5 137.17 L
cp
f
GR
GS
[0.75 0 0 0.75 0 0.5] CT
2 setlinecap
10.0 ML
4 LW
N
343.956 157.165 M
367.044 157.165 L
355.5 137.17 L
343.956 157.165 L
S
GR
GS
[0.75 0 0 0.75 284.25 142.5] CT
/Helvetica 32 F
GS
[1 0 0 1 0 0] CT
0 11 moveto 
1 -1 scale
( Dijkstra + First-Fit) t 
GR
GR
GS
[0.75 0 0 0.75 0 0.5] CT
1 0 1 RC
[8 8] 0 setdash
2 LJ
2.667 LW
N
335 189.333 M
375 189.333 L
S
GR
GS
[0.75 0 0 0.75 0 0.5] CT
1 0 1 RC
2 setlinecap
10.0 ML
2.667 LW
N
348.572 185.5 M
353.191 185.5 L
355.5 181.5 L
357.809 185.5 L
362.428 185.5 L
359.5 189.5 L
362.428 193.5 L
357.809 193.5 L
355.5 197.5 L
353.191 193.5 L
348.572 193.5 L
351.5 189.5 L
348.572 185.5 L
S
GR
GS
[0.75 0 0 0.75 284.25 171.5] CT
/Helvetica 32 F
GS
[1 0 0 1 0 0] CT
0 11 moveto 
1 -1 scale
( Yen + Graph Coloring) t 
GR
GR
GS
[0.75 0 0 0.75 0 0.5] CT
0 0.502 0 RC
[8 8] 0 setdash
2 LJ
2.667 LW
N
335 228 M
375 228 L
S
GR
GS
[0.75 0 0 0.75 0 0.5] CT
0 0.502 0 RC
2 setlinecap
10.0 ML
2.667 LW
N
350.3 232.7 M
350.3 222.3 L
360.7 222.3 L
360.7 232.7 L
350.3 232.7 L
S
GR
GS
[0.75 0 0 0.75 284.25 200.49999] CT
/Helvetica 32 F
GS
[1 0 0 1 0 0] CT
0 11 moveto 
1 -1 scale
( Yen + First-Fit) t 
GR
GR
GS
[0.75 0 0 0.75 0 0.5] CT
1 0 0 RC
[8 8] 0 setdash
2 LJ
2.667 LW
N
335 266.667 M
375 266.667 L
S
GR
GS
[0.75 0 0 0.75 0 0.5] CT
1 0 0 RC
2 setlinecap
10.0 ML
2.667 LW
N
351 266.5 M
360 266.5 L
S
GR
GS
[0.75 0 0 0.75 0 0.5] CT
1 0 0 RC
2 setlinecap
10.0 ML
2.667 LW
N
355.5 271 M
355.5 262 L
S
GR
GS
[0.75 0 0 0.75 0 0.5] CT
1 0 0 RC
2 setlinecap
10.0 ML
2.667 LW
N
352 270 M
359 263 L
S
GR
GS
[0.75 0 0 0.75 0 0.5] CT
1 0 0 RC
2 setlinecap
10.0 ML
2.667 LW
N
352 263 M
359 270 L
S
GR
GS
[0.75 0 0 0.75 284.25 229.50001] CT
/Helvetica 32 F
GS
[1 0 0 1 0 0] CT
0 11 moveto 
1 -1 scale
( Genetic Algorithm + GOF) t 
GR
GR
GS
[0.75 0 0 0.75 0 0.5] CT
0 0.4 0.988 RC
[8 8] 0 setdash
2 LJ
2.667 LW
N
335 305.333 M
375 305.333 L
S
GR
GS
[0.75 0 0 0.75 0 0.5] CT
0 0.4 0.988 RC
2 setlinecap
10.0 ML
2.667 LW
N
362.167 305.5 M
361.273 302.167 L
358.833 299.727 L
355.5 298.833 L
352.167 299.727 L
349.727 302.167 L
348.833 305.5 L
349.727 308.833 L
352.167 311.273 L
355.5 312.167 L
358.833 311.273 L
361.273 308.833 L
362.167 305.5 L
S
GR
GS
[0.75 0 0 0.75 0 0.5] CT
0.149 GC
2 setlinecap
10.0 ML
N
327 327 M
327 129 L
805 129 L
805 327 L
327 327 L
S
GR
%%Trailer
%%Pages: 1
%%EOF
