%!PS-Adobe-3.0 EPSF-3.0
%%Creator: (MATLAB, The Mathworks, Inc. Version 8.5.0.197613 \(R2015a\). Operating System: Linux)
%%Title: /home/cassio/Dropbox/RWA/ga_lim\343o/untitled.eps
%%CreationDate: 2017-04-24T14:26:57
%%Pages: (atend)
%%BoundingBox: 0 0 1440 719
%%LanguageLevel: 2
%%EndComments
%%BeginProlog
%%BeginResource: procset (Apache XML Graphics Std ProcSet) 1.2 0
%%Version: 1.2 0
%%Copyright: (Copyright 2001-2003,2010 The Apache Software Foundation. License terms: http://www.apache.org/licenses/LICENSE-2.0)
/bd{bind def}bind def
/ld{load def}bd
/GR/grestore ld
/M/moveto ld
/LJ/setlinejoin ld
/C/curveto ld
/f/fill ld
/LW/setlinewidth ld
/GC/setgray ld
/t/show ld
/N/newpath ld
/CT/concat ld
/cp/closepath ld
/S/stroke ld
/L/lineto ld
/CC/setcmykcolor ld
/A/ashow ld
/GS/gsave ld
/RC/setrgbcolor ld
/RM/rmoveto ld
/ML/setmiterlimit ld
/re {4 2 roll M
1 index 0 rlineto
0 exch rlineto
neg 0 rlineto
cp } bd
/_ctm matrix def
/_tm matrix def
/BT { _ctm currentmatrix pop matrix _tm copy pop 0 0 moveto } bd
/ET { _ctm setmatrix } bd
/iTm { _ctm setmatrix _tm concat } bd
/Tm { _tm astore pop iTm 0 0 moveto } bd
/ux 0.0 def
/uy 0.0 def
/F {
  /Tp exch def
  /Tf exch def
  Tf findfont Tp scalefont setfont
  /cf Tf def  /cs Tp def
} bd
/ULS {currentpoint /uy exch def /ux exch def} bd
/ULE {
  /Tcx currentpoint pop def
  gsave
  newpath
  cf findfont cs scalefont dup
  /FontMatrix get 0 get /Ts exch def /FontInfo get dup
  /UnderlinePosition get Ts mul /To exch def
  /UnderlineThickness get Ts mul /Tt exch def
  ux uy To add moveto  Tcx uy To add lineto
  Tt setlinewidth stroke
  grestore
} bd
/OLE {
  /Tcx currentpoint pop def
  gsave
  newpath
  cf findfont cs scalefont dup
  /FontMatrix get 0 get /Ts exch def /FontInfo get dup
  /UnderlinePosition get Ts mul /To exch def
  /UnderlineThickness get Ts mul /Tt exch def
  ux uy To add cs add moveto Tcx uy To add cs add lineto
  Tt setlinewidth stroke
  grestore
} bd
/SOE {
  /Tcx currentpoint pop def
  gsave
  newpath
  cf findfont cs scalefont dup
  /FontMatrix get 0 get /Ts exch def /FontInfo get dup
  /UnderlinePosition get Ts mul /To exch def
  /UnderlineThickness get Ts mul /Tt exch def
  ux uy To add cs 10 mul 26 idiv add moveto Tcx uy To add cs 10 mul 26 idiv add lineto
  Tt setlinewidth stroke
  grestore
} bd
/QT {
/Y22 exch store
/X22 exch store
/Y21 exch store
/X21 exch store
currentpoint
/Y21 load 2 mul add 3 div exch
/X21 load 2 mul add 3 div exch
/X21 load 2 mul /X22 load add 3 div
/Y21 load 2 mul /Y22 load add 3 div
/X22 load /Y22 load curveto
} bd
/SSPD {
dup length /d exch dict def
{
/v exch def
/k exch def
currentpagedevice k known {
/cpdv currentpagedevice k get def
v cpdv ne {
/upd false def
/nullv v type /nulltype eq def
/nullcpdv cpdv type /nulltype eq def
nullv nullcpdv or
{
/upd true def
} {
/sametype v type cpdv type eq def
sametype {
v type /arraytype eq {
/vlen v length def
/cpdvlen cpdv length def
vlen cpdvlen eq {
0 1 vlen 1 sub {
/i exch def
/obj v i get def
/cpdobj cpdv i get def
obj cpdobj ne {
/upd true def
exit
} if
} for
} {
/upd true def
} ifelse
} {
v type /dicttype eq {
v {
/dv exch def
/dk exch def
/cpddv cpdv dk get def
dv cpddv ne {
/upd true def
exit
} if
} forall
} {
/upd true def
} ifelse
} ifelse
} if
} ifelse
upd true eq {
d k v put
} if
} if
} if
} forall
d length 0 gt {
d setpagedevice
} if
} bd
%%EndResource
%%BeginResource: procset (Apache XML Graphics EPS ProcSet) 1.0 0
%%Version: 1.0 0
%%Copyright: (Copyright 2002-2003 The Apache Software Foundation. License terms: http://www.apache.org/licenses/LICENSE-2.0)
/BeginEPSF { %def
/b4_Inc_state save def         % Save state for cleanup
/dict_count countdictstack def % Count objects on dict stack
/op_count count 1 sub def      % Count objects on operand stack
userdict begin                 % Push userdict on dict stack
/showpage { } def              % Redefine showpage, { } = null proc
0 setgray 0 setlinecap         % Prepare graphics state
1 setlinewidth 0 setlinejoin
10 setmiterlimit [ ] 0 setdash newpath
/languagelevel where           % If level not equal to 1 then
{pop languagelevel             % set strokeadjust and
1 ne                           % overprint to their defaults.
{false setstrokeadjust false setoverprint
} if
} if
} bd
/EndEPSF { %def
count op_count sub {pop} repeat            % Clean up stacks
countdictstack dict_count sub {end} repeat
b4_Inc_state restore
} bd
%%EndResource
%FOPBeginFontDict
%%IncludeResource: font Courier-Bold
%%IncludeResource: font Helvetica
%%IncludeResource: font Courier-BoldOblique
%%IncludeResource: font Courier-Oblique
%%IncludeResource: font Times-Roman
%%IncludeResource: font Helvetica-BoldOblique
%%IncludeResource: font Helvetica-Bold
%%IncludeResource: font Helvetica-Oblique
%%IncludeResource: font Times-BoldItalic
%%IncludeResource: font Courier
%%IncludeResource: font Times-Italic
%%IncludeResource: font Times-Bold
%%IncludeResource: font Symbol
%%IncludeResource: font ZapfDingbats
%FOPEndFontDict
%%BeginResource: encoding WinAnsiEncoding
/WinAnsiEncoding [
/.notdef /.notdef /.notdef /.notdef /.notdef
/.notdef /.notdef /.notdef /.notdef /.notdef
/.notdef /.notdef /.notdef /.notdef /.notdef
/.notdef /.notdef /.notdef /.notdef /.notdef
/.notdef /.notdef /.notdef /.notdef /.notdef
/.notdef /.notdef /.notdef /.notdef /.notdef
/.notdef /.notdef /space /exclam /quotedbl
/numbersign /dollar /percent /ampersand /quotesingle
/parenleft /parenright /asterisk /plus /comma
/hyphen /period /slash /zero /one
/two /three /four /five /six
/seven /eight /nine /colon /semicolon
/less /equal /greater /question /at
/A /B /C /D /E
/F /G /H /I /J
/K /L /M /N /O
/P /Q /R /S /T
/U /V /W /X /Y
/Z /bracketleft /backslash /bracketright /asciicircum
/underscore /quoteleft /a /b /c
/d /e /f /g /h
/i /j /k /l /m
/n /o /p /q /r
/s /t /u /v /w
/x /y /z /braceleft /bar
/braceright /asciitilde /bullet /Euro /bullet
/quotesinglbase /florin /quotedblbase /ellipsis /dagger
/daggerdbl /circumflex /perthousand /Scaron /guilsinglleft
/OE /bullet /Zcaron /bullet /bullet
/quoteleft /quoteright /quotedblleft /quotedblright /bullet
/endash /emdash /asciitilde /trademark /scaron
/guilsinglright /oe /bullet /zcaron /Ydieresis
/space /exclamdown /cent /sterling /currency
/yen /brokenbar /section /dieresis /copyright
/ordfeminine /guillemotleft /logicalnot /sfthyphen /registered
/macron /degree /plusminus /twosuperior /threesuperior
/acute /mu /paragraph /middot /cedilla
/onesuperior /ordmasculine /guillemotright /onequarter /onehalf
/threequarters /questiondown /Agrave /Aacute /Acircumflex
/Atilde /Adieresis /Aring /AE /Ccedilla
/Egrave /Eacute /Ecircumflex /Edieresis /Igrave
/Iacute /Icircumflex /Idieresis /Eth /Ntilde
/Ograve /Oacute /Ocircumflex /Otilde /Odieresis
/multiply /Oslash /Ugrave /Uacute /Ucircumflex
/Udieresis /Yacute /Thorn /germandbls /agrave
/aacute /acircumflex /atilde /adieresis /aring
/ae /ccedilla /egrave /eacute /ecircumflex
/edieresis /igrave /iacute /icircumflex /idieresis
/eth /ntilde /ograve /oacute /ocircumflex
/otilde /odieresis /divide /oslash /ugrave
/uacute /ucircumflex /udieresis /yacute /thorn
/ydieresis
] def
%%EndResource
%FOPBeginFontReencode
/Courier-Bold findfont
dup length dict begin
  {1 index /FID ne {def} {pop pop} ifelse} forall
  /Encoding WinAnsiEncoding def
  currentdict
end
/Courier-Bold exch definefont pop
/Helvetica findfont
dup length dict begin
  {1 index /FID ne {def} {pop pop} ifelse} forall
  /Encoding WinAnsiEncoding def
  currentdict
end
/Helvetica exch definefont pop
/Courier-BoldOblique findfont
dup length dict begin
  {1 index /FID ne {def} {pop pop} ifelse} forall
  /Encoding WinAnsiEncoding def
  currentdict
end
/Courier-BoldOblique exch definefont pop
/Courier-Oblique findfont
dup length dict begin
  {1 index /FID ne {def} {pop pop} ifelse} forall
  /Encoding WinAnsiEncoding def
  currentdict
end
/Courier-Oblique exch definefont pop
/Times-Roman findfont
dup length dict begin
  {1 index /FID ne {def} {pop pop} ifelse} forall
  /Encoding WinAnsiEncoding def
  currentdict
end
/Times-Roman exch definefont pop
/Helvetica-BoldOblique findfont
dup length dict begin
  {1 index /FID ne {def} {pop pop} ifelse} forall
  /Encoding WinAnsiEncoding def
  currentdict
end
/Helvetica-BoldOblique exch definefont pop
/Helvetica-Bold findfont
dup length dict begin
  {1 index /FID ne {def} {pop pop} ifelse} forall
  /Encoding WinAnsiEncoding def
  currentdict
end
/Helvetica-Bold exch definefont pop
/Helvetica-Oblique findfont
dup length dict begin
  {1 index /FID ne {def} {pop pop} ifelse} forall
  /Encoding WinAnsiEncoding def
  currentdict
end
/Helvetica-Oblique exch definefont pop
/Times-BoldItalic findfont
dup length dict begin
  {1 index /FID ne {def} {pop pop} ifelse} forall
  /Encoding WinAnsiEncoding def
  currentdict
end
/Times-BoldItalic exch definefont pop
/Courier findfont
dup length dict begin
  {1 index /FID ne {def} {pop pop} ifelse} forall
  /Encoding WinAnsiEncoding def
  currentdict
end
/Courier exch definefont pop
/Times-Italic findfont
dup length dict begin
  {1 index /FID ne {def} {pop pop} ifelse} forall
  /Encoding WinAnsiEncoding def
  currentdict
end
/Times-Italic exch definefont pop
/Times-Bold findfont
dup length dict begin
  {1 index /FID ne {def} {pop pop} ifelse} forall
  /Encoding WinAnsiEncoding def
  currentdict
end
/Times-Bold exch definefont pop
%FOPEndFontReencode
%%EndProlog
%%Page: 1 1
%%PageBoundingBox: 0 0 1440 719
%%BeginPageSetup
[1 0 0 -1 0 719] CT
%%EndPageSetup
GS
[0.75 0 0 0.75 0 0.5] CT
1 GC
N
0 0 1920 958 re
f
GR
GS
[0.75 0 0 0.75 0 0.5] CT
1 GC
N
0 0 1920 958 re
f
GR
GS
[0.75 0 0 0.75 0 0.5] CT
1 GC
N
250 846 M
1738 846 L
1738 72 L
250 72 L
cp
f
GR
GS
[0.75 0 0 0.75 0 0.5] CT
0.873 GC
2 setlinecap
10.0 ML
N
265.34 846 M
265.34 72 L
S
GR
GS
[0.75 0 0 0.75 0 0.5] CT
0.873 GC
2 setlinecap
10.0 ML
N
342.041 846 M
342.041 72 L
S
GR
GS
[0.75 0 0 0.75 0 0.5] CT
0.873 GC
2 setlinecap
10.0 ML
N
418.742 846 M
418.742 72 L
S
GR
GS
[0.75 0 0 0.75 0 0.5] CT
0.873 GC
2 setlinecap
10.0 ML
N
495.443 846 M
495.443 72 L
S
GR
GS
[0.75 0 0 0.75 0 0.5] CT
0.873 GC
2 setlinecap
10.0 ML
N
572.144 846 M
572.144 72 L
S
GR
GS
[0.75 0 0 0.75 0 0.5] CT
0.873 GC
2 setlinecap
10.0 ML
N
648.845 846 M
648.845 72 L
S
GR
GS
[0.75 0 0 0.75 0 0.5] CT
0.873 GC
2 setlinecap
10.0 ML
N
725.546 846 M
725.546 72 L
S
GR
GS
[0.75 0 0 0.75 0 0.5] CT
0.873 GC
2 setlinecap
10.0 ML
N
802.247 846 M
802.247 72 L
S
GR
GS
[0.75 0 0 0.75 0 0.5] CT
0.873 GC
2 setlinecap
10.0 ML
N
878.948 846 M
878.948 72 L
S
GR
GS
[0.75 0 0 0.75 0 0.5] CT
0.873 GC
2 setlinecap
10.0 ML
N
955.649 846 M
955.649 72 L
S
GR
GS
[0.75 0 0 0.75 0 0.5] CT
0.873 GC
2 setlinecap
10.0 ML
N
1032.35 846 M
1032.35 72 L
S
GR
GS
[0.75 0 0 0.75 0 0.5] CT
0.873 GC
2 setlinecap
10.0 ML
N
1109.052 846 M
1109.052 72 L
S
GR
GS
[0.75 0 0 0.75 0 0.5] CT
0.873 GC
2 setlinecap
10.0 ML
N
1185.753 846 M
1185.753 72 L
S
GR
GS
[0.75 0 0 0.75 0 0.5] CT
0.873 GC
2 setlinecap
10.0 ML
N
1262.454 846 M
1262.454 72 L
S
GR
GS
[0.75 0 0 0.75 0 0.5] CT
0.873 GC
2 setlinecap
10.0 ML
N
1339.155 846 M
1339.155 72 L
S
GR
GS
[0.75 0 0 0.75 0 0.5] CT
0.873 GC
2 setlinecap
10.0 ML
N
1415.856 846 M
1415.856 72 L
S
GR
GS
[0.75 0 0 0.75 0 0.5] CT
0.873 GC
2 setlinecap
10.0 ML
N
1492.557 846 M
1492.557 72 L
S
GR
GS
[0.75 0 0 0.75 0 0.5] CT
0.873 GC
2 setlinecap
10.0 ML
N
1569.258 846 M
1569.258 72 L
S
GR
GS
[0.75 0 0 0.75 0 0.5] CT
0.873 GC
2 setlinecap
10.0 ML
N
1645.959 846 M
1645.959 72 L
S
GR
GS
[0.75 0 0 0.75 0 0.5] CT
0.873 GC
2 setlinecap
10.0 ML
N
1722.66 846 M
1722.66 72 L
S
GR
GS
[0.75 0 0 0.75 0 0.5] CT
0.873 GC
2 setlinecap
10.0 ML
N
1738 824.5 M
250 824.5 L
S
GR
GS
[0.75 0 0 0.75 0 0.5] CT
0.873 GC
2 setlinecap
10.0 ML
N
1738 717 M
250 717 L
S
GR
GS
[0.75 0 0 0.75 0 0.5] CT
0.873 GC
2 setlinecap
10.0 ML
N
1738 609.5 M
250 609.5 L
S
GR
GS
[0.75 0 0 0.75 0 0.5] CT
0.873 GC
2 setlinecap
10.0 ML
N
1738 502 M
250 502 L
S
GR
GS
[0.75 0 0 0.75 0 0.5] CT
0.873 GC
2 setlinecap
10.0 ML
N
1738 394.5 M
250 394.5 L
S
GR
GS
[0.75 0 0 0.75 0 0.5] CT
0.873 GC
2 setlinecap
10.0 ML
N
1738 287 M
250 287 L
S
GR
GS
[0.75 0 0 0.75 0 0.5] CT
0.873 GC
2 setlinecap
10.0 ML
N
1738 179.5 M
250 179.5 L
S
GR
GS
[0.75 0 0 0.75 0 0.5] CT
0.873 GC
2 setlinecap
10.0 ML
N
1738 72 M
250 72 L
S
GR
GS
[0.75 0 0 0.75 745.50055 672.05002] CT
0.149 GC
/Helvetica 53 F
GS
[1 0 0 1 0 0] CT
-192 50 moveto 
1 -1 scale
(Load \(Erlangs\)) t 
GR
GR
GS
[0.75 0 0 0.75 0 0.5] CT
0.149 GC
2 setlinecap
10.0 ML
N
250 846 M
1738 846 L
S
GR
GS
[0.75 0 0 0.75 0 0.5] CT
0.149 GC
2 setlinecap
10.0 ML
N
250 72 M
1738 72 L
S
GR
GS
[0.75 0 0 0.75 0 0.5] CT
0.149 GC
2 setlinecap
10.0 ML
N
265.34 846 M
265.34 831.12 L
S
GR
GS
[0.75 0 0 0.75 0 0.5] CT
0.149 GC
2 setlinecap
10.0 ML
N
342.041 846 M
342.041 831.12 L
S
GR
GS
[0.75 0 0 0.75 0 0.5] CT
0.149 GC
2 setlinecap
10.0 ML
N
418.742 846 M
418.742 831.12 L
S
GR
GS
[0.75 0 0 0.75 0 0.5] CT
0.149 GC
2 setlinecap
10.0 ML
N
495.443 846 M
495.443 831.12 L
S
GR
GS
[0.75 0 0 0.75 0 0.5] CT
0.149 GC
2 setlinecap
10.0 ML
N
572.144 846 M
572.144 831.12 L
S
GR
GS
[0.75 0 0 0.75 0 0.5] CT
0.149 GC
2 setlinecap
10.0 ML
N
648.845 846 M
648.845 831.12 L
S
GR
GS
[0.75 0 0 0.75 0 0.5] CT
0.149 GC
2 setlinecap
10.0 ML
N
725.546 846 M
725.546 831.12 L
S
GR
GS
[0.75 0 0 0.75 0 0.5] CT
0.149 GC
2 setlinecap
10.0 ML
N
802.247 846 M
802.247 831.12 L
S
GR
GS
[0.75 0 0 0.75 0 0.5] CT
0.149 GC
2 setlinecap
10.0 ML
N
878.948 846 M
878.948 831.12 L
S
GR
GS
[0.75 0 0 0.75 0 0.5] CT
0.149 GC
2 setlinecap
10.0 ML
N
955.649 846 M
955.649 831.12 L
S
GR
GS
[0.75 0 0 0.75 0 0.5] CT
0.149 GC
2 setlinecap
10.0 ML
N
1032.35 846 M
1032.35 831.12 L
S
GR
GS
[0.75 0 0 0.75 0 0.5] CT
0.149 GC
2 setlinecap
10.0 ML
N
1109.052 846 M
1109.052 831.12 L
S
GR
GS
[0.75 0 0 0.75 0 0.5] CT
0.149 GC
2 setlinecap
10.0 ML
N
1185.753 846 M
1185.753 831.12 L
S
GR
GS
[0.75 0 0 0.75 0 0.5] CT
0.149 GC
2 setlinecap
10.0 ML
N
1262.454 846 M
1262.454 831.12 L
S
GR
GS
[0.75 0 0 0.75 0 0.5] CT
0.149 GC
2 setlinecap
10.0 ML
N
1339.155 846 M
1339.155 831.12 L
S
GR
GS
[0.75 0 0 0.75 0 0.5] CT
0.149 GC
2 setlinecap
10.0 ML
N
1415.856 846 M
1415.856 831.12 L
S
GR
GS
[0.75 0 0 0.75 0 0.5] CT
0.149 GC
2 setlinecap
10.0 ML
N
1492.557 846 M
1492.557 831.12 L
S
GR
GS
[0.75 0 0 0.75 0 0.5] CT
0.149 GC
2 setlinecap
10.0 ML
N
1569.258 846 M
1569.258 831.12 L
S
GR
GS
[0.75 0 0 0.75 0 0.5] CT
0.149 GC
2 setlinecap
10.0 ML
N
1645.959 846 M
1645.959 831.12 L
S
GR
GS
[0.75 0 0 0.75 0 0.5] CT
0.149 GC
2 setlinecap
10.0 ML
N
1722.66 846 M
1722.66 831.12 L
S
GR
GS
[0.75 0 0 0.75 0 0.5] CT
0.149 GC
2 setlinecap
10.0 ML
N
265.34 72 M
265.34 86.88 L
S
GR
GS
[0.75 0 0 0.75 0 0.5] CT
0.149 GC
2 setlinecap
10.0 ML
N
342.041 72 M
342.041 86.88 L
S
GR
GS
[0.75 0 0 0.75 0 0.5] CT
0.149 GC
2 setlinecap
10.0 ML
N
418.742 72 M
418.742 86.88 L
S
GR
GS
[0.75 0 0 0.75 0 0.5] CT
0.149 GC
2 setlinecap
10.0 ML
N
495.443 72 M
495.443 86.88 L
S
GR
GS
[0.75 0 0 0.75 0 0.5] CT
0.149 GC
2 setlinecap
10.0 ML
N
572.144 72 M
572.144 86.88 L
S
GR
GS
[0.75 0 0 0.75 0 0.5] CT
0.149 GC
2 setlinecap
10.0 ML
N
648.845 72 M
648.845 86.88 L
S
GR
GS
[0.75 0 0 0.75 0 0.5] CT
0.149 GC
2 setlinecap
10.0 ML
N
725.546 72 M
725.546 86.88 L
S
GR
GS
[0.75 0 0 0.75 0 0.5] CT
0.149 GC
2 setlinecap
10.0 ML
N
802.247 72 M
802.247 86.88 L
S
GR
GS
[0.75 0 0 0.75 0 0.5] CT
0.149 GC
2 setlinecap
10.0 ML
N
878.948 72 M
878.948 86.88 L
S
GR
GS
[0.75 0 0 0.75 0 0.5] CT
0.149 GC
2 setlinecap
10.0 ML
N
955.649 72 M
955.649 86.88 L
S
GR
GS
[0.75 0 0 0.75 0 0.5] CT
0.149 GC
2 setlinecap
10.0 ML
N
1032.35 72 M
1032.35 86.88 L
S
GR
GS
[0.75 0 0 0.75 0 0.5] CT
0.149 GC
2 setlinecap
10.0 ML
N
1109.052 72 M
1109.052 86.88 L
S
GR
GS
[0.75 0 0 0.75 0 0.5] CT
0.149 GC
2 setlinecap
10.0 ML
N
1185.753 72 M
1185.753 86.88 L
S
GR
GS
[0.75 0 0 0.75 0 0.5] CT
0.149 GC
2 setlinecap
10.0 ML
N
1262.454 72 M
1262.454 86.88 L
S
GR
GS
[0.75 0 0 0.75 0 0.5] CT
0.149 GC
2 setlinecap
10.0 ML
N
1339.155 72 M
1339.155 86.88 L
S
GR
GS
[0.75 0 0 0.75 0 0.5] CT
0.149 GC
2 setlinecap
10.0 ML
N
1415.856 72 M
1415.856 86.88 L
S
GR
GS
[0.75 0 0 0.75 0 0.5] CT
0.149 GC
2 setlinecap
10.0 ML
N
1492.557 72 M
1492.557 86.88 L
S
GR
GS
[0.75 0 0 0.75 0 0.5] CT
0.149 GC
2 setlinecap
10.0 ML
N
1569.258 72 M
1569.258 86.88 L
S
GR
GS
[0.75 0 0 0.75 0 0.5] CT
0.149 GC
2 setlinecap
10.0 ML
N
1645.959 72 M
1645.959 86.88 L
S
GR
GS
[0.75 0 0 0.75 0 0.5] CT
0.149 GC
2 setlinecap
10.0 ML
N
1722.66 72 M
1722.66 86.88 L
S
GR
GS
[0.75 0 0 0.75 199.00516 641.79999] CT
0.149 GC
/Helvetica 32 F
GS
[1 0 0 1 0 0] CT
-10.5 30 moveto 
1 -1 scale
(1) t 
GR
GR
GS
[0.75 0 0 0.75 256.53092 641.79999] CT
0.149 GC
/Helvetica 32 F
GS
[1 0 0 1 0 0] CT
-10.5 30 moveto 
1 -1 scale
(2) t 
GR
GR
GS
[0.75 0 0 0.75 314.05671 641.79999] CT
0.149 GC
/Helvetica 32 F
GS
[1 0 0 1 0 0] CT
-10.5 30 moveto 
1 -1 scale
(3) t 
GR
GR
GS
[0.75 0 0 0.75 371.58247 641.79999] CT
0.149 GC
/Helvetica 32 F
GS
[1 0 0 1 0 0] CT
-10.5 30 moveto 
1 -1 scale
(4) t 
GR
GR
GS
[0.75 0 0 0.75 429.10826 641.79999] CT
0.149 GC
/Helvetica 32 F
GS
[1 0 0 1 0 0] CT
-10.5 30 moveto 
1 -1 scale
(5) t 
GR
GR
GS
[0.75 0 0 0.75 486.634 641.79999] CT
0.149 GC
/Helvetica 32 F
GS
[1 0 0 1 0 0] CT
-10.5 30 moveto 
1 -1 scale
(6) t 
GR
GR
GS
[0.75 0 0 0.75 544.15979 641.79999] CT
0.149 GC
/Helvetica 32 F
GS
[1 0 0 1 0 0] CT
-10.5 30 moveto 
1 -1 scale
(7) t 
GR
GR
GS
[0.75 0 0 0.75 601.68558 641.79999] CT
0.149 GC
/Helvetica 32 F
GS
[1 0 0 1 0 0] CT
-10.5 30 moveto 
1 -1 scale
(8) t 
GR
GR
GS
[0.75 0 0 0.75 659.21132 641.79999] CT
0.149 GC
/Helvetica 32 F
GS
[1 0 0 1 0 0] CT
-10.5 30 moveto 
1 -1 scale
(9) t 
GR
GR
GS
[0.75 0 0 0.75 716.73711 641.79999] CT
0.149 GC
/Helvetica 32 F
GS
[1 0 0 1 0 0] CT
-20.5 30 moveto 
1 -1 scale
(10) t 
GR
GR
GS
[0.75 0 0 0.75 774.26285 641.79999] CT
0.149 GC
/Helvetica 32 F
GS
[1 0 0 1 0 0] CT
-20.5 30 moveto 
1 -1 scale
(11) t 
GR
GR
GS
[0.75 0 0 0.75 831.78864 641.79999] CT
0.149 GC
/Helvetica 32 F
GS
[1 0 0 1 0 0] CT
-20.5 30 moveto 
1 -1 scale
(12) t 
GR
GR
GS
[0.75 0 0 0.75 889.31442 641.79999] CT
0.149 GC
/Helvetica 32 F
GS
[1 0 0 1 0 0] CT
-20.5 30 moveto 
1 -1 scale
(13) t 
GR
GR
GS
[0.75 0 0 0.75 946.84021 641.79999] CT
0.149 GC
/Helvetica 32 F
GS
[1 0 0 1 0 0] CT
-20.5 30 moveto 
1 -1 scale
(14) t 
GR
GR
GS
[0.75 0 0 0.75 1004.366 641.79999] CT
0.149 GC
/Helvetica 32 F
GS
[1 0 0 1 0 0] CT
-20.5 30 moveto 
1 -1 scale
(15) t 
GR
GR
GS
[0.75 0 0 0.75 1061.89178 641.79999] CT
0.149 GC
/Helvetica 32 F
GS
[1 0 0 1 0 0] CT
-20.5 30 moveto 
1 -1 scale
(16) t 
GR
GR
GS
[0.75 0 0 0.75 1119.41748 641.79999] CT
0.149 GC
/Helvetica 32 F
GS
[1 0 0 1 0 0] CT
-20.5 30 moveto 
1 -1 scale
(17) t 
GR
GR
GS
[0.75 0 0 0.75 1176.94327 641.79999] CT
0.149 GC
/Helvetica 32 F
GS
[1 0 0 1 0 0] CT
-20.5 30 moveto 
1 -1 scale
(18) t 
GR
GR
GS
[0.75 0 0 0.75 1234.46906 641.79999] CT
0.149 GC
/Helvetica 32 F
GS
[1 0 0 1 0 0] CT
-20.5 30 moveto 
1 -1 scale
(19) t 
GR
GR
GS
[0.75 0 0 0.75 1291.99484 641.79999] CT
0.149 GC
/Helvetica 32 F
GS
[1 0 0 1 0 0] CT
-20.5 30 moveto 
1 -1 scale
(20) t 
GR
GR
GS
[0 -0.75 0.75 0 132.7 344.74973] CT
0.149 GC
/Helvetica 53 F
GS
[1 0 0 1 0 0] CT
-316.5 -13 moveto 
1 -1 scale
(Blocking Probability \(%\)) t 
GR
GR
GS
[0.75 0 0 0.75 0 0.5] CT
0.149 GC
2 setlinecap
10.0 ML
N
250 846 M
250 72 L
S
GR
GS
[0.75 0 0 0.75 0 0.5] CT
0.149 GC
2 setlinecap
10.0 ML
N
1738 846 M
1738 72 L
S
GR
GS
[0.75 0 0 0.75 0 0.5] CT
0.149 GC
2 setlinecap
10.0 ML
N
250 824.5 M
264.88 824.5 L
S
GR
GS
[0.75 0 0 0.75 0 0.5] CT
0.149 GC
2 setlinecap
10.0 ML
N
250 717 M
264.88 717 L
S
GR
GS
[0.75 0 0 0.75 0 0.5] CT
0.149 GC
2 setlinecap
10.0 ML
N
250 609.5 M
264.88 609.5 L
S
GR
GS
[0.75 0 0 0.75 0 0.5] CT
0.149 GC
2 setlinecap
10.0 ML
N
250 502 M
264.88 502 L
S
GR
GS
[0.75 0 0 0.75 0 0.5] CT
0.149 GC
2 setlinecap
10.0 ML
N
250 394.5 M
264.88 394.5 L
S
GR
GS
[0.75 0 0 0.75 0 0.5] CT
0.149 GC
2 setlinecap
10.0 ML
N
250 287 M
264.88 287 L
S
GR
GS
[0.75 0 0 0.75 0 0.5] CT
0.149 GC
2 setlinecap
10.0 ML
N
250 179.5 M
264.88 179.5 L
S
GR
GS
[0.75 0 0 0.75 0 0.5] CT
0.149 GC
2 setlinecap
10.0 ML
N
250 72 M
264.88 72 L
S
GR
GS
[0.75 0 0 0.75 0 0.5] CT
0.149 GC
2 setlinecap
10.0 ML
N
1738 824.5 M
1723.12 824.5 L
S
GR
GS
[0.75 0 0 0.75 0 0.5] CT
0.149 GC
2 setlinecap
10.0 ML
N
1738 717 M
1723.12 717 L
S
GR
GS
[0.75 0 0 0.75 0 0.5] CT
0.149 GC
2 setlinecap
10.0 ML
N
1738 609.5 M
1723.12 609.5 L
S
GR
GS
[0.75 0 0 0.75 0 0.5] CT
0.149 GC
2 setlinecap
10.0 ML
N
1738 502 M
1723.12 502 L
S
GR
GS
[0.75 0 0 0.75 0 0.5] CT
0.149 GC
2 setlinecap
10.0 ML
N
1738 394.5 M
1723.12 394.5 L
S
GR
GS
[0.75 0 0 0.75 0 0.5] CT
0.149 GC
2 setlinecap
10.0 ML
N
1738 287 M
1723.12 287 L
S
GR
GS
[0.75 0 0 0.75 0 0.5] CT
0.149 GC
2 setlinecap
10.0 ML
N
1738 179.5 M
1723.12 179.5 L
S
GR
GS
[0.75 0 0 0.75 0 0.5] CT
0.149 GC
2 setlinecap
10.0 ML
N
1738 72 M
1723.12 72 L
S
GR
GS
[0.75 0 0 0.75 180.7 618.875] CT
0.149 GC
/Helvetica 32 F
GS
[1 0 0 1 0 0] CT
-21 11 moveto 
1 -1 scale
(0) t 
GR
GR
GS
[0.75 0 0 0.75 180.7 538.25] CT
0.149 GC
/Helvetica 32 F
GS
[1 0 0 1 0 0] CT
-41 11 moveto 
1 -1 scale
(10) t 
GR
GR
GS
[0.75 0 0 0.75 180.7 457.625] CT
0.149 GC
/Helvetica 32 F
GS
[1 0 0 1 0 0] CT
-41 11 moveto 
1 -1 scale
(20) t 
GR
GR
GS
[0.75 0 0 0.75 180.7 377] CT
0.149 GC
/Helvetica 32 F
GS
[1 0 0 1 0 0] CT
-41 11 moveto 
1 -1 scale
(30) t 
GR
GR
GS
[0.75 0 0 0.75 180.7 296.375] CT
0.149 GC
/Helvetica 32 F
GS
[1 0 0 1 0 0] CT
-41 11 moveto 
1 -1 scale
(40) t 
GR
GR
GS
[0.75 0 0 0.75 180.7 215.75] CT
0.149 GC
/Helvetica 32 F
GS
[1 0 0 1 0 0] CT
-41 11 moveto 
1 -1 scale
(50) t 
GR
GR
GS
[0.75 0 0 0.75 180.7 135.125] CT
0.149 GC
/Helvetica 32 F
GS
[1 0 0 1 0 0] CT
-41 11 moveto 
1 -1 scale
(60) t 
GR
GR
GS
[0.75 0 0 0.75 180.7 54.5] CT
0.149 GC
/Helvetica 32 F
GS
[1 0 0 1 0 0] CT
-41 11 moveto 
1 -1 scale
(70) t 
GR
GR
GS
[0.75 0 0 0.75 0 0.5] CT
[10 6] 0 setdash
2 LJ
N
265.34 824.5 M
342.041 823.669 L
418.742 815.198 L
495.443 792.307 L
572.144 750.798 L
648.845 692.289 L
725.546 630.484 L
802.247 572.219 L
878.948 512.693 L
955.649 460.72 L
1032.35 417.462 L
1109.052 375.394 L
1185.753 337.038 L
1262.454 299.183 L
1339.155 264.482 L
1415.856 240.632 L
1492.557 215.534 L
1569.258 196.17 L
1645.959 169.151 L
1722.66 151.435 L
S
GR
GS
[0.75 0 0 0.75 0 0.5] CT
1 GC
N
253.953 817.833 M
261.651 817.833 L
265.5 811.167 L
269.349 817.833 L
277.047 817.833 L
272.167 824.5 L
277.047 831.167 L
269.349 831.167 L
265.5 837.833 L
261.651 831.167 L
253.953 831.167 L
258.833 824.5 L
253.953 817.833 L
cp
f
GR
GS
[0.75 0 0 0.75 0 0.5] CT
2 setlinecap
10.0 ML
2.667 LW
N
253.953 817.833 M
261.651 817.833 L
265.5 811.167 L
269.349 817.833 L
277.047 817.833 L
272.167 824.5 L
277.047 831.167 L
269.349 831.167 L
265.5 837.833 L
261.651 831.167 L
253.953 831.167 L
258.833 824.5 L
253.953 817.833 L
S
GR
GS
[0.75 0 0 0.75 0 0.5] CT
1 GC
N
330.953 816.833 M
338.651 816.833 L
342.5 810.167 L
346.349 816.833 L
354.047 816.833 L
349.167 823.5 L
354.047 830.167 L
346.349 830.167 L
342.5 836.833 L
338.651 830.167 L
330.953 830.167 L
335.833 823.5 L
330.953 816.833 L
cp
f
GR
GS
[0.75 0 0 0.75 0 0.5] CT
2 setlinecap
10.0 ML
2.667 LW
N
330.953 816.833 M
338.651 816.833 L
342.5 810.167 L
346.349 816.833 L
354.047 816.833 L
349.167 823.5 L
354.047 830.167 L
346.349 830.167 L
342.5 836.833 L
338.651 830.167 L
330.953 830.167 L
335.833 823.5 L
330.953 816.833 L
S
GR
GS
[0.75 0 0 0.75 0 0.5] CT
1 GC
N
406.953 808.833 M
414.651 808.833 L
418.5 802.167 L
422.349 808.833 L
430.047 808.833 L
425.167 815.5 L
430.047 822.167 L
422.349 822.167 L
418.5 828.833 L
414.651 822.167 L
406.953 822.167 L
411.833 815.5 L
406.953 808.833 L
cp
f
GR
GS
[0.75 0 0 0.75 0 0.5] CT
2 setlinecap
10.0 ML
2.667 LW
N
406.953 808.833 M
414.651 808.833 L
418.5 802.167 L
422.349 808.833 L
430.047 808.833 L
425.167 815.5 L
430.047 822.167 L
422.349 822.167 L
418.5 828.833 L
414.651 822.167 L
406.953 822.167 L
411.833 815.5 L
406.953 808.833 L
S
GR
GS
[0.75 0 0 0.75 0 0.5] CT
1 GC
N
483.953 785.833 M
491.651 785.833 L
495.5 779.167 L
499.349 785.833 L
507.047 785.833 L
502.167 792.5 L
507.047 799.167 L
499.349 799.167 L
495.5 805.833 L
491.651 799.167 L
483.953 799.167 L
488.833 792.5 L
483.953 785.833 L
cp
f
GR
GS
[0.75 0 0 0.75 0 0.5] CT
2 setlinecap
10.0 ML
2.667 LW
N
483.953 785.833 M
491.651 785.833 L
495.5 779.167 L
499.349 785.833 L
507.047 785.833 L
502.167 792.5 L
507.047 799.167 L
499.349 799.167 L
495.5 805.833 L
491.651 799.167 L
483.953 799.167 L
488.833 792.5 L
483.953 785.833 L
S
GR
GS
[0.75 0 0 0.75 0 0.5] CT
1 GC
N
560.953 743.833 M
568.651 743.833 L
572.5 737.167 L
576.349 743.833 L
584.047 743.833 L
579.167 750.5 L
584.047 757.167 L
576.349 757.167 L
572.5 763.833 L
568.651 757.167 L
560.953 757.167 L
565.833 750.5 L
560.953 743.833 L
cp
f
GR
GS
[0.75 0 0 0.75 0 0.5] CT
2 setlinecap
10.0 ML
2.667 LW
N
560.953 743.833 M
568.651 743.833 L
572.5 737.167 L
576.349 743.833 L
584.047 743.833 L
579.167 750.5 L
584.047 757.167 L
576.349 757.167 L
572.5 763.833 L
568.651 757.167 L
560.953 757.167 L
565.833 750.5 L
560.953 743.833 L
S
GR
GS
[0.75 0 0 0.75 0 0.5] CT
1 GC
N
636.953 685.833 M
644.651 685.833 L
648.5 679.167 L
652.349 685.833 L
660.047 685.833 L
655.167 692.5 L
660.047 699.167 L
652.349 699.167 L
648.5 705.833 L
644.651 699.167 L
636.953 699.167 L
641.833 692.5 L
636.953 685.833 L
cp
f
GR
GS
[0.75 0 0 0.75 0 0.5] CT
2 setlinecap
10.0 ML
2.667 LW
N
636.953 685.833 M
644.651 685.833 L
648.5 679.167 L
652.349 685.833 L
660.047 685.833 L
655.167 692.5 L
660.047 699.167 L
652.349 699.167 L
648.5 705.833 L
644.651 699.167 L
636.953 699.167 L
641.833 692.5 L
636.953 685.833 L
S
GR
GS
[0.75 0 0 0.75 0 0.5] CT
1 GC
N
713.953 623.833 M
721.651 623.833 L
725.5 617.167 L
729.349 623.833 L
737.047 623.833 L
732.167 630.5 L
737.047 637.167 L
729.349 637.167 L
725.5 643.833 L
721.651 637.167 L
713.953 637.167 L
718.833 630.5 L
713.953 623.833 L
cp
f
GR
GS
[0.75 0 0 0.75 0 0.5] CT
2 setlinecap
10.0 ML
2.667 LW
N
713.953 623.833 M
721.651 623.833 L
725.5 617.167 L
729.349 623.833 L
737.047 623.833 L
732.167 630.5 L
737.047 637.167 L
729.349 637.167 L
725.5 643.833 L
721.651 637.167 L
713.953 637.167 L
718.833 630.5 L
713.953 623.833 L
S
GR
GS
[0.75 0 0 0.75 0 0.5] CT
1 GC
N
790.953 565.833 M
798.651 565.833 L
802.5 559.167 L
806.349 565.833 L
814.047 565.833 L
809.167 572.5 L
814.047 579.167 L
806.349 579.167 L
802.5 585.833 L
798.651 579.167 L
790.953 579.167 L
795.833 572.5 L
790.953 565.833 L
cp
f
GR
GS
[0.75 0 0 0.75 0 0.5] CT
2 setlinecap
10.0 ML
2.667 LW
N
790.953 565.833 M
798.651 565.833 L
802.5 559.167 L
806.349 565.833 L
814.047 565.833 L
809.167 572.5 L
814.047 579.167 L
806.349 579.167 L
802.5 585.833 L
798.651 579.167 L
790.953 579.167 L
795.833 572.5 L
790.953 565.833 L
S
GR
GS
[0.75 0 0 0.75 0 0.5] CT
1 GC
N
866.953 505.833 M
874.651 505.833 L
878.5 499.167 L
882.349 505.833 L
890.047 505.833 L
885.167 512.5 L
890.047 519.167 L
882.349 519.167 L
878.5 525.833 L
874.651 519.167 L
866.953 519.167 L
871.833 512.5 L
866.953 505.833 L
cp
f
GR
GS
[0.75 0 0 0.75 0 0.5] CT
2 setlinecap
10.0 ML
2.667 LW
N
866.953 505.833 M
874.651 505.833 L
878.5 499.167 L
882.349 505.833 L
890.047 505.833 L
885.167 512.5 L
890.047 519.167 L
882.349 519.167 L
878.5 525.833 L
874.651 519.167 L
866.953 519.167 L
871.833 512.5 L
866.953 505.833 L
S
GR
GS
[0.75 0 0 0.75 0 0.5] CT
1 GC
N
943.953 453.833 M
951.651 453.833 L
955.5 447.167 L
959.349 453.833 L
967.047 453.833 L
962.167 460.5 L
967.047 467.167 L
959.349 467.167 L
955.5 473.833 L
951.651 467.167 L
943.953 467.167 L
948.833 460.5 L
943.953 453.833 L
cp
f
GR
GS
[0.75 0 0 0.75 0 0.5] CT
2 setlinecap
10.0 ML
2.667 LW
N
943.953 453.833 M
951.651 453.833 L
955.5 447.167 L
959.349 453.833 L
967.047 453.833 L
962.167 460.5 L
967.047 467.167 L
959.349 467.167 L
955.5 473.833 L
951.651 467.167 L
943.953 467.167 L
948.833 460.5 L
943.953 453.833 L
S
GR
GS
[0.75 0 0 0.75 0 0.5] CT
1 GC
N
1020.953 410.833 M
1028.651 410.833 L
1032.5 404.167 L
1036.349 410.833 L
1044.047 410.833 L
1039.167 417.5 L
1044.047 424.167 L
1036.349 424.167 L
1032.5 430.833 L
1028.651 424.167 L
1020.953 424.167 L
1025.833 417.5 L
1020.953 410.833 L
cp
f
GR
GS
[0.75 0 0 0.75 0 0.5] CT
2 setlinecap
10.0 ML
2.667 LW
N
1020.953 410.833 M
1028.651 410.833 L
1032.5 404.167 L
1036.349 410.833 L
1044.047 410.833 L
1039.167 417.5 L
1044.047 424.167 L
1036.349 424.167 L
1032.5 430.833 L
1028.651 424.167 L
1020.953 424.167 L
1025.833 417.5 L
1020.953 410.833 L
S
GR
GS
[0.75 0 0 0.75 0 0.5] CT
1 GC
N
1097.953 368.833 M
1105.651 368.833 L
1109.5 362.167 L
1113.349 368.833 L
1121.047 368.833 L
1116.167 375.5 L
1121.047 382.167 L
1113.349 382.167 L
1109.5 388.833 L
1105.651 382.167 L
1097.953 382.167 L
1102.833 375.5 L
1097.953 368.833 L
cp
f
GR
GS
[0.75 0 0 0.75 0 0.5] CT
2 setlinecap
10.0 ML
2.667 LW
N
1097.953 368.833 M
1105.651 368.833 L
1109.5 362.167 L
1113.349 368.833 L
1121.047 368.833 L
1116.167 375.5 L
1121.047 382.167 L
1113.349 382.167 L
1109.5 388.833 L
1105.651 382.167 L
1097.953 382.167 L
1102.833 375.5 L
1097.953 368.833 L
S
GR
GS
[0.75 0 0 0.75 0 0.5] CT
1 GC
N
1173.953 330.833 M
1181.651 330.833 L
1185.5 324.167 L
1189.349 330.833 L
1197.047 330.833 L
1192.167 337.5 L
1197.047 344.167 L
1189.349 344.167 L
1185.5 350.833 L
1181.651 344.167 L
1173.953 344.167 L
1178.833 337.5 L
1173.953 330.833 L
cp
f
GR
GS
[0.75 0 0 0.75 0 0.5] CT
2 setlinecap
10.0 ML
2.667 LW
N
1173.953 330.833 M
1181.651 330.833 L
1185.5 324.167 L
1189.349 330.833 L
1197.047 330.833 L
1192.167 337.5 L
1197.047 344.167 L
1189.349 344.167 L
1185.5 350.833 L
1181.651 344.167 L
1173.953 344.167 L
1178.833 337.5 L
1173.953 330.833 L
S
GR
GS
[0.75 0 0 0.75 0 0.5] CT
1 GC
N
1250.953 292.833 M
1258.651 292.833 L
1262.5 286.167 L
1266.349 292.833 L
1274.047 292.833 L
1269.167 299.5 L
1274.047 306.167 L
1266.349 306.167 L
1262.5 312.833 L
1258.651 306.167 L
1250.953 306.167 L
1255.833 299.5 L
1250.953 292.833 L
cp
f
GR
GS
[0.75 0 0 0.75 0 0.5] CT
2 setlinecap
10.0 ML
2.667 LW
N
1250.953 292.833 M
1258.651 292.833 L
1262.5 286.167 L
1266.349 292.833 L
1274.047 292.833 L
1269.167 299.5 L
1274.047 306.167 L
1266.349 306.167 L
1262.5 312.833 L
1258.651 306.167 L
1250.953 306.167 L
1255.833 299.5 L
1250.953 292.833 L
S
GR
GS
[0.75 0 0 0.75 0 0.5] CT
1 GC
N
1327.953 257.833 M
1335.651 257.833 L
1339.5 251.167 L
1343.349 257.833 L
1351.047 257.833 L
1346.167 264.5 L
1351.047 271.167 L
1343.349 271.167 L
1339.5 277.833 L
1335.651 271.167 L
1327.953 271.167 L
1332.833 264.5 L
1327.953 257.833 L
cp
f
GR
GS
[0.75 0 0 0.75 0 0.5] CT
2 setlinecap
10.0 ML
2.667 LW
N
1327.953 257.833 M
1335.651 257.833 L
1339.5 251.167 L
1343.349 257.833 L
1351.047 257.833 L
1346.167 264.5 L
1351.047 271.167 L
1343.349 271.167 L
1339.5 277.833 L
1335.651 271.167 L
1327.953 271.167 L
1332.833 264.5 L
1327.953 257.833 L
S
GR
GS
[0.75 0 0 0.75 0 0.5] CT
1 GC
N
1403.953 233.833 M
1411.651 233.833 L
1415.5 227.167 L
1419.349 233.833 L
1427.047 233.833 L
1422.167 240.5 L
1427.047 247.167 L
1419.349 247.167 L
1415.5 253.833 L
1411.651 247.167 L
1403.953 247.167 L
1408.833 240.5 L
1403.953 233.833 L
cp
f
GR
GS
[0.75 0 0 0.75 0 0.5] CT
2 setlinecap
10.0 ML
2.667 LW
N
1403.953 233.833 M
1411.651 233.833 L
1415.5 227.167 L
1419.349 233.833 L
1427.047 233.833 L
1422.167 240.5 L
1427.047 247.167 L
1419.349 247.167 L
1415.5 253.833 L
1411.651 247.167 L
1403.953 247.167 L
1408.833 240.5 L
1403.953 233.833 L
S
GR
GS
[0.75 0 0 0.75 0 0.5] CT
1 GC
N
1480.953 208.833 M
1488.651 208.833 L
1492.5 202.167 L
1496.349 208.833 L
1504.047 208.833 L
1499.167 215.5 L
1504.047 222.167 L
1496.349 222.167 L
1492.5 228.833 L
1488.651 222.167 L
1480.953 222.167 L
1485.833 215.5 L
1480.953 208.833 L
cp
f
GR
GS
[0.75 0 0 0.75 0 0.5] CT
2 setlinecap
10.0 ML
2.667 LW
N
1480.953 208.833 M
1488.651 208.833 L
1492.5 202.167 L
1496.349 208.833 L
1504.047 208.833 L
1499.167 215.5 L
1504.047 222.167 L
1496.349 222.167 L
1492.5 228.833 L
1488.651 222.167 L
1480.953 222.167 L
1485.833 215.5 L
1480.953 208.833 L
S
GR
GS
[0.75 0 0 0.75 0 0.5] CT
1 GC
N
1557.953 189.833 M
1565.651 189.833 L
1569.5 183.167 L
1573.349 189.833 L
1581.047 189.833 L
1576.167 196.5 L
1581.047 203.167 L
1573.349 203.167 L
1569.5 209.833 L
1565.651 203.167 L
1557.953 203.167 L
1562.833 196.5 L
1557.953 189.833 L
cp
f
GR
GS
[0.75 0 0 0.75 0 0.5] CT
2 setlinecap
10.0 ML
2.667 LW
N
1557.953 189.833 M
1565.651 189.833 L
1569.5 183.167 L
1573.349 189.833 L
1581.047 189.833 L
1576.167 196.5 L
1581.047 203.167 L
1573.349 203.167 L
1569.5 209.833 L
1565.651 203.167 L
1557.953 203.167 L
1562.833 196.5 L
1557.953 189.833 L
S
GR
GS
[0.75 0 0 0.75 0 0.5] CT
1 GC
N
1633.953 162.833 M
1641.651 162.833 L
1645.5 156.167 L
1649.349 162.833 L
1657.047 162.833 L
1652.167 169.5 L
1657.047 176.167 L
1649.349 176.167 L
1645.5 182.833 L
1641.651 176.167 L
1633.953 176.167 L
1638.833 169.5 L
1633.953 162.833 L
cp
f
GR
GS
[0.75 0 0 0.75 0 0.5] CT
2 setlinecap
10.0 ML
2.667 LW
N
1633.953 162.833 M
1641.651 162.833 L
1645.5 156.167 L
1649.349 162.833 L
1657.047 162.833 L
1652.167 169.5 L
1657.047 176.167 L
1649.349 176.167 L
1645.5 182.833 L
1641.651 176.167 L
1633.953 176.167 L
1638.833 169.5 L
1633.953 162.833 L
S
GR
GS
[0.75 0 0 0.75 0 0.5] CT
1 GC
N
1710.953 144.833 M
1718.651 144.833 L
1722.5 138.167 L
1726.349 144.833 L
1734.047 144.833 L
1729.167 151.5 L
1734.047 158.167 L
1726.349 158.167 L
1722.5 164.833 L
1718.651 158.167 L
1710.953 158.167 L
1715.833 151.5 L
1710.953 144.833 L
cp
f
GR
GS
[0.75 0 0 0.75 0 0.5] CT
2 setlinecap
10.0 ML
2.667 LW
N
1710.953 144.833 M
1718.651 144.833 L
1722.5 138.167 L
1726.349 144.833 L
1734.047 144.833 L
1729.167 151.5 L
1734.047 158.167 L
1726.349 158.167 L
1722.5 164.833 L
1718.651 158.167 L
1710.953 158.167 L
1715.833 151.5 L
1710.953 144.833 L
S
GR
GS
[0.75 0 0 0.75 0 0.5] CT
1 0 1 RC
N
260.882 827.166 M
270.118 827.166 L
265.5 819.168 L
cp
f
GR
GS
[0.75 0 0 0.75 0 0.5] CT
1 0 1 RC
2 setlinecap
10.0 ML
2.667 LW
N
260.882 827.166 M
270.118 827.166 L
265.5 819.168 L
260.882 827.166 L
S
GR
GS
[0.75 0 0 0.75 0 0.5] CT
1 0 1 RC
N
337.882 826.166 M
347.118 826.166 L
342.5 818.168 L
cp
f
GR
GS
[0.75 0 0 0.75 0 0.5] CT
1 0 1 RC
2 setlinecap
10.0 ML
2.667 LW
N
337.882 826.166 M
347.118 826.166 L
342.5 818.168 L
337.882 826.166 L
S
GR
GS
[0.75 0 0 0.75 0 0.5] CT
1 0 1 RC
N
413.882 818.166 M
423.118 818.166 L
418.5 810.168 L
cp
f
GR
GS
[0.75 0 0 0.75 0 0.5] CT
1 0 1 RC
2 setlinecap
10.0 ML
2.667 LW
N
413.882 818.166 M
423.118 818.166 L
418.5 810.168 L
413.882 818.166 L
S
GR
GS
[0.75 0 0 0.75 0 0.5] CT
1 0 1 RC
N
490.882 795.166 M
500.118 795.166 L
495.5 787.168 L
cp
f
GR
GS
[0.75 0 0 0.75 0 0.5] CT
1 0 1 RC
2 setlinecap
10.0 ML
2.667 LW
N
490.882 795.166 M
500.118 795.166 L
495.5 787.168 L
490.882 795.166 L
S
GR
GS
[0.75 0 0 0.75 0 0.5] CT
1 0 1 RC
N
567.883 753.166 M
577.117 753.166 L
572.5 745.168 L
cp
f
GR
GS
[0.75 0 0 0.75 0 0.5] CT
1 0 1 RC
2 setlinecap
10.0 ML
2.667 LW
N
567.883 753.166 M
577.117 753.166 L
572.5 745.168 L
567.883 753.166 L
S
GR
GS
[0.75 0 0 0.75 0 0.5] CT
1 0 1 RC
N
643.883 695.166 M
653.117 695.166 L
648.5 687.168 L
cp
f
GR
GS
[0.75 0 0 0.75 0 0.5] CT
1 0 1 RC
2 setlinecap
10.0 ML
2.667 LW
N
643.883 695.166 M
653.117 695.166 L
648.5 687.168 L
643.883 695.166 L
S
GR
GS
[0.75 0 0 0.75 0 0.5] CT
1 0 1 RC
N
720.883 633.166 M
730.117 633.166 L
725.5 625.168 L
cp
f
GR
GS
[0.75 0 0 0.75 0 0.5] CT
1 0 1 RC
2 setlinecap
10.0 ML
2.667 LW
N
720.883 633.166 M
730.117 633.166 L
725.5 625.168 L
720.883 633.166 L
S
GR
GS
[0.75 0 0 0.75 0 0.5] CT
1 0 1 RC
N
797.883 575.166 M
807.117 575.166 L
802.5 567.168 L
cp
f
GR
GS
[0.75 0 0 0.75 0 0.5] CT
1 0 1 RC
2 setlinecap
10.0 ML
2.667 LW
N
797.883 575.166 M
807.117 575.166 L
802.5 567.168 L
797.883 575.166 L
S
GR
GS
[0.75 0 0 0.75 0 0.5] CT
1 0 1 RC
N
873.883 515.166 M
883.117 515.166 L
878.5 507.168 L
cp
f
GR
GS
[0.75 0 0 0.75 0 0.5] CT
1 0 1 RC
2 setlinecap
10.0 ML
2.667 LW
N
873.883 515.166 M
883.117 515.166 L
878.5 507.168 L
873.883 515.166 L
S
GR
GS
[0.75 0 0 0.75 0 0.5] CT
1 0 1 RC
N
950.883 463.166 M
960.117 463.166 L
955.5 455.168 L
cp
f
GR
GS
[0.75 0 0 0.75 0 0.5] CT
1 0 1 RC
2 setlinecap
10.0 ML
2.667 LW
N
950.883 463.166 M
960.117 463.166 L
955.5 455.168 L
950.883 463.166 L
S
GR
GS
[0.75 0 0 0.75 0 0.5] CT
1 0 1 RC
N
1027.882 420.166 M
1037.118 420.166 L
1032.5 412.168 L
cp
f
GR
GS
[0.75 0 0 0.75 0 0.5] CT
1 0 1 RC
2 setlinecap
10.0 ML
2.667 LW
N
1027.882 420.166 M
1037.118 420.166 L
1032.5 412.168 L
1027.882 420.166 L
S
GR
GS
[0.75 0 0 0.75 0 0.5] CT
1 0 1 RC
N
1104.882 378.166 M
1114.118 378.166 L
1109.5 370.168 L
cp
f
GR
GS
[0.75 0 0 0.75 0 0.5] CT
1 0 1 RC
2 setlinecap
10.0 ML
2.667 LW
N
1104.882 378.166 M
1114.118 378.166 L
1109.5 370.168 L
1104.882 378.166 L
S
GR
GS
[0.75 0 0 0.75 0 0.5] CT
1 0 1 RC
N
1180.882 340.166 M
1190.118 340.166 L
1185.5 332.168 L
cp
f
GR
GS
[0.75 0 0 0.75 0 0.5] CT
1 0 1 RC
2 setlinecap
10.0 ML
2.667 LW
N
1180.882 340.166 M
1190.118 340.166 L
1185.5 332.168 L
1180.882 340.166 L
S
GR
GS
[0.75 0 0 0.75 0 0.5] CT
1 0 1 RC
N
1257.882 302.166 M
1267.118 302.166 L
1262.5 294.168 L
cp
f
GR
GS
[0.75 0 0 0.75 0 0.5] CT
1 0 1 RC
2 setlinecap
10.0 ML
2.667 LW
N
1257.882 302.166 M
1267.118 302.166 L
1262.5 294.168 L
1257.882 302.166 L
S
GR
GS
[0.75 0 0 0.75 0 0.5] CT
1 0 1 RC
N
1334.882 267.166 M
1344.118 267.166 L
1339.5 259.168 L
cp
f
GR
GS
[0.75 0 0 0.75 0 0.5] CT
1 0 1 RC
2 setlinecap
10.0 ML
2.667 LW
N
1334.882 267.166 M
1344.118 267.166 L
1339.5 259.168 L
1334.882 267.166 L
S
GR
GS
[0.75 0 0 0.75 0 0.5] CT
1 0 1 RC
N
1410.882 243.166 M
1420.118 243.166 L
1415.5 235.168 L
cp
f
GR
GS
[0.75 0 0 0.75 0 0.5] CT
1 0 1 RC
2 setlinecap
10.0 ML
2.667 LW
N
1410.882 243.166 M
1420.118 243.166 L
1415.5 235.168 L
1410.882 243.166 L
S
GR
GS
[0.75 0 0 0.75 0 0.5] CT
1 0 1 RC
N
1487.882 218.166 M
1497.118 218.166 L
1492.5 210.168 L
cp
f
GR
GS
[0.75 0 0 0.75 0 0.5] CT
1 0 1 RC
2 setlinecap
10.0 ML
2.667 LW
N
1487.882 218.166 M
1497.118 218.166 L
1492.5 210.168 L
1487.882 218.166 L
S
GR
GS
[0.75 0 0 0.75 0 0.5] CT
1 0 1 RC
N
1564.882 199.166 M
1574.118 199.166 L
1569.5 191.168 L
cp
f
GR
GS
[0.75 0 0 0.75 0 0.5] CT
1 0 1 RC
2 setlinecap
10.0 ML
2.667 LW
N
1564.882 199.166 M
1574.118 199.166 L
1569.5 191.168 L
1564.882 199.166 L
S
GR
GS
[0.75 0 0 0.75 0 0.5] CT
1 0 1 RC
N
1640.882 172.166 M
1650.118 172.166 L
1645.5 164.168 L
cp
f
GR
GS
[0.75 0 0 0.75 0 0.5] CT
1 0 1 RC
2 setlinecap
10.0 ML
2.667 LW
N
1640.882 172.166 M
1650.118 172.166 L
1645.5 164.168 L
1640.882 172.166 L
S
GR
GS
[0.75 0 0 0.75 0 0.5] CT
1 0 1 RC
N
1717.882 154.166 M
1727.118 154.166 L
1722.5 146.168 L
cp
f
GR
GS
[0.75 0 0 0.75 0 0.5] CT
1 0 1 RC
2 setlinecap
10.0 ML
2.667 LW
N
1717.882 154.166 M
1727.118 154.166 L
1722.5 146.168 L
1717.882 154.166 L
S
GR
GS
[0.75 0 0 0.75 0 0.5] CT
[10 6] 0 setdash
2 LJ
N
265.34 824.5 M
342.041 824.5 L
418.742 824.5 L
495.443 824.5 L
572.144 824.486 L
648.845 824.17 L
725.546 823.038 L
802.247 819.369 L
878.948 813.277 L
955.649 801.036 L
1032.35 783.421 L
1109.052 762.25 L
1185.753 737.067 L
1262.454 704.2 L
1339.155 669.714 L
1415.856 637.823 L
1492.557 603.208 L
1569.258 579.386 L
1645.959 538.005 L
1722.66 514.341 L
S
GR
GS
[0.75 0 0 0.75 0 0.5] CT
0 0.4 0.988 RC
2 setlinecap
10.0 ML
2.667 LW
N
277.5 824.5 M
276.587 819.908 L
273.985 816.015 L
270.092 813.413 L
265.5 812.5 L
260.908 813.413 L
257.015 816.015 L
254.413 819.908 L
253.5 824.5 L
254.413 829.092 L
257.015 832.985 L
260.908 835.587 L
265.5 836.5 L
270.092 835.587 L
273.985 832.985 L
276.587 829.092 L
277.5 824.5 L
S
GR
GS
[0.75 0 0 0.75 0 0.5] CT
0 0.4 0.988 RC
2 setlinecap
10.0 ML
2.667 LW
N
354.5 824.5 M
353.587 819.908 L
350.985 816.015 L
347.092 813.413 L
342.5 812.5 L
337.908 813.413 L
334.015 816.015 L
331.413 819.908 L
330.5 824.5 L
331.413 829.092 L
334.015 832.985 L
337.908 835.587 L
342.5 836.5 L
347.092 835.587 L
350.985 832.985 L
353.587 829.092 L
354.5 824.5 L
S
GR
GS
[0.75 0 0 0.75 0 0.5] CT
0 0.4 0.988 RC
2 setlinecap
10.0 ML
2.667 LW
N
430.5 824.5 M
429.587 819.908 L
426.985 816.015 L
423.092 813.413 L
418.5 812.5 L
413.908 813.413 L
410.015 816.015 L
407.413 819.908 L
406.5 824.5 L
407.413 829.092 L
410.015 832.985 L
413.908 835.587 L
418.5 836.5 L
423.092 835.587 L
426.985 832.985 L
429.587 829.092 L
430.5 824.5 L
S
GR
GS
[0.75 0 0 0.75 0 0.5] CT
0 0.4 0.988 RC
2 setlinecap
10.0 ML
2.667 LW
N
507.5 824.5 M
506.587 819.908 L
503.985 816.015 L
500.092 813.413 L
495.5 812.5 L
490.908 813.413 L
487.015 816.015 L
484.413 819.908 L
483.5 824.5 L
484.413 829.092 L
487.015 832.985 L
490.908 835.587 L
495.5 836.5 L
500.092 835.587 L
503.985 832.985 L
506.587 829.092 L
507.5 824.5 L
S
GR
GS
[0.75 0 0 0.75 0 0.5] CT
0 0.4 0.988 RC
2 setlinecap
10.0 ML
2.667 LW
N
584.5 824.5 M
583.587 819.908 L
580.985 816.015 L
577.092 813.413 L
572.5 812.5 L
567.908 813.413 L
564.015 816.015 L
561.413 819.908 L
560.5 824.5 L
561.413 829.092 L
564.015 832.985 L
567.908 835.587 L
572.5 836.5 L
577.092 835.587 L
580.985 832.985 L
583.587 829.092 L
584.5 824.5 L
S
GR
GS
[0.75 0 0 0.75 0 0.5] CT
0 0.4 0.988 RC
2 setlinecap
10.0 ML
2.667 LW
N
660.5 823.5 M
659.587 818.908 L
656.985 815.015 L
653.092 812.413 L
648.5 811.5 L
643.908 812.413 L
640.015 815.015 L
637.413 818.908 L
636.5 823.5 L
637.413 828.092 L
640.015 831.985 L
643.908 834.587 L
648.5 835.5 L
653.092 834.587 L
656.985 831.985 L
659.587 828.092 L
660.5 823.5 L
S
GR
GS
[0.75 0 0 0.75 0 0.5] CT
0 0.4 0.988 RC
2 setlinecap
10.0 ML
2.667 LW
N
737.5 822.5 M
736.587 817.908 L
733.985 814.015 L
730.092 811.413 L
725.5 810.5 L
720.908 811.413 L
717.015 814.015 L
714.413 817.908 L
713.5 822.5 L
714.413 827.092 L
717.015 830.985 L
720.908 833.587 L
725.5 834.5 L
730.092 833.587 L
733.985 830.985 L
736.587 827.092 L
737.5 822.5 L
S
GR
GS
[0.75 0 0 0.75 0 0.5] CT
0 0.4 0.988 RC
2 setlinecap
10.0 ML
2.667 LW
N
814.5 818.5 M
813.587 813.908 L
810.985 810.015 L
807.092 807.413 L
802.5 806.5 L
797.908 807.413 L
794.015 810.015 L
791.413 813.908 L
790.5 818.5 L
791.413 823.092 L
794.015 826.985 L
797.908 829.587 L
802.5 830.5 L
807.092 829.587 L
810.985 826.985 L
813.587 823.092 L
814.5 818.5 L
S
GR
GS
[0.75 0 0 0.75 0 0.5] CT
0 0.4 0.988 RC
2 setlinecap
10.0 ML
2.667 LW
N
890.5 812.5 M
889.587 807.908 L
886.985 804.015 L
883.092 801.413 L
878.5 800.5 L
873.908 801.413 L
870.015 804.015 L
867.413 807.908 L
866.5 812.5 L
867.413 817.092 L
870.015 820.985 L
873.908 823.587 L
878.5 824.5 L
883.092 823.587 L
886.985 820.985 L
889.587 817.092 L
890.5 812.5 L
S
GR
GS
[0.75 0 0 0.75 0 0.5] CT
0 0.4 0.988 RC
2 setlinecap
10.0 ML
2.667 LW
N
967.5 798.5 M
966.587 793.908 L
963.985 790.015 L
960.092 787.413 L
955.5 786.5 L
950.908 787.413 L
947.015 790.015 L
944.413 793.908 L
943.5 798.5 L
944.413 803.092 L
947.015 806.985 L
950.908 809.587 L
955.5 810.5 L
960.092 809.587 L
963.985 806.985 L
966.587 803.092 L
967.5 798.5 L
S
GR
GS
[0.75 0 0 0.75 0 0.5] CT
0 0.4 0.988 RC
2 setlinecap
10.0 ML
2.667 LW
N
1044.5 781.5 M
1043.587 776.908 L
1040.985 773.015 L
1037.092 770.413 L
1032.5 769.5 L
1027.908 770.413 L
1024.015 773.015 L
1021.413 776.908 L
1020.5 781.5 L
1021.413 786.092 L
1024.015 789.985 L
1027.908 792.587 L
1032.5 793.5 L
1037.092 792.587 L
1040.985 789.985 L
1043.587 786.092 L
1044.5 781.5 L
S
GR
GS
[0.75 0 0 0.75 0 0.5] CT
0 0.4 0.988 RC
2 setlinecap
10.0 ML
2.667 LW
N
1121.5 759.5 M
1120.587 754.908 L
1117.985 751.015 L
1114.092 748.413 L
1109.5 747.5 L
1104.908 748.413 L
1101.015 751.015 L
1098.413 754.908 L
1097.5 759.5 L
1098.413 764.092 L
1101.015 767.985 L
1104.908 770.587 L
1109.5 771.5 L
1114.092 770.587 L
1117.985 767.985 L
1120.587 764.092 L
1121.5 759.5 L
S
GR
GS
[0.75 0 0 0.75 0 0.5] CT
0 0.4 0.988 RC
2 setlinecap
10.0 ML
2.667 LW
N
1197.5 733.5 M
1196.587 728.908 L
1193.985 725.015 L
1190.092 722.413 L
1185.5 721.5 L
1180.908 722.413 L
1177.015 725.015 L
1174.413 728.908 L
1173.5 733.5 L
1174.413 738.092 L
1177.015 741.985 L
1180.908 744.587 L
1185.5 745.5 L
1190.092 744.587 L
1193.985 741.985 L
1196.587 738.092 L
1197.5 733.5 L
S
GR
GS
[0.75 0 0 0.75 0 0.5] CT
0 0.4 0.988 RC
2 setlinecap
10.0 ML
2.667 LW
N
1274.5 700.5 M
1273.587 695.908 L
1270.985 692.015 L
1267.092 689.413 L
1262.5 688.5 L
1257.908 689.413 L
1254.015 692.015 L
1251.413 695.908 L
1250.5 700.5 L
1251.413 705.092 L
1254.015 708.985 L
1257.908 711.587 L
1262.5 712.5 L
1267.092 711.587 L
1270.985 708.985 L
1273.587 705.092 L
1274.5 700.5 L
S
GR
GS
[0.75 0 0 0.75 0 0.5] CT
0 0.4 0.988 RC
2 setlinecap
10.0 ML
2.667 LW
N
1351.5 666.5 M
1350.587 661.908 L
1347.985 658.015 L
1344.092 655.413 L
1339.5 654.5 L
1334.908 655.413 L
1331.015 658.015 L
1328.413 661.908 L
1327.5 666.5 L
1328.413 671.092 L
1331.015 674.985 L
1334.908 677.587 L
1339.5 678.5 L
1344.092 677.587 L
1347.985 674.985 L
1350.587 671.092 L
1351.5 666.5 L
S
GR
GS
[0.75 0 0 0.75 0 0.5] CT
0 0.4 0.988 RC
2 setlinecap
10.0 ML
2.667 LW
N
1427.5 635.5 M
1426.587 630.908 L
1423.985 627.015 L
1420.092 624.413 L
1415.5 623.5 L
1410.908 624.413 L
1407.015 627.015 L
1404.413 630.908 L
1403.5 635.5 L
1404.413 640.092 L
1407.015 643.985 L
1410.908 646.587 L
1415.5 647.5 L
1420.092 646.587 L
1423.985 643.985 L
1426.587 640.092 L
1427.5 635.5 L
S
GR
GS
[0.75 0 0 0.75 0 0.5] CT
0 0.4 0.988 RC
2 setlinecap
10.0 ML
2.667 LW
N
1504.5 600.5 M
1503.587 595.908 L
1500.985 592.015 L
1497.092 589.413 L
1492.5 588.5 L
1487.908 589.413 L
1484.015 592.015 L
1481.413 595.908 L
1480.5 600.5 L
1481.413 605.092 L
1484.015 608.985 L
1487.908 611.587 L
1492.5 612.5 L
1497.092 611.587 L
1500.985 608.985 L
1503.587 605.092 L
1504.5 600.5 L
S
GR
GS
[0.75 0 0 0.75 0 0.5] CT
0 0.4 0.988 RC
2 setlinecap
10.0 ML
2.667 LW
N
1581.5 576.5 M
1580.587 571.908 L
1577.985 568.015 L
1574.092 565.413 L
1569.5 564.5 L
1564.908 565.413 L
1561.015 568.015 L
1558.413 571.908 L
1557.5 576.5 L
1558.413 581.092 L
1561.015 584.985 L
1564.908 587.587 L
1569.5 588.5 L
1574.092 587.587 L
1577.985 584.985 L
1580.587 581.092 L
1581.5 576.5 L
S
GR
GS
[0.75 0 0 0.75 0 0.5] CT
0 0.4 0.988 RC
2 setlinecap
10.0 ML
2.667 LW
N
1657.5 535.5 M
1656.587 530.908 L
1653.985 527.015 L
1650.092 524.413 L
1645.5 523.5 L
1640.908 524.413 L
1637.015 527.015 L
1634.413 530.908 L
1633.5 535.5 L
1634.413 540.092 L
1637.015 543.985 L
1640.908 546.587 L
1645.5 547.5 L
1650.092 546.587 L
1653.985 543.985 L
1656.587 540.092 L
1657.5 535.5 L
S
GR
GS
[0.75 0 0 0.75 0 0.5] CT
0 0.4 0.988 RC
2 setlinecap
10.0 ML
2.667 LW
N
1734.5 512.5 M
1733.587 507.908 L
1730.985 504.015 L
1727.092 501.413 L
1722.5 500.5 L
1717.908 501.413 L
1714.015 504.015 L
1711.413 507.908 L
1710.5 512.5 L
1711.413 517.092 L
1714.015 520.985 L
1717.908 523.587 L
1722.5 524.5 L
1727.092 523.587 L
1730.985 520.985 L
1733.587 517.092 L
1734.5 512.5 L
S
GR
GS
[0.75 0 0 0.75 0 0.5] CT
1 GC
N
259.26 830.74 M
259.26 818.26 L
271.74 818.26 L
271.74 830.74 L
cp
f
GR
GS
[0.75 0 0 0.75 0 0.5] CT
0 0.502 0 RC
2 setlinecap
10.0 ML
2.667 LW
N
259.26 830.74 M
259.26 818.26 L
271.74 818.26 L
271.74 830.74 L
259.26 830.74 L
S
GR
GS
[0.75 0 0 0.75 0 0.5] CT
1 GC
N
336.26 830.74 M
336.26 818.26 L
348.74 818.26 L
348.74 830.74 L
cp
f
GR
GS
[0.75 0 0 0.75 0 0.5] CT
0 0.502 0 RC
2 setlinecap
10.0 ML
2.667 LW
N
336.26 830.74 M
336.26 818.26 L
348.74 818.26 L
348.74 830.74 L
336.26 830.74 L
S
GR
GS
[0.75 0 0 0.75 0 0.5] CT
1 GC
N
412.26 830.74 M
412.26 818.26 L
424.74 818.26 L
424.74 830.74 L
cp
f
GR
GS
[0.75 0 0 0.75 0 0.5] CT
0 0.502 0 RC
2 setlinecap
10.0 ML
2.667 LW
N
412.26 830.74 M
412.26 818.26 L
424.74 818.26 L
424.74 830.74 L
412.26 830.74 L
S
GR
GS
[0.75 0 0 0.75 0 0.5] CT
1 GC
N
489.26 830.74 M
489.26 818.26 L
501.74 818.26 L
501.74 830.74 L
cp
f
GR
GS
[0.75 0 0 0.75 0 0.5] CT
0 0.502 0 RC
2 setlinecap
10.0 ML
2.667 LW
N
489.26 830.74 M
489.26 818.26 L
501.74 818.26 L
501.74 830.74 L
489.26 830.74 L
S
GR
GS
[0.75 0 0 0.75 0 0.5] CT
1 GC
N
566.26 830.74 M
566.26 818.26 L
578.74 818.26 L
578.74 830.74 L
cp
f
GR
GS
[0.75 0 0 0.75 0 0.5] CT
0 0.502 0 RC
2 setlinecap
10.0 ML
2.667 LW
N
566.26 830.74 M
566.26 818.26 L
578.74 818.26 L
578.74 830.74 L
566.26 830.74 L
S
GR
GS
[0.75 0 0 0.75 0 0.5] CT
1 GC
N
642.26 830.74 M
642.26 818.26 L
654.74 818.26 L
654.74 830.74 L
cp
f
GR
GS
[0.75 0 0 0.75 0 0.5] CT
0 0.502 0 RC
2 setlinecap
10.0 ML
2.667 LW
N
642.26 830.74 M
642.26 818.26 L
654.74 818.26 L
654.74 830.74 L
642.26 830.74 L
S
GR
GS
[0.75 0 0 0.75 0 0.5] CT
1 GC
N
719.26 829.74 M
719.26 817.26 L
731.74 817.26 L
731.74 829.74 L
cp
f
GR
GS
[0.75 0 0 0.75 0 0.5] CT
0 0.502 0 RC
2 setlinecap
10.0 ML
2.667 LW
N
719.26 829.74 M
719.26 817.26 L
731.74 817.26 L
731.74 829.74 L
719.26 829.74 L
S
GR
GS
[0.75 0 0 0.75 0 0.5] CT
1 GC
N
796.26 825.74 M
796.26 813.26 L
808.74 813.26 L
808.74 825.74 L
cp
f
GR
GS
[0.75 0 0 0.75 0 0.5] CT
0 0.502 0 RC
2 setlinecap
10.0 ML
2.667 LW
N
796.26 825.74 M
796.26 813.26 L
808.74 813.26 L
808.74 825.74 L
796.26 825.74 L
S
GR
GS
[0.75 0 0 0.75 0 0.5] CT
1 GC
N
872.26 819.74 M
872.26 807.26 L
884.74 807.26 L
884.74 819.74 L
cp
f
GR
GS
[0.75 0 0 0.75 0 0.5] CT
0 0.502 0 RC
2 setlinecap
10.0 ML
2.667 LW
N
872.26 819.74 M
872.26 807.26 L
884.74 807.26 L
884.74 819.74 L
872.26 819.74 L
S
GR
GS
[0.75 0 0 0.75 0 0.5] CT
1 GC
N
949.26 807.74 M
949.26 795.26 L
961.74 795.26 L
961.74 807.74 L
cp
f
GR
GS
[0.75 0 0 0.75 0 0.5] CT
0 0.502 0 RC
2 setlinecap
10.0 ML
2.667 LW
N
949.26 807.74 M
949.26 795.26 L
961.74 795.26 L
961.74 807.74 L
949.26 807.74 L
S
GR
GS
[0.75 0 0 0.75 0 0.5] CT
1 GC
N
1026.26 789.74 M
1026.26 777.26 L
1038.74 777.26 L
1038.74 789.74 L
cp
f
GR
GS
[0.75 0 0 0.75 0 0.5] CT
0 0.502 0 RC
2 setlinecap
10.0 ML
2.667 LW
N
1026.26 789.74 M
1026.26 777.26 L
1038.74 777.26 L
1038.74 789.74 L
1026.26 789.74 L
S
GR
GS
[0.75 0 0 0.75 0 0.5] CT
1 GC
N
1103.26 768.74 M
1103.26 756.26 L
1115.74 756.26 L
1115.74 768.74 L
cp
f
GR
GS
[0.75 0 0 0.75 0 0.5] CT
0 0.502 0 RC
2 setlinecap
10.0 ML
2.667 LW
N
1103.26 768.74 M
1103.26 756.26 L
1115.74 756.26 L
1115.74 768.74 L
1103.26 768.74 L
S
GR
GS
[0.75 0 0 0.75 0 0.5] CT
1 GC
N
1179.26 743.74 M
1179.26 731.26 L
1191.74 731.26 L
1191.74 743.74 L
cp
f
GR
GS
[0.75 0 0 0.75 0 0.5] CT
0 0.502 0 RC
2 setlinecap
10.0 ML
2.667 LW
N
1179.26 743.74 M
1179.26 731.26 L
1191.74 731.26 L
1191.74 743.74 L
1179.26 743.74 L
S
GR
GS
[0.75 0 0 0.75 0 0.5] CT
1 GC
N
1256.26 710.74 M
1256.26 698.26 L
1268.74 698.26 L
1268.74 710.74 L
cp
f
GR
GS
[0.75 0 0 0.75 0 0.5] CT
0 0.502 0 RC
2 setlinecap
10.0 ML
2.667 LW
N
1256.26 710.74 M
1256.26 698.26 L
1268.74 698.26 L
1268.74 710.74 L
1256.26 710.74 L
S
GR
GS
[0.75 0 0 0.75 0 0.5] CT
1 GC
N
1333.26 675.74 M
1333.26 663.26 L
1345.74 663.26 L
1345.74 675.74 L
cp
f
GR
GS
[0.75 0 0 0.75 0 0.5] CT
0 0.502 0 RC
2 setlinecap
10.0 ML
2.667 LW
N
1333.26 675.74 M
1333.26 663.26 L
1345.74 663.26 L
1345.74 675.74 L
1333.26 675.74 L
S
GR
GS
[0.75 0 0 0.75 0 0.5] CT
1 GC
N
1409.26 643.74 M
1409.26 631.26 L
1421.74 631.26 L
1421.74 643.74 L
cp
f
GR
GS
[0.75 0 0 0.75 0 0.5] CT
0 0.502 0 RC
2 setlinecap
10.0 ML
2.667 LW
N
1409.26 643.74 M
1409.26 631.26 L
1421.74 631.26 L
1421.74 643.74 L
1409.26 643.74 L
S
GR
GS
[0.75 0 0 0.75 0 0.5] CT
1 GC
N
1486.26 609.74 M
1486.26 597.26 L
1498.74 597.26 L
1498.74 609.74 L
cp
f
GR
GS
[0.75 0 0 0.75 0 0.5] CT
0 0.502 0 RC
2 setlinecap
10.0 ML
2.667 LW
N
1486.26 609.74 M
1486.26 597.26 L
1498.74 597.26 L
1498.74 609.74 L
1486.26 609.74 L
S
GR
GS
[0.75 0 0 0.75 0 0.5] CT
1 GC
N
1563.26 585.74 M
1563.26 573.26 L
1575.74 573.26 L
1575.74 585.74 L
cp
f
GR
GS
[0.75 0 0 0.75 0 0.5] CT
0 0.502 0 RC
2 setlinecap
10.0 ML
2.667 LW
N
1563.26 585.74 M
1563.26 573.26 L
1575.74 573.26 L
1575.74 585.74 L
1563.26 585.74 L
S
GR
GS
[0.75 0 0 0.75 0 0.5] CT
1 GC
N
1639.26 544.74 M
1639.26 532.26 L
1651.74 532.26 L
1651.74 544.74 L
cp
f
GR
GS
[0.75 0 0 0.75 0 0.5] CT
0 0.502 0 RC
2 setlinecap
10.0 ML
2.667 LW
N
1639.26 544.74 M
1639.26 532.26 L
1651.74 532.26 L
1651.74 544.74 L
1639.26 544.74 L
S
GR
GS
[0.75 0 0 0.75 0 0.5] CT
1 GC
N
1716.26 520.74 M
1716.26 508.26 L
1728.74 508.26 L
1728.74 520.74 L
cp
f
GR
GS
[0.75 0 0 0.75 0 0.5] CT
0 0.502 0 RC
2 setlinecap
10.0 ML
2.667 LW
N
1716.26 520.74 M
1716.26 508.26 L
1728.74 508.26 L
1728.74 520.74 L
1716.26 520.74 L
S
GR
GS
[0.75 0 0 0.75 0 0.5] CT
1 0 0 RC
2 setlinecap
10.0 ML
1.333 LW
N
261 824.5 M
270 824.5 L
S
GR
GS
[0.75 0 0 0.75 0 0.5] CT
1 0 0 RC
2 setlinecap
10.0 ML
1.333 LW
N
265.5 829 M
265.5 820 L
S
GR
GS
[0.75 0 0 0.75 0 0.5] CT
1 0 0 RC
2 setlinecap
10.0 ML
1.333 LW
N
262 828 M
269 821 L
S
GR
GS
[0.75 0 0 0.75 0 0.5] CT
1 0 0 RC
2 setlinecap
10.0 ML
1.333 LW
N
262 821 M
269 828 L
S
GR
GS
[0.75 0 0 0.75 0 0.5] CT
1 0 0 RC
2 setlinecap
10.0 ML
1.333 LW
N
338 824.5 M
347 824.5 L
S
GR
GS
[0.75 0 0 0.75 0 0.5] CT
1 0 0 RC
2 setlinecap
10.0 ML
1.333 LW
N
342.5 829 M
342.5 820 L
S
GR
GS
[0.75 0 0 0.75 0 0.5] CT
1 0 0 RC
2 setlinecap
10.0 ML
1.333 LW
N
339 828 M
346 821 L
S
GR
GS
[0.75 0 0 0.75 0 0.5] CT
1 0 0 RC
2 setlinecap
10.0 ML
1.333 LW
N
339 821 M
346 828 L
S
GR
GS
[0.75 0 0 0.75 0 0.5] CT
1 0 0 RC
2 setlinecap
10.0 ML
1.333 LW
N
414 824.5 M
423 824.5 L
S
GR
GS
[0.75 0 0 0.75 0 0.5] CT
1 0 0 RC
2 setlinecap
10.0 ML
1.333 LW
N
418.5 829 M
418.5 820 L
S
GR
GS
[0.75 0 0 0.75 0 0.5] CT
1 0 0 RC
2 setlinecap
10.0 ML
1.333 LW
N
415 828 M
422 821 L
S
GR
GS
[0.75 0 0 0.75 0 0.5] CT
1 0 0 RC
2 setlinecap
10.0 ML
1.333 LW
N
415 821 M
422 828 L
S
GR
GS
[0.75 0 0 0.75 0 0.5] CT
1 0 0 RC
2 setlinecap
10.0 ML
1.333 LW
N
491 824.5 M
500 824.5 L
S
GR
GS
[0.75 0 0 0.75 0 0.5] CT
1 0 0 RC
2 setlinecap
10.0 ML
1.333 LW
N
495.5 829 M
495.5 820 L
S
GR
GS
[0.75 0 0 0.75 0 0.5] CT
1 0 0 RC
2 setlinecap
10.0 ML
1.333 LW
N
492 828 M
499 821 L
S
GR
GS
[0.75 0 0 0.75 0 0.5] CT
1 0 0 RC
2 setlinecap
10.0 ML
1.333 LW
N
492 821 M
499 828 L
S
GR
GS
[0.75 0 0 0.75 0 0.5] CT
1 0 0 RC
2 setlinecap
10.0 ML
1.333 LW
N
568 824.5 M
577 824.5 L
S
GR
GS
[0.75 0 0 0.75 0 0.5] CT
1 0 0 RC
2 setlinecap
10.0 ML
1.333 LW
N
572.5 829 M
572.5 820 L
S
GR
GS
[0.75 0 0 0.75 0 0.5] CT
1 0 0 RC
2 setlinecap
10.0 ML
1.333 LW
N
569 828 M
576 821 L
S
GR
GS
[0.75 0 0 0.75 0 0.5] CT
1 0 0 RC
2 setlinecap
10.0 ML
1.333 LW
N
569 821 M
576 828 L
S
GR
GS
[0.75 0 0 0.75 0 0.5] CT
1 0 0 RC
2 setlinecap
10.0 ML
1.333 LW
N
644 824.5 M
653 824.5 L
S
GR
GS
[0.75 0 0 0.75 0 0.5] CT
1 0 0 RC
2 setlinecap
10.0 ML
1.333 LW
N
648.5 829 M
648.5 820 L
S
GR
GS
[0.75 0 0 0.75 0 0.5] CT
1 0 0 RC
2 setlinecap
10.0 ML
1.333 LW
N
645 828 M
652 821 L
S
GR
GS
[0.75 0 0 0.75 0 0.5] CT
1 0 0 RC
2 setlinecap
10.0 ML
1.333 LW
N
645 821 M
652 828 L
S
GR
GS
[0.75 0 0 0.75 0 0.5] CT
1 0 0 RC
2 setlinecap
10.0 ML
1.333 LW
N
721 823.5 M
730 823.5 L
S
GR
GS
[0.75 0 0 0.75 0 0.5] CT
1 0 0 RC
2 setlinecap
10.0 ML
1.333 LW
N
725.5 828 M
725.5 819 L
S
GR
GS
[0.75 0 0 0.75 0 0.5] CT
1 0 0 RC
2 setlinecap
10.0 ML
1.333 LW
N
722 827 M
729 820 L
S
GR
GS
[0.75 0 0 0.75 0 0.5] CT
1 0 0 RC
2 setlinecap
10.0 ML
1.333 LW
N
722 820 M
729 827 L
S
GR
GS
[0.75 0 0 0.75 0 0.5] CT
1 0 0 RC
2 setlinecap
10.0 ML
1.333 LW
N
798 819.5 M
807 819.5 L
S
GR
GS
[0.75 0 0 0.75 0 0.5] CT
1 0 0 RC
2 setlinecap
10.0 ML
1.333 LW
N
802.5 824 M
802.5 815 L
S
GR
GS
[0.75 0 0 0.75 0 0.5] CT
1 0 0 RC
2 setlinecap
10.0 ML
1.333 LW
N
799 823 M
806 816 L
S
GR
GS
[0.75 0 0 0.75 0 0.5] CT
1 0 0 RC
2 setlinecap
10.0 ML
1.333 LW
N
799 816 M
806 823 L
S
GR
GS
[0.75 0 0 0.75 0 0.5] CT
1 0 0 RC
2 setlinecap
10.0 ML
1.333 LW
N
874 813.5 M
883 813.5 L
S
GR
GS
[0.75 0 0 0.75 0 0.5] CT
1 0 0 RC
2 setlinecap
10.0 ML
1.333 LW
N
878.5 818 M
878.5 809 L
S
GR
GS
[0.75 0 0 0.75 0 0.5] CT
1 0 0 RC
2 setlinecap
10.0 ML
1.333 LW
N
875 817 M
882 810 L
S
GR
GS
[0.75 0 0 0.75 0 0.5] CT
1 0 0 RC
2 setlinecap
10.0 ML
1.333 LW
N
875 810 M
882 817 L
S
GR
GS
[0.75 0 0 0.75 0 0.5] CT
1 0 0 RC
2 setlinecap
10.0 ML
1.333 LW
N
951 801.5 M
960 801.5 L
S
GR
GS
[0.75 0 0 0.75 0 0.5] CT
1 0 0 RC
2 setlinecap
10.0 ML
1.333 LW
N
955.5 806 M
955.5 797 L
S
GR
GS
[0.75 0 0 0.75 0 0.5] CT
1 0 0 RC
2 setlinecap
10.0 ML
1.333 LW
N
952 805 M
959 798 L
S
GR
GS
[0.75 0 0 0.75 0 0.5] CT
1 0 0 RC
2 setlinecap
10.0 ML
1.333 LW
N
952 798 M
959 805 L
S
GR
GS
[0.75 0 0 0.75 0 0.5] CT
1 0 0 RC
2 setlinecap
10.0 ML
1.333 LW
N
1028 783.5 M
1037 783.5 L
S
GR
GS
[0.75 0 0 0.75 0 0.5] CT
1 0 0 RC
2 setlinecap
10.0 ML
1.333 LW
N
1032.5 788 M
1032.5 779 L
S
GR
GS
[0.75 0 0 0.75 0 0.5] CT
1 0 0 RC
2 setlinecap
10.0 ML
1.333 LW
N
1029 787 M
1036 780 L
S
GR
GS
[0.75 0 0 0.75 0 0.5] CT
1 0 0 RC
2 setlinecap
10.0 ML
1.333 LW
N
1029 780 M
1036 787 L
S
GR
GS
[0.75 0 0 0.75 0 0.5] CT
1 0 0 RC
2 setlinecap
10.0 ML
1.333 LW
N
1105 762.5 M
1114 762.5 L
S
GR
GS
[0.75 0 0 0.75 0 0.5] CT
1 0 0 RC
2 setlinecap
10.0 ML
1.333 LW
N
1109.5 767 M
1109.5 758 L
S
GR
GS
[0.75 0 0 0.75 0 0.5] CT
1 0 0 RC
2 setlinecap
10.0 ML
1.333 LW
N
1106 766 M
1113 759 L
S
GR
GS
[0.75 0 0 0.75 0 0.5] CT
1 0 0 RC
2 setlinecap
10.0 ML
1.333 LW
N
1106 759 M
1113 766 L
S
GR
GS
[0.75 0 0 0.75 0 0.5] CT
1 0 0 RC
2 setlinecap
10.0 ML
1.333 LW
N
1181 737.5 M
1190 737.5 L
S
GR
GS
[0.75 0 0 0.75 0 0.5] CT
1 0 0 RC
2 setlinecap
10.0 ML
1.333 LW
N
1185.5 742 M
1185.5 733 L
S
GR
GS
[0.75 0 0 0.75 0 0.5] CT
1 0 0 RC
2 setlinecap
10.0 ML
1.333 LW
N
1182 741 M
1189 734 L
S
GR
GS
[0.75 0 0 0.75 0 0.5] CT
1 0 0 RC
2 setlinecap
10.0 ML
1.333 LW
N
1182 734 M
1189 741 L
S
GR
GS
[0.75 0 0 0.75 0 0.5] CT
1 0 0 RC
2 setlinecap
10.0 ML
1.333 LW
N
1258 704.5 M
1267 704.5 L
S
GR
GS
[0.75 0 0 0.75 0 0.5] CT
1 0 0 RC
2 setlinecap
10.0 ML
1.333 LW
N
1262.5 709 M
1262.5 700 L
S
GR
GS
[0.75 0 0 0.75 0 0.5] CT
1 0 0 RC
2 setlinecap
10.0 ML
1.333 LW
N
1259 708 M
1266 701 L
S
GR
GS
[0.75 0 0 0.75 0 0.5] CT
1 0 0 RC
2 setlinecap
10.0 ML
1.333 LW
N
1259 701 M
1266 708 L
S
GR
GS
[0.75 0 0 0.75 0 0.5] CT
1 0 0 RC
2 setlinecap
10.0 ML
1.333 LW
N
1335 669.5 M
1344 669.5 L
S
GR
GS
[0.75 0 0 0.75 0 0.5] CT
1 0 0 RC
2 setlinecap
10.0 ML
1.333 LW
N
1339.5 674 M
1339.5 665 L
S
GR
GS
[0.75 0 0 0.75 0 0.5] CT
1 0 0 RC
2 setlinecap
10.0 ML
1.333 LW
N
1336 673 M
1343 666 L
S
GR
GS
[0.75 0 0 0.75 0 0.5] CT
1 0 0 RC
2 setlinecap
10.0 ML
1.333 LW
N
1336 666 M
1343 673 L
S
GR
GS
[0.75 0 0 0.75 0 0.5] CT
1 0 0 RC
2 setlinecap
10.0 ML
1.333 LW
N
1411 637.5 M
1420 637.5 L
S
GR
GS
[0.75 0 0 0.75 0 0.5] CT
1 0 0 RC
2 setlinecap
10.0 ML
1.333 LW
N
1415.5 642 M
1415.5 633 L
S
GR
GS
[0.75 0 0 0.75 0 0.5] CT
1 0 0 RC
2 setlinecap
10.0 ML
1.333 LW
N
1412 641 M
1419 634 L
S
GR
GS
[0.75 0 0 0.75 0 0.5] CT
1 0 0 RC
2 setlinecap
10.0 ML
1.333 LW
N
1412 634 M
1419 641 L
S
GR
GS
[0.75 0 0 0.75 0 0.5] CT
1 0 0 RC
2 setlinecap
10.0 ML
1.333 LW
N
1488 603.5 M
1497 603.5 L
S
GR
GS
[0.75 0 0 0.75 0 0.5] CT
1 0 0 RC
2 setlinecap
10.0 ML
1.333 LW
N
1492.5 608 M
1492.5 599 L
S
GR
GS
[0.75 0 0 0.75 0 0.5] CT
1 0 0 RC
2 setlinecap
10.0 ML
1.333 LW
N
1489 607 M
1496 600 L
S
GR
GS
[0.75 0 0 0.75 0 0.5] CT
1 0 0 RC
2 setlinecap
10.0 ML
1.333 LW
N
1489 600 M
1496 607 L
S
GR
GS
[0.75 0 0 0.75 0 0.5] CT
1 0 0 RC
2 setlinecap
10.0 ML
1.333 LW
N
1565 579.5 M
1574 579.5 L
S
GR
GS
[0.75 0 0 0.75 0 0.5] CT
1 0 0 RC
2 setlinecap
10.0 ML
1.333 LW
N
1569.5 584 M
1569.5 575 L
S
GR
GS
[0.75 0 0 0.75 0 0.5] CT
1 0 0 RC
2 setlinecap
10.0 ML
1.333 LW
N
1566 583 M
1573 576 L
S
GR
GS
[0.75 0 0 0.75 0 0.5] CT
1 0 0 RC
2 setlinecap
10.0 ML
1.333 LW
N
1566 576 M
1573 583 L
S
GR
GS
[0.75 0 0 0.75 0 0.5] CT
1 0 0 RC
2 setlinecap
10.0 ML
1.333 LW
N
1641 538.5 M
1650 538.5 L
S
GR
GS
[0.75 0 0 0.75 0 0.5] CT
1 0 0 RC
2 setlinecap
10.0 ML
1.333 LW
N
1645.5 543 M
1645.5 534 L
S
GR
GS
[0.75 0 0 0.75 0 0.5] CT
1 0 0 RC
2 setlinecap
10.0 ML
1.333 LW
N
1642 542 M
1649 535 L
S
GR
GS
[0.75 0 0 0.75 0 0.5] CT
1 0 0 RC
2 setlinecap
10.0 ML
1.333 LW
N
1642 535 M
1649 542 L
S
GR
GS
[0.75 0 0 0.75 0 0.5] CT
1 0 0 RC
2 setlinecap
10.0 ML
1.333 LW
N
1718 514.5 M
1727 514.5 L
S
GR
GS
[0.75 0 0 0.75 0 0.5] CT
1 0 0 RC
2 setlinecap
10.0 ML
1.333 LW
N
1722.5 519 M
1722.5 510 L
S
GR
GS
[0.75 0 0 0.75 0 0.5] CT
1 0 0 RC
2 setlinecap
10.0 ML
1.333 LW
N
1719 518 M
1726 511 L
S
GR
GS
[0.75 0 0 0.75 0 0.5] CT
1 0 0 RC
2 setlinecap
10.0 ML
1.333 LW
N
1719 511 M
1726 518 L
S
GR
GS
[0.75 0 0 0.75 0 0.5] CT
1 GC
N
276 292 M
276 94 L
754 94 L
754 292 L
cp
f
GR
GS
[0.75 0 0 0.75 246 87.25] CT
/Helvetica 32 F
GS
[1 0 0 1 0 0] CT
0 11 moveto 
1 -1 scale
( Dijkstra + First-Fit) t 
GR
GR
GS
[0.75 0 0 0.75 0 0.5] CT
1 GC
N
292.953 108.833 M
300.651 108.833 L
304.5 102.167 L
308.349 108.833 L
316.047 108.833 L
311.167 115.5 L
316.047 122.167 L
308.349 122.167 L
304.5 128.833 L
300.651 122.167 L
292.953 122.167 L
297.833 115.5 L
292.953 108.833 L
cp
f
GR
GS
[0.75 0 0 0.75 0 0.5] CT
2 setlinecap
10.0 ML
2.667 LW
N
292.953 108.833 M
300.651 108.833 L
304.5 102.167 L
308.349 108.833 L
316.047 108.833 L
311.167 115.5 L
316.047 122.167 L
308.349 122.167 L
304.5 128.833 L
300.651 122.167 L
292.953 122.167 L
297.833 115.5 L
292.953 108.833 L
S
GR
GS
[0.75 0 0 0.75 246 116.25] CT
/Helvetica 32 F
GS
[1 0 0 1 0 0] CT
0 11 moveto 
1 -1 scale
( Dijkstra + Graph Coloring) t 
GR
GR
GS
[0.75 0 0 0.75 0 0.5] CT
1 0 1 RC
N
299.882 157.166 M
309.118 157.166 L
304.5 149.168 L
cp
f
GR
GS
[0.75 0 0 0.75 0 0.5] CT
1 0 1 RC
2 setlinecap
10.0 ML
2.667 LW
N
299.882 157.166 M
309.118 157.166 L
304.5 149.168 L
299.882 157.166 L
S
GR
GS
[0.75 0 0 0.75 246 145.25] CT
/Helvetica 32 F
GS
[1 0 0 1 0 0] CT
0 11 moveto 
1 -1 scale
( Genetic Algorithm + GOF) t 
GR
GR
GS
[0.75 0 0 0.75 0 0.5] CT
0 0.4 0.988 RC
2 setlinecap
10.0 ML
2.667 LW
N
316.5 192.5 M
315.587 187.908 L
312.985 184.015 L
309.092 181.413 L
304.5 180.5 L
299.908 181.413 L
296.015 184.015 L
293.413 187.908 L
292.5 192.5 L
293.413 197.092 L
296.015 200.985 L
299.908 203.587 L
304.5 204.5 L
309.092 203.587 L
312.985 200.985 L
315.587 197.092 L
316.5 192.5 L
S
GR
GS
[0.75 0 0 0.75 246 174.25] CT
/Helvetica 32 F
GS
[1 0 0 1 0 0] CT
0 11 moveto 
1 -1 scale
( Yen + Graph Coloring) t 
GR
GR
GS
[0.75 0 0 0.75 0 0.5] CT
1 GC
N
298.26 237.74 M
298.26 225.26 L
310.74 225.26 L
310.74 237.74 L
cp
f
GR
GS
[0.75 0 0 0.75 0 0.5] CT
0 0.502 0 RC
2 setlinecap
10.0 ML
2.667 LW
N
298.26 237.74 M
298.26 225.26 L
310.74 225.26 L
310.74 237.74 L
298.26 237.74 L
S
GR
GS
[0.75 0 0 0.75 246 203.25001] CT
/Helvetica 32 F
GS
[1 0 0 1 0 0] CT
0 11 moveto 
1 -1 scale
( Yen + First-Fit) t 
GR
GR
GS
[0.75 0 0 0.75 0 0.5] CT
1 0 0 RC
2 setlinecap
10.0 ML
1.333 LW
N
300 270.5 M
309 270.5 L
S
GR
GS
[0.75 0 0 0.75 0 0.5] CT
1 0 0 RC
2 setlinecap
10.0 ML
1.333 LW
N
304.5 275 M
304.5 266 L
S
GR
GS
[0.75 0 0 0.75 0 0.5] CT
1 0 0 RC
2 setlinecap
10.0 ML
1.333 LW
N
301 274 M
308 267 L
S
GR
GS
[0.75 0 0 0.75 0 0.5] CT
1 0 0 RC
2 setlinecap
10.0 ML
1.333 LW
N
301 267 M
308 274 L
S
GR
GS
[0.75 0 0 0.75 0 0.5] CT
0.149 GC
2 setlinecap
10.0 ML
N
276 292 M
276 94 L
754 94 L
754 292 L
276 292 L
S
GR
%%Trailer
%%Pages: 1
%%EOF
