%!PS-Adobe-3.0 EPSF-3.0
%%Creator: (MATLAB, The Mathworks, Inc. Version 8.5.0.197613 \(R2015a\). Operating System: Linux)
%%Title: /home/cassio/Dropbox/RWA/ga_lim\343o/sim18x150_4ch/untitled.eps
%%CreationDate: 2017-04-27T19:02:21
%%Pages: (atend)
%%BoundingBox: 0 0 1440 719
%%LanguageLevel: 2
%%EndComments
%%BeginProlog
%%BeginResource: procset (Apache XML Graphics Std ProcSet) 1.2 0
%%Version: 1.2 0
%%Copyright: (Copyright 2001-2003,2010 The Apache Software Foundation. License terms: http://www.apache.org/licenses/LICENSE-2.0)
/bd{bind def}bind def
/ld{load def}bd
/GR/grestore ld
/M/moveto ld
/LJ/setlinejoin ld
/C/curveto ld
/f/fill ld
/LW/setlinewidth ld
/GC/setgray ld
/t/show ld
/N/newpath ld
/CT/concat ld
/cp/closepath ld
/S/stroke ld
/L/lineto ld
/CC/setcmykcolor ld
/A/ashow ld
/GS/gsave ld
/RC/setrgbcolor ld
/RM/rmoveto ld
/ML/setmiterlimit ld
/re {4 2 roll M
1 index 0 rlineto
0 exch rlineto
neg 0 rlineto
cp } bd
/_ctm matrix def
/_tm matrix def
/BT { _ctm currentmatrix pop matrix _tm copy pop 0 0 moveto } bd
/ET { _ctm setmatrix } bd
/iTm { _ctm setmatrix _tm concat } bd
/Tm { _tm astore pop iTm 0 0 moveto } bd
/ux 0.0 def
/uy 0.0 def
/F {
  /Tp exch def
  /Tf exch def
  Tf findfont Tp scalefont setfont
  /cf Tf def  /cs Tp def
} bd
/ULS {currentpoint /uy exch def /ux exch def} bd
/ULE {
  /Tcx currentpoint pop def
  gsave
  newpath
  cf findfont cs scalefont dup
  /FontMatrix get 0 get /Ts exch def /FontInfo get dup
  /UnderlinePosition get Ts mul /To exch def
  /UnderlineThickness get Ts mul /Tt exch def
  ux uy To add moveto  Tcx uy To add lineto
  Tt setlinewidth stroke
  grestore
} bd
/OLE {
  /Tcx currentpoint pop def
  gsave
  newpath
  cf findfont cs scalefont dup
  /FontMatrix get 0 get /Ts exch def /FontInfo get dup
  /UnderlinePosition get Ts mul /To exch def
  /UnderlineThickness get Ts mul /Tt exch def
  ux uy To add cs add moveto Tcx uy To add cs add lineto
  Tt setlinewidth stroke
  grestore
} bd
/SOE {
  /Tcx currentpoint pop def
  gsave
  newpath
  cf findfont cs scalefont dup
  /FontMatrix get 0 get /Ts exch def /FontInfo get dup
  /UnderlinePosition get Ts mul /To exch def
  /UnderlineThickness get Ts mul /Tt exch def
  ux uy To add cs 10 mul 26 idiv add moveto Tcx uy To add cs 10 mul 26 idiv add lineto
  Tt setlinewidth stroke
  grestore
} bd
/QT {
/Y22 exch store
/X22 exch store
/Y21 exch store
/X21 exch store
currentpoint
/Y21 load 2 mul add 3 div exch
/X21 load 2 mul add 3 div exch
/X21 load 2 mul /X22 load add 3 div
/Y21 load 2 mul /Y22 load add 3 div
/X22 load /Y22 load curveto
} bd
/SSPD {
dup length /d exch dict def
{
/v exch def
/k exch def
currentpagedevice k known {
/cpdv currentpagedevice k get def
v cpdv ne {
/upd false def
/nullv v type /nulltype eq def
/nullcpdv cpdv type /nulltype eq def
nullv nullcpdv or
{
/upd true def
} {
/sametype v type cpdv type eq def
sametype {
v type /arraytype eq {
/vlen v length def
/cpdvlen cpdv length def
vlen cpdvlen eq {
0 1 vlen 1 sub {
/i exch def
/obj v i get def
/cpdobj cpdv i get def
obj cpdobj ne {
/upd true def
exit
} if
} for
} {
/upd true def
} ifelse
} {
v type /dicttype eq {
v {
/dv exch def
/dk exch def
/cpddv cpdv dk get def
dv cpddv ne {
/upd true def
exit
} if
} forall
} {
/upd true def
} ifelse
} ifelse
} if
} ifelse
upd true eq {
d k v put
} if
} if
} if
} forall
d length 0 gt {
d setpagedevice
} if
} bd
%%EndResource
%%BeginResource: procset (Apache XML Graphics EPS ProcSet) 1.0 0
%%Version: 1.0 0
%%Copyright: (Copyright 2002-2003 The Apache Software Foundation. License terms: http://www.apache.org/licenses/LICENSE-2.0)
/BeginEPSF { %def
/b4_Inc_state save def         % Save state for cleanup
/dict_count countdictstack def % Count objects on dict stack
/op_count count 1 sub def      % Count objects on operand stack
userdict begin                 % Push userdict on dict stack
/showpage { } def              % Redefine showpage, { } = null proc
0 setgray 0 setlinecap         % Prepare graphics state
1 setlinewidth 0 setlinejoin
10 setmiterlimit [ ] 0 setdash newpath
/languagelevel where           % If level not equal to 1 then
{pop languagelevel             % set strokeadjust and
1 ne                           % overprint to their defaults.
{false setstrokeadjust false setoverprint
} if
} if
} bd
/EndEPSF { %def
count op_count sub {pop} repeat            % Clean up stacks
countdictstack dict_count sub {end} repeat
b4_Inc_state restore
} bd
%%EndResource
%FOPBeginFontDict
%%IncludeResource: font Courier-Bold
%%IncludeResource: font Helvetica
%%IncludeResource: font Courier-BoldOblique
%%IncludeResource: font Courier-Oblique
%%IncludeResource: font Times-Roman
%%IncludeResource: font Helvetica-BoldOblique
%%IncludeResource: font Helvetica-Bold
%%IncludeResource: font Helvetica-Oblique
%%IncludeResource: font Times-BoldItalic
%%IncludeResource: font Courier
%%IncludeResource: font Times-Italic
%%IncludeResource: font Times-Bold
%%IncludeResource: font Symbol
%%IncludeResource: font ZapfDingbats
%FOPEndFontDict
%%BeginResource: encoding WinAnsiEncoding
/WinAnsiEncoding [
/.notdef /.notdef /.notdef /.notdef /.notdef
/.notdef /.notdef /.notdef /.notdef /.notdef
/.notdef /.notdef /.notdef /.notdef /.notdef
/.notdef /.notdef /.notdef /.notdef /.notdef
/.notdef /.notdef /.notdef /.notdef /.notdef
/.notdef /.notdef /.notdef /.notdef /.notdef
/.notdef /.notdef /space /exclam /quotedbl
/numbersign /dollar /percent /ampersand /quotesingle
/parenleft /parenright /asterisk /plus /comma
/hyphen /period /slash /zero /one
/two /three /four /five /six
/seven /eight /nine /colon /semicolon
/less /equal /greater /question /at
/A /B /C /D /E
/F /G /H /I /J
/K /L /M /N /O
/P /Q /R /S /T
/U /V /W /X /Y
/Z /bracketleft /backslash /bracketright /asciicircum
/underscore /quoteleft /a /b /c
/d /e /f /g /h
/i /j /k /l /m
/n /o /p /q /r
/s /t /u /v /w
/x /y /z /braceleft /bar
/braceright /asciitilde /bullet /Euro /bullet
/quotesinglbase /florin /quotedblbase /ellipsis /dagger
/daggerdbl /circumflex /perthousand /Scaron /guilsinglleft
/OE /bullet /Zcaron /bullet /bullet
/quoteleft /quoteright /quotedblleft /quotedblright /bullet
/endash /emdash /asciitilde /trademark /scaron
/guilsinglright /oe /bullet /zcaron /Ydieresis
/space /exclamdown /cent /sterling /currency
/yen /brokenbar /section /dieresis /copyright
/ordfeminine /guillemotleft /logicalnot /sfthyphen /registered
/macron /degree /plusminus /twosuperior /threesuperior
/acute /mu /paragraph /middot /cedilla
/onesuperior /ordmasculine /guillemotright /onequarter /onehalf
/threequarters /questiondown /Agrave /Aacute /Acircumflex
/Atilde /Adieresis /Aring /AE /Ccedilla
/Egrave /Eacute /Ecircumflex /Edieresis /Igrave
/Iacute /Icircumflex /Idieresis /Eth /Ntilde
/Ograve /Oacute /Ocircumflex /Otilde /Odieresis
/multiply /Oslash /Ugrave /Uacute /Ucircumflex
/Udieresis /Yacute /Thorn /germandbls /agrave
/aacute /acircumflex /atilde /adieresis /aring
/ae /ccedilla /egrave /eacute /ecircumflex
/edieresis /igrave /iacute /icircumflex /idieresis
/eth /ntilde /ograve /oacute /ocircumflex
/otilde /odieresis /divide /oslash /ugrave
/uacute /ucircumflex /udieresis /yacute /thorn
/ydieresis
] def
%%EndResource
%FOPBeginFontReencode
/Courier-Bold findfont
dup length dict begin
  {1 index /FID ne {def} {pop pop} ifelse} forall
  /Encoding WinAnsiEncoding def
  currentdict
end
/Courier-Bold exch definefont pop
/Helvetica findfont
dup length dict begin
  {1 index /FID ne {def} {pop pop} ifelse} forall
  /Encoding WinAnsiEncoding def
  currentdict
end
/Helvetica exch definefont pop
/Courier-BoldOblique findfont
dup length dict begin
  {1 index /FID ne {def} {pop pop} ifelse} forall
  /Encoding WinAnsiEncoding def
  currentdict
end
/Courier-BoldOblique exch definefont pop
/Courier-Oblique findfont
dup length dict begin
  {1 index /FID ne {def} {pop pop} ifelse} forall
  /Encoding WinAnsiEncoding def
  currentdict
end
/Courier-Oblique exch definefont pop
/Times-Roman findfont
dup length dict begin
  {1 index /FID ne {def} {pop pop} ifelse} forall
  /Encoding WinAnsiEncoding def
  currentdict
end
/Times-Roman exch definefont pop
/Helvetica-BoldOblique findfont
dup length dict begin
  {1 index /FID ne {def} {pop pop} ifelse} forall
  /Encoding WinAnsiEncoding def
  currentdict
end
/Helvetica-BoldOblique exch definefont pop
/Helvetica-Bold findfont
dup length dict begin
  {1 index /FID ne {def} {pop pop} ifelse} forall
  /Encoding WinAnsiEncoding def
  currentdict
end
/Helvetica-Bold exch definefont pop
/Helvetica-Oblique findfont
dup length dict begin
  {1 index /FID ne {def} {pop pop} ifelse} forall
  /Encoding WinAnsiEncoding def
  currentdict
end
/Helvetica-Oblique exch definefont pop
/Times-BoldItalic findfont
dup length dict begin
  {1 index /FID ne {def} {pop pop} ifelse} forall
  /Encoding WinAnsiEncoding def
  currentdict
end
/Times-BoldItalic exch definefont pop
/Courier findfont
dup length dict begin
  {1 index /FID ne {def} {pop pop} ifelse} forall
  /Encoding WinAnsiEncoding def
  currentdict
end
/Courier exch definefont pop
/Times-Italic findfont
dup length dict begin
  {1 index /FID ne {def} {pop pop} ifelse} forall
  /Encoding WinAnsiEncoding def
  currentdict
end
/Times-Italic exch definefont pop
/Times-Bold findfont
dup length dict begin
  {1 index /FID ne {def} {pop pop} ifelse} forall
  /Encoding WinAnsiEncoding def
  currentdict
end
/Times-Bold exch definefont pop
%FOPEndFontReencode
%%EndProlog
%%Page: 1 1
%%PageBoundingBox: 0 0 1440 719
%%BeginPageSetup
[1 0 0 -1 0 719] CT
%%EndPageSetup
GS
[0.75 0 0 0.75 0 0.5] CT
1 GC
N
0 0 1920 958 re
f
GR
GS
[0.75 0 0 0.75 0 0.5] CT
1 GC
N
0 0 1920 958 re
f
GR
GS
[0.75 0 0 0.75 0 0.5] CT
1 GC
N
250 853 M
1738 853 L
1738 72 L
250 72 L
cp
f
GR
GS
[0.75 0 0 0.75 0 0.5] CT
0.873 GC
2 setlinecap
10.0 ML
N
361.347 853 M
361.347 72 L
S
GR
GS
[0.75 0 0 0.75 0 0.5] CT
0.873 GC
2 setlinecap
10.0 ML
N
513.184 853 M
513.184 72 L
S
GR
GS
[0.75 0 0 0.75 0 0.5] CT
0.873 GC
2 setlinecap
10.0 ML
N
665.02 853 M
665.02 72 L
S
GR
GS
[0.75 0 0 0.75 0 0.5] CT
0.873 GC
2 setlinecap
10.0 ML
N
816.857 853 M
816.857 72 L
S
GR
GS
[0.75 0 0 0.75 0 0.5] CT
0.873 GC
2 setlinecap
10.0 ML
N
968.694 853 M
968.694 72 L
S
GR
GS
[0.75 0 0 0.75 0 0.5] CT
0.873 GC
2 setlinecap
10.0 ML
N
1120.531 853 M
1120.531 72 L
S
GR
GS
[0.75 0 0 0.75 0 0.5] CT
0.873 GC
2 setlinecap
10.0 ML
N
1272.367 853 M
1272.367 72 L
S
GR
GS
[0.75 0 0 0.75 0 0.5] CT
0.873 GC
2 setlinecap
10.0 ML
N
1424.204 853 M
1424.204 72 L
S
GR
GS
[0.75 0 0 0.75 0 0.5] CT
0.873 GC
2 setlinecap
10.0 ML
N
1576.041 853 M
1576.041 72 L
S
GR
GS
[0.75 0 0 0.75 0 0.5] CT
0.873 GC
2 setlinecap
10.0 ML
N
1727.878 853 M
1727.878 72 L
S
GR
GS
[0.75 0 0 0.75 0 0.5] CT
0.873 GC
2 setlinecap
10.0 ML
N
1738 836.022 M
250 836.022 L
S
GR
GS
[0.75 0 0 0.75 0 0.5] CT
0.873 GC
2 setlinecap
10.0 ML
N
1738 751.13 M
250 751.13 L
S
GR
GS
[0.75 0 0 0.75 0 0.5] CT
0.873 GC
2 setlinecap
10.0 ML
N
1738 666.239 M
250 666.239 L
S
GR
GS
[0.75 0 0 0.75 0 0.5] CT
0.873 GC
2 setlinecap
10.0 ML
N
1738 581.348 M
250 581.348 L
S
GR
GS
[0.75 0 0 0.75 0 0.5] CT
0.873 GC
2 setlinecap
10.0 ML
N
1738 496.457 M
250 496.457 L
S
GR
GS
[0.75 0 0 0.75 0 0.5] CT
0.873 GC
2 setlinecap
10.0 ML
N
1738 411.565 M
250 411.565 L
S
GR
GS
[0.75 0 0 0.75 0 0.5] CT
0.873 GC
2 setlinecap
10.0 ML
N
1738 326.674 M
250 326.674 L
S
GR
GS
[0.75 0 0 0.75 0 0.5] CT
0.873 GC
2 setlinecap
10.0 ML
N
1738 241.783 M
250 241.783 L
S
GR
GS
[0.75 0 0 0.75 0 0.5] CT
0.873 GC
2 setlinecap
10.0 ML
N
1738 156.891 M
250 156.891 L
S
GR
GS
[0.75 0 0 0.75 0 0.5] CT
0.873 GC
2 setlinecap
10.0 ML
N
1738 72 M
250 72 L
S
GR
GS
[0.75 0 0 0.75 745.50055 676.55002] CT
0.149 GC
/Helvetica 40 F
GS
[1 0 0 1 0 0] CT
-145 38 moveto 
1 -1 scale
(Load \(Erlangs\)) t 
GR
GR
GS
[0.75 0 0 0.75 0 0.5] CT
0.149 GC
2 setlinecap
10.0 ML
N
250 853 M
1738 853 L
S
GR
GS
[0.75 0 0 0.75 0 0.5] CT
0.149 GC
2 setlinecap
10.0 ML
N
250 72 M
1738 72 L
S
GR
GS
[0.75 0 0 0.75 0 0.5] CT
0.149 GC
2 setlinecap
10.0 ML
N
361.347 853 M
361.347 838.12 L
S
GR
GS
[0.75 0 0 0.75 0 0.5] CT
0.149 GC
2 setlinecap
10.0 ML
N
513.184 853 M
513.184 838.12 L
S
GR
GS
[0.75 0 0 0.75 0 0.5] CT
0.149 GC
2 setlinecap
10.0 ML
N
665.02 853 M
665.02 838.12 L
S
GR
GS
[0.75 0 0 0.75 0 0.5] CT
0.149 GC
2 setlinecap
10.0 ML
N
816.857 853 M
816.857 838.12 L
S
GR
GS
[0.75 0 0 0.75 0 0.5] CT
0.149 GC
2 setlinecap
10.0 ML
N
968.694 853 M
968.694 838.12 L
S
GR
GS
[0.75 0 0 0.75 0 0.5] CT
0.149 GC
2 setlinecap
10.0 ML
N
1120.531 853 M
1120.531 838.12 L
S
GR
GS
[0.75 0 0 0.75 0 0.5] CT
0.149 GC
2 setlinecap
10.0 ML
N
1272.367 853 M
1272.367 838.12 L
S
GR
GS
[0.75 0 0 0.75 0 0.5] CT
0.149 GC
2 setlinecap
10.0 ML
N
1424.204 853 M
1424.204 838.12 L
S
GR
GS
[0.75 0 0 0.75 0 0.5] CT
0.149 GC
2 setlinecap
10.0 ML
N
1576.041 853 M
1576.041 838.12 L
S
GR
GS
[0.75 0 0 0.75 0 0.5] CT
0.149 GC
2 setlinecap
10.0 ML
N
1727.878 853 M
1727.878 838.12 L
S
GR
GS
[0.75 0 0 0.75 0 0.5] CT
0.149 GC
2 setlinecap
10.0 ML
N
361.347 72 M
361.347 86.88 L
S
GR
GS
[0.75 0 0 0.75 0 0.5] CT
0.149 GC
2 setlinecap
10.0 ML
N
513.184 72 M
513.184 86.88 L
S
GR
GS
[0.75 0 0 0.75 0 0.5] CT
0.149 GC
2 setlinecap
10.0 ML
N
665.02 72 M
665.02 86.88 L
S
GR
GS
[0.75 0 0 0.75 0 0.5] CT
0.149 GC
2 setlinecap
10.0 ML
N
816.857 72 M
816.857 86.88 L
S
GR
GS
[0.75 0 0 0.75 0 0.5] CT
0.149 GC
2 setlinecap
10.0 ML
N
968.694 72 M
968.694 86.88 L
S
GR
GS
[0.75 0 0 0.75 0 0.5] CT
0.149 GC
2 setlinecap
10.0 ML
N
1120.531 72 M
1120.531 86.88 L
S
GR
GS
[0.75 0 0 0.75 0 0.5] CT
0.149 GC
2 setlinecap
10.0 ML
N
1272.367 72 M
1272.367 86.88 L
S
GR
GS
[0.75 0 0 0.75 0 0.5] CT
0.149 GC
2 setlinecap
10.0 ML
N
1424.204 72 M
1424.204 86.88 L
S
GR
GS
[0.75 0 0 0.75 0 0.5] CT
0.149 GC
2 setlinecap
10.0 ML
N
1576.041 72 M
1576.041 86.88 L
S
GR
GS
[0.75 0 0 0.75 0 0.5] CT
0.149 GC
2 setlinecap
10.0 ML
N
1727.878 72 M
1727.878 86.88 L
S
GR
GS
[0.75 0 0 0.75 271.01019 647.04999] CT
0.149 GC
/Helvetica 32 F
GS
[1 0 0 1 0 0] CT
-10.5 30 moveto 
1 -1 scale
(3) t 
GR
GR
GS
[0.75 0 0 0.75 384.88774 647.04999] CT
0.149 GC
/Helvetica 32 F
GS
[1 0 0 1 0 0] CT
-10.5 30 moveto 
1 -1 scale
(6) t 
GR
GR
GS
[0.75 0 0 0.75 498.76529 647.04999] CT
0.149 GC
/Helvetica 32 F
GS
[1 0 0 1 0 0] CT
-10.5 30 moveto 
1 -1 scale
(9) t 
GR
GR
GS
[0.75 0 0 0.75 612.64284 647.04999] CT
0.149 GC
/Helvetica 32 F
GS
[1 0 0 1 0 0] CT
-20.5 30 moveto 
1 -1 scale
(12) t 
GR
GR
GS
[0.75 0 0 0.75 726.52039 647.04999] CT
0.149 GC
/Helvetica 32 F
GS
[1 0 0 1 0 0] CT
-20.5 30 moveto 
1 -1 scale
(15) t 
GR
GR
GS
[0.75 0 0 0.75 840.39798 647.04999] CT
0.149 GC
/Helvetica 32 F
GS
[1 0 0 1 0 0] CT
-20.5 30 moveto 
1 -1 scale
(18) t 
GR
GR
GS
[0.75 0 0 0.75 954.27548 647.04999] CT
0.149 GC
/Helvetica 32 F
GS
[1 0 0 1 0 0] CT
-20.5 30 moveto 
1 -1 scale
(21) t 
GR
GR
GS
[0.75 0 0 0.75 1068.15308 647.04999] CT
0.149 GC
/Helvetica 32 F
GS
[1 0 0 1 0 0] CT
-20.5 30 moveto 
1 -1 scale
(24) t 
GR
GR
GS
[0.75 0 0 0.75 1182.03058 647.04999] CT
0.149 GC
/Helvetica 32 F
GS
[1 0 0 1 0 0] CT
-20.5 30 moveto 
1 -1 scale
(27) t 
GR
GR
GS
[0.75 0 0 0.75 1295.90817 647.04999] CT
0.149 GC
/Helvetica 32 F
GS
[1 0 0 1 0 0] CT
-20.5 30 moveto 
1 -1 scale
(30) t 
GR
GR
GS
[0 -0.75 0.75 0 121.13305 344.91875] CT
0.149 GC
/Helvetica 43 F
GS
[1 0 0 1 0 0] CT
-257 -11 moveto 
1 -1 scale
(Blocking Probability \(%\)) t 
GR
GR
GS
[0.75 0 0 0.75 0 0.5] CT
0.149 GC
2 setlinecap
10.0 ML
N
250 853 M
250 72 L
S
GR
GS
[0.75 0 0 0.75 0 0.5] CT
0.149 GC
2 setlinecap
10.0 ML
N
1738 853 M
1738 72 L
S
GR
GS
[0.75 0 0 0.75 0 0.5] CT
0.149 GC
2 setlinecap
10.0 ML
N
250 836.022 M
264.88 836.022 L
S
GR
GS
[0.75 0 0 0.75 0 0.5] CT
0.149 GC
2 setlinecap
10.0 ML
N
250 751.13 M
264.88 751.13 L
S
GR
GS
[0.75 0 0 0.75 0 0.5] CT
0.149 GC
2 setlinecap
10.0 ML
N
250 666.239 M
264.88 666.239 L
S
GR
GS
[0.75 0 0 0.75 0 0.5] CT
0.149 GC
2 setlinecap
10.0 ML
N
250 581.348 M
264.88 581.348 L
S
GR
GS
[0.75 0 0 0.75 0 0.5] CT
0.149 GC
2 setlinecap
10.0 ML
N
250 496.457 M
264.88 496.457 L
S
GR
GS
[0.75 0 0 0.75 0 0.5] CT
0.149 GC
2 setlinecap
10.0 ML
N
250 411.565 M
264.88 411.565 L
S
GR
GS
[0.75 0 0 0.75 0 0.5] CT
0.149 GC
2 setlinecap
10.0 ML
N
250 326.674 M
264.88 326.674 L
S
GR
GS
[0.75 0 0 0.75 0 0.5] CT
0.149 GC
2 setlinecap
10.0 ML
N
250 241.783 M
264.88 241.783 L
S
GR
GS
[0.75 0 0 0.75 0 0.5] CT
0.149 GC
2 setlinecap
10.0 ML
N
250 156.891 M
264.88 156.891 L
S
GR
GS
[0.75 0 0 0.75 0 0.5] CT
0.149 GC
2 setlinecap
10.0 ML
N
250 72 M
264.88 72 L
S
GR
GS
[0.75 0 0 0.75 0 0.5] CT
0.149 GC
2 setlinecap
10.0 ML
N
1738 836.022 M
1723.12 836.022 L
S
GR
GS
[0.75 0 0 0.75 0 0.5] CT
0.149 GC
2 setlinecap
10.0 ML
N
1738 751.13 M
1723.12 751.13 L
S
GR
GS
[0.75 0 0 0.75 0 0.5] CT
0.149 GC
2 setlinecap
10.0 ML
N
1738 666.239 M
1723.12 666.239 L
S
GR
GS
[0.75 0 0 0.75 0 0.5] CT
0.149 GC
2 setlinecap
10.0 ML
N
1738 581.348 M
1723.12 581.348 L
S
GR
GS
[0.75 0 0 0.75 0 0.5] CT
0.149 GC
2 setlinecap
10.0 ML
N
1738 496.457 M
1723.12 496.457 L
S
GR
GS
[0.75 0 0 0.75 0 0.5] CT
0.149 GC
2 setlinecap
10.0 ML
N
1738 411.565 M
1723.12 411.565 L
S
GR
GS
[0.75 0 0 0.75 0 0.5] CT
0.149 GC
2 setlinecap
10.0 ML
N
1738 326.674 M
1723.12 326.674 L
S
GR
GS
[0.75 0 0 0.75 0 0.5] CT
0.149 GC
2 setlinecap
10.0 ML
N
1738 241.783 M
1723.12 241.783 L
S
GR
GS
[0.75 0 0 0.75 0 0.5] CT
0.149 GC
2 setlinecap
10.0 ML
N
1738 156.891 M
1723.12 156.891 L
S
GR
GS
[0.75 0 0 0.75 0 0.5] CT
0.149 GC
2 setlinecap
10.0 ML
N
1738 72 M
1723.12 72 L
S
GR
GS
[0.75 0 0 0.75 180.7 627.5163] CT
0.149 GC
/Helvetica 32 F
GS
[1 0 0 1 0 0] CT
-21 11 moveto 
1 -1 scale
(0) t 
GR
GR
GS
[0.75 0 0 0.75 180.7 563.84782] CT
0.149 GC
/Helvetica 32 F
GS
[1 0 0 1 0 0] CT
-41 11 moveto 
1 -1 scale
(10) t 
GR
GR
GS
[0.75 0 0 0.75 180.7 500.17935] CT
0.149 GC
/Helvetica 32 F
GS
[1 0 0 1 0 0] CT
-41 11 moveto 
1 -1 scale
(20) t 
GR
GR
GS
[0.75 0 0 0.75 180.7 436.51088] CT
0.149 GC
/Helvetica 32 F
GS
[1 0 0 1 0 0] CT
-41 11 moveto 
1 -1 scale
(30) t 
GR
GR
GS
[0.75 0 0 0.75 180.7 372.84238] CT
0.149 GC
/Helvetica 32 F
GS
[1 0 0 1 0 0] CT
-41 11 moveto 
1 -1 scale
(40) t 
GR
GR
GS
[0.75 0 0 0.75 180.7 309.17391] CT
0.149 GC
/Helvetica 32 F
GS
[1 0 0 1 0 0] CT
-41 11 moveto 
1 -1 scale
(50) t 
GR
GR
GS
[0.75 0 0 0.75 180.7 245.50544] CT
0.149 GC
/Helvetica 32 F
GS
[1 0 0 1 0 0] CT
-41 11 moveto 
1 -1 scale
(60) t 
GR
GR
GS
[0.75 0 0 0.75 180.7 181.83696] CT
0.149 GC
/Helvetica 32 F
GS
[1 0 0 1 0 0] CT
-41 11 moveto 
1 -1 scale
(70) t 
GR
GR
GS
[0.75 0 0 0.75 180.7 118.16848] CT
0.149 GC
/Helvetica 32 F
GS
[1 0 0 1 0 0] CT
-41 11 moveto 
1 -1 scale
(80) t 
GR
GR
GS
[0.75 0 0 0.75 180.7 54.5] CT
0.149 GC
/Helvetica 32 F
GS
[1 0 0 1 0 0] CT
-41 11 moveto 
1 -1 scale
(90) t 
GR
GR
GS
[0.75 0 0 0.75 0 0.5] CT
[16 16] 0 setdash
2 LJ
4 LW
N
260.122 807.725 M
310.735 753.96 L
361.347 660.58 L
411.959 589.837 L
462.571 487.967 L
513.184 434.203 L
563.796 400.246 L
614.408 337.993 L
665.02 332.333 L
715.633 295.547 L
766.245 261.591 L
816.857 230.464 L
867.469 236.123 L
918.082 233.293 L
968.694 202.167 L
1019.306 190.848 L
1069.918 148.402 L
1120.531 159.721 L
1171.143 171.04 L
1221.755 165.38 L
1272.367 145.572 L
1322.98 139.913 L
1373.592 145.572 L
1424.204 122.935 L
1474.816 122.935 L
1525.429 114.446 L
1576.041 108.786 L
1626.653 91.808 L
1677.265 117.275 L
1727.878 105.957 L
S
GR
GS
[0.75 0 0 0.75 0 0.5] CT
N
248.956 814.165 M
272.044 814.165 L
260.5 794.17 L
cp
f
GR
GS
[0.75 0 0 0.75 0 0.5] CT
2 setlinecap
10.0 ML
4 LW
N
248.956 814.165 M
272.044 814.165 L
260.5 794.17 L
248.956 814.165 L
S
GR
GS
[0.75 0 0 0.75 0 0.5] CT
N
298.956 760.165 M
322.044 760.165 L
310.5 740.17 L
cp
f
GR
GS
[0.75 0 0 0.75 0 0.5] CT
2 setlinecap
10.0 ML
4 LW
N
298.956 760.165 M
322.044 760.165 L
310.5 740.17 L
298.956 760.165 L
S
GR
GS
[0.75 0 0 0.75 0 0.5] CT
N
349.956 667.165 M
373.044 667.165 L
361.5 647.17 L
cp
f
GR
GS
[0.75 0 0 0.75 0 0.5] CT
2 setlinecap
10.0 ML
4 LW
N
349.956 667.165 M
373.044 667.165 L
361.5 647.17 L
349.956 667.165 L
S
GR
GS
[0.75 0 0 0.75 0 0.5] CT
N
399.956 596.165 M
423.044 596.165 L
411.5 576.17 L
cp
f
GR
GS
[0.75 0 0 0.75 0 0.5] CT
2 setlinecap
10.0 ML
4 LW
N
399.956 596.165 M
423.044 596.165 L
411.5 576.17 L
399.956 596.165 L
S
GR
GS
[0.75 0 0 0.75 0 0.5] CT
N
450.956 494.165 M
474.044 494.165 L
462.5 474.17 L
cp
f
GR
GS
[0.75 0 0 0.75 0 0.5] CT
2 setlinecap
10.0 ML
4 LW
N
450.956 494.165 M
474.044 494.165 L
462.5 474.17 L
450.956 494.165 L
S
GR
GS
[0.75 0 0 0.75 0 0.5] CT
N
501.956 441.165 M
525.044 441.165 L
513.5 421.17 L
cp
f
GR
GS
[0.75 0 0 0.75 0 0.5] CT
2 setlinecap
10.0 ML
4 LW
N
501.956 441.165 M
525.044 441.165 L
513.5 421.17 L
501.956 441.165 L
S
GR
GS
[0.75 0 0 0.75 0 0.5] CT
N
551.956 407.165 M
575.044 407.165 L
563.5 387.17 L
cp
f
GR
GS
[0.75 0 0 0.75 0 0.5] CT
2 setlinecap
10.0 ML
4 LW
N
551.956 407.165 M
575.044 407.165 L
563.5 387.17 L
551.956 407.165 L
S
GR
GS
[0.75 0 0 0.75 0 0.5] CT
N
602.956 344.165 M
626.044 344.165 L
614.5 324.17 L
cp
f
GR
GS
[0.75 0 0 0.75 0 0.5] CT
2 setlinecap
10.0 ML
4 LW
N
602.956 344.165 M
626.044 344.165 L
614.5 324.17 L
602.956 344.165 L
S
GR
GS
[0.75 0 0 0.75 0 0.5] CT
N
653.956 339.165 M
677.044 339.165 L
665.5 319.17 L
cp
f
GR
GS
[0.75 0 0 0.75 0 0.5] CT
2 setlinecap
10.0 ML
4 LW
N
653.956 339.165 M
677.044 339.165 L
665.5 319.17 L
653.956 339.165 L
S
GR
GS
[0.75 0 0 0.75 0 0.5] CT
N
703.956 302.165 M
727.044 302.165 L
715.5 282.17 L
cp
f
GR
GS
[0.75 0 0 0.75 0 0.5] CT
2 setlinecap
10.0 ML
4 LW
N
703.956 302.165 M
727.044 302.165 L
715.5 282.17 L
703.956 302.165 L
S
GR
GS
[0.75 0 0 0.75 0 0.5] CT
N
754.956 268.165 M
778.044 268.165 L
766.5 248.17 L
cp
f
GR
GS
[0.75 0 0 0.75 0 0.5] CT
2 setlinecap
10.0 ML
4 LW
N
754.956 268.165 M
778.044 268.165 L
766.5 248.17 L
754.956 268.165 L
S
GR
GS
[0.75 0 0 0.75 0 0.5] CT
N
804.956 237.165 M
828.044 237.165 L
816.5 217.17 L
cp
f
GR
GS
[0.75 0 0 0.75 0 0.5] CT
2 setlinecap
10.0 ML
4 LW
N
804.956 237.165 M
828.044 237.165 L
816.5 217.17 L
804.956 237.165 L
S
GR
GS
[0.75 0 0 0.75 0 0.5] CT
N
855.956 243.165 M
879.044 243.165 L
867.5 223.17 L
cp
f
GR
GS
[0.75 0 0 0.75 0 0.5] CT
2 setlinecap
10.0 ML
4 LW
N
855.956 243.165 M
879.044 243.165 L
867.5 223.17 L
855.956 243.165 L
S
GR
GS
[0.75 0 0 0.75 0 0.5] CT
N
906.956 240.165 M
930.044 240.165 L
918.5 220.17 L
cp
f
GR
GS
[0.75 0 0 0.75 0 0.5] CT
2 setlinecap
10.0 ML
4 LW
N
906.956 240.165 M
930.044 240.165 L
918.5 220.17 L
906.956 240.165 L
S
GR
GS
[0.75 0 0 0.75 0 0.5] CT
N
956.956 209.165 M
980.044 209.165 L
968.5 189.17 L
cp
f
GR
GS
[0.75 0 0 0.75 0 0.5] CT
2 setlinecap
10.0 ML
4 LW
N
956.956 209.165 M
980.044 209.165 L
968.5 189.17 L
956.956 209.165 L
S
GR
GS
[0.75 0 0 0.75 0 0.5] CT
N
1007.956 197.165 M
1031.044 197.165 L
1019.5 177.17 L
cp
f
GR
GS
[0.75 0 0 0.75 0 0.5] CT
2 setlinecap
10.0 ML
4 LW
N
1007.956 197.165 M
1031.044 197.165 L
1019.5 177.17 L
1007.956 197.165 L
S
GR
GS
[0.75 0 0 0.75 0 0.5] CT
N
1057.956 155.165 M
1081.044 155.165 L
1069.5 135.17 L
cp
f
GR
GS
[0.75 0 0 0.75 0 0.5] CT
2 setlinecap
10.0 ML
4 LW
N
1057.956 155.165 M
1081.044 155.165 L
1069.5 135.17 L
1057.956 155.165 L
S
GR
GS
[0.75 0 0 0.75 0 0.5] CT
N
1108.956 166.165 M
1132.044 166.165 L
1120.5 146.17 L
cp
f
GR
GS
[0.75 0 0 0.75 0 0.5] CT
2 setlinecap
10.0 ML
4 LW
N
1108.956 166.165 M
1132.044 166.165 L
1120.5 146.17 L
1108.956 166.165 L
S
GR
GS
[0.75 0 0 0.75 0 0.5] CT
N
1159.956 178.165 M
1183.044 178.165 L
1171.5 158.17 L
cp
f
GR
GS
[0.75 0 0 0.75 0 0.5] CT
2 setlinecap
10.0 ML
4 LW
N
1159.956 178.165 M
1183.044 178.165 L
1171.5 158.17 L
1159.956 178.165 L
S
GR
GS
[0.75 0 0 0.75 0 0.5] CT
N
1209.956 172.165 M
1233.044 172.165 L
1221.5 152.17 L
cp
f
GR
GS
[0.75 0 0 0.75 0 0.5] CT
2 setlinecap
10.0 ML
4 LW
N
1209.956 172.165 M
1233.044 172.165 L
1221.5 152.17 L
1209.956 172.165 L
S
GR
GS
[0.75 0 0 0.75 0 0.5] CT
N
1260.956 152.165 M
1284.044 152.165 L
1272.5 132.17 L
cp
f
GR
GS
[0.75 0 0 0.75 0 0.5] CT
2 setlinecap
10.0 ML
4 LW
N
1260.956 152.165 M
1284.044 152.165 L
1272.5 132.17 L
1260.956 152.165 L
S
GR
GS
[0.75 0 0 0.75 0 0.5] CT
N
1310.956 146.165 M
1334.044 146.165 L
1322.5 126.17 L
cp
f
GR
GS
[0.75 0 0 0.75 0 0.5] CT
2 setlinecap
10.0 ML
4 LW
N
1310.956 146.165 M
1334.044 146.165 L
1322.5 126.17 L
1310.956 146.165 L
S
GR
GS
[0.75 0 0 0.75 0 0.5] CT
N
1361.956 152.165 M
1385.044 152.165 L
1373.5 132.17 L
cp
f
GR
GS
[0.75 0 0 0.75 0 0.5] CT
2 setlinecap
10.0 ML
4 LW
N
1361.956 152.165 M
1385.044 152.165 L
1373.5 132.17 L
1361.956 152.165 L
S
GR
GS
[0.75 0 0 0.75 0 0.5] CT
N
1412.956 129.165 M
1436.044 129.165 L
1424.5 109.17 L
cp
f
GR
GS
[0.75 0 0 0.75 0 0.5] CT
2 setlinecap
10.0 ML
4 LW
N
1412.956 129.165 M
1436.044 129.165 L
1424.5 109.17 L
1412.956 129.165 L
S
GR
GS
[0.75 0 0 0.75 0 0.5] CT
N
1462.956 129.165 M
1486.044 129.165 L
1474.5 109.17 L
cp
f
GR
GS
[0.75 0 0 0.75 0 0.5] CT
2 setlinecap
10.0 ML
4 LW
N
1462.956 129.165 M
1486.044 129.165 L
1474.5 109.17 L
1462.956 129.165 L
S
GR
GS
[0.75 0 0 0.75 0 0.5] CT
N
1513.956 121.165 M
1537.044 121.165 L
1525.5 101.17 L
cp
f
GR
GS
[0.75 0 0 0.75 0 0.5] CT
2 setlinecap
10.0 ML
4 LW
N
1513.956 121.165 M
1537.044 121.165 L
1525.5 101.17 L
1513.956 121.165 L
S
GR
GS
[0.75 0 0 0.75 0 0.5] CT
N
1564.956 115.165 M
1588.044 115.165 L
1576.5 95.17 L
cp
f
GR
GS
[0.75 0 0 0.75 0 0.5] CT
2 setlinecap
10.0 ML
4 LW
N
1564.956 115.165 M
1588.044 115.165 L
1576.5 95.17 L
1564.956 115.165 L
S
GR
GS
[0.75 0 0 0.75 0 0.5] CT
N
1614.956 98.165 M
1638.044 98.165 L
1626.5 78.17 L
cp
f
GR
GS
[0.75 0 0 0.75 0 0.5] CT
2 setlinecap
10.0 ML
4 LW
N
1614.956 98.165 M
1638.044 98.165 L
1626.5 78.17 L
1614.956 98.165 L
S
GR
GS
[0.75 0 0 0.75 0 0.5] CT
N
1665.956 124.165 M
1689.044 124.165 L
1677.5 104.17 L
cp
f
GR
GS
[0.75 0 0 0.75 0 0.5] CT
2 setlinecap
10.0 ML
4 LW
N
1665.956 124.165 M
1689.044 124.165 L
1677.5 104.17 L
1665.956 124.165 L
S
GR
GS
[0.75 0 0 0.75 0 0.5] CT
N
1715.956 112.165 M
1739.044 112.165 L
1727.5 92.17 L
cp
f
GR
GS
[0.75 0 0 0.75 0 0.5] CT
2 setlinecap
10.0 ML
4 LW
N
1715.956 112.165 M
1739.044 112.165 L
1727.5 92.17 L
1715.956 112.165 L
S
GR
GS
[0.75 0 0 0.75 0 0.5] CT
1 0 1 RC
[8 8] 0 setdash
2 LJ
2.667 LW
N
260.122 807.725 M
310.735 756.79 L
361.347 654.92 L
411.959 589.837 L
462.571 490.797 L
513.184 437.033 L
563.796 408.736 L
614.408 343.652 L
665.02 340.822 L
715.633 289.888 L
766.245 261.591 L
816.857 241.783 L
867.469 236.123 L
918.082 227.634 L
968.694 204.996 L
1019.306 190.848 L
1069.918 145.572 L
1120.531 159.721 L
1171.143 171.04 L
1221.755 173.87 L
1272.367 142.743 L
1322.98 148.402 L
1373.592 145.572 L
1424.204 125.765 L
1474.816 131.424 L
1525.429 114.446 L
1576.041 108.786 L
1626.653 97.467 L
1677.265 122.935 L
1727.878 108.786 L
S
GR
GS
[0.75 0 0 0.75 0 0.5] CT
1 0 1 RC
2 setlinecap
10.0 ML
2.667 LW
N
253.572 803.5 M
258.191 803.5 L
260.5 799.5 L
262.809 803.5 L
267.428 803.5 L
264.5 807.5 L
267.428 811.5 L
262.809 811.5 L
260.5 815.5 L
258.191 811.5 L
253.572 811.5 L
256.5 807.5 L
253.572 803.5 L
S
GR
GS
[0.75 0 0 0.75 0 0.5] CT
1 0 1 RC
2 setlinecap
10.0 ML
2.667 LW
N
303.572 752.5 M
308.191 752.5 L
310.5 748.5 L
312.809 752.5 L
317.428 752.5 L
314.5 756.5 L
317.428 760.5 L
312.809 760.5 L
310.5 764.5 L
308.191 760.5 L
303.572 760.5 L
306.5 756.5 L
303.572 752.5 L
S
GR
GS
[0.75 0 0 0.75 0 0.5] CT
1 0 1 RC
2 setlinecap
10.0 ML
2.667 LW
N
354.572 650.5 M
359.191 650.5 L
361.5 646.5 L
363.809 650.5 L
368.428 650.5 L
365.5 654.5 L
368.428 658.5 L
363.809 658.5 L
361.5 662.5 L
359.191 658.5 L
354.572 658.5 L
357.5 654.5 L
354.572 650.5 L
S
GR
GS
[0.75 0 0 0.75 0 0.5] CT
1 0 1 RC
2 setlinecap
10.0 ML
2.667 LW
N
404.572 585.5 M
409.191 585.5 L
411.5 581.5 L
413.809 585.5 L
418.428 585.5 L
415.5 589.5 L
418.428 593.5 L
413.809 593.5 L
411.5 597.5 L
409.191 593.5 L
404.572 593.5 L
407.5 589.5 L
404.572 585.5 L
S
GR
GS
[0.75 0 0 0.75 0 0.5] CT
1 0 1 RC
2 setlinecap
10.0 ML
2.667 LW
N
455.572 486.5 M
460.191 486.5 L
462.5 482.5 L
464.809 486.5 L
469.428 486.5 L
466.5 490.5 L
469.428 494.5 L
464.809 494.5 L
462.5 498.5 L
460.191 494.5 L
455.572 494.5 L
458.5 490.5 L
455.572 486.5 L
S
GR
GS
[0.75 0 0 0.75 0 0.5] CT
1 0 1 RC
2 setlinecap
10.0 ML
2.667 LW
N
506.572 433.5 M
511.191 433.5 L
513.5 429.5 L
515.809 433.5 L
520.428 433.5 L
517.5 437.5 L
520.428 441.5 L
515.809 441.5 L
513.5 445.5 L
511.191 441.5 L
506.572 441.5 L
509.5 437.5 L
506.572 433.5 L
S
GR
GS
[0.75 0 0 0.75 0 0.5] CT
1 0 1 RC
2 setlinecap
10.0 ML
2.667 LW
N
556.572 404.5 M
561.191 404.5 L
563.5 400.5 L
565.809 404.5 L
570.428 404.5 L
567.5 408.5 L
570.428 412.5 L
565.809 412.5 L
563.5 416.5 L
561.191 412.5 L
556.572 412.5 L
559.5 408.5 L
556.572 404.5 L
S
GR
GS
[0.75 0 0 0.75 0 0.5] CT
1 0 1 RC
2 setlinecap
10.0 ML
2.667 LW
N
607.572 339.5 M
612.191 339.5 L
614.5 335.5 L
616.809 339.5 L
621.428 339.5 L
618.5 343.5 L
621.428 347.5 L
616.809 347.5 L
614.5 351.5 L
612.191 347.5 L
607.572 347.5 L
610.5 343.5 L
607.572 339.5 L
S
GR
GS
[0.75 0 0 0.75 0 0.5] CT
1 0 1 RC
2 setlinecap
10.0 ML
2.667 LW
N
658.572 336.5 M
663.191 336.5 L
665.5 332.5 L
667.809 336.5 L
672.428 336.5 L
669.5 340.5 L
672.428 344.5 L
667.809 344.5 L
665.5 348.5 L
663.191 344.5 L
658.572 344.5 L
661.5 340.5 L
658.572 336.5 L
S
GR
GS
[0.75 0 0 0.75 0 0.5] CT
1 0 1 RC
2 setlinecap
10.0 ML
2.667 LW
N
708.572 285.5 M
713.191 285.5 L
715.5 281.5 L
717.809 285.5 L
722.428 285.5 L
719.5 289.5 L
722.428 293.5 L
717.809 293.5 L
715.5 297.5 L
713.191 293.5 L
708.572 293.5 L
711.5 289.5 L
708.572 285.5 L
S
GR
GS
[0.75 0 0 0.75 0 0.5] CT
1 0 1 RC
2 setlinecap
10.0 ML
2.667 LW
N
759.572 257.5 M
764.191 257.5 L
766.5 253.5 L
768.809 257.5 L
773.428 257.5 L
770.5 261.5 L
773.428 265.5 L
768.809 265.5 L
766.5 269.5 L
764.191 265.5 L
759.572 265.5 L
762.5 261.5 L
759.572 257.5 L
S
GR
GS
[0.75 0 0 0.75 0 0.5] CT
1 0 1 RC
2 setlinecap
10.0 ML
2.667 LW
N
809.572 237.5 M
814.191 237.5 L
816.5 233.5 L
818.809 237.5 L
823.428 237.5 L
820.5 241.5 L
823.428 245.5 L
818.809 245.5 L
816.5 249.5 L
814.191 245.5 L
809.572 245.5 L
812.5 241.5 L
809.572 237.5 L
S
GR
GS
[0.75 0 0 0.75 0 0.5] CT
1 0 1 RC
2 setlinecap
10.0 ML
2.667 LW
N
860.572 232.5 M
865.191 232.5 L
867.5 228.5 L
869.809 232.5 L
874.428 232.5 L
871.5 236.5 L
874.428 240.5 L
869.809 240.5 L
867.5 244.5 L
865.191 240.5 L
860.572 240.5 L
863.5 236.5 L
860.572 232.5 L
S
GR
GS
[0.75 0 0 0.75 0 0.5] CT
1 0 1 RC
2 setlinecap
10.0 ML
2.667 LW
N
911.572 223.5 M
916.191 223.5 L
918.5 219.5 L
920.809 223.5 L
925.428 223.5 L
922.5 227.5 L
925.428 231.5 L
920.809 231.5 L
918.5 235.5 L
916.191 231.5 L
911.572 231.5 L
914.5 227.5 L
911.572 223.5 L
S
GR
GS
[0.75 0 0 0.75 0 0.5] CT
1 0 1 RC
2 setlinecap
10.0 ML
2.667 LW
N
961.572 200.5 M
966.191 200.5 L
968.5 196.5 L
970.809 200.5 L
975.428 200.5 L
972.5 204.5 L
975.428 208.5 L
970.809 208.5 L
968.5 212.5 L
966.191 208.5 L
961.572 208.5 L
964.5 204.5 L
961.572 200.5 L
S
GR
GS
[0.75 0 0 0.75 0 0.5] CT
1 0 1 RC
2 setlinecap
10.0 ML
2.667 LW
N
1012.572 186.5 M
1017.191 186.5 L
1019.5 182.5 L
1021.809 186.5 L
1026.428 186.5 L
1023.5 190.5 L
1026.428 194.5 L
1021.809 194.5 L
1019.5 198.5 L
1017.191 194.5 L
1012.572 194.5 L
1015.5 190.5 L
1012.572 186.5 L
S
GR
GS
[0.75 0 0 0.75 0 0.5] CT
1 0 1 RC
2 setlinecap
10.0 ML
2.667 LW
N
1062.572 141.5 M
1067.191 141.5 L
1069.5 137.5 L
1071.809 141.5 L
1076.428 141.5 L
1073.5 145.5 L
1076.428 149.5 L
1071.809 149.5 L
1069.5 153.5 L
1067.191 149.5 L
1062.572 149.5 L
1065.5 145.5 L
1062.572 141.5 L
S
GR
GS
[0.75 0 0 0.75 0 0.5] CT
1 0 1 RC
2 setlinecap
10.0 ML
2.667 LW
N
1113.572 155.5 M
1118.191 155.5 L
1120.5 151.5 L
1122.809 155.5 L
1127.428 155.5 L
1124.5 159.5 L
1127.428 163.5 L
1122.809 163.5 L
1120.5 167.5 L
1118.191 163.5 L
1113.572 163.5 L
1116.5 159.5 L
1113.572 155.5 L
S
GR
GS
[0.75 0 0 0.75 0 0.5] CT
1 0 1 RC
2 setlinecap
10.0 ML
2.667 LW
N
1164.572 167.5 M
1169.191 167.5 L
1171.5 163.5 L
1173.809 167.5 L
1178.428 167.5 L
1175.5 171.5 L
1178.428 175.5 L
1173.809 175.5 L
1171.5 179.5 L
1169.191 175.5 L
1164.572 175.5 L
1167.5 171.5 L
1164.572 167.5 L
S
GR
GS
[0.75 0 0 0.75 0 0.5] CT
1 0 1 RC
2 setlinecap
10.0 ML
2.667 LW
N
1214.572 169.5 M
1219.191 169.5 L
1221.5 165.5 L
1223.809 169.5 L
1228.428 169.5 L
1225.5 173.5 L
1228.428 177.5 L
1223.809 177.5 L
1221.5 181.5 L
1219.191 177.5 L
1214.572 177.5 L
1217.5 173.5 L
1214.572 169.5 L
S
GR
GS
[0.75 0 0 0.75 0 0.5] CT
1 0 1 RC
2 setlinecap
10.0 ML
2.667 LW
N
1265.572 138.5 M
1270.191 138.5 L
1272.5 134.5 L
1274.809 138.5 L
1279.428 138.5 L
1276.5 142.5 L
1279.428 146.5 L
1274.809 146.5 L
1272.5 150.5 L
1270.191 146.5 L
1265.572 146.5 L
1268.5 142.5 L
1265.572 138.5 L
S
GR
GS
[0.75 0 0 0.75 0 0.5] CT
1 0 1 RC
2 setlinecap
10.0 ML
2.667 LW
N
1315.572 144.5 M
1320.191 144.5 L
1322.5 140.5 L
1324.809 144.5 L
1329.428 144.5 L
1326.5 148.5 L
1329.428 152.5 L
1324.809 152.5 L
1322.5 156.5 L
1320.191 152.5 L
1315.572 152.5 L
1318.5 148.5 L
1315.572 144.5 L
S
GR
GS
[0.75 0 0 0.75 0 0.5] CT
1 0 1 RC
2 setlinecap
10.0 ML
2.667 LW
N
1366.572 141.5 M
1371.191 141.5 L
1373.5 137.5 L
1375.809 141.5 L
1380.428 141.5 L
1377.5 145.5 L
1380.428 149.5 L
1375.809 149.5 L
1373.5 153.5 L
1371.191 149.5 L
1366.572 149.5 L
1369.5 145.5 L
1366.572 141.5 L
S
GR
GS
[0.75 0 0 0.75 0 0.5] CT
1 0 1 RC
2 setlinecap
10.0 ML
2.667 LW
N
1417.572 121.5 M
1422.191 121.5 L
1424.5 117.5 L
1426.809 121.5 L
1431.428 121.5 L
1428.5 125.5 L
1431.428 129.5 L
1426.809 129.5 L
1424.5 133.5 L
1422.191 129.5 L
1417.572 129.5 L
1420.5 125.5 L
1417.572 121.5 L
S
GR
GS
[0.75 0 0 0.75 0 0.5] CT
1 0 1 RC
2 setlinecap
10.0 ML
2.667 LW
N
1467.572 127.5 M
1472.191 127.5 L
1474.5 123.5 L
1476.809 127.5 L
1481.428 127.5 L
1478.5 131.5 L
1481.428 135.5 L
1476.809 135.5 L
1474.5 139.5 L
1472.191 135.5 L
1467.572 135.5 L
1470.5 131.5 L
1467.572 127.5 L
S
GR
GS
[0.75 0 0 0.75 0 0.5] CT
1 0 1 RC
2 setlinecap
10.0 ML
2.667 LW
N
1518.572 110.5 M
1523.191 110.5 L
1525.5 106.5 L
1527.809 110.5 L
1532.428 110.5 L
1529.5 114.5 L
1532.428 118.5 L
1527.809 118.5 L
1525.5 122.5 L
1523.191 118.5 L
1518.572 118.5 L
1521.5 114.5 L
1518.572 110.5 L
S
GR
GS
[0.75 0 0 0.75 0 0.5] CT
1 0 1 RC
2 setlinecap
10.0 ML
2.667 LW
N
1569.572 104.5 M
1574.191 104.5 L
1576.5 100.5 L
1578.809 104.5 L
1583.428 104.5 L
1580.5 108.5 L
1583.428 112.5 L
1578.809 112.5 L
1576.5 116.5 L
1574.191 112.5 L
1569.572 112.5 L
1572.5 108.5 L
1569.572 104.5 L
S
GR
GS
[0.75 0 0 0.75 0 0.5] CT
1 0 1 RC
2 setlinecap
10.0 ML
2.667 LW
N
1619.572 93.5 M
1624.191 93.5 L
1626.5 89.5 L
1628.809 93.5 L
1633.428 93.5 L
1630.5 97.5 L
1633.428 101.5 L
1628.809 101.5 L
1626.5 105.5 L
1624.191 101.5 L
1619.572 101.5 L
1622.5 97.5 L
1619.572 93.5 L
S
GR
GS
[0.75 0 0 0.75 0 0.5] CT
1 0 1 RC
2 setlinecap
10.0 ML
2.667 LW
N
1670.572 118.5 M
1675.191 118.5 L
1677.5 114.5 L
1679.809 118.5 L
1684.428 118.5 L
1681.5 122.5 L
1684.428 126.5 L
1679.809 126.5 L
1677.5 130.5 L
1675.191 126.5 L
1670.572 126.5 L
1673.5 122.5 L
1670.572 118.5 L
S
GR
GS
[0.75 0 0 0.75 0 0.5] CT
1 0 1 RC
2 setlinecap
10.0 ML
2.667 LW
N
1720.572 104.5 M
1725.191 104.5 L
1727.5 100.5 L
1729.809 104.5 L
1734.428 104.5 L
1731.5 108.5 L
1734.428 112.5 L
1729.809 112.5 L
1727.5 116.5 L
1725.191 112.5 L
1720.572 112.5 L
1723.5 108.5 L
1720.572 104.5 L
S
GR
GS
[0.75 0 0 0.75 0 0.5] CT
0 0.502 0 RC
[8 8] 0 setdash
2 LJ
2.667 LW
N
260.122 830.362 M
310.735 830.362 L
361.347 824.703 L
411.959 799.236 L
462.571 779.428 L
513.184 703.025 L
563.796 691.707 L
614.408 620.964 L
665.02 612.475 L
715.633 530.413 L
766.245 504.946 L
816.857 468.159 L
867.469 482.308 L
918.082 439.862 L
968.694 420.054 L
1019.306 377.609 L
1069.918 329.504 L
1120.531 349.312 L
1171.143 329.504 L
1221.755 323.844 L
1272.367 289.888 L
1322.98 255.931 L
1373.592 275.739 L
1424.204 264.42 L
1474.816 258.761 L
1525.429 247.442 L
1576.041 227.634 L
1626.653 207.826 L
1677.265 233.293 L
1727.878 210.656 L
S
GR
GS
[0.75 0 0 0.75 0 0.5] CT
0 0.502 0 RC
2 setlinecap
10.0 ML
2.667 LW
N
255.3 835.7 M
255.3 825.3 L
265.7 825.3 L
265.7 835.7 L
255.3 835.7 L
S
GR
GS
[0.75 0 0 0.75 0 0.5] CT
0 0.502 0 RC
2 setlinecap
10.0 ML
2.667 LW
N
305.3 835.7 M
305.3 825.3 L
315.7 825.3 L
315.7 835.7 L
305.3 835.7 L
S
GR
GS
[0.75 0 0 0.75 0 0.5] CT
0 0.502 0 RC
2 setlinecap
10.0 ML
2.667 LW
N
356.3 829.7 M
356.3 819.3 L
366.7 819.3 L
366.7 829.7 L
356.3 829.7 L
S
GR
GS
[0.75 0 0 0.75 0 0.5] CT
0 0.502 0 RC
2 setlinecap
10.0 ML
2.667 LW
N
406.3 804.7 M
406.3 794.3 L
416.7 794.3 L
416.7 804.7 L
406.3 804.7 L
S
GR
GS
[0.75 0 0 0.75 0 0.5] CT
0 0.502 0 RC
2 setlinecap
10.0 ML
2.667 LW
N
457.3 784.7 M
457.3 774.3 L
467.7 774.3 L
467.7 784.7 L
457.3 784.7 L
S
GR
GS
[0.75 0 0 0.75 0 0.5] CT
0 0.502 0 RC
2 setlinecap
10.0 ML
2.667 LW
N
508.3 708.7 M
508.3 698.3 L
518.7 698.3 L
518.7 708.7 L
508.3 708.7 L
S
GR
GS
[0.75 0 0 0.75 0 0.5] CT
0 0.502 0 RC
2 setlinecap
10.0 ML
2.667 LW
N
558.3 696.7 M
558.3 686.3 L
568.7 686.3 L
568.7 696.7 L
558.3 696.7 L
S
GR
GS
[0.75 0 0 0.75 0 0.5] CT
0 0.502 0 RC
2 setlinecap
10.0 ML
2.667 LW
N
609.3 625.7 M
609.3 615.3 L
619.7 615.3 L
619.7 625.7 L
609.3 625.7 L
S
GR
GS
[0.75 0 0 0.75 0 0.5] CT
0 0.502 0 RC
2 setlinecap
10.0 ML
2.667 LW
N
660.3 617.7 M
660.3 607.3 L
670.7 607.3 L
670.7 617.7 L
660.3 617.7 L
S
GR
GS
[0.75 0 0 0.75 0 0.5] CT
0 0.502 0 RC
2 setlinecap
10.0 ML
2.667 LW
N
710.3 535.7 M
710.3 525.3 L
720.7 525.3 L
720.7 535.7 L
710.3 535.7 L
S
GR
GS
[0.75 0 0 0.75 0 0.5] CT
0 0.502 0 RC
2 setlinecap
10.0 ML
2.667 LW
N
761.3 509.7 M
761.3 499.3 L
771.7 499.3 L
771.7 509.7 L
761.3 509.7 L
S
GR
GS
[0.75 0 0 0.75 0 0.5] CT
0 0.502 0 RC
2 setlinecap
10.0 ML
2.667 LW
N
811.3 473.7 M
811.3 463.3 L
821.7 463.3 L
821.7 473.7 L
811.3 473.7 L
S
GR
GS
[0.75 0 0 0.75 0 0.5] CT
0 0.502 0 RC
2 setlinecap
10.0 ML
2.667 LW
N
862.3 487.7 M
862.3 477.3 L
872.7 477.3 L
872.7 487.7 L
862.3 487.7 L
S
GR
GS
[0.75 0 0 0.75 0 0.5] CT
0 0.502 0 RC
2 setlinecap
10.0 ML
2.667 LW
N
913.3 444.7 M
913.3 434.3 L
923.7 434.3 L
923.7 444.7 L
913.3 444.7 L
S
GR
GS
[0.75 0 0 0.75 0 0.5] CT
0 0.502 0 RC
2 setlinecap
10.0 ML
2.667 LW
N
963.3 425.7 M
963.3 415.3 L
973.7 415.3 L
973.7 425.7 L
963.3 425.7 L
S
GR
GS
[0.75 0 0 0.75 0 0.5] CT
0 0.502 0 RC
2 setlinecap
10.0 ML
2.667 LW
N
1014.3 382.7 M
1014.3 372.3 L
1024.7 372.3 L
1024.7 382.7 L
1014.3 382.7 L
S
GR
GS
[0.75 0 0 0.75 0 0.5] CT
0 0.502 0 RC
2 setlinecap
10.0 ML
2.667 LW
N
1064.3 334.7 M
1064.3 324.3 L
1074.7 324.3 L
1074.7 334.7 L
1064.3 334.7 L
S
GR
GS
[0.75 0 0 0.75 0 0.5] CT
0 0.502 0 RC
2 setlinecap
10.0 ML
2.667 LW
N
1115.3 354.7 M
1115.3 344.3 L
1125.7 344.3 L
1125.7 354.7 L
1115.3 354.7 L
S
GR
GS
[0.75 0 0 0.75 0 0.5] CT
0 0.502 0 RC
2 setlinecap
10.0 ML
2.667 LW
N
1166.3 334.7 M
1166.3 324.3 L
1176.7 324.3 L
1176.7 334.7 L
1166.3 334.7 L
S
GR
GS
[0.75 0 0 0.75 0 0.5] CT
0 0.502 0 RC
2 setlinecap
10.0 ML
2.667 LW
N
1216.3 328.7 M
1216.3 318.3 L
1226.7 318.3 L
1226.7 328.7 L
1216.3 328.7 L
S
GR
GS
[0.75 0 0 0.75 0 0.5] CT
0 0.502 0 RC
2 setlinecap
10.0 ML
2.667 LW
N
1267.3 294.7 M
1267.3 284.3 L
1277.7 284.3 L
1277.7 294.7 L
1267.3 294.7 L
S
GR
GS
[0.75 0 0 0.75 0 0.5] CT
0 0.502 0 RC
2 setlinecap
10.0 ML
2.667 LW
N
1317.3 260.7 M
1317.3 250.3 L
1327.7 250.3 L
1327.7 260.7 L
1317.3 260.7 L
S
GR
GS
[0.75 0 0 0.75 0 0.5] CT
0 0.502 0 RC
2 setlinecap
10.0 ML
2.667 LW
N
1368.3 280.7 M
1368.3 270.3 L
1378.7 270.3 L
1378.7 280.7 L
1368.3 280.7 L
S
GR
GS
[0.75 0 0 0.75 0 0.5] CT
0 0.502 0 RC
2 setlinecap
10.0 ML
2.667 LW
N
1419.3 269.7 M
1419.3 259.3 L
1429.7 259.3 L
1429.7 269.7 L
1419.3 269.7 L
S
GR
GS
[0.75 0 0 0.75 0 0.5] CT
0 0.502 0 RC
2 setlinecap
10.0 ML
2.667 LW
N
1469.3 263.7 M
1469.3 253.3 L
1479.7 253.3 L
1479.7 263.7 L
1469.3 263.7 L
S
GR
GS
[0.75 0 0 0.75 0 0.5] CT
0 0.502 0 RC
2 setlinecap
10.0 ML
2.667 LW
N
1520.3 252.7 M
1520.3 242.3 L
1530.7 242.3 L
1530.7 252.7 L
1520.3 252.7 L
S
GR
GS
[0.75 0 0 0.75 0 0.5] CT
0 0.502 0 RC
2 setlinecap
10.0 ML
2.667 LW
N
1571.3 232.7 M
1571.3 222.3 L
1581.7 222.3 L
1581.7 232.7 L
1571.3 232.7 L
S
GR
GS
[0.75 0 0 0.75 0 0.5] CT
0 0.502 0 RC
2 setlinecap
10.0 ML
2.667 LW
N
1621.3 212.7 M
1621.3 202.3 L
1631.7 202.3 L
1631.7 212.7 L
1621.3 212.7 L
S
GR
GS
[0.75 0 0 0.75 0 0.5] CT
0 0.502 0 RC
2 setlinecap
10.0 ML
2.667 LW
N
1672.3 238.7 M
1672.3 228.3 L
1682.7 228.3 L
1682.7 238.7 L
1672.3 238.7 L
S
GR
GS
[0.75 0 0 0.75 0 0.5] CT
0 0.502 0 RC
2 setlinecap
10.0 ML
2.667 LW
N
1722.3 215.7 M
1722.3 205.3 L
1732.7 205.3 L
1732.7 215.7 L
1722.3 215.7 L
S
GR
GS
[0.75 0 0 0.75 0 0.5] CT
1 0 0 RC
[8 8] 0 setdash
2 LJ
2.667 LW
N
260.122 836.022 M
310.735 836.022 L
361.347 827.533 L
411.959 804.895 L
462.571 787.917 L
513.184 720.004 L
563.796 703.025 L
614.408 626.623 L
665.02 615.304 L
715.633 533.243 L
766.245 516.264 L
816.857 462.5 L
867.469 487.967 L
918.082 448.351 L
968.694 411.565 L
1019.306 377.609 L
1069.918 340.822 L
1120.531 354.971 L
1171.143 332.333 L
1221.755 340.822 L
1272.367 298.377 L
1322.98 287.058 L
1373.592 284.228 L
1424.204 272.909 L
1474.816 267.25 L
1525.429 258.761 L
1576.041 230.464 L
1626.653 204.996 L
1677.265 241.783 L
1727.878 210.656 L
S
GR
GS
[0.75 0 0 0.75 0 0.5] CT
1 0 0 RC
2 setlinecap
10.0 ML
2.667 LW
N
256 836.5 M
265 836.5 L
S
GR
GS
[0.75 0 0 0.75 0 0.5] CT
1 0 0 RC
2 setlinecap
10.0 ML
2.667 LW
N
260.5 841 M
260.5 832 L
S
GR
GS
[0.75 0 0 0.75 0 0.5] CT
1 0 0 RC
2 setlinecap
10.0 ML
2.667 LW
N
257 840 M
264 833 L
S
GR
GS
[0.75 0 0 0.75 0 0.5] CT
1 0 0 RC
2 setlinecap
10.0 ML
2.667 LW
N
257 833 M
264 840 L
S
GR
GS
[0.75 0 0 0.75 0 0.5] CT
1 0 0 RC
2 setlinecap
10.0 ML
2.667 LW
N
306 836.5 M
315 836.5 L
S
GR
GS
[0.75 0 0 0.75 0 0.5] CT
1 0 0 RC
2 setlinecap
10.0 ML
2.667 LW
N
310.5 841 M
310.5 832 L
S
GR
GS
[0.75 0 0 0.75 0 0.5] CT
1 0 0 RC
2 setlinecap
10.0 ML
2.667 LW
N
307 840 M
314 833 L
S
GR
GS
[0.75 0 0 0.75 0 0.5] CT
1 0 0 RC
2 setlinecap
10.0 ML
2.667 LW
N
307 833 M
314 840 L
S
GR
GS
[0.75 0 0 0.75 0 0.5] CT
1 0 0 RC
2 setlinecap
10.0 ML
2.667 LW
N
357 827.5 M
366 827.5 L
S
GR
GS
[0.75 0 0 0.75 0 0.5] CT
1 0 0 RC
2 setlinecap
10.0 ML
2.667 LW
N
361.5 832 M
361.5 823 L
S
GR
GS
[0.75 0 0 0.75 0 0.5] CT
1 0 0 RC
2 setlinecap
10.0 ML
2.667 LW
N
358 831 M
365 824 L
S
GR
GS
[0.75 0 0 0.75 0 0.5] CT
1 0 0 RC
2 setlinecap
10.0 ML
2.667 LW
N
358 824 M
365 831 L
S
GR
GS
[0.75 0 0 0.75 0 0.5] CT
1 0 0 RC
2 setlinecap
10.0 ML
2.667 LW
N
407 804.5 M
416 804.5 L
S
GR
GS
[0.75 0 0 0.75 0 0.5] CT
1 0 0 RC
2 setlinecap
10.0 ML
2.667 LW
N
411.5 809 M
411.5 800 L
S
GR
GS
[0.75 0 0 0.75 0 0.5] CT
1 0 0 RC
2 setlinecap
10.0 ML
2.667 LW
N
408 808 M
415 801 L
S
GR
GS
[0.75 0 0 0.75 0 0.5] CT
1 0 0 RC
2 setlinecap
10.0 ML
2.667 LW
N
408 801 M
415 808 L
S
GR
GS
[0.75 0 0 0.75 0 0.5] CT
1 0 0 RC
2 setlinecap
10.0 ML
2.667 LW
N
458 787.5 M
467 787.5 L
S
GR
GS
[0.75 0 0 0.75 0 0.5] CT
1 0 0 RC
2 setlinecap
10.0 ML
2.667 LW
N
462.5 792 M
462.5 783 L
S
GR
GS
[0.75 0 0 0.75 0 0.5] CT
1 0 0 RC
2 setlinecap
10.0 ML
2.667 LW
N
459 791 M
466 784 L
S
GR
GS
[0.75 0 0 0.75 0 0.5] CT
1 0 0 RC
2 setlinecap
10.0 ML
2.667 LW
N
459 784 M
466 791 L
S
GR
GS
[0.75 0 0 0.75 0 0.5] CT
1 0 0 RC
2 setlinecap
10.0 ML
2.667 LW
N
509 720.5 M
518 720.5 L
S
GR
GS
[0.75 0 0 0.75 0 0.5] CT
1 0 0 RC
2 setlinecap
10.0 ML
2.667 LW
N
513.5 725 M
513.5 716 L
S
GR
GS
[0.75 0 0 0.75 0 0.5] CT
1 0 0 RC
2 setlinecap
10.0 ML
2.667 LW
N
510 724 M
517 717 L
S
GR
GS
[0.75 0 0 0.75 0 0.5] CT
1 0 0 RC
2 setlinecap
10.0 ML
2.667 LW
N
510 717 M
517 724 L
S
GR
GS
[0.75 0 0 0.75 0 0.5] CT
1 0 0 RC
2 setlinecap
10.0 ML
2.667 LW
N
559 703.5 M
568 703.5 L
S
GR
GS
[0.75 0 0 0.75 0 0.5] CT
1 0 0 RC
2 setlinecap
10.0 ML
2.667 LW
N
563.5 708 M
563.5 699 L
S
GR
GS
[0.75 0 0 0.75 0 0.5] CT
1 0 0 RC
2 setlinecap
10.0 ML
2.667 LW
N
560 707 M
567 700 L
S
GR
GS
[0.75 0 0 0.75 0 0.5] CT
1 0 0 RC
2 setlinecap
10.0 ML
2.667 LW
N
560 700 M
567 707 L
S
GR
GS
[0.75 0 0 0.75 0 0.5] CT
1 0 0 RC
2 setlinecap
10.0 ML
2.667 LW
N
610 626.5 M
619 626.5 L
S
GR
GS
[0.75 0 0 0.75 0 0.5] CT
1 0 0 RC
2 setlinecap
10.0 ML
2.667 LW
N
614.5 631 M
614.5 622 L
S
GR
GS
[0.75 0 0 0.75 0 0.5] CT
1 0 0 RC
2 setlinecap
10.0 ML
2.667 LW
N
611 630 M
618 623 L
S
GR
GS
[0.75 0 0 0.75 0 0.5] CT
1 0 0 RC
2 setlinecap
10.0 ML
2.667 LW
N
611 623 M
618 630 L
S
GR
GS
[0.75 0 0 0.75 0 0.5] CT
1 0 0 RC
2 setlinecap
10.0 ML
2.667 LW
N
661 615.5 M
670 615.5 L
S
GR
GS
[0.75 0 0 0.75 0 0.5] CT
1 0 0 RC
2 setlinecap
10.0 ML
2.667 LW
N
665.5 620 M
665.5 611 L
S
GR
GS
[0.75 0 0 0.75 0 0.5] CT
1 0 0 RC
2 setlinecap
10.0 ML
2.667 LW
N
662 619 M
669 612 L
S
GR
GS
[0.75 0 0 0.75 0 0.5] CT
1 0 0 RC
2 setlinecap
10.0 ML
2.667 LW
N
662 612 M
669 619 L
S
GR
GS
[0.75 0 0 0.75 0 0.5] CT
1 0 0 RC
2 setlinecap
10.0 ML
2.667 LW
N
711 533.5 M
720 533.5 L
S
GR
GS
[0.75 0 0 0.75 0 0.5] CT
1 0 0 RC
2 setlinecap
10.0 ML
2.667 LW
N
715.5 538 M
715.5 529 L
S
GR
GS
[0.75 0 0 0.75 0 0.5] CT
1 0 0 RC
2 setlinecap
10.0 ML
2.667 LW
N
712 537 M
719 530 L
S
GR
GS
[0.75 0 0 0.75 0 0.5] CT
1 0 0 RC
2 setlinecap
10.0 ML
2.667 LW
N
712 530 M
719 537 L
S
GR
GS
[0.75 0 0 0.75 0 0.5] CT
1 0 0 RC
2 setlinecap
10.0 ML
2.667 LW
N
762 516.5 M
771 516.5 L
S
GR
GS
[0.75 0 0 0.75 0 0.5] CT
1 0 0 RC
2 setlinecap
10.0 ML
2.667 LW
N
766.5 521 M
766.5 512 L
S
GR
GS
[0.75 0 0 0.75 0 0.5] CT
1 0 0 RC
2 setlinecap
10.0 ML
2.667 LW
N
763 520 M
770 513 L
S
GR
GS
[0.75 0 0 0.75 0 0.5] CT
1 0 0 RC
2 setlinecap
10.0 ML
2.667 LW
N
763 513 M
770 520 L
S
GR
GS
[0.75 0 0 0.75 0 0.5] CT
1 0 0 RC
2 setlinecap
10.0 ML
2.667 LW
N
812 462.5 M
821 462.5 L
S
GR
GS
[0.75 0 0 0.75 0 0.5] CT
1 0 0 RC
2 setlinecap
10.0 ML
2.667 LW
N
816.5 467 M
816.5 458 L
S
GR
GS
[0.75 0 0 0.75 0 0.5] CT
1 0 0 RC
2 setlinecap
10.0 ML
2.667 LW
N
813 466 M
820 459 L
S
GR
GS
[0.75 0 0 0.75 0 0.5] CT
1 0 0 RC
2 setlinecap
10.0 ML
2.667 LW
N
813 459 M
820 466 L
S
GR
GS
[0.75 0 0 0.75 0 0.5] CT
1 0 0 RC
2 setlinecap
10.0 ML
2.667 LW
N
863 487.5 M
872 487.5 L
S
GR
GS
[0.75 0 0 0.75 0 0.5] CT
1 0 0 RC
2 setlinecap
10.0 ML
2.667 LW
N
867.5 492 M
867.5 483 L
S
GR
GS
[0.75 0 0 0.75 0 0.5] CT
1 0 0 RC
2 setlinecap
10.0 ML
2.667 LW
N
864 491 M
871 484 L
S
GR
GS
[0.75 0 0 0.75 0 0.5] CT
1 0 0 RC
2 setlinecap
10.0 ML
2.667 LW
N
864 484 M
871 491 L
S
GR
GS
[0.75 0 0 0.75 0 0.5] CT
1 0 0 RC
2 setlinecap
10.0 ML
2.667 LW
N
914 448.5 M
923 448.5 L
S
GR
GS
[0.75 0 0 0.75 0 0.5] CT
1 0 0 RC
2 setlinecap
10.0 ML
2.667 LW
N
918.5 453 M
918.5 444 L
S
GR
GS
[0.75 0 0 0.75 0 0.5] CT
1 0 0 RC
2 setlinecap
10.0 ML
2.667 LW
N
915 452 M
922 445 L
S
GR
GS
[0.75 0 0 0.75 0 0.5] CT
1 0 0 RC
2 setlinecap
10.0 ML
2.667 LW
N
915 445 M
922 452 L
S
GR
GS
[0.75 0 0 0.75 0 0.5] CT
1 0 0 RC
2 setlinecap
10.0 ML
2.667 LW
N
964 411.5 M
973 411.5 L
S
GR
GS
[0.75 0 0 0.75 0 0.5] CT
1 0 0 RC
2 setlinecap
10.0 ML
2.667 LW
N
968.5 416 M
968.5 407 L
S
GR
GS
[0.75 0 0 0.75 0 0.5] CT
1 0 0 RC
2 setlinecap
10.0 ML
2.667 LW
N
965 415 M
972 408 L
S
GR
GS
[0.75 0 0 0.75 0 0.5] CT
1 0 0 RC
2 setlinecap
10.0 ML
2.667 LW
N
965 408 M
972 415 L
S
GR
GS
[0.75 0 0 0.75 0 0.5] CT
1 0 0 RC
2 setlinecap
10.0 ML
2.667 LW
N
1015 377.5 M
1024 377.5 L
S
GR
GS
[0.75 0 0 0.75 0 0.5] CT
1 0 0 RC
2 setlinecap
10.0 ML
2.667 LW
N
1019.5 382 M
1019.5 373 L
S
GR
GS
[0.75 0 0 0.75 0 0.5] CT
1 0 0 RC
2 setlinecap
10.0 ML
2.667 LW
N
1016 381 M
1023 374 L
S
GR
GS
[0.75 0 0 0.75 0 0.5] CT
1 0 0 RC
2 setlinecap
10.0 ML
2.667 LW
N
1016 374 M
1023 381 L
S
GR
GS
[0.75 0 0 0.75 0 0.5] CT
1 0 0 RC
2 setlinecap
10.0 ML
2.667 LW
N
1065 340.5 M
1074 340.5 L
S
GR
GS
[0.75 0 0 0.75 0 0.5] CT
1 0 0 RC
2 setlinecap
10.0 ML
2.667 LW
N
1069.5 345 M
1069.5 336 L
S
GR
GS
[0.75 0 0 0.75 0 0.5] CT
1 0 0 RC
2 setlinecap
10.0 ML
2.667 LW
N
1066 344 M
1073 337 L
S
GR
GS
[0.75 0 0 0.75 0 0.5] CT
1 0 0 RC
2 setlinecap
10.0 ML
2.667 LW
N
1066 337 M
1073 344 L
S
GR
GS
[0.75 0 0 0.75 0 0.5] CT
1 0 0 RC
2 setlinecap
10.0 ML
2.667 LW
N
1116 354.5 M
1125 354.5 L
S
GR
GS
[0.75 0 0 0.75 0 0.5] CT
1 0 0 RC
2 setlinecap
10.0 ML
2.667 LW
N
1120.5 359 M
1120.5 350 L
S
GR
GS
[0.75 0 0 0.75 0 0.5] CT
1 0 0 RC
2 setlinecap
10.0 ML
2.667 LW
N
1117 358 M
1124 351 L
S
GR
GS
[0.75 0 0 0.75 0 0.5] CT
1 0 0 RC
2 setlinecap
10.0 ML
2.667 LW
N
1117 351 M
1124 358 L
S
GR
GS
[0.75 0 0 0.75 0 0.5] CT
1 0 0 RC
2 setlinecap
10.0 ML
2.667 LW
N
1167 332.5 M
1176 332.5 L
S
GR
GS
[0.75 0 0 0.75 0 0.5] CT
1 0 0 RC
2 setlinecap
10.0 ML
2.667 LW
N
1171.5 337 M
1171.5 328 L
S
GR
GS
[0.75 0 0 0.75 0 0.5] CT
1 0 0 RC
2 setlinecap
10.0 ML
2.667 LW
N
1168 336 M
1175 329 L
S
GR
GS
[0.75 0 0 0.75 0 0.5] CT
1 0 0 RC
2 setlinecap
10.0 ML
2.667 LW
N
1168 329 M
1175 336 L
S
GR
GS
[0.75 0 0 0.75 0 0.5] CT
1 0 0 RC
2 setlinecap
10.0 ML
2.667 LW
N
1217 340.5 M
1226 340.5 L
S
GR
GS
[0.75 0 0 0.75 0 0.5] CT
1 0 0 RC
2 setlinecap
10.0 ML
2.667 LW
N
1221.5 345 M
1221.5 336 L
S
GR
GS
[0.75 0 0 0.75 0 0.5] CT
1 0 0 RC
2 setlinecap
10.0 ML
2.667 LW
N
1218 344 M
1225 337 L
S
GR
GS
[0.75 0 0 0.75 0 0.5] CT
1 0 0 RC
2 setlinecap
10.0 ML
2.667 LW
N
1218 337 M
1225 344 L
S
GR
GS
[0.75 0 0 0.75 0 0.5] CT
1 0 0 RC
2 setlinecap
10.0 ML
2.667 LW
N
1268 298.5 M
1277 298.5 L
S
GR
GS
[0.75 0 0 0.75 0 0.5] CT
1 0 0 RC
2 setlinecap
10.0 ML
2.667 LW
N
1272.5 303 M
1272.5 294 L
S
GR
GS
[0.75 0 0 0.75 0 0.5] CT
1 0 0 RC
2 setlinecap
10.0 ML
2.667 LW
N
1269 302 M
1276 295 L
S
GR
GS
[0.75 0 0 0.75 0 0.5] CT
1 0 0 RC
2 setlinecap
10.0 ML
2.667 LW
N
1269 295 M
1276 302 L
S
GR
GS
[0.75 0 0 0.75 0 0.5] CT
1 0 0 RC
2 setlinecap
10.0 ML
2.667 LW
N
1318 287.5 M
1327 287.5 L
S
GR
GS
[0.75 0 0 0.75 0 0.5] CT
1 0 0 RC
2 setlinecap
10.0 ML
2.667 LW
N
1322.5 292 M
1322.5 283 L
S
GR
GS
[0.75 0 0 0.75 0 0.5] CT
1 0 0 RC
2 setlinecap
10.0 ML
2.667 LW
N
1319 291 M
1326 284 L
S
GR
GS
[0.75 0 0 0.75 0 0.5] CT
1 0 0 RC
2 setlinecap
10.0 ML
2.667 LW
N
1319 284 M
1326 291 L
S
GR
GS
[0.75 0 0 0.75 0 0.5] CT
1 0 0 RC
2 setlinecap
10.0 ML
2.667 LW
N
1369 284.5 M
1378 284.5 L
S
GR
GS
[0.75 0 0 0.75 0 0.5] CT
1 0 0 RC
2 setlinecap
10.0 ML
2.667 LW
N
1373.5 289 M
1373.5 280 L
S
GR
GS
[0.75 0 0 0.75 0 0.5] CT
1 0 0 RC
2 setlinecap
10.0 ML
2.667 LW
N
1370 288 M
1377 281 L
S
GR
GS
[0.75 0 0 0.75 0 0.5] CT
1 0 0 RC
2 setlinecap
10.0 ML
2.667 LW
N
1370 281 M
1377 288 L
S
GR
GS
[0.75 0 0 0.75 0 0.5] CT
1 0 0 RC
2 setlinecap
10.0 ML
2.667 LW
N
1420 272.5 M
1429 272.5 L
S
GR
GS
[0.75 0 0 0.75 0 0.5] CT
1 0 0 RC
2 setlinecap
10.0 ML
2.667 LW
N
1424.5 277 M
1424.5 268 L
S
GR
GS
[0.75 0 0 0.75 0 0.5] CT
1 0 0 RC
2 setlinecap
10.0 ML
2.667 LW
N
1421 276 M
1428 269 L
S
GR
GS
[0.75 0 0 0.75 0 0.5] CT
1 0 0 RC
2 setlinecap
10.0 ML
2.667 LW
N
1421 269 M
1428 276 L
S
GR
GS
[0.75 0 0 0.75 0 0.5] CT
1 0 0 RC
2 setlinecap
10.0 ML
2.667 LW
N
1470 267.5 M
1479 267.5 L
S
GR
GS
[0.75 0 0 0.75 0 0.5] CT
1 0 0 RC
2 setlinecap
10.0 ML
2.667 LW
N
1474.5 272 M
1474.5 263 L
S
GR
GS
[0.75 0 0 0.75 0 0.5] CT
1 0 0 RC
2 setlinecap
10.0 ML
2.667 LW
N
1471 271 M
1478 264 L
S
GR
GS
[0.75 0 0 0.75 0 0.5] CT
1 0 0 RC
2 setlinecap
10.0 ML
2.667 LW
N
1471 264 M
1478 271 L
S
GR
GS
[0.75 0 0 0.75 0 0.5] CT
1 0 0 RC
2 setlinecap
10.0 ML
2.667 LW
N
1521 258.5 M
1530 258.5 L
S
GR
GS
[0.75 0 0 0.75 0 0.5] CT
1 0 0 RC
2 setlinecap
10.0 ML
2.667 LW
N
1525.5 263 M
1525.5 254 L
S
GR
GS
[0.75 0 0 0.75 0 0.5] CT
1 0 0 RC
2 setlinecap
10.0 ML
2.667 LW
N
1522 262 M
1529 255 L
S
GR
GS
[0.75 0 0 0.75 0 0.5] CT
1 0 0 RC
2 setlinecap
10.0 ML
2.667 LW
N
1522 255 M
1529 262 L
S
GR
GS
[0.75 0 0 0.75 0 0.5] CT
1 0 0 RC
2 setlinecap
10.0 ML
2.667 LW
N
1572 230.5 M
1581 230.5 L
S
GR
GS
[0.75 0 0 0.75 0 0.5] CT
1 0 0 RC
2 setlinecap
10.0 ML
2.667 LW
N
1576.5 235 M
1576.5 226 L
S
GR
GS
[0.75 0 0 0.75 0 0.5] CT
1 0 0 RC
2 setlinecap
10.0 ML
2.667 LW
N
1573 234 M
1580 227 L
S
GR
GS
[0.75 0 0 0.75 0 0.5] CT
1 0 0 RC
2 setlinecap
10.0 ML
2.667 LW
N
1573 227 M
1580 234 L
S
GR
GS
[0.75 0 0 0.75 0 0.5] CT
1 0 0 RC
2 setlinecap
10.0 ML
2.667 LW
N
1622 204.5 M
1631 204.5 L
S
GR
GS
[0.75 0 0 0.75 0 0.5] CT
1 0 0 RC
2 setlinecap
10.0 ML
2.667 LW
N
1626.5 209 M
1626.5 200 L
S
GR
GS
[0.75 0 0 0.75 0 0.5] CT
1 0 0 RC
2 setlinecap
10.0 ML
2.667 LW
N
1623 208 M
1630 201 L
S
GR
GS
[0.75 0 0 0.75 0 0.5] CT
1 0 0 RC
2 setlinecap
10.0 ML
2.667 LW
N
1623 201 M
1630 208 L
S
GR
GS
[0.75 0 0 0.75 0 0.5] CT
1 0 0 RC
2 setlinecap
10.0 ML
2.667 LW
N
1673 241.5 M
1682 241.5 L
S
GR
GS
[0.75 0 0 0.75 0 0.5] CT
1 0 0 RC
2 setlinecap
10.0 ML
2.667 LW
N
1677.5 246 M
1677.5 237 L
S
GR
GS
[0.75 0 0 0.75 0 0.5] CT
1 0 0 RC
2 setlinecap
10.0 ML
2.667 LW
N
1674 245 M
1681 238 L
S
GR
GS
[0.75 0 0 0.75 0 0.5] CT
1 0 0 RC
2 setlinecap
10.0 ML
2.667 LW
N
1674 238 M
1681 245 L
S
GR
GS
[0.75 0 0 0.75 0 0.5] CT
1 0 0 RC
2 setlinecap
10.0 ML
2.667 LW
N
1723 210.5 M
1732 210.5 L
S
GR
GS
[0.75 0 0 0.75 0 0.5] CT
1 0 0 RC
2 setlinecap
10.0 ML
2.667 LW
N
1727.5 215 M
1727.5 206 L
S
GR
GS
[0.75 0 0 0.75 0 0.5] CT
1 0 0 RC
2 setlinecap
10.0 ML
2.667 LW
N
1724 214 M
1731 207 L
S
GR
GS
[0.75 0 0 0.75 0 0.5] CT
1 0 0 RC
2 setlinecap
10.0 ML
2.667 LW
N
1724 207 M
1731 214 L
S
GR
GS
[0.75 0 0 0.75 0 0.5] CT
0 0.4 0.988 RC
[8 8] 0 setdash
2 LJ
2.667 LW
N
260.122 836.022 M
310.735 836.022 L
361.347 827.533 L
411.959 804.895 L
462.571 790.746 L
513.184 728.493 L
563.796 697.366 L
614.408 640.772 L
665.02 623.793 L
715.633 550.221 L
766.245 516.264 L
816.857 473.819 L
867.469 499.286 L
918.082 462.5 L
968.694 414.395 L
1019.306 408.736 L
1069.918 346.482 L
1120.531 380.438 L
1171.143 337.993 L
1221.755 335.163 L
1272.367 304.036 L
1322.98 306.866 L
1373.592 298.377 L
1424.204 292.717 L
1474.816 284.228 L
1525.429 258.761 L
1576.041 244.612 L
1626.653 233.293 L
1677.265 241.783 L
1727.878 230.464 L
S
GR
GS
[0.75 0 0 0.75 0 0.5] CT
0 0.4 0.988 RC
2 setlinecap
10.0 ML
2.667 LW
N
267.167 836.5 M
266.273 833.167 L
263.833 830.727 L
260.5 829.833 L
257.167 830.727 L
254.727 833.167 L
253.833 836.5 L
254.727 839.833 L
257.167 842.273 L
260.5 843.167 L
263.833 842.273 L
266.273 839.833 L
267.167 836.5 L
S
GR
GS
[0.75 0 0 0.75 0 0.5] CT
0 0.4 0.988 RC
2 setlinecap
10.0 ML
2.667 LW
N
317.167 836.5 M
316.273 833.167 L
313.833 830.727 L
310.5 829.833 L
307.167 830.727 L
304.727 833.167 L
303.833 836.5 L
304.727 839.833 L
307.167 842.273 L
310.5 843.167 L
313.833 842.273 L
316.273 839.833 L
317.167 836.5 L
S
GR
GS
[0.75 0 0 0.75 0 0.5] CT
0 0.4 0.988 RC
2 setlinecap
10.0 ML
2.667 LW
N
368.167 827.5 M
367.273 824.167 L
364.833 821.727 L
361.5 820.833 L
358.167 821.727 L
355.727 824.167 L
354.833 827.5 L
355.727 830.833 L
358.167 833.273 L
361.5 834.167 L
364.833 833.273 L
367.273 830.833 L
368.167 827.5 L
S
GR
GS
[0.75 0 0 0.75 0 0.5] CT
0 0.4 0.988 RC
2 setlinecap
10.0 ML
2.667 LW
N
418.167 804.5 M
417.273 801.167 L
414.833 798.727 L
411.5 797.833 L
408.167 798.727 L
405.727 801.167 L
404.833 804.5 L
405.727 807.833 L
408.167 810.273 L
411.5 811.167 L
414.833 810.273 L
417.273 807.833 L
418.167 804.5 L
S
GR
GS
[0.75 0 0 0.75 0 0.5] CT
0 0.4 0.988 RC
2 setlinecap
10.0 ML
2.667 LW
N
469.167 790.5 M
468.273 787.167 L
465.833 784.727 L
462.5 783.833 L
459.167 784.727 L
456.727 787.167 L
455.833 790.5 L
456.727 793.833 L
459.167 796.273 L
462.5 797.167 L
465.833 796.273 L
468.273 793.833 L
469.167 790.5 L
S
GR
GS
[0.75 0 0 0.75 0 0.5] CT
0 0.4 0.988 RC
2 setlinecap
10.0 ML
2.667 LW
N
520.167 728.5 M
519.273 725.167 L
516.833 722.727 L
513.5 721.833 L
510.167 722.727 L
507.727 725.167 L
506.833 728.5 L
507.727 731.833 L
510.167 734.273 L
513.5 735.167 L
516.833 734.273 L
519.273 731.833 L
520.167 728.5 L
S
GR
GS
[0.75 0 0 0.75 0 0.5] CT
0 0.4 0.988 RC
2 setlinecap
10.0 ML
2.667 LW
N
570.167 697.5 M
569.273 694.167 L
566.833 691.727 L
563.5 690.833 L
560.167 691.727 L
557.727 694.167 L
556.833 697.5 L
557.727 700.833 L
560.167 703.273 L
563.5 704.167 L
566.833 703.273 L
569.273 700.833 L
570.167 697.5 L
S
GR
GS
[0.75 0 0 0.75 0 0.5] CT
0 0.4 0.988 RC
2 setlinecap
10.0 ML
2.667 LW
N
621.167 640.5 M
620.273 637.167 L
617.833 634.727 L
614.5 633.833 L
611.167 634.727 L
608.727 637.167 L
607.833 640.5 L
608.727 643.833 L
611.167 646.273 L
614.5 647.167 L
617.833 646.273 L
620.273 643.833 L
621.167 640.5 L
S
GR
GS
[0.75 0 0 0.75 0 0.5] CT
0 0.4 0.988 RC
2 setlinecap
10.0 ML
2.667 LW
N
672.167 623.5 M
671.273 620.167 L
668.833 617.727 L
665.5 616.833 L
662.167 617.727 L
659.727 620.167 L
658.833 623.5 L
659.727 626.833 L
662.167 629.273 L
665.5 630.167 L
668.833 629.273 L
671.273 626.833 L
672.167 623.5 L
S
GR
GS
[0.75 0 0 0.75 0 0.5] CT
0 0.4 0.988 RC
2 setlinecap
10.0 ML
2.667 LW
N
722.167 550.5 M
721.273 547.167 L
718.833 544.727 L
715.5 543.833 L
712.167 544.727 L
709.727 547.167 L
708.833 550.5 L
709.727 553.833 L
712.167 556.273 L
715.5 557.167 L
718.833 556.273 L
721.273 553.833 L
722.167 550.5 L
S
GR
GS
[0.75 0 0 0.75 0 0.5] CT
0 0.4 0.988 RC
2 setlinecap
10.0 ML
2.667 LW
N
773.167 516.5 M
772.273 513.167 L
769.833 510.727 L
766.5 509.833 L
763.167 510.727 L
760.727 513.167 L
759.833 516.5 L
760.727 519.833 L
763.167 522.273 L
766.5 523.167 L
769.833 522.273 L
772.273 519.833 L
773.167 516.5 L
S
GR
GS
[0.75 0 0 0.75 0 0.5] CT
0 0.4 0.988 RC
2 setlinecap
10.0 ML
2.667 LW
N
823.167 473.5 M
822.273 470.167 L
819.833 467.727 L
816.5 466.833 L
813.167 467.727 L
810.727 470.167 L
809.833 473.5 L
810.727 476.833 L
813.167 479.273 L
816.5 480.167 L
819.833 479.273 L
822.273 476.833 L
823.167 473.5 L
S
GR
GS
[0.75 0 0 0.75 0 0.5] CT
0 0.4 0.988 RC
2 setlinecap
10.0 ML
2.667 LW
N
874.167 499.5 M
873.273 496.167 L
870.833 493.727 L
867.5 492.833 L
864.167 493.727 L
861.727 496.167 L
860.833 499.5 L
861.727 502.833 L
864.167 505.273 L
867.5 506.167 L
870.833 505.273 L
873.273 502.833 L
874.167 499.5 L
S
GR
GS
[0.75 0 0 0.75 0 0.5] CT
0 0.4 0.988 RC
2 setlinecap
10.0 ML
2.667 LW
N
925.167 462.5 M
924.273 459.167 L
921.833 456.727 L
918.5 455.833 L
915.167 456.727 L
912.727 459.167 L
911.833 462.5 L
912.727 465.833 L
915.167 468.273 L
918.5 469.167 L
921.833 468.273 L
924.273 465.833 L
925.167 462.5 L
S
GR
GS
[0.75 0 0 0.75 0 0.5] CT
0 0.4 0.988 RC
2 setlinecap
10.0 ML
2.667 LW
N
975.167 414.5 M
974.273 411.167 L
971.833 408.727 L
968.5 407.833 L
965.167 408.727 L
962.727 411.167 L
961.833 414.5 L
962.727 417.833 L
965.167 420.273 L
968.5 421.167 L
971.833 420.273 L
974.273 417.833 L
975.167 414.5 L
S
GR
GS
[0.75 0 0 0.75 0 0.5] CT
0 0.4 0.988 RC
2 setlinecap
10.0 ML
2.667 LW
N
1026.167 408.5 M
1025.274 405.167 L
1022.833 402.727 L
1019.5 401.833 L
1016.167 402.727 L
1013.727 405.167 L
1012.833 408.5 L
1013.727 411.833 L
1016.167 414.273 L
1019.5 415.167 L
1022.833 414.273 L
1025.274 411.833 L
1026.167 408.5 L
S
GR
GS
[0.75 0 0 0.75 0 0.5] CT
0 0.4 0.988 RC
2 setlinecap
10.0 ML
2.667 LW
N
1076.167 346.5 M
1075.274 343.167 L
1072.833 340.727 L
1069.5 339.833 L
1066.167 340.727 L
1063.726 343.167 L
1062.833 346.5 L
1063.726 349.833 L
1066.167 352.273 L
1069.5 353.167 L
1072.833 352.273 L
1075.274 349.833 L
1076.167 346.5 L
S
GR
GS
[0.75 0 0 0.75 0 0.5] CT
0 0.4 0.988 RC
2 setlinecap
10.0 ML
2.667 LW
N
1127.167 380.5 M
1126.274 377.167 L
1123.833 374.727 L
1120.5 373.833 L
1117.167 374.727 L
1114.726 377.167 L
1113.833 380.5 L
1114.726 383.833 L
1117.167 386.273 L
1120.5 387.167 L
1123.833 386.273 L
1126.274 383.833 L
1127.167 380.5 L
S
GR
GS
[0.75 0 0 0.75 0 0.5] CT
0 0.4 0.988 RC
2 setlinecap
10.0 ML
2.667 LW
N
1178.167 337.5 M
1177.274 334.167 L
1174.833 331.727 L
1171.5 330.833 L
1168.167 331.727 L
1165.726 334.167 L
1164.833 337.5 L
1165.726 340.833 L
1168.167 343.273 L
1171.5 344.167 L
1174.833 343.273 L
1177.274 340.833 L
1178.167 337.5 L
S
GR
GS
[0.75 0 0 0.75 0 0.5] CT
0 0.4 0.988 RC
2 setlinecap
10.0 ML
2.667 LW
N
1228.167 335.5 M
1227.274 332.167 L
1224.833 329.727 L
1221.5 328.833 L
1218.167 329.727 L
1215.726 332.167 L
1214.833 335.5 L
1215.726 338.833 L
1218.167 341.273 L
1221.5 342.167 L
1224.833 341.273 L
1227.274 338.833 L
1228.167 335.5 L
S
GR
GS
[0.75 0 0 0.75 0 0.5] CT
0 0.4 0.988 RC
2 setlinecap
10.0 ML
2.667 LW
N
1279.167 304.5 M
1278.274 301.167 L
1275.833 298.727 L
1272.5 297.833 L
1269.167 298.727 L
1266.726 301.167 L
1265.833 304.5 L
1266.726 307.833 L
1269.167 310.273 L
1272.5 311.167 L
1275.833 310.273 L
1278.274 307.833 L
1279.167 304.5 L
S
GR
GS
[0.75 0 0 0.75 0 0.5] CT
0 0.4 0.988 RC
2 setlinecap
10.0 ML
2.667 LW
N
1329.167 306.5 M
1328.274 303.167 L
1325.833 300.727 L
1322.5 299.833 L
1319.167 300.727 L
1316.726 303.167 L
1315.833 306.5 L
1316.726 309.833 L
1319.167 312.273 L
1322.5 313.167 L
1325.833 312.273 L
1328.274 309.833 L
1329.167 306.5 L
S
GR
GS
[0.75 0 0 0.75 0 0.5] CT
0 0.4 0.988 RC
2 setlinecap
10.0 ML
2.667 LW
N
1380.167 298.5 M
1379.274 295.167 L
1376.833 292.727 L
1373.5 291.833 L
1370.167 292.727 L
1367.726 295.167 L
1366.833 298.5 L
1367.726 301.833 L
1370.167 304.273 L
1373.5 305.167 L
1376.833 304.273 L
1379.274 301.833 L
1380.167 298.5 L
S
GR
GS
[0.75 0 0 0.75 0 0.5] CT
0 0.4 0.988 RC
2 setlinecap
10.0 ML
2.667 LW
N
1431.167 292.5 M
1430.274 289.167 L
1427.833 286.727 L
1424.5 285.833 L
1421.167 286.727 L
1418.726 289.167 L
1417.833 292.5 L
1418.726 295.833 L
1421.167 298.273 L
1424.5 299.167 L
1427.833 298.273 L
1430.274 295.833 L
1431.167 292.5 L
S
GR
GS
[0.75 0 0 0.75 0 0.5] CT
0 0.4 0.988 RC
2 setlinecap
10.0 ML
2.667 LW
N
1481.167 284.5 M
1480.274 281.167 L
1477.833 278.727 L
1474.5 277.833 L
1471.167 278.727 L
1468.726 281.167 L
1467.833 284.5 L
1468.726 287.833 L
1471.167 290.273 L
1474.5 291.167 L
1477.833 290.273 L
1480.274 287.833 L
1481.167 284.5 L
S
GR
GS
[0.75 0 0 0.75 0 0.5] CT
0 0.4 0.988 RC
2 setlinecap
10.0 ML
2.667 LW
N
1532.167 258.5 M
1531.274 255.167 L
1528.833 252.727 L
1525.5 251.833 L
1522.167 252.727 L
1519.726 255.167 L
1518.833 258.5 L
1519.726 261.833 L
1522.167 264.273 L
1525.5 265.167 L
1528.833 264.273 L
1531.274 261.833 L
1532.167 258.5 L
S
GR
GS
[0.75 0 0 0.75 0 0.5] CT
0 0.4 0.988 RC
2 setlinecap
10.0 ML
2.667 LW
N
1583.167 244.5 M
1582.274 241.167 L
1579.833 238.727 L
1576.5 237.833 L
1573.167 238.727 L
1570.726 241.167 L
1569.833 244.5 L
1570.726 247.833 L
1573.167 250.273 L
1576.5 251.167 L
1579.833 250.273 L
1582.274 247.833 L
1583.167 244.5 L
S
GR
GS
[0.75 0 0 0.75 0 0.5] CT
0 0.4 0.988 RC
2 setlinecap
10.0 ML
2.667 LW
N
1633.167 233.5 M
1632.274 230.167 L
1629.833 227.727 L
1626.5 226.833 L
1623.167 227.727 L
1620.726 230.167 L
1619.833 233.5 L
1620.726 236.833 L
1623.167 239.273 L
1626.5 240.167 L
1629.833 239.273 L
1632.274 236.833 L
1633.167 233.5 L
S
GR
GS
[0.75 0 0 0.75 0 0.5] CT
0 0.4 0.988 RC
2 setlinecap
10.0 ML
2.667 LW
N
1684.167 241.5 M
1683.274 238.167 L
1680.833 235.727 L
1677.5 234.833 L
1674.167 235.727 L
1671.726 238.167 L
1670.833 241.5 L
1671.726 244.833 L
1674.167 247.273 L
1677.5 248.167 L
1680.833 247.273 L
1683.274 244.833 L
1684.167 241.5 L
S
GR
GS
[0.75 0 0 0.75 0 0.5] CT
0 0.4 0.988 RC
2 setlinecap
10.0 ML
2.667 LW
N
1734.167 230.5 M
1733.274 227.167 L
1730.833 224.727 L
1727.5 223.833 L
1724.167 224.727 L
1721.726 227.167 L
1720.833 230.5 L
1721.726 233.833 L
1724.167 236.273 L
1727.5 237.167 L
1730.833 236.273 L
1733.274 233.833 L
1734.167 230.5 L
S
GR
GS
[0.75 0 0 0.75 0 0.5] CT
1 GC
N
1169 772 M
1169 574 L
1647 574 L
1647 772 L
cp
f
GR
GS
[0.75 0 0 0.75 915.75 447.25002] CT
/Helvetica 32 F
GS
[1 0 0 1 0 0] CT
0 11 moveto 
1 -1 scale
( Dijkstra + Graph Coloring) t 
GR
GR
GS
[0.75 0 0 0.75 0 0.5] CT
[16 16] 0 setdash
2 LJ
4 LW
N
1177 595.667 M
1217 595.667 L
S
GR
GS
[0.75 0 0 0.75 0 0.5] CT
N
1185.956 602.165 M
1209.044 602.165 L
1197.5 582.17 L
cp
f
GR
GS
[0.75 0 0 0.75 0 0.5] CT
2 setlinecap
10.0 ML
4 LW
N
1185.956 602.165 M
1209.044 602.165 L
1197.5 582.17 L
1185.956 602.165 L
S
GR
GS
[0.75 0 0 0.75 915.75 476.24998] CT
/Helvetica 32 F
GS
[1 0 0 1 0 0] CT
0 11 moveto 
1 -1 scale
( Dijkstra + First-Fit) t 
GR
GR
GS
[0.75 0 0 0.75 0 0.5] CT
1 0 1 RC
[8 8] 0 setdash
2 LJ
2.667 LW
N
1177 634.333 M
1217 634.333 L
S
GR
GS
[0.75 0 0 0.75 0 0.5] CT
1 0 1 RC
2 setlinecap
10.0 ML
2.667 LW
N
1190.572 630.5 M
1195.191 630.5 L
1197.5 626.5 L
1199.809 630.5 L
1204.428 630.5 L
1201.5 634.5 L
1204.428 638.5 L
1199.809 638.5 L
1197.5 642.5 L
1195.191 638.5 L
1190.572 638.5 L
1193.5 634.5 L
1190.572 630.5 L
S
GR
GS
[0.75 0 0 0.75 915.75 505.25] CT
/Helvetica 32 F
GS
[1 0 0 1 0 0] CT
0 11 moveto 
1 -1 scale
( Yen + Graph Coloring) t 
GR
GR
GS
[0.75 0 0 0.75 0 0.5] CT
0 0.502 0 RC
[8 8] 0 setdash
2 LJ
2.667 LW
N
1177 673 M
1217 673 L
S
GR
GS
[0.75 0 0 0.75 0 0.5] CT
0 0.502 0 RC
2 setlinecap
10.0 ML
2.667 LW
N
1192.3 677.7 M
1192.3 667.3 L
1202.7 667.3 L
1202.7 677.7 L
1192.3 677.7 L
S
GR
GS
[0.75 0 0 0.75 915.75 534.25002] CT
/Helvetica 32 F
GS
[1 0 0 1 0 0] CT
0 11 moveto 
1 -1 scale
( Yen + First-Fit) t 
GR
GR
GS
[0.75 0 0 0.75 0 0.5] CT
1 0 0 RC
[8 8] 0 setdash
2 LJ
2.667 LW
N
1177 711.667 M
1217 711.667 L
S
GR
GS
[0.75 0 0 0.75 0 0.5] CT
1 0 0 RC
2 setlinecap
10.0 ML
2.667 LW
N
1193 711.5 M
1202 711.5 L
S
GR
GS
[0.75 0 0 0.75 0 0.5] CT
1 0 0 RC
2 setlinecap
10.0 ML
2.667 LW
N
1197.5 716 M
1197.5 707 L
S
GR
GS
[0.75 0 0 0.75 0 0.5] CT
1 0 0 RC
2 setlinecap
10.0 ML
2.667 LW
N
1194 715 M
1201 708 L
S
GR
GS
[0.75 0 0 0.75 0 0.5] CT
1 0 0 RC
2 setlinecap
10.0 ML
2.667 LW
N
1194 708 M
1201 715 L
S
GR
GS
[0.75 0 0 0.75 915.75 563.24998] CT
/Helvetica 32 F
GS
[1 0 0 1 0 0] CT
0 11 moveto 
1 -1 scale
( Genetic Algorithm + GOF) t 
GR
GR
GS
[0.75 0 0 0.75 0 0.5] CT
0 0.4 0.988 RC
[8 8] 0 setdash
2 LJ
2.667 LW
N
1177 750.333 M
1217 750.333 L
S
GR
GS
[0.75 0 0 0.75 0 0.5] CT
0 0.4 0.988 RC
2 setlinecap
10.0 ML
2.667 LW
N
1204.167 750.5 M
1203.274 747.167 L
1200.833 744.727 L
1197.5 743.833 L
1194.167 744.727 L
1191.726 747.167 L
1190.833 750.5 L
1191.726 753.833 L
1194.167 756.273 L
1197.5 757.167 L
1200.833 756.273 L
1203.274 753.833 L
1204.167 750.5 L
S
GR
GS
[0.75 0 0 0.75 0 0.5] CT
0.149 GC
2 setlinecap
10.0 ML
N
1169 772 M
1169 574 L
1647 574 L
1647 772 L
1169 772 L
S
GR
%%Trailer
%%Pages: 1
%%EOF
