%!PS-Adobe-3.0 EPSF-3.0
%%Creator: (MATLAB, The Mathworks, Inc. Version 9.2.0.538062 \(R2017a\). Operating System: Linux)
%%Title: /home/cassio/Dropbox/RWA/IFIP_LANC_RWAG18/figs/result2/NSF/nsf.eps
%%CreationDate: 2018-09-16T19:59:02
%%Pages: (atend)
%%BoundingBox: 0 0 1440 751
%%LanguageLevel: 3
%%EndComments
%%BeginProlog
%%BeginResource: procset (Apache XML Graphics Std ProcSet) 1.2 0
%%Version: 1.2 0
%%Copyright: (Copyright 2001-2003,2010 The Apache Software Foundation. License terms: http://www.apache.org/licenses/LICENSE-2.0)
/bd{bind def}bind def
/ld{load def}bd
/GR/grestore ld
/M/moveto ld
/LJ/setlinejoin ld
/C/curveto ld
/f/fill ld
/LW/setlinewidth ld
/GC/setgray ld
/t/show ld
/N/newpath ld
/CT/concat ld
/cp/closepath ld
/S/stroke ld
/L/lineto ld
/CC/setcmykcolor ld
/A/ashow ld
/GS/gsave ld
/RC/setrgbcolor ld
/RM/rmoveto ld
/ML/setmiterlimit ld
/re {4 2 roll M
1 index 0 rlineto
0 exch rlineto
neg 0 rlineto
cp } bd
/_ctm matrix def
/_tm matrix def
/BT { _ctm currentmatrix pop matrix _tm copy pop 0 0 moveto } bd
/ET { _ctm setmatrix } bd
/iTm { _ctm setmatrix _tm concat } bd
/Tm { _tm astore pop iTm 0 0 moveto } bd
/ux 0.0 def
/uy 0.0 def
/F {
  /Tp exch def
  /Tf exch def
  Tf findfont Tp scalefont setfont
  /cf Tf def  /cs Tp def
} bd
/ULS {currentpoint /uy exch def /ux exch def} bd
/ULE {
  /Tcx currentpoint pop def
  gsave
  newpath
  cf findfont cs scalefont dup
  /FontMatrix get 0 get /Ts exch def /FontInfo get dup
  /UnderlinePosition get Ts mul /To exch def
  /UnderlineThickness get Ts mul /Tt exch def
  ux uy To add moveto  Tcx uy To add lineto
  Tt setlinewidth stroke
  grestore
} bd
/OLE {
  /Tcx currentpoint pop def
  gsave
  newpath
  cf findfont cs scalefont dup
  /FontMatrix get 0 get /Ts exch def /FontInfo get dup
  /UnderlinePosition get Ts mul /To exch def
  /UnderlineThickness get Ts mul /Tt exch def
  ux uy To add cs add moveto Tcx uy To add cs add lineto
  Tt setlinewidth stroke
  grestore
} bd
/SOE {
  /Tcx currentpoint pop def
  gsave
  newpath
  cf findfont cs scalefont dup
  /FontMatrix get 0 get /Ts exch def /FontInfo get dup
  /UnderlinePosition get Ts mul /To exch def
  /UnderlineThickness get Ts mul /Tt exch def
  ux uy To add cs 10 mul 26 idiv add moveto Tcx uy To add cs 10 mul 26 idiv add lineto
  Tt setlinewidth stroke
  grestore
} bd
/QT {
/Y22 exch store
/X22 exch store
/Y21 exch store
/X21 exch store
currentpoint
/Y21 load 2 mul add 3 div exch
/X21 load 2 mul add 3 div exch
/X21 load 2 mul /X22 load add 3 div
/Y21 load 2 mul /Y22 load add 3 div
/X22 load /Y22 load curveto
} bd
/SSPD {
dup length /d exch dict def
{
/v exch def
/k exch def
currentpagedevice k known {
/cpdv currentpagedevice k get def
v cpdv ne {
/upd false def
/nullv v type /nulltype eq def
/nullcpdv cpdv type /nulltype eq def
nullv nullcpdv or
{
/upd true def
} {
/sametype v type cpdv type eq def
sametype {
v type /arraytype eq {
/vlen v length def
/cpdvlen cpdv length def
vlen cpdvlen eq {
0 1 vlen 1 sub {
/i exch def
/obj v i get def
/cpdobj cpdv i get def
obj cpdobj ne {
/upd true def
exit
} if
} for
} {
/upd true def
} ifelse
} {
v type /dicttype eq {
v {
/dv exch def
/dk exch def
/cpddv cpdv dk get def
dv cpddv ne {
/upd true def
exit
} if
} forall
} {
/upd true def
} ifelse
} ifelse
} if
} ifelse
upd true eq {
d k v put
} if
} if
} if
} forall
d length 0 gt {
d setpagedevice
} if
} bd
/RE { % /NewFontName [NewEncodingArray] /FontName RE -
  findfont dup length dict begin
  {
    1 index /FID ne
    {def} {pop pop} ifelse
  } forall
  /Encoding exch def
  /FontName 1 index def
  currentdict definefont pop
  end
} bind def
%%EndResource
%%BeginResource: procset (Apache XML Graphics EPS ProcSet) 1.0 0
%%Version: 1.0 0
%%Copyright: (Copyright 2002-2003 The Apache Software Foundation. License terms: http://www.apache.org/licenses/LICENSE-2.0)
/BeginEPSF { %def
/b4_Inc_state save def         % Save state for cleanup
/dict_count countdictstack def % Count objects on dict stack
/op_count count 1 sub def      % Count objects on operand stack
userdict begin                 % Push userdict on dict stack
/showpage { } def              % Redefine showpage, { } = null proc
0 setgray 0 setlinecap         % Prepare graphics state
1 setlinewidth 0 setlinejoin
10 setmiterlimit [ ] 0 setdash newpath
/languagelevel where           % If level not equal to 1 then
{pop languagelevel             % set strokeadjust and
1 ne                           % overprint to their defaults.
{false setstrokeadjust false setoverprint
} if
} if
} bd
/EndEPSF { %def
count op_count sub {pop} repeat            % Clean up stacks
countdictstack dict_count sub {end} repeat
b4_Inc_state restore
} bd
%%EndResource
%FOPBeginFontDict
%%IncludeResource: font Courier-Bold
%%IncludeResource: font Helvetica
%%IncludeResource: font Courier-BoldOblique
%%IncludeResource: font Courier-Oblique
%%IncludeResource: font Times-Roman
%%IncludeResource: font Helvetica-BoldOblique
%%IncludeResource: font Helvetica-Bold
%%IncludeResource: font Helvetica-Oblique
%%IncludeResource: font Times-BoldItalic
%%IncludeResource: font Courier
%%IncludeResource: font Times-Italic
%%IncludeResource: font Times-Bold
%%IncludeResource: font Symbol
%%IncludeResource: font ZapfDingbats
%FOPEndFontDict
%%BeginResource: encoding WinAnsiEncoding
/WinAnsiEncoding [
/.notdef /.notdef /.notdef /.notdef /.notdef
/.notdef /.notdef /.notdef /.notdef /.notdef
/.notdef /.notdef /.notdef /.notdef /.notdef
/.notdef /.notdef /.notdef /.notdef /.notdef
/.notdef /.notdef /.notdef /.notdef /.notdef
/.notdef /.notdef /.notdef /.notdef /.notdef
/.notdef /.notdef /space /exclam /quotedbl
/numbersign /dollar /percent /ampersand /quotesingle
/parenleft /parenright /asterisk /plus /comma
/hyphen /period /slash /zero /one
/two /three /four /five /six
/seven /eight /nine /colon /semicolon
/less /equal /greater /question /at
/A /B /C /D /E
/F /G /H /I /J
/K /L /M /N /O
/P /Q /R /S /T
/U /V /W /X /Y
/Z /bracketleft /backslash /bracketright /asciicircum
/underscore /quoteleft /a /b /c
/d /e /f /g /h
/i /j /k /l /m
/n /o /p /q /r
/s /t /u /v /w
/x /y /z /braceleft /bar
/braceright /asciitilde /bullet /Euro /bullet
/quotesinglbase /florin /quotedblbase /ellipsis /dagger
/daggerdbl /circumflex /perthousand /Scaron /guilsinglleft
/OE /bullet /Zcaron /bullet /bullet
/quoteleft /quoteright /quotedblleft /quotedblright /bullet
/endash /emdash /asciitilde /trademark /scaron
/guilsinglright /oe /bullet /zcaron /Ydieresis
/space /exclamdown /cent /sterling /currency
/yen /brokenbar /section /dieresis /copyright
/ordfeminine /guillemotleft /logicalnot /sfthyphen /registered
/macron /degree /plusminus /twosuperior /threesuperior
/acute /mu /paragraph /middot /cedilla
/onesuperior /ordmasculine /guillemotright /onequarter /onehalf
/threequarters /questiondown /Agrave /Aacute /Acircumflex
/Atilde /Adieresis /Aring /AE /Ccedilla
/Egrave /Eacute /Ecircumflex /Edieresis /Igrave
/Iacute /Icircumflex /Idieresis /Eth /Ntilde
/Ograve /Oacute /Ocircumflex /Otilde /Odieresis
/multiply /Oslash /Ugrave /Uacute /Ucircumflex
/Udieresis /Yacute /Thorn /germandbls /agrave
/aacute /acircumflex /atilde /adieresis /aring
/ae /ccedilla /egrave /eacute /ecircumflex
/edieresis /igrave /iacute /icircumflex /idieresis
/eth /ntilde /ograve /oacute /ocircumflex
/otilde /odieresis /divide /oslash /ugrave
/uacute /ucircumflex /udieresis /yacute /thorn
/ydieresis
] def
%%EndResource
%FOPBeginFontReencode
/Courier-Bold findfont
dup length dict begin
  {1 index /FID ne {def} {pop pop} ifelse} forall
  /Encoding WinAnsiEncoding def
  currentdict
end
/Courier-Bold exch definefont pop
/Helvetica findfont
dup length dict begin
  {1 index /FID ne {def} {pop pop} ifelse} forall
  /Encoding WinAnsiEncoding def
  currentdict
end
/Helvetica exch definefont pop
/Courier-BoldOblique findfont
dup length dict begin
  {1 index /FID ne {def} {pop pop} ifelse} forall
  /Encoding WinAnsiEncoding def
  currentdict
end
/Courier-BoldOblique exch definefont pop
/Courier-Oblique findfont
dup length dict begin
  {1 index /FID ne {def} {pop pop} ifelse} forall
  /Encoding WinAnsiEncoding def
  currentdict
end
/Courier-Oblique exch definefont pop
/Times-Roman findfont
dup length dict begin
  {1 index /FID ne {def} {pop pop} ifelse} forall
  /Encoding WinAnsiEncoding def
  currentdict
end
/Times-Roman exch definefont pop
/Helvetica-BoldOblique findfont
dup length dict begin
  {1 index /FID ne {def} {pop pop} ifelse} forall
  /Encoding WinAnsiEncoding def
  currentdict
end
/Helvetica-BoldOblique exch definefont pop
/Helvetica-Bold findfont
dup length dict begin
  {1 index /FID ne {def} {pop pop} ifelse} forall
  /Encoding WinAnsiEncoding def
  currentdict
end
/Helvetica-Bold exch definefont pop
/Helvetica-Oblique findfont
dup length dict begin
  {1 index /FID ne {def} {pop pop} ifelse} forall
  /Encoding WinAnsiEncoding def
  currentdict
end
/Helvetica-Oblique exch definefont pop
/Times-BoldItalic findfont
dup length dict begin
  {1 index /FID ne {def} {pop pop} ifelse} forall
  /Encoding WinAnsiEncoding def
  currentdict
end
/Times-BoldItalic exch definefont pop
/Courier findfont
dup length dict begin
  {1 index /FID ne {def} {pop pop} ifelse} forall
  /Encoding WinAnsiEncoding def
  currentdict
end
/Courier exch definefont pop
/Times-Italic findfont
dup length dict begin
  {1 index /FID ne {def} {pop pop} ifelse} forall
  /Encoding WinAnsiEncoding def
  currentdict
end
/Times-Italic exch definefont pop
/Times-Bold findfont
dup length dict begin
  {1 index /FID ne {def} {pop pop} ifelse} forall
  /Encoding WinAnsiEncoding def
  currentdict
end
/Times-Bold exch definefont pop
%FOPEndFontReencode
%%EndProlog
%%Page: 1 1
%%PageBoundingBox: 0 0 1440 751
%%BeginPageSetup
[1 0 0 -1 0 751] CT
%%EndPageSetup
GS
[1.05417 0 0 1.05442 0 0.25] CT
1 GC
N
0 0 1366 712 re
f
GR
GS
[1.05417 0 0 1.05442 0 0.25] CT
1 GC
N
0 0 1366 712 re
f
GR
GS
[1.05417 0 0 1.05442 0 0.25] CT
1 GC
N
178 624 M
1236 624 L
1236 53 L
178 53 L
cp
f
GR
GS
[1.05417 0 0 1.05442 0 0.25] CT
0.873 GC
1 LJ
0.474 LW
N
257.17 624 M
257.17 53 L
S
GR
GS
[1.05417 0 0 1.05442 0 0.25] CT
0.873 GC
1 LJ
0.474 LW
N
365.129 624 M
365.129 53 L
S
GR
GS
[1.05417 0 0 1.05442 0 0.25] CT
0.873 GC
1 LJ
0.474 LW
N
473.088 624 M
473.088 53 L
S
GR
GS
[1.05417 0 0 1.05442 0 0.25] CT
0.873 GC
1 LJ
0.474 LW
N
581.048 624 M
581.048 53 L
S
GR
GS
[1.05417 0 0 1.05442 0 0.25] CT
0.873 GC
1 LJ
0.474 LW
N
689.007 624 M
689.007 53 L
S
GR
GS
[1.05417 0 0 1.05442 0 0.25] CT
0.873 GC
1 LJ
0.474 LW
N
796.966 624 M
796.966 53 L
S
GR
GS
[1.05417 0 0 1.05442 0 0.25] CT
0.873 GC
1 LJ
0.474 LW
N
904.925 624 M
904.925 53 L
S
GR
GS
[1.05417 0 0 1.05442 0 0.25] CT
0.873 GC
1 LJ
0.474 LW
N
1012.884 624 M
1012.884 53 L
S
GR
GS
[1.05417 0 0 1.05442 0 0.25] CT
0.873 GC
1 LJ
0.474 LW
N
1120.844 624 M
1120.844 53 L
S
GR
GS
[1.05417 0 0 1.05442 0 0.25] CT
0.873 GC
1 LJ
0.474 LW
N
1228.803 624 M
1228.803 53 L
S
GR
GS
[1.05417 0 0 1.05442 0 0.25] CT
0.873 GC
1 LJ
0.474 LW
N
1236 610.405 M
178 610.405 L
S
GR
GS
[1.05417 0 0 1.05442 0 0.25] CT
0.873 GC
1 LJ
0.474 LW
N
1236 542.429 M
178 542.429 L
S
GR
GS
[1.05417 0 0 1.05442 0 0.25] CT
0.873 GC
1 LJ
0.474 LW
N
1236 474.452 M
178 474.452 L
S
GR
GS
[1.05417 0 0 1.05442 0 0.25] CT
0.873 GC
1 LJ
0.474 LW
N
1236 406.476 M
178 406.476 L
S
GR
GS
[1.05417 0 0 1.05442 0 0.25] CT
0.873 GC
1 LJ
0.474 LW
N
1236 338.5 M
178 338.5 L
S
GR
GS
[1.05417 0 0 1.05442 0 0.25] CT
0.873 GC
1 LJ
0.474 LW
N
1236 270.524 M
178 270.524 L
S
GR
GS
[1.05417 0 0 1.05442 0 0.25] CT
0.873 GC
1 LJ
0.474 LW
N
1236 202.548 M
178 202.548 L
S
GR
GS
[1.05417 0 0 1.05442 0 0.25] CT
0.873 GC
1 LJ
0.474 LW
N
1236 134.571 M
178 134.571 L
S
GR
GS
[1.05417 0 0 1.05442 0 0.25] CT
0.873 GC
1 LJ
0.474 LW
N
1236 66.595 M
178 66.595 L
S
GR
GS
[1.05417 0 0 1.05442 0 0.25] CT
0.149 GC
2 setlinecap
1 LJ
0.474 LW
N
178 624 M
1236 624 L
S
GR
GS
[1.05417 0 0 1.05442 0 0.25] CT
0.149 GC
2 setlinecap
1 LJ
0.474 LW
N
178 53 M
1236 53 L
S
GR
GS
[1.05417 0 0 1.05442 0 0.25] CT
0.149 GC
2 setlinecap
1 LJ
0.474 LW
N
257.17 624 M
257.17 613.42 L
S
GR
GS
[1.05417 0 0 1.05442 0 0.25] CT
0.149 GC
2 setlinecap
1 LJ
0.474 LW
N
365.129 624 M
365.129 613.42 L
S
GR
GS
[1.05417 0 0 1.05442 0 0.25] CT
0.149 GC
2 setlinecap
1 LJ
0.474 LW
N
473.088 624 M
473.088 613.42 L
S
GR
GS
[1.05417 0 0 1.05442 0 0.25] CT
0.149 GC
2 setlinecap
1 LJ
0.474 LW
N
581.048 624 M
581.048 613.42 L
S
GR
GS
[1.05417 0 0 1.05442 0 0.25] CT
0.149 GC
2 setlinecap
1 LJ
0.474 LW
N
689.007 624 M
689.007 613.42 L
S
GR
GS
[1.05417 0 0 1.05442 0 0.25] CT
0.149 GC
2 setlinecap
1 LJ
0.474 LW
N
796.966 624 M
796.966 613.42 L
S
GR
GS
[1.05417 0 0 1.05442 0 0.25] CT
0.149 GC
2 setlinecap
1 LJ
0.474 LW
N
904.925 624 M
904.925 613.42 L
S
GR
GS
[1.05417 0 0 1.05442 0 0.25] CT
0.149 GC
2 setlinecap
1 LJ
0.474 LW
N
1012.884 624 M
1012.884 613.42 L
S
GR
GS
[1.05417 0 0 1.05442 0 0.25] CT
0.149 GC
2 setlinecap
1 LJ
0.474 LW
N
1120.844 624 M
1120.844 613.42 L
S
GR
GS
[1.05417 0 0 1.05442 0 0.25] CT
0.149 GC
2 setlinecap
1 LJ
0.474 LW
N
1228.803 624 M
1228.803 613.42 L
S
GR
GS
[1.05417 0 0 1.05442 0 0.25] CT
0.149 GC
2 setlinecap
1 LJ
0.474 LW
N
257.17 53 M
257.17 63.58 L
S
GR
GS
[1.05417 0 0 1.05442 0 0.25] CT
0.149 GC
2 setlinecap
1 LJ
0.474 LW
N
365.129 53 M
365.129 63.58 L
S
GR
GS
[1.05417 0 0 1.05442 0 0.25] CT
0.149 GC
2 setlinecap
1 LJ
0.474 LW
N
473.088 53 M
473.088 63.58 L
S
GR
GS
[1.05417 0 0 1.05442 0 0.25] CT
0.149 GC
2 setlinecap
1 LJ
0.474 LW
N
581.048 53 M
581.048 63.58 L
S
GR
GS
[1.05417 0 0 1.05442 0 0.25] CT
0.149 GC
2 setlinecap
1 LJ
0.474 LW
N
689.007 53 M
689.007 63.58 L
S
GR
GS
[1.05417 0 0 1.05442 0 0.25] CT
0.149 GC
2 setlinecap
1 LJ
0.474 LW
N
796.966 53 M
796.966 63.58 L
S
GR
GS
[1.05417 0 0 1.05442 0 0.25] CT
0.149 GC
2 setlinecap
1 LJ
0.474 LW
N
904.925 53 M
904.925 63.58 L
S
GR
GS
[1.05417 0 0 1.05442 0 0.25] CT
0.149 GC
2 setlinecap
1 LJ
0.474 LW
N
1012.884 53 M
1012.884 63.58 L
S
GR
GS
[1.05417 0 0 1.05442 0 0.25] CT
0.149 GC
2 setlinecap
1 LJ
0.474 LW
N
1120.844 53 M
1120.844 63.58 L
S
GR
GS
[1.05417 0 0 1.05442 0 0.25] CT
0.149 GC
2 setlinecap
1 LJ
0.474 LW
N
1228.803 53 M
1228.803 63.58 L
S
GR
GS
[1.05417 0 0 1.05442 271.10169 667.02391] CT
0.149 GC
/Helvetica 28.458 F
GS
[1 0 0 1 0 0] CT
-9 26 moveto 
1 -1 scale
(3) t 
GR
GR
GS
[1.05417 0 0 1.05442 384.9093 667.02391] CT
0.149 GC
/Helvetica 28.458 F
GS
[1 0 0 1 0 0] CT
-9 26 moveto 
1 -1 scale
(6) t 
GR
GR
GS
[1.05417 0 0 1.05442 498.71695 667.02391] CT
0.149 GC
/Helvetica 28.458 F
GS
[1 0 0 1 0 0] CT
-9 26 moveto 
1 -1 scale
(9) t 
GR
GR
GS
[1.05417 0 0 1.05442 612.52456 667.02391] CT
0.149 GC
/Helvetica 28.458 F
GS
[1 0 0 1 0 0] CT
-18 26 moveto 
1 -1 scale
(12) t 
GR
GR
GS
[1.05417 0 0 1.05442 726.33218 667.02391] CT
0.149 GC
/Helvetica 28.458 F
GS
[1 0 0 1 0 0] CT
-18 26 moveto 
1 -1 scale
(15) t 
GR
GR
GS
[1.05417 0 0 1.05442 840.13986 667.02391] CT
0.149 GC
/Helvetica 28.458 F
GS
[1 0 0 1 0 0] CT
-18 26 moveto 
1 -1 scale
(18) t 
GR
GR
GS
[1.05417 0 0 1.05442 953.94747 667.02391] CT
0.149 GC
/Helvetica 28.458 F
GS
[1 0 0 1 0 0] CT
-18 26 moveto 
1 -1 scale
(21) t 
GR
GR
GS
[1.05417 0 0 1.05442 1067.75509 667.02391] CT
0.149 GC
/Helvetica 28.458 F
GS
[1 0 0 1 0 0] CT
-18 26 moveto 
1 -1 scale
(24) t 
GR
GR
GS
[1.05417 0 0 1.05442 1181.5627 667.02391] CT
0.149 GC
/Helvetica 28.458 F
GS
[1 0 0 1 0 0] CT
-18 26 moveto 
1 -1 scale
(27) t 
GR
GR
GS
[1.05417 0 0 1.05442 1295.37038 667.02391] CT
0.149 GC
/Helvetica 28.458 F
GS
[1 0 0 1 0 0] CT
-18 26 moveto 
1 -1 scale
(30) t 
GR
GR
GS
[1.05417 0 0 1.05442 745.30066 703.55091] CT
0.149 GC
/Helvetica 37.944 F
GS
[1 0 0 1 0 0] CT
-138 36 moveto 
1 -1 scale
(Load \(Erlangs\)) t 
GR
GR
GS
[1.05417 0 0 1.05442 0 0.25] CT
0.149 GC
2 setlinecap
1 LJ
0.474 LW
N
178 624 M
178 53 L
S
GR
GS
[1.05417 0 0 1.05442 0 0.25] CT
0.149 GC
2 setlinecap
1 LJ
0.474 LW
N
1236 624 M
1236 53 L
S
GR
GS
[1.05417 0 0 1.05442 0 0.25] CT
0.149 GC
2 setlinecap
1 LJ
0.474 LW
N
178 610.405 M
188.58 610.405 L
S
GR
GS
[1.05417 0 0 1.05442 0 0.25] CT
0.149 GC
2 setlinecap
1 LJ
0.474 LW
N
178 542.429 M
188.58 542.429 L
S
GR
GS
[1.05417 0 0 1.05442 0 0.25] CT
0.149 GC
2 setlinecap
1 LJ
0.474 LW
N
178 474.452 M
188.58 474.452 L
S
GR
GS
[1.05417 0 0 1.05442 0 0.25] CT
0.149 GC
2 setlinecap
1 LJ
0.474 LW
N
178 406.476 M
188.58 406.476 L
S
GR
GS
[1.05417 0 0 1.05442 0 0.25] CT
0.149 GC
2 setlinecap
1 LJ
0.474 LW
N
178 338.5 M
188.58 338.5 L
S
GR
GS
[1.05417 0 0 1.05442 0 0.25] CT
0.149 GC
2 setlinecap
1 LJ
0.474 LW
N
178 270.524 M
188.58 270.524 L
S
GR
GS
[1.05417 0 0 1.05442 0 0.25] CT
0.149 GC
2 setlinecap
1 LJ
0.474 LW
N
178 202.548 M
188.58 202.548 L
S
GR
GS
[1.05417 0 0 1.05442 0 0.25] CT
0.149 GC
2 setlinecap
1 LJ
0.474 LW
N
178 134.571 M
188.58 134.571 L
S
GR
GS
[1.05417 0 0 1.05442 0 0.25] CT
0.149 GC
2 setlinecap
1 LJ
0.474 LW
N
178 66.595 M
188.58 66.595 L
S
GR
GS
[1.05417 0 0 1.05442 0 0.25] CT
0.149 GC
2 setlinecap
1 LJ
0.474 LW
N
1236 610.405 M
1225.42 610.405 L
S
GR
GS
[1.05417 0 0 1.05442 0 0.25] CT
0.149 GC
2 setlinecap
1 LJ
0.474 LW
N
1236 542.429 M
1225.42 542.429 L
S
GR
GS
[1.05417 0 0 1.05442 0 0.25] CT
0.149 GC
2 setlinecap
1 LJ
0.474 LW
N
1236 474.452 M
1225.42 474.452 L
S
GR
GS
[1.05417 0 0 1.05442 0 0.25] CT
0.149 GC
2 setlinecap
1 LJ
0.474 LW
N
1236 406.476 M
1225.42 406.476 L
S
GR
GS
[1.05417 0 0 1.05442 0 0.25] CT
0.149 GC
2 setlinecap
1 LJ
0.474 LW
N
1236 338.5 M
1225.42 338.5 L
S
GR
GS
[1.05417 0 0 1.05442 0 0.25] CT
0.149 GC
2 setlinecap
1 LJ
0.474 LW
N
1236 270.524 M
1225.42 270.524 L
S
GR
GS
[1.05417 0 0 1.05442 0 0.25] CT
0.149 GC
2 setlinecap
1 LJ
0.474 LW
N
1236 202.548 M
1225.42 202.548 L
S
GR
GS
[1.05417 0 0 1.05442 0 0.25] CT
0.149 GC
2 setlinecap
1 LJ
0.474 LW
N
1236 134.571 M
1225.42 134.571 L
S
GR
GS
[1.05417 0 0 1.05442 0 0.25] CT
0.149 GC
2 setlinecap
1 LJ
0.474 LW
N
1236 66.595 M
1225.42 66.595 L
S
GR
GS
[1.05417 0 0 1.05442 178.83162 643.87555] CT
0.149 GC
/Helvetica 28.458 F
GS
[1 0 0 1 0 0] CT
-18 9.5 moveto 
1 -1 scale
(0) t 
GR
GR
GS
[1.05417 0 0 1.05442 178.83162 572.19981] CT
0.149 GC
/Helvetica 28.458 F
GS
[1 0 0 1 0 0] CT
-36 9.5 moveto 
1 -1 scale
(10) t 
GR
GR
GS
[1.05417 0 0 1.05442 178.83162 500.52406] CT
0.149 GC
/Helvetica 28.458 F
GS
[1 0 0 1 0 0] CT
-36 9.5 moveto 
1 -1 scale
(20) t 
GR
GR
GS
[1.05417 0 0 1.05442 178.83162 428.84832] CT
0.149 GC
/Helvetica 28.458 F
GS
[1 0 0 1 0 0] CT
-36 9.5 moveto 
1 -1 scale
(30) t 
GR
GR
GS
[1.05417 0 0 1.05442 178.83162 357.17258] CT
0.149 GC
/Helvetica 28.458 F
GS
[1 0 0 1 0 0] CT
-36 9.5 moveto 
1 -1 scale
(40) t 
GR
GR
GS
[1.05417 0 0 1.05442 178.83162 285.49683] CT
0.149 GC
/Helvetica 28.458 F
GS
[1 0 0 1 0 0] CT
-36 9.5 moveto 
1 -1 scale
(50) t 
GR
GR
GS
[1.05417 0 0 1.05442 178.83162 213.82111] CT
0.149 GC
/Helvetica 28.458 F
GS
[1 0 0 1 0 0] CT
-36 9.5 moveto 
1 -1 scale
(60) t 
GR
GR
GS
[1.05417 0 0 1.05442 178.83162 142.14536] CT
0.149 GC
/Helvetica 28.458 F
GS
[1 0 0 1 0 0] CT
-36 9.5 moveto 
1 -1 scale
(70) t 
GR
GR
GS
[1.05417 0 0 1.05442 178.83162 70.46963] CT
0.149 GC
/Helvetica 28.458 F
GS
[1 0 0 1 0 0] CT
-36 9.5 moveto 
1 -1 scale
(80) t 
GR
GR
GS
[0 -1.05442 1.05417 0 136.66471 357.17232] CT
0.149 GC
/Helvetica 37.944 F
GS
[1 0 0 1 0 0] CT
-227 -9 moveto 
1 -1 scale
(Blocking Probability \(%\)) t 
GR
GR
GS
[1.05417 0 0 1.05442 0 0.25] CT
[10 6] 0 setdash
2 LJ
1.897 LW
N
185.197 605.873 M
221.184 603.154 L
257.17 595.45 L
293.156 587.293 L
329.143 560.556 L
365.129 503.002 L
401.116 499.83 L
437.102 463.123 L
473.088 392.428 L
509.075 383.364 L
545.061 331.702 L
581.048 334.421 L
617.034 291.823 L
653.02 270.524 L
689.007 265.539 L
724.993 250.584 L
760.98 224.3 L
796.966 197.11 L
832.952 196.656 L
868.939 172.638 L
904.925 171.732 L
940.912 160.856 L
976.898 170.825 L
1012.884 149.073 L
1048.871 151.792 L
1084.857 134.571 L
1120.844 130.493 L
1156.83 123.695 L
1192.816 120.07 L
1228.803 109.194 L
S
GR
GS
[1.05417 0 0 1.05442 195.22993 639.09711] CT
N
0 -10.116 M
-8.76 5.058 L
8.76 5.058 L
cp
f
GR
GS
[1.05417 0 0 1.05442 195.22993 639.09711] CT
10.0 ML
1.897 LW
N
0 -10.116 M
-8.76 5.058 L
8.76 5.058 L
cp
S
GR
GS
[1.05417 0 0 1.05442 233.1658 636.23014] CT
N
/f-18803871{0 -10.116 M
-8.76 5.058 L
8.76 5.058 L
cp}def
f-18803871
f
GR
GS
[1.05417 0 0 1.05442 233.1658 636.23014] CT
10.0 ML
1.897 LW
N
0 -10.116 M
-8.76 5.058 L
8.76 5.058 L
cp
S
GR
GS
[1.05417 0 0 1.05442 271.10169 628.10688] CT
N
f-18803871
f
GR
GS
[1.05417 0 0 1.05442 271.10169 628.10688] CT
10.0 ML
1.897 LW
N
0 -10.116 M
-8.76 5.058 L
8.76 5.058 L
cp
S
GR
GS
[1.05417 0 0 1.05442 309.03756 619.50576] CT
N
f-18803871
f
GR
GS
[1.05417 0 0 1.05442 309.03756 619.50576] CT
10.0 ML
1.897 LW
N
0 -10.116 M
-8.76 5.058 L
8.76 5.058 L
cp
S
GR
GS
[1.05417 0 0 1.05442 346.97343 591.3133] CT
N
f-18803871
f
GR
GS
[1.05417 0 0 1.05442 346.97343 591.3133] CT
10.0 ML
1.897 LW
N
0 -10.116 M
-8.76 5.058 L
8.76 5.058 L
cp
S
GR
GS
[1.05417 0 0 1.05442 384.9093 530.62786] CT
N
f-18803871
f
GR
GS
[1.05417 0 0 1.05442 384.9093 530.62786] CT
10.0 ML
1.897 LW
N
0 -10.116 M
-8.76 5.058 L
8.76 5.058 L
cp
S
GR
GS
[1.05417 0 0 1.05442 422.84517 527.28301] CT
N
f-18803871
f
GR
GS
[1.05417 0 0 1.05442 422.84517 527.28301] CT
10.0 ML
1.897 LW
N
0 -10.116 M
-8.76 5.058 L
8.76 5.058 L
cp
S
GR
GS
[1.05417 0 0 1.05442 460.78108 488.5781] CT
N
f-18803871
f
GR
GS
[1.05417 0 0 1.05442 460.78108 488.5781] CT
10.0 ML
1.897 LW
N
0 -10.116 M
-8.76 5.058 L
8.76 5.058 L
cp
S
GR
GS
[1.05417 0 0 1.05442 498.71695 414.03535] CT
N
f-18803871
f
GR
GS
[1.05417 0 0 1.05442 498.71695 414.03535] CT
10.0 ML
1.897 LW
N
0 -10.116 M
-8.76 5.058 L
8.76 5.058 L
cp
S
GR
GS
[1.05417 0 0 1.05442 536.65282 404.47857] CT
N
f-18803871
f
GR
GS
[1.05417 0 0 1.05442 536.65282 404.47857] CT
10.0 ML
1.897 LW
N
0 -10.116 M
-8.76 5.058 L
8.76 5.058 L
cp
S
GR
GS
[1.05417 0 0 1.05442 574.58869 350.00502] CT
N
f-18803871
f
GR
GS
[1.05417 0 0 1.05442 574.58869 350.00502] CT
10.0 ML
1.897 LW
N
0 -10.116 M
-8.76 5.058 L
8.76 5.058 L
cp
S
GR
GS
[1.05417 0 0 1.05442 612.52456 352.87205] CT
N
f-18803871
f
GR
GS
[1.05417 0 0 1.05442 612.52456 352.87205] CT
10.0 ML
1.897 LW
N
0 -10.116 M
-8.76 5.058 L
8.76 5.058 L
cp
S
GR
GS
[1.05417 0 0 1.05442 650.46044 307.95525] CT
N
f-18803871
f
GR
GS
[1.05417 0 0 1.05442 650.46044 307.95525] CT
10.0 ML
1.897 LW
N
0 -10.116 M
-8.76 5.058 L
8.76 5.058 L
cp
S
GR
GS
[1.05417 0 0 1.05442 688.39631 285.49683] CT
N
f-18803871
f
GR
GS
[1.05417 0 0 1.05442 688.39631 285.49683] CT
10.0 ML
1.897 LW
N
0 -10.116 M
-8.76 5.058 L
8.76 5.058 L
cp
S
GR
GS
[1.05417 0 0 1.05442 726.33218 280.24061] CT
N
f-18803871
f
GR
GS
[1.05417 0 0 1.05442 726.33218 280.24061] CT
10.0 ML
1.897 LW
N
0 -10.116 M
-8.76 5.058 L
8.76 5.058 L
cp
S
GR
GS
[1.05417 0 0 1.05442 764.26811 264.47195] CT
N
f-18803871
f
GR
GS
[1.05417 0 0 1.05442 764.26811 264.47195] CT
10.0 ML
1.897 LW
N
0 -10.116 M
-8.76 5.058 L
8.76 5.058 L
cp
S
GR
GS
[1.05417 0 0 1.05442 802.20399 236.75734] CT
N
f-18803871
f
GR
GS
[1.05417 0 0 1.05442 802.20399 236.75734] CT
10.0 ML
1.897 LW
N
0 -10.116 M
-8.76 5.058 L
8.76 5.058 L
cp
S
GR
GS
[1.05417 0 0 1.05442 840.13986 208.08705] CT
N
f-18803871
f
GR
GS
[1.05417 0 0 1.05442 840.13986 208.08705] CT
10.0 ML
1.897 LW
N
0 -10.116 M
-8.76 5.058 L
8.76 5.058 L
cp
S
GR
GS
[1.05417 0 0 1.05442 878.07573 207.60921] CT
N
f-18803871
f
GR
GS
[1.05417 0 0 1.05442 878.07573 207.60921] CT
10.0 ML
1.897 LW
N
0 -10.116 M
-8.76 5.058 L
8.76 5.058 L
cp
S
GR
GS
[1.05417 0 0 1.05442 916.0116 182.28377] CT
N
f-18803871
f
GR
GS
[1.05417 0 0 1.05442 916.0116 182.28377] CT
10.0 ML
1.897 LW
N
0 -10.116 M
-8.76 5.058 L
8.76 5.058 L
cp
S
GR
GS
[1.05417 0 0 1.05442 953.94747 181.32811] CT
N
f-18803871
f
GR
GS
[1.05417 0 0 1.05442 953.94747 181.32811] CT
10.0 ML
1.897 LW
N
0 -10.116 M
-8.76 5.058 L
8.76 5.058 L
cp
S
GR
GS
[1.05417 0 0 1.05442 991.88334 169.86] CT
N
f-18803871
f
GR
GS
[1.05417 0 0 1.05442 991.88334 169.86] CT
10.0 ML
1.897 LW
N
0 -10.116 M
-8.76 5.058 L
8.76 5.058 L
cp
S
GR
GS
[1.05417 0 0 1.05442 1029.81921 180.37244] CT
N
f-18803871
f
GR
GS
[1.05417 0 0 1.05442 1029.81921 180.37244] CT
10.0 ML
1.897 LW
N
0 -10.116 M
-8.76 5.058 L
8.76 5.058 L
cp
S
GR
GS
[1.05417 0 0 1.05442 1067.75509 157.43617] CT
N
f-18803871
f
GR
GS
[1.05417 0 0 1.05442 1067.75509 157.43617] CT
10.0 ML
1.897 LW
N
0 -10.116 M
-8.76 5.058 L
8.76 5.058 L
cp
S
GR
GS
[1.05417 0 0 1.05442 1105.69096 160.30321] CT
N
f-18803871
f
GR
GS
[1.05417 0 0 1.05442 1105.69096 160.30321] CT
10.0 ML
1.897 LW
N
0 -10.116 M
-8.76 5.058 L
8.76 5.058 L
cp
S
GR
GS
[1.05417 0 0 1.05442 1143.62689 142.14536] CT
N
f-18803871
f
GR
GS
[1.05417 0 0 1.05442 1143.62689 142.14536] CT
10.0 ML
1.897 LW
N
0 -10.116 M
-8.76 5.058 L
8.76 5.058 L
cp
S
GR
GS
[1.05417 0 0 1.05442 1181.5627 137.84484] CT
N
f-18803871
f
GR
GS
[1.05417 0 0 1.05442 1181.5627 137.84484] CT
10.0 ML
1.897 LW
N
0 -10.116 M
-8.76 5.058 L
8.76 5.058 L
cp
S
GR
GS
[1.05417 0 0 1.05442 1219.49864 130.67726] CT
N
f-18803871
f
GR
GS
[1.05417 0 0 1.05442 1219.49864 130.67726] CT
10.0 ML
1.897 LW
N
0 -10.116 M
-8.76 5.058 L
8.76 5.058 L
cp
S
GR
GS
[1.05417 0 0 1.05442 1257.43444 126.85456] CT
N
f-18803871
f
GR
GS
[1.05417 0 0 1.05442 1257.43444 126.85456] CT
10.0 ML
1.897 LW
N
0 -10.116 M
-8.76 5.058 L
8.76 5.058 L
cp
S
GR
GS
[1.05417 0 0 1.05442 1295.37038 115.38645] CT
N
f-18803871
f
GR
GS
[1.05417 0 0 1.05442 1295.37038 115.38645] CT
10.0 ML
1.897 LW
N
0 -10.116 M
-8.76 5.058 L
8.76 5.058 L
cp
S
GR
GS
[1.05417 0 0 1.05442 0 0.25] CT
1 0 1 RC
[10 6] 0 setdash
2 LJ
1.897 LW
N
185.197 604.06 M
221.184 602.248 L
257.17 591.825 L
293.156 583.214 L
329.143 558.743 L
365.129 499.377 L
401.116 493.939 L
437.102 459.951 L
473.088 388.349 L
509.075 376.113 L
545.061 328.53 L
581.048 331.249 L
617.034 287.744 L
653.02 265.539 L
689.007 261.007 L
724.993 245.146 L
760.98 219.768 L
796.966 188.952 L
832.952 192.125 L
868.939 175.81 L
904.925 164.481 L
940.912 154.058 L
976.898 168.106 L
1012.884 142.729 L
1048.871 142.729 L
1084.857 141.369 L
1120.844 121.883 L
1156.83 116.898 L
1192.816 122.336 L
1228.803 104.209 L
S
GR
GS
[1.05417 0 0 1.05442 195.22993 637.18578] CT
1 0 1 RC
10.0 ML
1.897 LW
N
-5.751 -3.32 M
-1.917 -3.32 L
0 -6.64 L
1.917 -3.32 L
5.751 -3.32 L
3.32 0 L
5.751 3.32 L
1.917 3.32 L
0 6.64 L
-1.917 3.32 L
-5.751 3.32 L
-3.32 0 L
cp
S
GR
GS
[1.05417 0 0 1.05442 233.1658 635.27444] CT
1 0 1 RC
10.0 ML
1.897 LW
N
-5.751 -3.32 M
-1.917 -3.32 L
0 -6.64 L
1.917 -3.32 L
5.751 -3.32 L
3.32 0 L
5.751 3.32 L
1.917 3.32 L
0 6.64 L
-1.917 3.32 L
-5.751 3.32 L
-3.32 0 L
cp
S
GR
GS
[1.05417 0 0 1.05442 271.10169 624.28414] CT
1 0 1 RC
10.0 ML
1.897 LW
N
-5.751 -3.32 M
-1.917 -3.32 L
0 -6.64 L
1.917 -3.32 L
5.751 -3.32 L
3.32 0 L
5.751 3.32 L
1.917 3.32 L
0 6.64 L
-1.917 3.32 L
-5.751 3.32 L
-3.32 0 L
cp
S
GR
GS
[1.05417 0 0 1.05442 309.03756 615.20524] CT
1 0 1 RC
10.0 ML
1.897 LW
N
-5.751 -3.32 M
-1.917 -3.32 L
0 -6.64 L
1.917 -3.32 L
5.751 -3.32 L
3.32 0 L
5.751 3.32 L
1.917 3.32 L
0 6.64 L
-1.917 3.32 L
-5.751 3.32 L
-3.32 0 L
cp
S
GR
GS
[1.05417 0 0 1.05442 346.97343 589.40197] CT
1 0 1 RC
10.0 ML
1.897 LW
N
-5.751 -3.32 M
-1.917 -3.32 L
0 -6.64 L
1.917 -3.32 L
5.751 -3.32 L
3.32 0 L
5.751 3.32 L
1.917 3.32 L
0 6.64 L
-1.917 3.32 L
-5.751 3.32 L
-3.32 0 L
cp
S
GR
GS
[1.05417 0 0 1.05442 384.9093 526.80516] CT
1 0 1 RC
10.0 ML
1.897 LW
N
-5.751 -3.32 M
-1.917 -3.32 L
0 -6.64 L
1.917 -3.32 L
5.751 -3.32 L
3.32 0 L
5.751 3.32 L
1.917 3.32 L
0 6.64 L
-1.917 3.32 L
-5.751 3.32 L
-3.32 0 L
cp
S
GR
GS
[1.05417 0 0 1.05442 422.84517 521.07111] CT
1 0 1 RC
10.0 ML
1.897 LW
N
-5.751 -3.32 M
-1.917 -3.32 L
0 -6.64 L
1.917 -3.32 L
5.751 -3.32 L
3.32 0 L
5.751 3.32 L
1.917 3.32 L
0 6.64 L
-1.917 3.32 L
-5.751 3.32 L
-3.32 0 L
cp
S
GR
GS
[1.05417 0 0 1.05442 460.78108 485.23324] CT
1 0 1 RC
10.0 ML
1.897 LW
N
-5.751 -3.32 M
-1.917 -3.32 L
0 -6.64 L
1.917 -3.32 L
5.751 -3.32 L
3.32 0 L
5.751 3.32 L
1.917 3.32 L
0 6.64 L
-1.917 3.32 L
-5.751 3.32 L
-3.32 0 L
cp
S
GR
GS
[1.05417 0 0 1.05442 498.71695 409.73479] CT
1 0 1 RC
10.0 ML
1.897 LW
N
-5.751 -3.32 M
-1.917 -3.32 L
0 -6.64 L
1.917 -3.32 L
5.751 -3.32 L
3.32 0 L
5.751 3.32 L
1.917 3.32 L
0 6.64 L
-1.917 3.32 L
-5.751 3.32 L
-3.32 0 L
cp
S
GR
GS
[1.05417 0 0 1.05442 536.65282 396.83315] CT
1 0 1 RC
10.0 ML
1.897 LW
N
-5.751 -3.32 M
-1.917 -3.32 L
0 -6.64 L
1.917 -3.32 L
5.751 -3.32 L
3.32 0 L
5.751 3.32 L
1.917 3.32 L
0 6.64 L
-1.917 3.32 L
-5.751 3.32 L
-3.32 0 L
cp
S
GR
GS
[1.05417 0 0 1.05442 574.58869 346.66013] CT
1 0 1 RC
10.0 ML
1.897 LW
N
-5.751 -3.32 M
-1.917 -3.32 L
0 -6.64 L
1.917 -3.32 L
5.751 -3.32 L
3.32 0 L
5.751 3.32 L
1.917 3.32 L
0 6.64 L
-1.917 3.32 L
-5.751 3.32 L
-3.32 0 L
cp
S
GR
GS
[1.05417 0 0 1.05442 612.52456 349.52717] CT
1 0 1 RC
10.0 ML
1.897 LW
N
-5.751 -3.32 M
-1.917 -3.32 L
0 -6.64 L
1.917 -3.32 L
5.751 -3.32 L
3.32 0 L
5.751 3.32 L
1.917 3.32 L
0 6.64 L
-1.917 3.32 L
-5.751 3.32 L
-3.32 0 L
cp
S
GR
GS
[1.05417 0 0 1.05442 650.46044 303.65469] CT
1 0 1 RC
10.0 ML
1.897 LW
N
-5.751 -3.32 M
-1.917 -3.32 L
0 -6.64 L
1.917 -3.32 L
5.751 -3.32 L
3.32 0 L
5.751 3.32 L
1.917 3.32 L
0 6.64 L
-1.917 3.32 L
-5.751 3.32 L
-3.32 0 L
cp
S
GR
GS
[1.05417 0 0 1.05442 688.39631 280.24061] CT
1 0 1 RC
10.0 ML
1.897 LW
N
-5.751 -3.32 M
-1.917 -3.32 L
0 -6.64 L
1.917 -3.32 L
5.751 -3.32 L
3.32 0 L
5.751 3.32 L
1.917 3.32 L
0 6.64 L
-1.917 3.32 L
-5.751 3.32 L
-3.32 0 L
cp
S
GR
GS
[1.05417 0 0 1.05442 726.33218 275.46223] CT
1 0 1 RC
10.0 ML
1.897 LW
N
-5.751 -3.32 M
-1.917 -3.32 L
0 -6.64 L
1.917 -3.32 L
5.751 -3.32 L
3.32 0 L
5.751 3.32 L
1.917 3.32 L
0 6.64 L
-1.917 3.32 L
-5.751 3.32 L
-3.32 0 L
cp
S
GR
GS
[1.05417 0 0 1.05442 764.26811 258.73789] CT
1 0 1 RC
10.0 ML
1.897 LW
N
-5.751 -3.32 M
-1.917 -3.32 L
0 -6.64 L
1.917 -3.32 L
5.751 -3.32 L
3.32 0 L
5.751 3.32 L
1.917 3.32 L
0 6.64 L
-1.917 3.32 L
-5.751 3.32 L
-3.32 0 L
cp
S
GR
GS
[1.05417 0 0 1.05442 802.20399 231.97895] CT
1 0 1 RC
10.0 ML
1.897 LW
N
-5.751 -3.32 M
-1.917 -3.32 L
0 -6.64 L
1.917 -3.32 L
5.751 -3.32 L
3.32 0 L
5.751 3.32 L
1.917 3.32 L
0 6.64 L
-1.917 3.32 L
-5.751 3.32 L
-3.32 0 L
cp
S
GR
GS
[1.05417 0 0 1.05442 840.13986 199.48595] CT
1 0 1 RC
10.0 ML
1.897 LW
N
-5.751 -3.32 M
-1.917 -3.32 L
0 -6.64 L
1.917 -3.32 L
5.751 -3.32 L
3.32 0 L
5.751 3.32 L
1.917 3.32 L
0 6.64 L
-1.917 3.32 L
-5.751 3.32 L
-3.32 0 L
cp
S
GR
GS
[1.05417 0 0 1.05442 878.07573 202.83082] CT
1 0 1 RC
10.0 ML
1.897 LW
N
-5.751 -3.32 M
-1.917 -3.32 L
0 -6.64 L
1.917 -3.32 L
5.751 -3.32 L
3.32 0 L
5.751 3.32 L
1.917 3.32 L
0 6.64 L
-1.917 3.32 L
-5.751 3.32 L
-3.32 0 L
cp
S
GR
GS
[1.05417 0 0 1.05442 916.0116 185.62865] CT
1 0 1 RC
10.0 ML
1.897 LW
N
-5.751 -3.32 M
-1.917 -3.32 L
0 -6.64 L
1.917 -3.32 L
5.751 -3.32 L
3.32 0 L
5.751 3.32 L
1.917 3.32 L
0 6.64 L
-1.917 3.32 L
-5.751 3.32 L
-3.32 0 L
cp
S
GR
GS
[1.05417 0 0 1.05442 953.94747 173.68269] CT
1 0 1 RC
10.0 ML
1.897 LW
N
-5.751 -3.32 M
-1.917 -3.32 L
0 -6.64 L
1.917 -3.32 L
5.751 -3.32 L
3.32 0 L
5.751 3.32 L
1.917 3.32 L
0 6.64 L
-1.917 3.32 L
-5.751 3.32 L
-3.32 0 L
cp
S
GR
GS
[1.05417 0 0 1.05442 991.88334 162.69243] CT
1 0 1 RC
10.0 ML
1.897 LW
N
-5.751 -3.32 M
-1.917 -3.32 L
0 -6.64 L
1.917 -3.32 L
5.751 -3.32 L
3.32 0 L
5.751 3.32 L
1.917 3.32 L
0 6.64 L
-1.917 3.32 L
-5.751 3.32 L
-3.32 0 L
cp
S
GR
GS
[1.05417 0 0 1.05442 1029.81921 177.5054] CT
1 0 1 RC
10.0 ML
1.897 LW
N
-5.751 -3.32 M
-1.917 -3.32 L
0 -6.64 L
1.917 -3.32 L
5.751 -3.32 L
3.32 0 L
5.751 3.32 L
1.917 3.32 L
0 6.64 L
-1.917 3.32 L
-5.751 3.32 L
-3.32 0 L
cp
S
GR
GS
[1.05417 0 0 1.05442 1067.75509 150.74643] CT
1 0 1 RC
10.0 ML
1.897 LW
N
-5.751 -3.32 M
-1.917 -3.32 L
0 -6.64 L
1.917 -3.32 L
5.751 -3.32 L
3.32 0 L
5.751 3.32 L
1.917 3.32 L
0 6.64 L
-1.917 3.32 L
-5.751 3.32 L
-3.32 0 L
cp
S
GR
GS
[1.05417 0 0 1.05442 1105.69096 150.74643] CT
1 0 1 RC
10.0 ML
1.897 LW
N
-5.751 -3.32 M
-1.917 -3.32 L
0 -6.64 L
1.917 -3.32 L
5.751 -3.32 L
3.32 0 L
5.751 3.32 L
1.917 3.32 L
0 6.64 L
-1.917 3.32 L
-5.751 3.32 L
-3.32 0 L
cp
S
GR
GS
[1.05417 0 0 1.05442 1143.62689 149.31294] CT
1 0 1 RC
10.0 ML
1.897 LW
N
-5.751 -3.32 M
-1.917 -3.32 L
0 -6.64 L
1.917 -3.32 L
5.751 -3.32 L
3.32 0 L
5.751 3.32 L
1.917 3.32 L
0 6.64 L
-1.917 3.32 L
-5.751 3.32 L
-3.32 0 L
cp
S
GR
GS
[1.05417 0 0 1.05442 1181.5627 128.76588] CT
1 0 1 RC
10.0 ML
1.897 LW
N
-5.751 -3.32 M
-1.917 -3.32 L
0 -6.64 L
1.917 -3.32 L
5.751 -3.32 L
3.32 0 L
5.751 3.32 L
1.917 3.32 L
0 6.64 L
-1.917 3.32 L
-5.751 3.32 L
-3.32 0 L
cp
S
GR
GS
[1.05417 0 0 1.05442 1219.49864 123.50968] CT
1 0 1 RC
10.0 ML
1.897 LW
N
-5.751 -3.32 M
-1.917 -3.32 L
0 -6.64 L
1.917 -3.32 L
5.751 -3.32 L
3.32 0 L
5.751 3.32 L
1.917 3.32 L
0 6.64 L
-1.917 3.32 L
-5.751 3.32 L
-3.32 0 L
cp
S
GR
GS
[1.05417 0 0 1.05442 1257.43444 129.24371] CT
1 0 1 RC
10.0 ML
1.897 LW
N
-5.751 -3.32 M
-1.917 -3.32 L
0 -6.64 L
1.917 -3.32 L
5.751 -3.32 L
3.32 0 L
5.751 3.32 L
1.917 3.32 L
0 6.64 L
-1.917 3.32 L
-5.751 3.32 L
-3.32 0 L
cp
S
GR
GS
[1.05417 0 0 1.05442 1295.37038 110.1302] CT
1 0 1 RC
10.0 ML
1.897 LW
N
-5.751 -3.32 M
-1.917 -3.32 L
0 -6.64 L
1.917 -3.32 L
5.751 -3.32 L
3.32 0 L
5.751 3.32 L
1.917 3.32 L
0 6.64 L
-1.917 3.32 L
-5.751 3.32 L
-3.32 0 L
cp
S
GR
GS
[1.05417 0 0 1.05442 0 0.25] CT
0 0.4 0.988 RC
[10 6] 0 setdash
2 LJ
1.897 LW
N
185.197 609.498 M
221.184 609.498 L
257.17 610.405 L
293.156 609.952 L
329.143 610.405 L
365.129 608.139 L
401.116 605.42 L
437.102 606.326 L
473.088 606.779 L
509.075 598.622 L
545.061 589.559 L
581.048 579.589 L
617.034 569.619 L
653.02 546.054 L
689.007 519.77 L
724.993 513.425 L
760.98 473.999 L
796.966 437.745 L
832.952 439.105 L
868.939 429.588 L
904.925 425.963 L
940.912 400.585 L
976.898 402.398 L
1012.884 367.05 L
1048.871 367.05 L
1084.857 365.69 L
1120.844 338.047 L
1156.83 327.171 L
1192.816 328.53 L
1228.803 300.887 L
S
GR
GS
[1.05417 0 0 1.05442 195.22993 642.91985] CT
0 0.4 0.988 RC
10.0 ML
1.897 LW
N
6.14 -0.5 M
6.14 -4.167 3.167 -7.14 -0.5 -7.14 C
-4.167 -7.14 -7.14 -4.167 -7.14 -0.5 C
-7.14 3.167 -4.167 6.14 -0.5 6.14 C
3.167 6.14 6.14 3.167 6.14 -0.5 C
S
GR
GS
[1.05417 0 0 1.05442 233.1658 642.91985] CT
0 0.4 0.988 RC
10.0 ML
1.897 LW
N
6.14 -0.5 M
6.14 -4.167 3.167 -7.14 -0.5 -7.14 C
-4.167 -7.14 -7.14 -4.167 -7.14 -0.5 C
-7.14 3.167 -4.167 6.14 -0.5 6.14 C
3.167 6.14 6.14 3.167 6.14 -0.5 C
S
GR
GS
[1.05417 0 0 1.05442 271.10169 643.87555] CT
0 0.4 0.988 RC
10.0 ML
1.897 LW
N
6.14 -0.5 M
6.14 -4.167 3.167 -7.14 -0.5 -7.14 C
-4.167 -7.14 -7.14 -4.167 -7.14 -0.5 C
-7.14 3.167 -4.167 6.14 -0.5 6.14 C
3.167 6.14 6.14 3.167 6.14 -0.5 C
S
GR
GS
[1.05417 0 0 1.05442 309.03756 643.3977] CT
0 0.4 0.988 RC
10.0 ML
1.897 LW
N
6.14 -0.5 M
6.14 -4.167 3.167 -7.14 -0.5 -7.14 C
-4.167 -7.14 -7.14 -4.167 -7.14 -0.5 C
-7.14 3.167 -4.167 6.14 -0.5 6.14 C
3.167 6.14 6.14 3.167 6.14 -0.5 C
S
GR
GS
[1.05417 0 0 1.05442 346.97343 643.87555] CT
0 0.4 0.988 RC
10.0 ML
1.897 LW
N
6.14 -0.5 M
6.14 -4.167 3.167 -7.14 -0.5 -7.14 C
-4.167 -7.14 -7.14 -4.167 -7.14 -0.5 C
-7.14 3.167 -4.167 6.14 -0.5 6.14 C
3.167 6.14 6.14 3.167 6.14 -0.5 C
S
GR
GS
[1.05417 0 0 1.05442 384.9093 641.48636] CT
0 0.4 0.988 RC
10.0 ML
1.897 LW
N
6.14 -0.5 M
6.14 -4.167 3.167 -7.14 -0.5 -7.14 C
-4.167 -7.14 -7.14 -4.167 -7.14 -0.5 C
-7.14 3.167 -4.167 6.14 -0.5 6.14 C
3.167 6.14 6.14 3.167 6.14 -0.5 C
S
GR
GS
[1.05417 0 0 1.05442 422.84517 638.61933] CT
0 0.4 0.988 RC
10.0 ML
1.897 LW
N
6.14 -0.5 M
6.14 -4.167 3.167 -7.14 -0.5 -7.14 C
-4.167 -7.14 -7.14 -4.167 -7.14 -0.5 C
-7.14 3.167 -4.167 6.14 -0.5 6.14 C
3.167 6.14 6.14 3.167 6.14 -0.5 C
S
GR
GS
[1.05417 0 0 1.05442 460.78108 639.57496] CT
0 0.4 0.988 RC
10.0 ML
1.897 LW
N
6.14 -0.5 M
6.14 -4.167 3.167 -7.14 -0.5 -7.14 C
-4.167 -7.14 -7.14 -4.167 -7.14 -0.5 C
-7.14 3.167 -4.167 6.14 -0.5 6.14 C
3.167 6.14 6.14 3.167 6.14 -0.5 C
S
GR
GS
[1.05417 0 0 1.05442 498.71695 640.05281] CT
0 0.4 0.988 RC
10.0 ML
1.897 LW
N
6.14 -0.5 M
6.14 -4.167 3.167 -7.14 -0.5 -7.14 C
-4.167 -7.14 -7.14 -4.167 -7.14 -0.5 C
-7.14 3.167 -4.167 6.14 -0.5 6.14 C
3.167 6.14 6.14 3.167 6.14 -0.5 C
S
GR
GS
[1.05417 0 0 1.05442 536.65282 631.4517] CT
0 0.4 0.988 RC
10.0 ML
1.897 LW
N
6.14 -0.5 M
6.14 -4.167 3.167 -7.14 -0.5 -7.14 C
-4.167 -7.14 -7.14 -4.167 -7.14 -0.5 C
-7.14 3.167 -4.167 6.14 -0.5 6.14 C
3.167 6.14 6.14 3.167 6.14 -0.5 C
S
GR
GS
[1.05417 0 0 1.05442 574.58869 621.89495] CT
0 0.4 0.988 RC
10.0 ML
1.897 LW
N
6.14 -0.5 M
6.14 -4.167 3.167 -7.14 -0.5 -7.14 C
-4.167 -7.14 -7.14 -4.167 -7.14 -0.5 C
-7.14 3.167 -4.167 6.14 -0.5 6.14 C
3.167 6.14 6.14 3.167 6.14 -0.5 C
S
GR
GS
[1.05417 0 0 1.05442 612.52456 611.3825] CT
0 0.4 0.988 RC
10.0 ML
1.897 LW
N
6.14 -0.5 M
6.14 -4.167 3.167 -7.14 -0.5 -7.14 C
-4.167 -7.14 -7.14 -4.167 -7.14 -0.5 C
-7.14 3.167 -4.167 6.14 -0.5 6.14 C
3.167 6.14 6.14 3.167 6.14 -0.5 C
S
GR
GS
[1.05417 0 0 1.05442 650.46044 600.87005] CT
0 0.4 0.988 RC
10.0 ML
1.897 LW
N
6.14 -0.5 M
6.14 -4.167 3.167 -7.14 -0.5 -7.14 C
-4.167 -7.14 -7.14 -4.167 -7.14 -0.5 C
-7.14 3.167 -4.167 6.14 -0.5 6.14 C
3.167 6.14 6.14 3.167 6.14 -0.5 C
S
GR
GS
[1.05417 0 0 1.05442 688.39631 576.02248] CT
0 0.4 0.988 RC
10.0 ML
1.897 LW
N
6.14 -0.5 M
6.14 -4.167 3.167 -7.14 -0.5 -7.14 C
-4.167 -7.14 -7.14 -4.167 -7.14 -0.5 C
-7.14 3.167 -4.167 6.14 -0.5 6.14 C
3.167 6.14 6.14 3.167 6.14 -0.5 C
S
GR
GS
[1.05417 0 0 1.05442 726.33218 548.30787] CT
0 0.4 0.988 RC
10.0 ML
1.897 LW
N
6.14 -0.5 M
6.14 -4.167 3.167 -7.14 -0.5 -7.14 C
-4.167 -7.14 -7.14 -4.167 -7.14 -0.5 C
-7.14 3.167 -4.167 6.14 -0.5 6.14 C
3.167 6.14 6.14 3.167 6.14 -0.5 C
S
GR
GS
[1.05417 0 0 1.05442 764.26811 541.61816] CT
0 0.4 0.988 RC
10.0 ML
1.897 LW
N
6.14 -0.5 M
6.14 -4.167 3.167 -7.14 -0.5 -7.14 C
-4.167 -7.14 -7.14 -4.167 -7.14 -0.5 C
-7.14 3.167 -4.167 6.14 -0.5 6.14 C
3.167 6.14 6.14 3.167 6.14 -0.5 C
S
GR
GS
[1.05417 0 0 1.05442 802.20399 500.04621] CT
0 0.4 0.988 RC
10.0 ML
1.897 LW
N
6.14 -0.5 M
6.14 -4.167 3.167 -7.14 -0.5 -7.14 C
-4.167 -7.14 -7.14 -4.167 -7.14 -0.5 C
-7.14 3.167 -4.167 6.14 -0.5 6.14 C
3.167 6.14 6.14 3.167 6.14 -0.5 C
S
GR
GS
[1.05417 0 0 1.05442 840.13986 461.81916] CT
0 0.4 0.988 RC
10.0 ML
1.897 LW
N
6.14 -0.5 M
6.14 -4.167 3.167 -7.14 -0.5 -7.14 C
-4.167 -7.14 -7.14 -4.167 -7.14 -0.5 C
-7.14 3.167 -4.167 6.14 -0.5 6.14 C
3.167 6.14 6.14 3.167 6.14 -0.5 C
S
GR
GS
[1.05417 0 0 1.05442 878.07573 463.25267] CT
0 0.4 0.988 RC
10.0 ML
1.897 LW
N
6.14 -0.5 M
6.14 -4.167 3.167 -7.14 -0.5 -7.14 C
-4.167 -7.14 -7.14 -4.167 -7.14 -0.5 C
-7.14 3.167 -4.167 6.14 -0.5 6.14 C
3.167 6.14 6.14 3.167 6.14 -0.5 C
S
GR
GS
[1.05417 0 0 1.05442 916.0116 453.21807] CT
0 0.4 0.988 RC
10.0 ML
1.897 LW
N
6.14 -0.5 M
6.14 -4.167 3.167 -7.14 -0.5 -7.14 C
-4.167 -7.14 -7.14 -4.167 -7.14 -0.5 C
-7.14 3.167 -4.167 6.14 -0.5 6.14 C
3.167 6.14 6.14 3.167 6.14 -0.5 C
S
GR
GS
[1.05417 0 0 1.05442 953.94747 449.39537] CT
0 0.4 0.988 RC
10.0 ML
1.897 LW
N
6.14 -0.5 M
6.14 -4.167 3.167 -7.14 -0.5 -7.14 C
-4.167 -7.14 -7.14 -4.167 -7.14 -0.5 C
-7.14 3.167 -4.167 6.14 -0.5 6.14 C
3.167 6.14 6.14 3.167 6.14 -0.5 C
S
GR
GS
[1.05417 0 0 1.05442 991.88334 422.63643] CT
0 0.4 0.988 RC
10.0 ML
1.897 LW
N
6.14 -0.5 M
6.14 -4.167 3.167 -7.14 -0.5 -7.14 C
-4.167 -7.14 -7.14 -4.167 -7.14 -0.5 C
-7.14 3.167 -4.167 6.14 -0.5 6.14 C
3.167 6.14 6.14 3.167 6.14 -0.5 C
S
GR
GS
[1.05417 0 0 1.05442 1029.81921 424.54776] CT
0 0.4 0.988 RC
10.0 ML
1.897 LW
N
6.14 -0.5 M
6.14 -4.167 3.167 -7.14 -0.5 -7.14 C
-4.167 -7.14 -7.14 -4.167 -7.14 -0.5 C
-7.14 3.167 -4.167 6.14 -0.5 6.14 C
3.167 6.14 6.14 3.167 6.14 -0.5 C
S
GR
GS
[1.05417 0 0 1.05442 1067.75509 387.27641] CT
0 0.4 0.988 RC
10.0 ML
1.897 LW
N
6.14 -0.5 M
6.14 -4.167 3.167 -7.14 -0.5 -7.14 C
-4.167 -7.14 -7.14 -4.167 -7.14 -0.5 C
-7.14 3.167 -4.167 6.14 -0.5 6.14 C
3.167 6.14 6.14 3.167 6.14 -0.5 C
S
GR
GS
[1.05417 0 0 1.05442 1105.69096 387.27641] CT
0 0.4 0.988 RC
10.0 ML
1.897 LW
N
6.14 -0.5 M
6.14 -4.167 3.167 -7.14 -0.5 -7.14 C
-4.167 -7.14 -7.14 -4.167 -7.14 -0.5 C
-7.14 3.167 -4.167 6.14 -0.5 6.14 C
3.167 6.14 6.14 3.167 6.14 -0.5 C
S
GR
GS
[1.05417 0 0 1.05442 1143.62689 385.84289] CT
0 0.4 0.988 RC
10.0 ML
1.897 LW
N
6.14 -0.5 M
6.14 -4.167 3.167 -7.14 -0.5 -7.14 C
-4.167 -7.14 -7.14 -4.167 -7.14 -0.5 C
-7.14 3.167 -4.167 6.14 -0.5 6.14 C
3.167 6.14 6.14 3.167 6.14 -0.5 C
S
GR
GS
[1.05417 0 0 1.05442 1181.5627 356.69476] CT
0 0.4 0.988 RC
10.0 ML
1.897 LW
N
6.14 -0.5 M
6.14 -4.167 3.167 -7.14 -0.5 -7.14 C
-4.167 -7.14 -7.14 -4.167 -7.14 -0.5 C
-7.14 3.167 -4.167 6.14 -0.5 6.14 C
3.167 6.14 6.14 3.167 6.14 -0.5 C
S
GR
GS
[1.05417 0 0 1.05442 1219.49864 345.22661] CT
0 0.4 0.988 RC
10.0 ML
1.897 LW
N
6.14 -0.5 M
6.14 -4.167 3.167 -7.14 -0.5 -7.14 C
-4.167 -7.14 -7.14 -4.167 -7.14 -0.5 C
-7.14 3.167 -4.167 6.14 -0.5 6.14 C
3.167 6.14 6.14 3.167 6.14 -0.5 C
S
GR
GS
[1.05417 0 0 1.05442 1257.43444 346.66013] CT
0 0.4 0.988 RC
10.0 ML
1.897 LW
N
6.14 -0.5 M
6.14 -4.167 3.167 -7.14 -0.5 -7.14 C
-4.167 -7.14 -7.14 -4.167 -7.14 -0.5 C
-7.14 3.167 -4.167 6.14 -0.5 6.14 C
3.167 6.14 6.14 3.167 6.14 -0.5 C
S
GR
GS
[1.05417 0 0 1.05442 1295.37038 317.512] CT
0 0.4 0.988 RC
10.0 ML
1.897 LW
N
6.14 -0.5 M
6.14 -4.167 3.167 -7.14 -0.5 -7.14 C
-4.167 -7.14 -7.14 -4.167 -7.14 -0.5 C
-7.14 3.167 -4.167 6.14 -0.5 6.14 C
3.167 6.14 6.14 3.167 6.14 -0.5 C
S
GR
GS
[1.05417 0 0 1.05442 0 0.25] CT
0 0.502 0 RC
[10 6] 0 setdash
2 LJ
1.897 LW
N
185.197 606.326 M
221.184 603.607 L
257.17 601.794 L
293.156 601.794 L
329.143 599.529 L
365.129 594.09 L
401.116 590.465 L
437.102 592.731 L
473.088 586.387 L
509.075 575.964 L
545.061 557.836 L
581.048 555.117 L
617.034 544.694 L
653.02 512.519 L
689.007 493.033 L
724.993 472.186 L
760.98 452.7 L
796.966 394.694 L
832.952 414.633 L
868.939 384.724 L
904.925 387.443 L
940.912 363.878 L
976.898 374.301 L
1012.884 328.53 L
1048.871 326.717 L
1084.857 334.421 L
1120.844 295.902 L
1156.83 294.089 L
1192.816 294.542 L
1228.803 258.741 L
S
GR
GS
[1.05417 0 0 1.05442 195.22993 639.57496] CT
1 GC
N
/f-719462112{-5 -5 M
-5 5 L
5 5 L
5 -5 L
cp}def
f-719462112
f
GR
GS
[1.05417 0 0 1.05442 195.22993 639.57496] CT
0 0.502 0 RC
10.0 ML
1.897 LW
N
-5 -5 M
-5 5 L
5 5 L
5 -5 L
cp
S
GR
GS
[1.05417 0 0 1.05442 233.1658 636.70793] CT
1 GC
N
f-719462112
f
GR
GS
[1.05417 0 0 1.05442 233.1658 636.70793] CT
0 0.502 0 RC
10.0 ML
1.897 LW
N
-5 -5 M
-5 5 L
5 5 L
5 -5 L
cp
S
GR
GS
[1.05417 0 0 1.05442 271.10169 634.79659] CT
1 GC
N
f-719462112
f
GR
GS
[1.05417 0 0 1.05442 271.10169 634.79659] CT
0 0.502 0 RC
10.0 ML
1.897 LW
N
-5 -5 M
-5 5 L
5 5 L
5 -5 L
cp
S
GR
GS
[1.05417 0 0 1.05442 309.03756 634.79659] CT
1 GC
N
f-719462112
f
GR
GS
[1.05417 0 0 1.05442 309.03756 634.79659] CT
0 0.502 0 RC
10.0 ML
1.897 LW
N
-5 -5 M
-5 5 L
5 5 L
5 -5 L
cp
S
GR
GS
[1.05417 0 0 1.05442 346.97343 632.4074] CT
1 GC
N
f-719462112
f
GR
GS
[1.05417 0 0 1.05442 346.97343 632.4074] CT
0 0.502 0 RC
10.0 ML
1.897 LW
N
-5 -5 M
-5 5 L
5 5 L
5 -5 L
cp
S
GR
GS
[1.05417 0 0 1.05442 384.9093 626.67333] CT
1 GC
N
f-719462112
f
GR
GS
[1.05417 0 0 1.05442 384.9093 626.67333] CT
0 0.502 0 RC
10.0 ML
1.897 LW
N
-5 -5 M
-5 5 L
5 5 L
5 -5 L
cp
S
GR
GS
[1.05417 0 0 1.05442 422.84517 622.85065] CT
1 GC
N
f-719462112
f
GR
GS
[1.05417 0 0 1.05442 422.84517 622.85065] CT
0 0.502 0 RC
10.0 ML
1.897 LW
N
-5 -5 M
-5 5 L
5 5 L
5 -5 L
cp
S
GR
GS
[1.05417 0 0 1.05442 460.78108 625.23984] CT
1 GC
N
f-719462112
f
GR
GS
[1.05417 0 0 1.05442 460.78108 625.23984] CT
0 0.502 0 RC
10.0 ML
1.897 LW
N
-5 -5 M
-5 5 L
5 5 L
5 -5 L
cp
S
GR
GS
[1.05417 0 0 1.05442 498.71695 618.55013] CT
1 GC
N
f-719462112
f
GR
GS
[1.05417 0 0 1.05442 498.71695 618.55013] CT
0 0.502 0 RC
10.0 ML
1.897 LW
N
-5 -5 M
-5 5 L
5 5 L
5 -5 L
cp
S
GR
GS
[1.05417 0 0 1.05442 536.65282 607.55983] CT
1 GC
N
f-719462112
f
GR
GS
[1.05417 0 0 1.05442 536.65282 607.55983] CT
0 0.502 0 RC
10.0 ML
1.897 LW
N
-5 -5 M
-5 5 L
5 5 L
5 -5 L
cp
S
GR
GS
[1.05417 0 0 1.05442 574.58869 588.44627] CT
1 GC
N
f-719462112
f
GR
GS
[1.05417 0 0 1.05442 574.58869 588.44627] CT
0 0.502 0 RC
10.0 ML
1.897 LW
N
-5 -5 M
-5 5 L
5 5 L
5 -5 L
cp
S
GR
GS
[1.05417 0 0 1.05442 612.52456 585.57923] CT
1 GC
N
f-719462112
f
GR
GS
[1.05417 0 0 1.05442 612.52456 585.57923] CT
0 0.502 0 RC
10.0 ML
1.897 LW
N
-5 -5 M
-5 5 L
5 5 L
5 -5 L
cp
S
GR
GS
[1.05417 0 0 1.05442 650.46044 574.58899] CT
1 GC
N
f-719462112
f
GR
GS
[1.05417 0 0 1.05442 650.46044 574.58899] CT
0 0.502 0 RC
10.0 ML
1.897 LW
N
-5 -5 M
-5 5 L
5 5 L
5 -5 L
cp
S
GR
GS
[1.05417 0 0 1.05442 688.39631 540.66246] CT
1 GC
N
f-719462112
f
GR
GS
[1.05417 0 0 1.05442 688.39631 540.66246] CT
0 0.502 0 RC
10.0 ML
1.897 LW
N
-5 -5 M
-5 5 L
5 5 L
5 -5 L
cp
S
GR
GS
[1.05417 0 0 1.05442 726.33218 520.11541] CT
1 GC
N
f-719462112
f
GR
GS
[1.05417 0 0 1.05442 726.33218 520.11541] CT
0 0.502 0 RC
10.0 ML
1.897 LW
N
-5 -5 M
-5 5 L
5 5 L
5 -5 L
cp
S
GR
GS
[1.05417 0 0 1.05442 764.26811 498.13484] CT
1 GC
N
f-719462112
f
GR
GS
[1.05417 0 0 1.05442 764.26811 498.13484] CT
0 0.502 0 RC
10.0 ML
1.897 LW
N
-5 -5 M
-5 5 L
5 5 L
5 -5 L
cp
S
GR
GS
[1.05417 0 0 1.05442 802.20399 477.5878] CT
1 GC
N
f-719462112
f
GR
GS
[1.05417 0 0 1.05442 802.20399 477.5878] CT
0 0.502 0 RC
10.0 ML
1.897 LW
N
-5 -5 M
-5 5 L
5 5 L
5 -5 L
cp
S
GR
GS
[1.05417 0 0 1.05442 840.13986 416.4245] CT
1 GC
N
f-719462112
f
GR
GS
[1.05417 0 0 1.05442 840.13986 416.4245] CT
0 0.502 0 RC
10.0 ML
1.897 LW
N
-5 -5 M
-5 5 L
5 5 L
5 -5 L
cp
S
GR
GS
[1.05417 0 0 1.05442 878.07573 437.4494] CT
1 GC
N
f-719462112
f
GR
GS
[1.05417 0 0 1.05442 878.07573 437.4494] CT
0 0.502 0 RC
10.0 ML
1.897 LW
N
-5 -5 M
-5 5 L
5 5 L
5 -5 L
cp
S
GR
GS
[1.05417 0 0 1.05442 916.0116 405.91209] CT
1 GC
N
f-719462112
f
GR
GS
[1.05417 0 0 1.05442 916.0116 405.91209] CT
0 0.502 0 RC
10.0 ML
1.897 LW
N
-5 -5 M
-5 5 L
5 5 L
5 -5 L
cp
S
GR
GS
[1.05417 0 0 1.05442 953.94747 408.77912] CT
1 GC
N
f-719462112
f
GR
GS
[1.05417 0 0 1.05442 953.94747 408.77912] CT
0 0.502 0 RC
10.0 ML
1.897 LW
N
-5 -5 M
-5 5 L
5 5 L
5 -5 L
cp
S
GR
GS
[1.05417 0 0 1.05442 991.88334 383.93152] CT
1 GC
N
f-719462112
f
GR
GS
[1.05417 0 0 1.05442 991.88334 383.93152] CT
0 0.502 0 RC
10.0 ML
1.897 LW
N
-5 -5 M
-5 5 L
5 5 L
5 -5 L
cp
S
GR
GS
[1.05417 0 0 1.05442 1029.81921 394.92179] CT
1 GC
N
f-719462112
f
GR
GS
[1.05417 0 0 1.05442 1029.81921 394.92179] CT
0 0.502 0 RC
10.0 ML
1.897 LW
N
-5 -5 M
-5 5 L
5 5 L
5 -5 L
cp
S
GR
GS
[1.05417 0 0 1.05442 1067.75509 346.66013] CT
1 GC
N
f-719462112
f
GR
GS
[1.05417 0 0 1.05442 1067.75509 346.66013] CT
0 0.502 0 RC
10.0 ML
1.897 LW
N
-5 -5 M
-5 5 L
5 5 L
5 -5 L
cp
S
GR
GS
[1.05417 0 0 1.05442 1105.69096 344.74879] CT
1 GC
N
f-719462112
f
GR
GS
[1.05417 0 0 1.05442 1105.69096 344.74879] CT
0 0.502 0 RC
10.0 ML
1.897 LW
N
-5 -5 M
-5 5 L
5 5 L
5 -5 L
cp
S
GR
GS
[1.05417 0 0 1.05442 1143.62689 352.87205] CT
1 GC
N
f-719462112
f
GR
GS
[1.05417 0 0 1.05442 1143.62689 352.87205] CT
0 0.502 0 RC
10.0 ML
1.897 LW
N
-5 -5 M
-5 5 L
5 5 L
5 -5 L
cp
S
GR
GS
[1.05417 0 0 1.05442 1181.5627 312.25577] CT
1 GC
N
f-719462112
f
GR
GS
[1.05417 0 0 1.05442 1181.5627 312.25577] CT
0 0.502 0 RC
10.0 ML
1.897 LW
N
-5 -5 M
-5 5 L
5 5 L
5 -5 L
cp
S
GR
GS
[1.05417 0 0 1.05442 1219.49864 310.34444] CT
1 GC
N
f-719462112
f
GR
GS
[1.05417 0 0 1.05442 1219.49864 310.34444] CT
0 0.502 0 RC
10.0 ML
1.897 LW
N
-5 -5 M
-5 5 L
5 5 L
5 -5 L
cp
S
GR
GS
[1.05417 0 0 1.05442 1257.43444 310.82226] CT
1 GC
N
f-719462112
f
GR
GS
[1.05417 0 0 1.05442 1257.43444 310.82226] CT
0 0.502 0 RC
10.0 ML
1.897 LW
N
-5 -5 M
-5 5 L
5 5 L
5 -5 L
cp
S
GR
GS
[1.05417 0 0 1.05442 1295.37038 273.07305] CT
1 GC
N
f-719462112
f
GR
GS
[1.05417 0 0 1.05442 1295.37038 273.07305] CT
0 0.502 0 RC
10.0 ML
1.897 LW
N
-5 -5 M
-5 5 L
5 5 L
5 -5 L
cp
S
GR
GS
[1.05417 0 0 1.05442 0 0.25] CT
1 0 0 RC
[10 6] 0 setdash
2 LJ
0.949 LW
N
185.197 608.139 M
221.184 605.873 L
257.17 604.967 L
293.156 606.326 L
329.143 604.06 L
365.129 600.888 L
401.116 597.263 L
437.102 600.888 L
473.088 592.731 L
509.075 585.027 L
545.061 564.181 L
581.048 565.087 L
617.034 553.305 L
653.02 520.676 L
689.007 503.002 L
724.993 482.156 L
760.98 456.779 L
796.966 409.195 L
832.952 417.352 L
868.939 392.881 L
904.925 396.053 L
940.912 371.129 L
976.898 382.005 L
1012.884 338.953 L
1048.871 338.5 L
1084.857 343.032 L
1120.844 303.152 L
1156.83 298.167 L
1192.816 301.793 L
1228.803 265.539 L
S
GR
GS
[1.05417 0 0 1.05442 195.22993 641.48636] CT
1 0 0 RC
N
/f68728590{0 -7 M
0 7 L
-7 0 M
7 0 L
-4.695 -4.695 M
4.695 4.695 L
-4.695 4.695 M
4.695 -4.695 L}def
f68728590
f
GR
GS
[1.05417 0 0 1.05442 195.22993 641.48636] CT
1 0 0 RC
10.0 ML
N
0 -7 M
0 7 L
-7 0 M
7 0 L
-4.695 -4.695 M
4.695 4.695 L
-4.695 4.695 M
4.695 -4.695 L
S
GR
GS
[1.05417 0 0 1.05442 233.1658 639.09711] CT
1 0 0 RC
N
f68728590
f
GR
GS
[1.05417 0 0 1.05442 233.1658 639.09711] CT
1 0 0 RC
10.0 ML
N
0 -7 M
0 7 L
-7 0 M
7 0 L
-4.695 -4.695 M
4.695 4.695 L
-4.695 4.695 M
4.695 -4.695 L
S
GR
GS
[1.05417 0 0 1.05442 271.10169 638.14148] CT
1 0 0 RC
N
f68728590
f
GR
GS
[1.05417 0 0 1.05442 271.10169 638.14148] CT
1 0 0 RC
10.0 ML
N
0 -7 M
0 7 L
-7 0 M
7 0 L
-4.695 -4.695 M
4.695 4.695 L
-4.695 4.695 M
4.695 -4.695 L
S
GR
GS
[1.05417 0 0 1.05442 309.03756 639.57496] CT
1 0 0 RC
N
f68728590
f
GR
GS
[1.05417 0 0 1.05442 309.03756 639.57496] CT
1 0 0 RC
10.0 ML
N
0 -7 M
0 7 L
-7 0 M
7 0 L
-4.695 -4.695 M
4.695 4.695 L
-4.695 4.695 M
4.695 -4.695 L
S
GR
GS
[1.05417 0 0 1.05442 346.97343 637.18578] CT
1 0 0 RC
N
f68728590
f
GR
GS
[1.05417 0 0 1.05442 346.97343 637.18578] CT
1 0 0 RC
10.0 ML
N
0 -7 M
0 7 L
-7 0 M
7 0 L
-4.695 -4.695 M
4.695 4.695 L
-4.695 4.695 M
4.695 -4.695 L
S
GR
GS
[1.05417 0 0 1.05442 384.9093 633.84095] CT
1 0 0 RC
N
f68728590
f
GR
GS
[1.05417 0 0 1.05442 384.9093 633.84095] CT
1 0 0 RC
10.0 ML
N
0 -7 M
0 7 L
-7 0 M
7 0 L
-4.695 -4.695 M
4.695 4.695 L
-4.695 4.695 M
4.695 -4.695 L
S
GR
GS
[1.05417 0 0 1.05442 422.84517 630.01821] CT
1 0 0 RC
N
f68728590
f
GR
GS
[1.05417 0 0 1.05442 422.84517 630.01821] CT
1 0 0 RC
10.0 ML
N
0 -7 M
0 7 L
-7 0 M
7 0 L
-4.695 -4.695 M
4.695 4.695 L
-4.695 4.695 M
4.695 -4.695 L
S
GR
GS
[1.05417 0 0 1.05442 460.78108 633.84095] CT
1 0 0 RC
N
f68728590
f
GR
GS
[1.05417 0 0 1.05442 460.78108 633.84095] CT
1 0 0 RC
10.0 ML
N
0 -7 M
0 7 L
-7 0 M
7 0 L
-4.695 -4.695 M
4.695 4.695 L
-4.695 4.695 M
4.695 -4.695 L
S
GR
GS
[1.05417 0 0 1.05442 498.71695 625.23984] CT
1 0 0 RC
N
f68728590
f
GR
GS
[1.05417 0 0 1.05442 498.71695 625.23984] CT
1 0 0 RC
10.0 ML
N
0 -7 M
0 7 L
-7 0 M
7 0 L
-4.695 -4.695 M
4.695 4.695 L
-4.695 4.695 M
4.695 -4.695 L
S
GR
GS
[1.05417 0 0 1.05442 536.65282 617.11658] CT
1 0 0 RC
N
f68728590
f
GR
GS
[1.05417 0 0 1.05442 536.65282 617.11658] CT
1 0 0 RC
10.0 ML
N
0 -7 M
0 7 L
-7 0 M
7 0 L
-4.695 -4.695 M
4.695 4.695 L
-4.695 4.695 M
4.695 -4.695 L
S
GR
GS
[1.05417 0 0 1.05442 574.58869 595.13604] CT
1 0 0 RC
N
f68728590
f
GR
GS
[1.05417 0 0 1.05442 574.58869 595.13604] CT
1 0 0 RC
10.0 ML
N
0 -7 M
0 7 L
-7 0 M
7 0 L
-4.695 -4.695 M
4.695 4.695 L
-4.695 4.695 M
4.695 -4.695 L
S
GR
GS
[1.05417 0 0 1.05442 612.52456 596.09168] CT
1 0 0 RC
N
f68728590
f
GR
GS
[1.05417 0 0 1.05442 612.52456 596.09168] CT
1 0 0 RC
10.0 ML
N
0 -7 M
0 7 L
-7 0 M
7 0 L
-4.695 -4.695 M
4.695 4.695 L
-4.695 4.695 M
4.695 -4.695 L
S
GR
GS
[1.05417 0 0 1.05442 650.46044 583.66789] CT
1 0 0 RC
N
f68728590
f
GR
GS
[1.05417 0 0 1.05442 650.46044 583.66789] CT
1 0 0 RC
10.0 ML
N
0 -7 M
0 7 L
-7 0 M
7 0 L
-4.695 -4.695 M
4.695 4.695 L
-4.695 4.695 M
4.695 -4.695 L
S
GR
GS
[1.05417 0 0 1.05442 688.39631 549.26357] CT
1 0 0 RC
N
f68728590
f
GR
GS
[1.05417 0 0 1.05442 688.39631 549.26357] CT
1 0 0 RC
10.0 ML
N
0 -7 M
0 7 L
-7 0 M
7 0 L
-4.695 -4.695 M
4.695 4.695 L
-4.695 4.695 M
4.695 -4.695 L
S
GR
GS
[1.05417 0 0 1.05442 726.33218 530.62786] CT
1 0 0 RC
N
f68728590
f
GR
GS
[1.05417 0 0 1.05442 726.33218 530.62786] CT
1 0 0 RC
10.0 ML
N
0 -7 M
0 7 L
-7 0 M
7 0 L
-4.695 -4.695 M
4.695 4.695 L
-4.695 4.695 M
4.695 -4.695 L
S
GR
GS
[1.05417 0 0 1.05442 764.26811 508.64729] CT
1 0 0 RC
N
f68728590
f
GR
GS
[1.05417 0 0 1.05442 764.26811 508.64729] CT
1 0 0 RC
10.0 ML
N
0 -7 M
0 7 L
-7 0 M
7 0 L
-4.695 -4.695 M
4.695 4.695 L
-4.695 4.695 M
4.695 -4.695 L
S
GR
GS
[1.05417 0 0 1.05442 802.20399 481.88835] CT
1 0 0 RC
N
f68728590
f
GR
GS
[1.05417 0 0 1.05442 802.20399 481.88835] CT
1 0 0 RC
10.0 ML
N
0 -7 M
0 7 L
-7 0 M
7 0 L
-4.695 -4.695 M
4.695 4.695 L
-4.695 4.695 M
4.695 -4.695 L
S
GR
GS
[1.05417 0 0 1.05442 840.13986 431.71533] CT
1 0 0 RC
N
f68728590
f
GR
GS
[1.05417 0 0 1.05442 840.13986 431.71533] CT
1 0 0 RC
10.0 ML
N
0 -7 M
0 7 L
-7 0 M
7 0 L
-4.695 -4.695 M
4.695 4.695 L
-4.695 4.695 M
4.695 -4.695 L
S
GR
GS
[1.05417 0 0 1.05442 878.07573 440.31644] CT
1 0 0 RC
N
f68728590
f
GR
GS
[1.05417 0 0 1.05442 878.07573 440.31644] CT
1 0 0 RC
10.0 ML
N
0 -7 M
0 7 L
-7 0 M
7 0 L
-4.695 -4.695 M
4.695 4.695 L
-4.695 4.695 M
4.695 -4.695 L
S
GR
GS
[1.05417 0 0 1.05442 916.0116 414.51317] CT
1 0 0 RC
N
f68728590
f
GR
GS
[1.05417 0 0 1.05442 916.0116 414.51317] CT
1 0 0 RC
10.0 ML
N
0 -7 M
0 7 L
-7 0 M
7 0 L
-4.695 -4.695 M
4.695 4.695 L
-4.695 4.695 M
4.695 -4.695 L
S
GR
GS
[1.05417 0 0 1.05442 953.94747 417.85805] CT
1 0 0 RC
N
f68728590
f
GR
GS
[1.05417 0 0 1.05442 953.94747 417.85805] CT
1 0 0 RC
10.0 ML
N
0 -7 M
0 7 L
-7 0 M
7 0 L
-4.695 -4.695 M
4.695 4.695 L
-4.695 4.695 M
4.695 -4.695 L
S
GR
GS
[1.05417 0 0 1.05442 991.88334 391.57693] CT
1 0 0 RC
N
f68728590
f
GR
GS
[1.05417 0 0 1.05442 991.88334 391.57693] CT
1 0 0 RC
10.0 ML
N
0 -7 M
0 7 L
-7 0 M
7 0 L
-4.695 -4.695 M
4.695 4.695 L
-4.695 4.695 M
4.695 -4.695 L
S
GR
GS
[1.05417 0 0 1.05442 1029.81921 403.04505] CT
1 0 0 RC
N
f68728590
f
GR
GS
[1.05417 0 0 1.05442 1029.81921 403.04505] CT
1 0 0 RC
10.0 ML
N
0 -7 M
0 7 L
-7 0 M
7 0 L
-4.695 -4.695 M
4.695 4.695 L
-4.695 4.695 M
4.695 -4.695 L
S
GR
GS
[1.05417 0 0 1.05442 1067.75509 357.6504] CT
1 0 0 RC
N
f68728590
f
GR
GS
[1.05417 0 0 1.05442 1067.75509 357.6504] CT
1 0 0 RC
10.0 ML
N
0 -7 M
0 7 L
-7 0 M
7 0 L
-4.695 -4.695 M
4.695 4.695 L
-4.695 4.695 M
4.695 -4.695 L
S
GR
GS
[1.05417 0 0 1.05442 1105.69096 357.17258] CT
1 0 0 RC
N
f68728590
f
GR
GS
[1.05417 0 0 1.05442 1105.69096 357.17258] CT
1 0 0 RC
10.0 ML
N
0 -7 M
0 7 L
-7 0 M
7 0 L
-4.695 -4.695 M
4.695 4.695 L
-4.695 4.695 M
4.695 -4.695 L
S
GR
GS
[1.05417 0 0 1.05442 1143.62689 361.95098] CT
1 0 0 RC
N
f68728590
f
GR
GS
[1.05417 0 0 1.05442 1143.62689 361.95098] CT
1 0 0 RC
10.0 ML
N
0 -7 M
0 7 L
-7 0 M
7 0 L
-4.695 -4.695 M
4.695 4.695 L
-4.695 4.695 M
4.695 -4.695 L
S
GR
GS
[1.05417 0 0 1.05442 1181.5627 319.90119] CT
1 0 0 RC
N
f68728590
f
GR
GS
[1.05417 0 0 1.05442 1181.5627 319.90119] CT
1 0 0 RC
10.0 ML
N
0 -7 M
0 7 L
-7 0 M
7 0 L
-4.695 -4.695 M
4.695 4.695 L
-4.695 4.695 M
4.695 -4.695 L
S
GR
GS
[1.05417 0 0 1.05442 1219.49864 314.64496] CT
1 0 0 RC
N
f68728590
f
GR
GS
[1.05417 0 0 1.05442 1219.49864 314.64496] CT
1 0 0 RC
10.0 ML
N
0 -7 M
0 7 L
-7 0 M
7 0 L
-4.695 -4.695 M
4.695 4.695 L
-4.695 4.695 M
4.695 -4.695 L
S
GR
GS
[1.05417 0 0 1.05442 1257.43444 318.46767] CT
1 0 0 RC
N
f68728590
f
GR
GS
[1.05417 0 0 1.05442 1257.43444 318.46767] CT
1 0 0 RC
10.0 ML
N
0 -7 M
0 7 L
-7 0 M
7 0 L
-4.695 -4.695 M
4.695 4.695 L
-4.695 4.695 M
4.695 -4.695 L
S
GR
GS
[1.05417 0 0 1.05442 1295.37038 280.24061] CT
1 0 0 RC
N
f68728590
f
GR
GS
[1.05417 0 0 1.05442 1295.37038 280.24061] CT
1 0 0 RC
10.0 ML
N
0 -7 M
0 7 L
-7 0 M
7 0 L
-4.695 -4.695 M
4.695 4.695 L
-4.695 4.695 M
4.695 -4.695 L
S
GR
GS
[1.05417 0 0 1.05442 250.89312 90.93048] CT
/Helvetica 30.356 F
GS
[1 0 0 1 0 0] CT
0 10 moveto 
1 -1 scale
( Dijkstra + Graph Coloring) t 
GR
GR
GS
[1.05417 0 0 1.05442 0 0.25] CT
1 0 1 RC
[10 6] 0 setdash
2 LJ
1.897 LW
N
195 86 M
235 86 L
S
GR
GS
[1.05417 0 0 1.05442 226.64714 90.93048] CT
1 0 1 RC
10.0 ML
1.897 LW
N
-5.751 -3.32 M
-1.917 -3.32 L
0 -6.64 L
1.917 -3.32 L
5.751 -3.32 L
3.32 0 L
5.751 3.32 L
1.917 3.32 L
0 6.64 L
-1.917 3.32 L
-5.751 3.32 L
-3.32 0 L
cp
S
GR
GS
[1.05417 0 0 1.05442 250.89312 129.41696] CT
/Helvetica 30.356 F
GS
[1 0 0 1 0 0] CT
0 10 moveto 
1 -1 scale
( Dijkstra + First-Fit) t 
GR
GR
GS
[1.05417 0 0 1.05442 0 0.25] CT
[10 6] 0 setdash
2 LJ
1.897 LW
N
195 122.5 M
235 122.5 L
S
GR
GS
[1.05417 0 0 1.05442 226.64714 129.41696] CT
N
f-18803871
f
GR
GS
[1.05417 0 0 1.05442 226.64714 129.41696] CT
10.0 ML
1.897 LW
N
0 -10.116 M
-8.76 5.058 L
8.76 5.058 L
cp
S
GR
GS
[1.05417 0 0 1.05442 250.89312 167.90344] CT
/Helvetica 30.356 F
GS
[1 0 0 1 0 0] CT
0 10 moveto 
1 -1 scale
( Yen + Graph Coloring) t 
GR
GR
GS
[1.05417 0 0 1.05442 0 0.25] CT
0 0.502 0 RC
[10 6] 0 setdash
2 LJ
1.897 LW
N
195 159 M
235 159 L
S
GR
GS
[1.05417 0 0 1.05442 226.64714 167.90344] CT
1 GC
N
f-719462112
f
GR
GS
[1.05417 0 0 1.05442 226.64714 167.90344] CT
0 0.502 0 RC
10.0 ML
1.897 LW
N
-5 -5 M
-5 5 L
5 5 L
5 -5 L
cp
S
GR
GS
[1.05417 0 0 1.05442 250.89312 206.38992] CT
/Helvetica 30.356 F
GS
[1 0 0 1 0 0] CT
0 10 moveto 
1 -1 scale
( Yen + First-Fit) t 
GR
GR
GS
[1.05417 0 0 1.05442 0 0.25] CT
1 0 0 RC
[10 6] 0 setdash
2 LJ
0.949 LW
N
195 195.5 M
235 195.5 L
S
GR
GS
[1.05417 0 0 1.05442 226.64714 206.38992] CT
1 0 0 RC
N
f68728590
f
GR
GS
[1.05417 0 0 1.05442 226.64714 206.38992] CT
1 0 0 RC
10.0 ML
N
0 -7 M
0 7 L
-7 0 M
7 0 L
-4.695 -4.695 M
4.695 4.695 L
-4.695 4.695 M
4.695 -4.695 L
S
GR
GS
[1.05417 0 0 1.05442 250.89312 244.8764] CT
/Helvetica 30.356 F
GS
[1 0 0 1 0 0] CT
0 10 moveto 
1 -1 scale
( Genetic Algorithm) t 
GR
GR
GS
[1.05417 0 0 1.05442 0 0.25] CT
0 0.4 0.988 RC
[10 6] 0 setdash
2 LJ
1.897 LW
N
195 232 M
235 232 L
S
GR
GS
[1.05417 0 0 1.05442 226.64714 244.8764] CT
0 0.4 0.988 RC
10.0 ML
1.897 LW
N
6.14 -0.5 M
6.14 -4.167 3.167 -7.14 -0.5 -7.14 C
-4.167 -7.14 -7.14 -4.167 -7.14 -0.5 C
-7.14 3.167 -4.167 6.14 -0.5 6.14 C
3.167 6.14 6.14 3.167 6.14 -0.5 C
S
GR
%%Trailer
%%Pages: 1
%%EOF
